SMILES	MOL_WEIGHT	LOGP	#ROTATABLE_BONDS	#ACCEPTORS	#DONORS	SURFACE_AREA	Water solubility	Caco2 permeability	Intestinal absorption (human)	Skin Permeability	P-glycoprotein substrate	P-glycoprotein I inhibitor	P-glycoprotein II inhibitor	VDss (human)	Fraction unbound (human)	BBB permeability	CNS permeability	CYP2D6 substrate	CYP3A4 substrate	CYP1A2 inhibitior	CYP2C19 inhibitior	CYP2C9 inhibitior	CYP2D6 inhibitior	CYP3A4 inhibitior	Total Clearance	Renal OCT2 substrate	AMES toxicity	Max. tolerated dose (human)	hERG I inhibitor	hERG II inhibitor	Oral Rat Acute Toxicity (LD50)	Oral Rat Chronic Toxicity (LOAEL)	Hepatotoxicity	Skin Sensitisation	<i>T.Pyriformis</i> toxicity	Minnow toxicity
o1c2c(c3[nH]c4c(c3cc2)cccc4)cc1	207.232	4.0673	0	1	1	91.480	-4.029	1.391	93.034	-2.779	Yes	No	No	0.153	0.167	0.127	-0.952	Yes	Yes	Yes	Yes	No	No	No	0.536	No	Yes	0.363	No	No	2.396	2.353	No	No	0.602	-0.387
c12c3c(ccc1cccc2)cccc3	178.234	3.993	0	0	0	82.795	-5.588	1.521	95.733	-2.319	Yes	No	No	0.592	0.081	0.523	-1.189	No	Yes	Yes	Yes	Yes	No	No	0.157	No	Yes	0.522	No	No	2.081	1.306	No	Yes	1.284	-0.33
c12c(cc3c(c1)cccc3)cccc2	178.234	3.993	0	0	0	82.795	-5.565	1.525	95.506	-2.307	Yes	No	No	0.577	0.074	0.517	-1.18	No	Yes	Yes	Yes	Yes	No	No	0.132	No	Yes	0.535	No	No	1.756	1.304	No	Yes	1.36	-0.273
c1(C2OCC3C(c4cc5OCOc5cc4)OCC23)cc2OCOc2cc1	354.358	3.2192	2	6	0	150.066	-3.831	1.704	98.984	-2.74	No	Yes	No	-0.369	0.095	0.066	-2.9	No	Yes	Yes	Yes	Yes	Yes	Yes	-0.044	No	Yes	0.596	No	No	3	1.779	No	No	0.292	-0.676
[C@H]1(c2cc3OCOc3cc2)OC[C@H]2[C@@H](c3cc4OCOc4cc3)OC[C@@H]12	354.358	3.2192	2	6	0	150.066	-4.173	1.201	98.439	-2.751	No	Yes	No	-0.052	0.074	0.18	-2.769	No	Yes	Yes	Yes	Yes	Yes	Yes	-0.074	No	Yes	0.325	No	No	2.931	1.427	No	No	0.314	-1.237
[C@H]1(c2cc3OCOc3cc2)OC[C@@H]2[C@@H](c3cc4OCOc4cc3)OC[C@H]12	354.358	3.2192	2	6	0	150.066	-4.173	1.201	98.439	-2.751	No	Yes	No	-0.052	0.074	0.18	-2.769	No	Yes	Yes	Yes	Yes	Yes	Yes	-0.074	No	Yes	0.325	No	No	2.931	1.427	No	No	0.314	-1.237
[C@@H]1(c2cc3OCOc3cc2)OCC2[C@@H](c3cc4OCOc4cc3)OCC12	354.358	3.2192	2	6	0	150.066	-4.173	1.201	98.439	-2.751	No	Yes	No	-0.052	0.074	0.18	-2.769	No	Yes	Yes	Yes	Yes	Yes	Yes	-0.074	No	Yes	0.325	No	No	2.931	1.427	No	No	0.314	-1.237
S(=O)(=O)(O)CN(C)C=1C(=O)N(N(C)C=1C)c1ccccc1	311.363	0.76592	4	6	1	122.315	-2.396	1.276	78.014	-2.735	No	No	No	-1.043	0.365	-0.778	-3.122	No	No	No	No	No	No	No	0.314	No	Yes	0.891	No	No	2.055	1.105	Yes	No	0.242	0.609
Oc1ccc(CC/C=C/CCCCCC)cc1	232.367	4.8514	8	1	1	105.185	-5.773	1.531	90.569	-2.149	No	No	No	0.84	0.015	0.624	-1.39	No	Yes	Yes	Yes	No	No	No	1.653	No	No	0.668	No	Yes	1.809	1.192	No	Yes	2.321	-1.043
Oc1ccc(-c2c(C)c3c(o2)ccc(/C=C/C)c3)cc1	264.324	5.14692	2	2	1	117.529	-5.441	1.478	92.234	-2.401	Yes	No	No	0.55	0.081	0.231	-1.486	No	Yes	Yes	Yes	Yes	No	No	0.44	No	Yes	0.402	No	Yes	2.117	0.863	No	No	1.355	-0.785
Oc1c(O)ccc(O)c1	126.111	0.8034	0	3	3	51.814	-1.258	1.105	70.638	-2.936	No	No	No	-0.047	0.544	-0.372	-2.931	No	No	No	No	No	No	No	0.566	No	No	0.532	No	No	1.943	2.237	No	No	0.098	2.196
Oc1c(O)ccc(CC/C=C/CCCCCC)c1	248.366	4.557	8	2	2	109.980	-4.661	1.301	88.776	-2.609	Yes	No	No	0.511	0.099	-0.187	-1.068	No	No	Yes	Yes	No	No	No	1.463	No	No	0.067	No	No	2.268	2.912	No	Yes	2.244	-0.587
Oc1c(O)ccc(C(CCCC(CCCC(C)C)C)(CC)C)c1	320.517	6.3982	10	2	2	142.494	-6.054	1.321	87.952	-2.704	Yes	No	Yes	0.529	0.012	-0.312	-0.936	No	Yes	Yes	Yes	No	No	No	1.24	No	No	-0.475	No	No	2.643	3.022	No	Yes	1.404	-1.473
Oc1c(O)ccc(C(C=C)(CC/C=C(/CC/C=C(\C)/C)\C)C)c1	314.469	6.0144	8	2	2	140.425	-5.72	1.333	89.244	-2.691	Yes	Yes	Yes	0.616	0.006	-0.231	-1.099	No	Yes	Yes	Yes	No	No	Yes	1.438	No	No	-0.327	No	No	2.604	2.798	No	Yes	1.812	-1.35
Oc1c(CCCc2cc3OCOc3cc2)ccc(O)c1	272.3	3.0018	4	4	2	116.758	-3.875	1.255	91.868	-2.842	Yes	No	No	0.136	0.052	-0.036	-2.316	No	Yes	Yes	Yes	Yes	No	Yes	0.121	No	Yes	0.322	No	Yes	2.16	1.859	No	No	1.034	-0.195
Oc1c(CCC)cccc1	136.194	2.3447	2	1	1	61.320	-2.229	1.549	93.019	-1.361	No	No	No	0.388	0.327	0.317	-1.808	No	No	Yes	No	No	No	No	0.267	No	No	0.977	No	No	1.796	2.097	No	Yes	0.278	1.465
Oc1c(C)ccc(C(C)C)c1	150.221	2.82402	1	1	1	67.685	-2.976	1.442	92.817	-1.329	No	No	No	0.563	0.257	0.283	-1.705	No	No	Yes	No	No	No	No	0.219	No	No	0.951	No	No	1.669	2.264	Yes	Yes	0.679	0.684
Oc1c(C(C)C)ccc(C)c1	150.221	2.82402	1	1	1	67.685	-3.076	1.442	93.234	-1.314	No	No	No	0.541	0.263	0.293	-1.667	No	No	Yes	No	No	No	No	0.223	No	No	0.845	No	No	1.718	2.251	Yes	Yes	0.819	0.716
O[C@]1(C)[C@H]2C(C)(CCC(C(=C)C)C2)CCC1	222.372	3.92	1	1	1	99.941	-4.387	1.52	93.463	-1.894	No	No	No	0.485	0.28	0.599	-2.329	No	No	No	Yes	Yes	No	No	1.073	No	No	0.383	No	No	1.732	1.295	No	Yes	1.511	0.761
O[C@]1(C)C2[C@@H]3C(C)(C)[C@@H]3CCC(=C)C2CC1	220.356	3.3858	0	1	1	98.936	-3.861	1.509	95.246	-2.31	No	No	No	0.563	0.335	0.62	-2.576	No	No	Yes	Yes	Yes	No	No	0.895	No	No	0.379	No	No	1.722	1.241	No	Yes	1.076	1.002
O[C@@]12OCC(C)=C1CC1C(=C)CC=C[C@]1(O)C2	234.295	1.6789	0	3	2	101.099	-2.298	1.203	94.277	-3.716	No	No	No	0.191	0.532	0.263	-2.926	No	No	No	No	No	No	No	0.167	No	No	0.54	No	No	1.82	2.386	No	Yes	0.433	2.048
O[C@@]1(C)[C@@H]2[C@H]([C@H](C(C)C)CC1)C=C(C)CC2	222.372	3.7759	1	1	1	99.941	-4.33	1.502	93.112	-1.89	No	No	No	0.478	0.289	0.596	-2.309	No	No	No	Yes	Yes	No	No	1.085	No	No	0.135	No	No	1.643	1.237	No	Yes	1.515	0.885
O[C@@]1(C(C)C)CC=C(C)CC1	154.253	2.5037	1	1	1	69.123	-2.345	1.495	93.573	-2.111	No	No	No	0.217	0.51	0.562	-2.453	No	No	No	No	No	No	No	1.269	No	No	0.79	No	No	1.791	1.996	No	Yes	0.135	1.602
O[C@@H]1[C@@H]2[C@H](C(C)CCCC3C(C)(C)C23)CC1	222.372	3.4657	0	1	1	99.625	-3.966	1.498	95.135	-2.271	No	No	No	0.579	0.331	0.61	-2.556	No	No	No	Yes	Yes	No	No	0.907	No	No	0.212	No	No	1.698	1.217	No	Yes	1.112	0.956
O[C@@H]1[C@@H](c2cc(O)c(O)cc2)Oc2c(ccc(O)c2)C1	274.272	1.8405	1	5	4	114.868	-2.87	1.174	90.297	-2.826	Yes	No	No	0.133	0.188	-0.903	-2.478	No	No	Yes	No	No	No	No	0.134	No	No	0.259	No	No	1.885	1.573	No	No	0.565	1.526
O[C@@H]1CC=2[C@@](C)([C@@H]3[C@H]([C@H]4[C@@](C)([C@@H]([C@@H](CC[C@H](C(C)C)CC)C)CC4)CC3)CC=2)CC1	414.718	8.0248	6	1	1	187.039	-6.83	1.21	94.426	-2.79	No	No	Yes	0.218	0	0.805	-1.764	No	Yes	No	No	No	No	No	0.628	No	No	-0.493	No	Yes	2.342	0.82	No	No	0.444	-2.023
O[C@@H]1CC=2[C@@](C)([C@@H]3[C@H]([C@H]4[C@@](C)([C@@H]([C@@H](CC[C@H](C(C)C)C)C)CC4)CC3)CC=2)CC1	400.691	7.6347	5	1	1	180.674	-6.844	1.215	94.977	-2.814	No	No	Yes	0.303	0	0.783	-1.815	No	Yes	No	No	No	No	No	0.572	No	No	-0.52	No	Yes	2.27	0.86	No	No	0.521	-1.813
O[C@@H]1CC=2[C@@](C)([C@@H]3[C@H]([C@H]4[C@@](C)([C@@H]([C@@H](/C=C/[C@H](C(C)C)CC)C)CC4)CC3)CC=2)CC1	412.702	7.8008	5	1	1	186.349	-6.74	1.222	94.933	-2.79	No	No	Yes	0.203	0	0.795	-1.711	No	Yes	No	No	No	No	No	0.618	No	No	-0.538	No	Yes	2.329	0.836	No	No	0.448	-1.895
O[C@@H]1CC=2[C@@](C)([C@@H]3[C@H]([C@H]4[C@@](C)(C([C@@H](CC[C@@H](C(C)C)C)C)CC4)CC3)CC=2)CC1	400.691	7.6347	5	1	1	180.674	-6.844	1.215	94.977	-2.814	No	No	Yes	0.303	0	0.783	-1.815	No	Yes	No	No	No	No	No	0.572	No	No	-0.52	No	Yes	2.27	0.86	No	No	0.521	-1.813
O[C@@H]1CC=2[C@@](C)([C@@H]3[C@H]([C@H]4[C@@](C)(C([C@@H](CCCC(C)C)C)CC4)CC3)CC=2)CC1	386.664	7.3887	5	1	1	174.309	-6.769	1.216	95.037	-2.812	No	No	Yes	0.304	0	0.787	-1.769	No	Yes	No	No	No	No	No	0.589	No	No	-0.516	No	Yes	2.265	0.919	No	No	0.541	-1.732
O[C@@H]1C(C)(C)[C@H]2[C@@](C)([C@@H]3[C@](C)([C@@]4(C)[C@@H]([C@H]5[C@H](C(=C)C)CC[C@]5(C)CC4)CC3)CC2)CC1	426.729	8.0248	1	1	1	192.398	-6.225	1.283	99.599	-2.773	No	Yes	Yes	0.142	0	0.765	-1.814	No	Yes	No	No	No	No	No	0.153	No	No	0.07	No	Yes	2.504	0.989	No	No	0.337	-2.237
O[C@@H](c1c2c(ncc1)cccc2)[C@]1(C)N2CCC(C=C)(C1)CC2	308.425	3.6988	3	3	1	137.200	-2.558	1.395	90.802	-2.884	Yes	No	No	1.743	0.321	0.323	-2.882	Yes	Yes	Yes	No	No	Yes	No	1.17	Yes	No	-0.338	No	Yes	3.213	1.325	Yes	No	0.41	-0.444
OCCc1ccc(O)cc1	138.166	0.927	2	2	2	59.750	-0.701	1.366	75.128	-2.453	No	No	No	0.046	0.505	-0.163	-2.036	No	No	No	No	No	No	No	0.311	No	No	0.902	No	No	1.777	2.802	No	Yes	-0.308	1.944
OCCCCCCCCCCCCCCCCCCCCCCCCCCCCCC	438.825	10.9214	28	1	1	198.117	-6.271	1.071	84.993	-2.738	No	No	Yes	-0.101	0.107	1.063	-0.973	No	Yes	No	No	No	No	No	2.199	No	No	-0.363	No	Yes	1.914	0.709	No	Yes	0.29	-4.301
OCCCCCCCCCCCCCCCC	242.447	5.46	14	1	1	109.008	-6.889	1.464	89.803	-2.461	No	No	No	0.476	0.108	0.798	-1.737	No	Yes	Yes	No	No	No	No	1.872	No	No	0.029	No	No	1.574	1.139	No	Yes	2.056	-0.929
OCCC(CCC=C(C)C)C	156.269	2.7513	5	1	1	70.128	-2.985	1.483	92.61	-1.496	No	No	No	0.198	0.446	0.623	-2.212	No	No	No	No	No	No	No	0.482	No	No	0.632	No	No	1.649	2.017	No	Yes	0.69	1.122
OCC12C(C(C(=C)C)CC1)C1C(C3(C)C(C4(C)C(C(C)(C)C(O)CC4)=CC3)CC1)C(C)C2	440.712	6.7732	2	2	2	196.503	-5.879	1.238	95.512	-2.861	No	Yes	Yes	0.005	0	-0.281	-2.055	No	Yes	No	No	No	No	No	0.216	No	No	-0.644	No	Yes	2.903	2.106	No	No	0.361	-1.055
OCC12C(C(C(=C)C)CC1)C1C(C)(C3(C)C(C4(C)C(C(C)(C)[C@H](O)CC4)CC3)CC1)CC2	442.728	6.9972	2	2	2	197.192	-5.685	1.242	97.921	-2.742	No	Yes	Yes	-0.312	0	-0.417	-1.723	No	Yes	No	No	No	No	No	0.236	No	No	-0.521	No	Yes	3.272	2.23	Yes	No	0.319	-1.59
OC1[C@@H](Cc2cc3OCOc3cc2)[C@H](Cc2cc3OCOc3cc2)CO1	356.374	2.5102	4	6	1	150.753	-4.165	1.244	96.866	-2.734	No	Yes	No	-0.265	0.039	-0.394	-3.074	No	Yes	Yes	Yes	No	No	Yes	-0.023	No	Yes	0.113	No	No	2.922	1.562	No	No	0.348	-0.507
OC1CC=2[C@@](C)([C@@H]3C([C@H]4[C@@](C)([C@@H]([C@H](CC[C@H](C(C)C)CC)C)CC4)CC3)CC=2)CC1	414.718	8.0248	6	1	1	187.039	-6.83	1.21	94.426	-2.79	No	No	Yes	0.218	0	0.805	-1.764	No	Yes	No	No	No	No	No	0.628	No	No	-0.493	No	Yes	2.342	0.82	No	No	0.444	-2.023
OC1CC=2[C@@](C)(C3C(C4[C@@](C)(C5C(C)C6N(C5C4)CC(C)C4C6OC(C)C4)CC3)CC=2)CC1	453.711	5.6684	0	3	1	201.260	-5.103	1.2	92.816	-3.317	No	Yes	No	0.663	0.067	0.273	-2.805	No	Yes	No	No	No	No	No	-0.126	Yes	No	-0.235	No	Yes	2.379	1.25	Yes	No	0.315	-0.235
OC1CC=2C(C)(C3C(C4C(C)(C(C(CCC(C(C)C)CC)C)CC4)CC3)CC=2)CC1	414.718	8.0248	6	1	1	187.039	-6.83	1.21	94.426	-2.79	No	No	Yes	0.218	0	0.805	-1.764	No	Yes	No	No	No	No	No	0.628	No	No	-0.493	No	Yes	2.342	0.82	No	No	0.444	-2.023
OC1CC=2C(C)(C3C(C4C(C)(C(C(CCC(C(C)C)C)C)CC4)CC3)CC=2)CC1	400.691	7.6347	5	1	1	180.674	-6.844	1.215	94.977	-2.814	No	No	Yes	0.303	0	0.783	-1.815	No	Yes	No	No	No	No	No	0.572	No	No	-0.52	No	Yes	2.27	0.86	No	No	0.521	-1.813
OC1CC=2C(C)(C3C(C4C(C)(C(C(/C=C/C(C(C)C)CC)C)CC4)CC3)CC=2)CC1	412.702	7.8008	5	1	1	186.349	-6.74	1.222	94.933	-2.79	No	No	Yes	0.203	0	0.795	-1.711	No	Yes	No	No	No	No	No	0.618	No	No	-0.538	No	Yes	2.329	0.836	No	No	0.448	-1.895
OC1C(C)=C2[C@@](C3[C@@]4(C)C=CCC(=C)C4CC4=C(C)C(O)OC34)(O1)C[C@@]1(C)C=CCC(=C)C1C2	462.63	5.5149	1	4	2	202.966	-5.834	1.169	94.314	-3.643	No	Yes	Yes	0.461	0	0.39	-2.816	No	Yes	No	No	No	No	No	0.283	Yes	No	-0.415	No	No	2.168	1.409	No	No	0.344	-0.362
OC1C(C)(C)C=2C(C)(C3C(C)(C4(C)C(C5C(C)(CC4)CCC5C(=C)C)CC3)CC=2)CC1	424.713	7.9449	1	1	1	191.708	-6.756	1.268	96.791	-2.887	No	Yes	Yes	0.423	0	0.744	-1.994	No	Yes	No	No	No	No	No	0.157	No	No	0.05	No	Yes	2.173	0.883	No	No	0.428	-1.832
OC1C(C(C)C)CCC2(C)C(O)CCC(=C)C12	238.371	2.7467	1	2	2	104.736	-2.955	1.575	93.317	-2.622	No	No	No	0.193	0.346	0.151	-2.478	No	No	No	No	No	No	No	1.155	No	No	0.356	No	No	1.85	2.017	No	Yes	1.19	1.238
OC1(c2cc3OCOc3cc2)C(C)C(C)Cc2c1c1OCOc1cc2	340.375	3.2082	1	5	1	145.639	-4.084	1.332	97.115	-2.729	No	Yes	No	-0.059	0.079	-0.17	-2.078	No	Yes	Yes	Yes	Yes	No	No	-0.071	No	Yes	0.04	No	No	3.124	1.441	No	No	0.375	-0.297
OC1(C)C2C(C(C(C)C)CC1)C=C(C)CC2	222.372	3.7759	1	1	1	99.941	-4.33	1.502	93.112	-1.89	No	No	No	0.478	0.289	0.596	-2.309	No	No	No	Yes	Yes	No	No	1.085	No	No	0.135	No	No	1.643	1.237	No	Yes	1.515	0.885
OC/C=C/c1cc2OCOc2cc1	178.187	1.4208	2	3	1	76.217	-2.282	1.288	95.066	-2.631	No	No	No	0.029	0.344	-0.049	-2.148	No	No	Yes	No	No	No	No	0.135	No	No	0.867	No	No	1.924	2.632	No	Yes	0.697	1.35
OC/C=C(\CC/C=C(\C)/C)/C	154.253	2.6714	4	1	1	69.439	-2.866	1.49	92.788	-1.511	No	No	No	0.17	0.447	0.606	-2.159	No	No	No	No	No	No	No	0.437	No	No	0.65	No	No	1.636	2.03	No	Yes	0.595	1.213
OC/C=C(/CCC=C(C)C)\C	154.253	2.6714	4	1	1	69.439	-2.866	1.49	92.788	-1.511	No	No	No	0.17	0.447	0.606	-2.159	No	No	No	No	No	No	No	0.437	No	No	0.65	No	No	1.636	2.03	No	Yes	0.595	1.213
OC/C=C(/CC/C=C(/CC/C=C(\C)/C)\C)\C	222.372	4.3979	7	1	1	100.574	-5.393	1.495	91.531	-1.514	No	No	No	0.36	0.206	0.66	-1.933	No	No	No	No	No	No	No	1.754	No	No	0.096	No	No	1.558	1.208	No	Yes	2.328	0.1
OC/C=C(/CC/C(=C(/C)\C)/C)\C	168.28	3.0615	4	1	1	75.804	-3.241	1.492	92.399	-1.477	No	No	No	0.195	0.418	0.595	-2.205	No	No	No	No	No	No	No	0.452	No	No	0.594	No	No	1.655	2.107	No	Yes	0.872	1.096
OC(CO)CC(O)CCCCCCCCCCCCCCC	316.526	4.5719	17	3	3	137.691	-3.768	1.662	88.144	-2.624	Yes	No	No	-0.254	0.227	-0.487	-3.029	No	No	No	No	No	No	No	2.004	No	No	-1.585	No	No	3.469	2.742	No	Yes	1.024	1.036
OC(CO)CC(O)CCCCCCCCCCCC=C	286.456	3.5677	15	3	3	124.271	-3.12	1.619	89.307	-2.642	Yes	No	No	-0.233	0.284	-0.404	-3.059	No	No	No	No	No	No	No	2.027	No	No	-1.257	No	No	2.991	2.539	No	Yes	1.194	1.489
OC(CO)CC(O)CCCCCCCCCCCC#C	284.44	3.0149	14	3	3	123.960	-2.962	1.598	90.583	-2.662	Yes	No	No	-0.271	0.298	-0.381	-3.075	No	No	No	No	No	No	No	1.968	No	No	-1.302	No	No	2.946	2.393	No	Yes	1.211	1.686
OC(CO)(C)C1CC2C(=C)CCCC2(C)CC1	238.371	2.8924	2	2	2	104.736	-3.252	1.452	93.954	-2.737	Yes	No	No	0.029	0.192	0.015	-1.511	No	Yes	No	No	No	No	No	1.119	No	No	0.046	No	No	2.366	2.103	No	Yes	1.29	0.913
OC(C=C)(CC/C=C(\C)/C)C	154.253	2.6698	4	1	1	69.439	-2.64	1.492	92.943	-1.7	No	No	No	0.155	0.48	0.6	-2.329	No	No	No	No	No	No	No	0.446	No	No	0.771	No	No	1.713	2.017	No	Yes	0.496	1.306
OC(C=C)(CC/C=C(/CCC=C(C)C)\C)C	222.372	4.3963	7	1	1	100.574	-5.2	1.498	91.673	-1.477	No	No	No	0.37	0.231	0.655	-2.09	No	No	No	No	No	No	No	1.739	No	No	0.245	No	No	1.597	1.178	No	Yes	2.285	0.185
OC(C=C)(CC/C=C(/CCC1C(C)(C)O1)\C)C	238.371	3.6075	7	2	1	105.371	-3.858	1.595	92.828	-4.056	No	No	No	0.294	0.326	0.116	-2.602	No	No	No	Yes	No	No	No	1.426	No	Yes	0.178	No	No	1.57	2.26	No	Yes	1.819	0.638
OC(C=C)(CC/C=C(/CC/C=C(\C)/C)\C)C	222.372	4.3963	7	1	1	100.574	-5.2	1.498	91.673	-1.477	No	No	No	0.37	0.231	0.655	-2.09	No	No	No	No	No	No	No	1.739	No	No	0.245	No	No	1.597	1.178	No	Yes	2.285	0.185
OC(C)(C)C1CC=C(C)CC1	154.253	2.5037	1	1	1	69.123	-2.039	1.49	94.183	-2.418	Yes	No	No	0.207	0.567	0.301	-2.807	No	No	No	No	No	No	No	1.219	No	No	0.882	No	No	1.923	1.962	No	Yes	0.008	1.8
OC(C(O)c1cc2c(C)c(-c3ccc(O)cc3)oc2cc1)C	298.338	3.52802	3	4	3	127.807	-3.446	0.837	89.198	-2.789	Yes	No	No	0.26	0.205	-0.769	-2.079	No	No	Yes	Yes	Yes	No	Yes	0.477	No	Yes	0.374	No	Yes	2.436	1.284	No	No	0.538	0.748
OC(C(O)CO)C(O)CO	152.146	-2.9463	4	5	5	58.170	0.139	-0.609	33.159	-3.416	No	No	No	-0.661	0.917	-1.11	-4.421	No	No	No	No	No	No	No	0.855	No	No	2.266	No	No	1.065	3.324	No	No	0.23	4.232
OC(C(C(Cc1cc2OCOc2cc1)C)C)c1cc2OCOc2cc1	342.391	3.6923	5	5	1	146.645	-4.496	1.344	95.168	-2.727	No	Yes	No	-0.022	0.036	0.099	-2.295	No	Yes	Yes	Yes	Yes	No	Yes	-0.028	No	Yes	0.436	No	No	2.825	1.891	No	No	0.477	-1.322
OC(=C)CCCCCCC/C=C\C/C=C\CCCCC	278.48	6.8716	14	1	1	126.034	-7.739	1.483	88.346	-2.647	No	No	Yes	0.452	0.008	0.774	-1.571	No	Yes	Yes	No	No	No	No	1.994	No	No	-0.141	No	Yes	1.733	1.168	No	Yes	1.661	-1.461
O=[N+]([O-])c1cc(/C=C/C(=O)c2ccc(N)cc2)ccc1	268.272	3.0731	4	4	1	115.048	-4.354	0.963	93.62	-2.728	Yes	No	No	0.067	0.019	-0.203	-2.107	No	No	Yes	Yes	Yes	No	No	0.26	No	Yes	0.371	No	No	1.999	1.405	No	No	0.768	0.818
O=Cc1ccc(O)cc1	122.123	1.2047	1	2	1	52.752	-0.763	1.382	85.875	-2.135	No	No	No	-0.068	0.509	-0.204	-1.918	No	No	No	No	No	No	No	0.585	No	No	0.925	No	No	1.833	2.624	No	Yes	-0.297	1.868
O=Cc1cc(OC)c2OCOc2c1	180.159	1.2364	2	4	0	75.023	-2.328	1.233	92.153	-2.612	No	No	No	-0.116	0.431	-0.114	-2.323	No	No	Yes	No	No	No	No	0.513	No	No	1.172	No	No	2.111	2.716	No	Yes	0.364	1.184
O=Cc1cc(OC)c(OC(C(O)c2cc(OC)c(O)cc2)C)cc1	332.352	2.7228	7	6	2	139.769	-3.637	0.918	96.484	-2.742	Yes	Yes	No	0.107	0.163	-0.314	-2.932	No	No	No	Yes	Yes	No	Yes	0.256	No	No	0.842	No	No	2.453	2.365	No	No	0.332	-0.237
O=Cc1cc(OC)c(O)cc1	152.149	1.2133	2	3	1	64.231	-1.691	1.181	86.607	-2.365	No	No	No	-0.078	0.489	-0.198	-2.137	No	No	Yes	No	No	No	No	0.632	No	No	1.215	No	No	1.881	2.868	No	No	0.434	1.387
O=Cc1cc(OC)c(O)c(OC)c1	182.175	1.2219	3	4	1	75.709	-1.966	1.178	87.016	-2.807	No	No	No	-0.149	0.483	-0.198	-2.899	No	No	Yes	No	No	No	No	0.654	No	No	1.242	No	No	2.111	2.923	No	Yes	0.435	1.244
O=Cc1cc(O)c(O)cc1	138.122	0.9103	1	3	2	57.546	-1.246	1.121	79.796	-2.655	No	No	No	-0.153	0.468	-0.331	-3.254	No	No	No	No	No	No	No	0.583	No	No	0.946	No	No	1.867	2.268	No	No	0.831	1.602
O=Cc1c(OC)cc(OC)cc1O	182.175	1.2219	3	4	1	75.709	-2.152	1.159	90.234	-2.955	No	No	No	-0.001	0.577	-0.18	-2.906	No	No	Yes	No	No	No	No	0.719	No	No	0.858	No	No	1.607	2.211	No	No	0.338	1.275
O=Cc1c(OC)cc(C)c(C)c1	164.204	2.12454	2	2	0	72.166	-2.164	1.292	98.835	-2.138	No	No	No	0.136	0.42	0.253	-2.138	No	No	Yes	No	No	No	No	0.622	No	No	1.206	No	No	1.635	2.472	No	Yes	0.55	1.052
O=CNc1c(-c2c(O)c(OC)c(O)c(OC)c2)ccc2c1cc1OCOc1c2	383.356	3.2322	5	7	3	159.378	-3.687	0.694	79.053	-2.735	Yes	Yes	Yes	-0.174	0.087	-1.499	-3.346	No	Yes	No	No	Yes	No	No	0.175	No	No	0.633	No	Yes	2.61	1.789	Yes	No	0.288	-0.334
O=CN1CC2C=3N(C(=O)C=CC=3)CC(C1)C2	218.256	0.4238	1	3	0	93.487	-1.952	1.506	92.073	-2.951	No	No	No	0.05	0.537	-0.121	-3.138	No	No	No	No	No	No	No	0.509	No	No	0.4	No	No	2.222	2.168	Yes	No	0.547	2.043
O=CN1C2c3c(c4OCOc4cc3CC1)-c1c(cc(OC)c(OC)c1)C2	353.374	2.7112	3	5	0	150.766	-4.08	1.038	98.645	-3.021	Yes	Yes	No	0.291	0.074	-0.31	-2.346	No	Yes	Yes	Yes	No	No	No	0.321	No	Yes	-0.105	No	Yes	3.196	1.452	No	No	0.427	0.584
O=CCCCCCCCCC	156.269	3.326	8	1	0	70.185	-4.337	1.484	94.394	-1.319	No	No	No	0.299	0.346	0.705	-1.892	No	No	No	No	No	No	No	1.608	No	No	0.423	No	No	1.577	2.254	No	Yes	1.238	0.366
O=CCCCCCCCC	142.242	2.9359	7	1	0	63.820	-3.708	1.485	94.738	-1.304	No	No	No	0.242	0.403	0.686	-1.946	No	No	No	No	No	No	No	1.569	No	No	0.514	No	No	1.613	2.169	No	Yes	0.787	0.648
O=CCC(CC/C=C(\C)/C)C	154.253	2.9579	5	1	0	69.496	-3.495	1.498	95.139	-1.36	No	No	No	0.195	0.419	0.643	-2.039	No	No	No	No	No	No	No	0.476	No	No	0.526	No	No	1.614	2.12	No	Yes	0.78	0.854
O=C1c2c3c(oc2N(C)c2c1cccc2)cccc3	249.269	3.4379	0	3	0	108.227	-5.514	1.456	98.127	-2.562	Yes	No	Yes	0.13	0.263	0.441	-1.314	No	Yes	Yes	Yes	Yes	Yes	No	0.404	No	Yes	0.162	No	Yes	2.491	0.564	No	No	0.547	-0.466
O=C1c2c(OC(c3cc4OCOc4cc3)=C1)cc(O)cc2	282.251	2.8943	1	5	1	118.517	-3.319	1.043	95.629	-2.781	Yes	No	No	-0.049	0.223	-0.395	-2.042	No	No	Yes	Yes	Yes	No	Yes	0.502	No	No	0.313	No	Yes	2.14	1.432	No	No	0.433	-0.314
O=C1c2c(O)cccc2OC(C)C1	178.187	1.7459	0	3	1	75.955	-1.856	1.225	94.293	-2.276	No	No	No	0.024	0.425	0.323	-2.059	No	No	Yes	No	No	No	No	0.147	No	No	0.474	No	No	2.06	2.676	No	No	0.831	1.258
O=C1c2c(O)cc(O)cc2O[C@H](c2ccccc2)C1	256.257	2.8043	1	4	2	109.441	-3.142	0.972	92.938	-3.016	Yes	No	No	-0.268	0.186	0.324	-2.097	No	No	Yes	Yes	Yes	No	No	0.14	No	Yes	0.028	No	No	2.19	2.208	No	No	0.738	1.039
O=C1c2c(O)cc(O)cc2O[C@H](c2ccc(O)cc2)C1	272.256	2.5099	1	5	3	114.235	-3.037	0.915	90.582	-2.793	Yes	No	No	-0.122	0.203	-1.025	-2.283	No	No	Yes	Yes	Yes	No	No	0.098	No	Yes	0.03	No	No	2.161	1.36	No	No	0.551	1.425
O=C1c2c(O)cc(O)cc2O[C@@H](c2ccc(O)cc2)C1	272.256	2.5099	1	5	3	114.235	-3.037	0.915	90.582	-2.793	Yes	No	No	-0.122	0.203	-1.025	-2.283	No	No	Yes	Yes	Yes	No	No	0.098	No	Yes	0.03	No	No	2.161	1.36	No	No	0.551	1.425
O=C1c2c(O)cc(O)cc2OC(c2ccccc2)C1	256.257	2.8043	1	4	2	109.441	-3.142	0.972	92.938	-3.016	Yes	No	No	-0.268	0.186	0.324	-2.097	No	No	Yes	Yes	Yes	No	No	0.14	No	Yes	0.028	No	No	2.19	2.208	No	No	0.738	1.039
O=C1c2c(O)cc(O)cc2OC(c2ccccc2)=C1	254.241	2.8712	1	4	2	107.725	-3.066	0.936	94.253	-2.813	Yes	No	No	-0.252	0.202	0.104	-2.06	No	No	Yes	Yes	Yes	No	Yes	0.482	No	Yes	0.433	No	No	2.626	1.515	No	No	0.531	0.749
O=C1c2c(O)cc(O)cc2OC(c2ccc(O)cc2)C1	272.256	2.5099	1	5	3	114.235	-3.037	0.915	90.582	-2.793	Yes	No	No	-0.122	0.203	-1.025	-2.283	No	No	Yes	Yes	Yes	No	No	0.098	No	Yes	0.03	No	No	2.161	1.36	No	No	0.551	1.425
O=C1c2c(O)cc(O)cc2OC(c2cc(O)c(O)cc2)=C1	286.239	2.2824	1	6	4	117.313	-3.083	1.001	78.805	-2.735	Yes	No	No	0.102	0.156	-1.307	-2.514	No	No	Yes	No	No	No	Yes	0.66	No	No	0.839	No	No	2.235	2.052	No	No	0.361	0.87
O=C1c2c(O)c(C/C=C(\C)/C)c(O)cc2Oc2c(C/C=C(\C)/C)cccc12	364.441	5.3748	4	4	2	157.620	-4.681	0.885	94.069	-2.74	Yes	Yes	Yes	-0.03	0.08	0.5	-1.689	No	No	Yes	Yes	Yes	No	Yes	0.41	No	Yes	0.375	No	Yes	2.155	1.726	Yes	No	0.367	-1.799
O=C1c2c(O)c(C/C=C(\C)/C)c(O)c(C/C=C(\C)/C)c2Oc2c1c(O)c(C/C=C(\C)/C)cc2	448.559	6.5891	6	5	3	193.549	-3.295	0.65	96.28	-2.735	Yes	Yes	Yes	-0.08	0.135	-1.058	-1.634	No	Yes	No	Yes	Yes	No	No	0.212	No	No	0.609	No	Yes	2.16	0.64	Yes	No	0.289	-2.535
O=C1[C@]2(C)C(C)(C)[C@H](C1)CC2	152.237	2.4017	0	1	0	68.174	-2.811	1.514	98.259	-2.11	No	No	No	0.335	0.452	0.631	-2.208	No	No	No	No	No	No	No	0.109	No	No	0.685	No	No	1.747	1.981	No	Yes	0.325	1.162
O=C1[C@H](Cc2cc3OCOc3cc2)[C@@H](Cc2cc3OCOc3cc2)CO1	354.358	2.7184	4	6	0	150.120	-4.299	1.251	99.391	-2.726	No	Yes	No	-0.279	0.031	-0.357	-3.003	No	Yes	Yes	Yes	Yes	No	Yes	0.037	No	Yes	0.161	No	No	2.96	1.531	No	No	0.347	-0.775
O=C1[C@H](Cc2cc3OCOc3cc2)C(Cc2cc3OCOc3cc2)CO1	354.358	2.7184	4	6	0	150.120	-4.299	1.251	99.391	-2.726	No	Yes	No	-0.279	0.031	-0.357	-3.003	No	Yes	Yes	Yes	Yes	No	Yes	0.037	No	Yes	0.161	No	No	2.96	1.531	No	No	0.347	-0.775
O=C1[C@@H](O)[C@@H]2[C@H]([C@H](C)[C@@](CC=C)(C2O)C1)c1cc2OCOc2cc1	330.38	2.0219	3	5	2	140.446	-3.175	1.15	98.629	-2.851	Yes	Yes	No	-0.185	0.094	0.084	-2.572	No	Yes	No	No	No	No	No	0.169	No	No	-0.591	No	No	3.068	1.528	No	No	0.335	0.852
O=C1[C@@H](Cc2cc3OCOc3cc2)[C@H](Cc2cc3OCOc3cc2)CO1	354.358	2.7184	4	6	0	150.120	-4.299	1.251	99.391	-2.726	No	Yes	No	-0.279	0.031	-0.357	-3.003	No	Yes	Yes	Yes	Yes	No	Yes	0.037	No	Yes	0.161	No	No	2.96	1.531	No	No	0.347	-0.775
O=C1Oc2c3c(occ3)cc(C)c2C=C1	200.193	2.84762	0	3	0	84.920	-2.989	1.34	98.027	-2.253	Yes	No	No	-0.116	0.335	0.431	-1.7	No	No	Yes	Yes	No	Yes	Yes	0.701	No	No	-0.632	No	No	2.649	1.006	No	No	0.7	0.92
