Molecule,Canonical SMILES,Formula,MW,#Heavy atoms,#Aromatic heavy atoms,Fraction Csp3,#Rotatable bonds,#H-bond acceptors,#H-bond donors,MR,TPSA,iLOGP,XLOGP3,WLOGP,MLOGP,Silicos-IT Log P,Consensus Log P,ESOL Log S,ESOL Solubility (mg/ml),ESOL Solubility (mol/l),ESOL Class,Ali Log S,Ali Solubility (mg/ml),Ali Solubility (mol/l),Ali Class,Silicos-IT LogSw,Silicos-IT Solubility (mg/ml),Silicos-IT Solubility (mol/l),Silicos-IT class,GI absorption,BBB permeant,Pgp substrate,CYP1A2 inhibitor,CYP2C19 inhibitor,CYP2C9 inhibitor,CYP2D6 inhibitor,CYP3A4 inhibitor,log Kp (cm/s),Lipinski #violations,Ghose #violations,Veber #violations,Egan #violations,Muegge #violations,Bioavailability Score,PAINS #alerts,Brenk #alerts,Leadlikeness #violations,Synthetic Accessibility
Molecule 1,COC1C(OC2CCC3(C(C2)(O)CCC2C3CC(O)C3(C2(O)CCC3C2=CC(=O)OC2)C)C=O)OC(C(C1O)O)C,C30H44O11,580.66,41,0,0.87,5,11,5,143.27,172.21,2.77,-1.10,0.37,-0.26,0.78,0.51,-2.42,2.22e+00,3.83e-03,Soluble,-2.03,5.47e+00,9.42e-03,Soluble,-1.30,2.89e+01,4.98e-02,Soluble,Low,No,No,No,No,No,No,No,-10.62,2,3,1,1,2,0.17,0,2,1,7.08
Molecule 2,COc1c2oc(CO)cc(=O)c2c(c2c1occ2)OC,C14H12O6,276.24,20,13,0.21,3,6,1,71.37,82.04,2.47,1.01,1.90,-0.48,2.76,1.53,-2.47,9.32e-01,3.37e-03,Soluble,-2.32,1.32e+00,4.76e-03,Soluble,-4.58,7.18e-03,2.60e-05,Moderately soluble,High,No,No,Yes,No,No,No,Yes,-7.27,0,0,0,0,0,0.55,0,0,0,3.22
Molecule 3,CC(=O)CCC1C2C1(C)CC1C(C2)C(=C)C(=O)O1,C15H20O3,248.32,18,0,0.73,3,3,0,68.63,43.37,2.90,2.05,2.50,2.47,3.14,2.61,-2.47,8.35e-01,3.36e-03,Soluble,-2.59,6.39e-01,2.57e-03,Soluble,-2.99,2.54e-01,1.02e-03,Soluble,High,Yes,No,No,No,No,No,No,-6.36,0,0,0,0,0,0.55,0,1,1,3.84
Molecule 4,CC(=O)OC1CCN2C(C1)C1CC(C2)c2n(C1)c(=O)ccc2,C17H22N2O3,302.37,22,6,0.65,2,4,0,86.75,51.54,2.56,1.16,0.98,1.92,1.09,1.54,-2.52,9.23e-01,3.05e-03,Soluble,-1.84,4.40e+00,1.45e-02,Very soluble,-2.35,1.34e+00,4.42e-03,Soluble,High,Yes,No,No,No,No,Yes,No,-7.32,0,0,0,0,0,0.55,0,0,0,4.13
Molecule 5,COc1c(OC)cc2c(c1O)c(=O)c(c(o2)c1ccc(c(c1)O)O)OC1OC(C)C(C(C1O)O)O,C23H24O12,492.43,35,16,0.35,5,12,6,119.96,188.51,2.23,1.16,0.80,-1.89,0.63,0.59,-3.63,1.15e-01,2.33e-04,Soluble,-4.71,9.52e-03,1.93e-05,Moderately soluble,-2.87,6.66e-01,1.35e-03,Soluble,Low,No,Yes,No,No,No,No,Yes,-8.48,2,1,1,1,3,0.17,1,1,1,5.58
Molecule 6,O=CN1C=C(OC)c2c3C1Cc1ccc(cc1)Oc1cc(CC4c5c(c(c(c3)c(c2)OC)c(OC)cc5CCN4C)O)ccc1O,C37H36N2O7,620.69,46,24,0.27,4,8,2,182.85,100.93,4.35,5.37,4.95,2.91,4.72,4.46,-7.19,3.98e-05,6.41e-08,Poorly soluble,-7.24,3.55e-05,5.71e-08,Poorly soluble,-9.10,4.91e-07,7.91e-10,Poorly soluble,High,No,No,No,No,No,No,No,-6.27,1,3,0,0,2,0.55,1,1,2,7.24
Molecule 7,COc1cc(O)c2c(c1)oc(c(c2=O)O)c1ccccc1,C16H12O5,284.26,21,16,0.06,2,5,2,78.46,79.90,2.68,2.58,2.88,0.77,3.03,2.39,-3.66,6.22e-02,2.19e-04,Soluble,-3.91,3.53e-02,1.24e-04,Soluble,-5.10,2.25e-03,7.91e-06,Moderately soluble,High,No,No,Yes,No,No,Yes,Yes,-6.20,0,0,0,0,0,0.55,0,0,0,3.18
Molecule 8,COC1C=CC23C(C1)N(CC2)Cc1c3cc2OCOc2c1OC,C18H21NO4,315.36,23,6,0.56,2,5,0,88.35,40.16,3.36,2.22,1.69,1.83,2.31,2.28,-3.25,1.75e-01,5.56e-04,Soluble,-2.70,6.32e-01,2.00e-03,Soluble,-3.27,1.68e-01,5.33e-04,Soluble,High,Yes,No,No,No,No,Yes,No,-6.65,0,0,0,0,0,0.55,0,1,0,4.81
Molecule 9,C/C=C/C=C/C=C/CC/C=C/C=C/C(=O)NC(O)(C)C,C17H25NO2,275.39,20,0,0.35,9,2,2,85.66,49.33,4.01,3.56,3.41,3.09,3.73,3.56,-3.20,1.75e-01,6.37e-04,Soluble,-4.28,1.44e-02,5.23e-05,Moderately soluble,-1.77,4.63e+00,1.68e-02,Soluble,High,Yes,No,No,Yes,Yes,Yes,No,-5.45,0,0,0,0,0,0.55,0,3,2,3.66
Molecule 10,COC1=CC(=O)C2(C1O)CCC13C2(CCN1)CC(=O)C(=C3OC)OC,C18H23NO6,349.38,25,0,0.67,3,7,2,90.29,94.09,2.32,-1.14,0.06,-1.00,1.54,0.35,-1.09,2.84e+01,8.13e-02,Very soluble,-0.34,1.58e+02,4.53e-01,Very soluble,-3.09,2.82e-01,8.07e-04,Soluble,High,No,Yes,No,No,No,No,No,-9.24,0,0,0,0,0,0.56,0,0,0,5.55
Molecule 11,Oc1cc(/C=C/c2ccc(c(c2)CC(C(O)(C)C)O)O)cc(c1)O,C19H22O5,330.37,24,12,0.26,5,5,5,94.44,101.15,2.52,2.70,2.43,1.80,2.91,2.47,-3.63,7.76e-02,2.35e-04,Soluble,-4.48,1.10e-02,3.33e-05,Moderately soluble,-3.38,1.38e-01,4.18e-04,Soluble,High,No,Yes,Yes,No,Yes,Yes,Yes,-6.40,0,0,0,0,0,0.55,0,1,0,3.34
Molecule 12,OC1CC2C(C=C1C)C(C)(C)CCCC2(C)O,C15H26O2,238.37,17,0,0.87,0,2,2,71.62,40.46,2.65,2.38,2.89,2.74,2.49,2.63,-2.82,3.63e-01,1.52e-03,Soluble,-2.87,3.21e-01,1.35e-03,Soluble,-2.38,9.98e-01,4.19e-03,Soluble,High,Yes,No,No,No,No,No,No,-6.06,0,0,0,0,0,0.55,0,1,1,4.46
Molecule 13,COC1(C=C(CC=C)C(=O)C=C1OC)/C(=C/c1cc(OC)c(c(c1)OC)OC)/C,C23H28O6,400.46,29,6,0.35,9,6,0,112.57,63.22,4.33,3.96,4.01,1.40,4.80,3.70,-4.38,1.68e-02,4.20e-05,Moderately soluble,-4.99,4.12e-03,1.03e-05,Moderately soluble,-5.33,1.86e-03,4.66e-06,Moderately soluble,High,Yes,No,Yes,No,Yes,Yes,Yes,-5.93,0,0,0,0,0,0.56,0,1,3,4.45
Molecule 14,OC(=C(C)C)Cc1cc(ccc1O)C(=O)C,C13H16O3,220.26,16,6,0.31,3,3,2,63.95,57.53,1.96,2.61,2.99,1.62,2.54,2.34,-2.93,2.59e-01,1.18e-03,Soluble,-3.47,7.50e-02,3.41e-04,Soluble,-2.86,3.04e-01,1.38e-03,Soluble,High,Yes,No,Yes,No,No,No,Yes,-5.79,0,0,0,0,0,0.55,0,1,1,2.22
Molecule 15,OCC1(C)CCCC2(C1C=Cc1c2cc(c(c1)C(C)C)O)C,C20H28O2,300.44,22,6,0.60,2,2,2,93.11,40.46,3.34,5.09,4.49,3.90,4.48,4.26,-4.98,3.15e-03,1.05e-05,Moderately soluble,-5.68,6.24e-04,2.08e-06,Moderately soluble,-4.74,5.53e-03,1.84e-05,Moderately soluble,High,Yes,No,No,No,Yes,Yes,No,-4.52,0,0,0,0,1,0.55,0,0,1,4.24
Molecule 16,CC(=O)OCC1(C)C(CCC2(C1CCC1(C2CC=C2C1(C)CCC1(C2CC(CC1)(C)C)C(=O)O)C)C)OC1OCC(C(C1OC1OC(C)C(C(C1O)OC1OCC(C(C1O)O)OC(=O)C)O)O)O,C50H78O18,967.14,68,0,0.90,12,18,7,241.34,266.66,5.46,3.26,3.13,0.35,1.65,2.77,-7.10,7.72e-05,7.98e-08,Poorly soluble,-8.53,2.83e-06,2.92e-09,Poorly soluble,-2.66,2.10e+00,2.17e-03,Soluble,Low,No,Yes,No,No,No,No,No,-9.88,3,3,2,1,5,0.11,0,3,2,9.94
Molecule 17,COc1c2C=CC(Oc2c2c(c1/C=C/C(=C)C)oc(=O)cc2)(C)C,C20H20O4,324.37,24,10,0.25,3,4,0,97.14,48.67,3.70,4.85,4.36,3.08,5.04,4.21,-5.02,3.12e-03,9.62e-06,Moderately soluble,-5.61,8.03e-04,2.48e-06,Moderately soluble,-5.50,1.02e-03,3.13e-06,Moderately soluble,High,Yes,No,Yes,Yes,Yes,No,Yes,-4.84,0,0,0,0,0,0.55,0,2,1,3.95
Molecule 18,COc1cc(c(cc1OC)O)C(C(c1ccccc1)O)C,C17H20O4,288.34,21,12,0.29,5,4,2,81.68,58.92,2.73,2.94,2.92,2.23,3.22,2.81,-3.57,7.71e-02,2.67e-04,Soluble,-3.84,4.17e-02,1.45e-04,Soluble,-4.50,9.16e-03,3.18e-05,Moderately soluble,High,Yes,Yes,Yes,Yes,No,Yes,Yes,-5.97,0,0,0,0,0,0.55,0,0,0,3.21
Molecule 19,OCC1OC(Oc2cc(O)c3c(c2)oc(c(c3=O)OC2OC(COC3OCC(C(C3O)O)O)C(C(C2O)O)O)c2ccc(c(c2)O)O)C(C(C1O)O)O,C32H38O21,758.63,53,16,0.53,9,21,13,168.69,348.58,0.78,-2.57,-4.60,-6.12,-4.34,-3.37,-2.55,2.12e+00,2.79e-03,Soluble,-4.20,4.74e-02,6.24e-05,Moderately soluble,1.69,3.71e+04,4.89e+01,Soluble,Low,No,Yes,No,No,No,No,No,-12.75,3,4,1,1,5,0.17,1,1,2,7.52
Molecule 20,COc1cc2CCN(C3C(c2cc1O)OC(O)c1c3ccc2c1OCO2)C,C20H21NO6,371.38,27,12,0.40,1,7,2,99.66,80.62,3.09,1.66,1.07,1.45,1.77,1.81,-3.45,1.31e-01,3.54e-04,Soluble,-2.97,4.01e-01,1.08e-03,Soluble,-3.74,6.70e-02,1.80e-04,Soluble,High,No,Yes,Yes,No,No,Yes,No,-7.39,0,0,0,0,0,0.55,0,0,1,4.37
Molecule 21,C/C=C(/C(=O)OC1C2C(OC(=O)C2=C)C(O)C(C)CCCC2(C1O2)C)\C,C20H28O6,364.43,26,0,0.70,3,6,1,95.82,85.36,2.73,2.73,2.30,1.89,2.61,2.45,-3.62,8.71e-02,2.39e-04,Soluble,-4.18,2.43e-02,6.66e-05,Moderately soluble,-2.27,1.94e+00,5.33e-03,Soluble,High,No,No,No,No,No,No,No,-6.58,0,0,0,0,0,0.55,0,3,1,5.60
Molecule 22,C/C=C(/C(=O)OC(C(C(O)(C)C)O)c1cc2ccc(=O)oc2cc1OC)\C,C20H24O7,376.40,27,10,0.40,7,7,2,100.38,106.20,2.80,2.12,2.16,1.26,3.27,2.32,-3.32,1.80e-01,4.77e-04,Soluble,-3.98,3.93e-02,1.04e-04,Soluble,-4.00,3.73e-02,9.91e-05,Moderately soluble,High,No,Yes,No,No,No,No,No,-7.09,0,0,0,0,0,0.55,0,2,1,4.29
Molecule 23,COc1ccc(cc1O)CC1N(C)CCc2c1cc(OC)c(c2)OC,C20H25NO4,343.42,25,12,0.40,5,5,1,101.48,51.16,3.48,3.34,2.48,1.98,3.46,2.95,-4.10,2.74e-02,7.97e-05,Moderately soluble,-4.09,2.78e-02,8.10e-05,Moderately soluble,-5.42,1.32e-03,3.85e-06,Moderately soluble,High,Yes,No,No,No,No,Yes,Yes,-6.02,0,0,0,0,0,0.55,0,0,0,3.20
Molecule 24,CC(=CCCC(C1CCC2(C1(C)CCC1C2CCC2C1(C)CCC(C2C)O)C)C)C,C29H50O,414.71,30,0,0.93,4,1,1,132.97,20.23,4.96,9.74,8.02,6.73,6.89,7.27,-8.28,2.16e-06,5.21e-09,Poorly soluble,-10.08,3.42e-08,8.26e-11,Insoluble,-6.17,2.80e-04,6.76e-07,Poorly soluble,Low,No,No,No,No,No,No,No,-1.91,1,3,0,1,2,0.55,0,1,2,5.76
Molecule 25,OC1CCC2(C(C1)CCC1C2C(=O)C(O)C2(C1(O)CCC2c1ccc(=O)oc1)C)C,C24H32O6,416.51,30,6,0.75,1,6,3,111.22,107.97,3.04,1.73,2.39,1.86,2.78,2.36,-3.59,1.06e-01,2.55e-04,Soluble,-3.61,1.01e-01,2.43e-04,Soluble,-4.08,3.47e-02,8.34e-05,Moderately soluble,High,No,Yes,No,No,No,Yes,No,-7.61,0,0,0,0,0,0.55,0,0,1,5.65
Molecule 26,OCC1OC(OCC2OC(OC3CCC4(C(C3(C)CO)CCC3(C4C=CC4=C5CC(C)(CO)CCC5(C(CC34C)O)CO)C)C)C(C(C2OC2OC(C)C(C(C2O)O)O)O)O)C(C(C1O)O)O,C48H78O19,959.12,67,0,0.92,11,19,13,235.04,318.37,0.98,-1.02,-1.52,-2.93,-1.42,-1.18,-4.42,3.66e-02,3.82e-05,Moderately soluble,-5.18,6.36e-03,6.63e-06,Moderately soluble,0.35,2.16e+03,2.25e+00,Soluble,Low,No,Yes,No,No,No,No,No,-12.87,3,4,2,1,5,0.17,0,1,2,10.00
Molecule 27,OCC1OC(C(C(C1O)O)OC1OC(CO)C(C(C1O)O)O)c1c(O)cc(c2c1oc(cc2=O)c1ccc(cc1)O)O,C27H30O15,594.52,42,16,0.44,6,15,10,138.99,260.20,1.46,-1.39,-2.41,-4.10,-1.79,-1.65,-2.54,1.73e+00,2.91e-03,Soluble,-3.57,1.59e-01,2.67e-04,Soluble,-0.59,1.54e+02,2.59e-01,Soluble,Low,No,Yes,No,No,No,No,No,-10.91,3,4,1,1,3,0.17,0,0,1,6.47
Molecule 28,COc1c(OC)c(O)cc2c1ccc(=O)o2,C11H10O5,222.19,16,10,0.18,2,5,1,57.49,68.90,2.13,1.50,1.52,0.49,1.94,1.51,-2.49,7.14e-01,3.21e-03,Soluble,-2.55,6.20e-01,2.79e-03,Soluble,-3.30,1.12e-01,5.02e-04,Soluble,High,Yes,No,Yes,No,No,No,No,-6.59,0,0,0,0,0,0.55,0,1,1,2.87
Molecule 29,C/C=C(/C(=O)OC1c2cc(OC)c(c(c2c2c(CC(C1(C)O)C)cc(c(c2OC)OC)OC)OC)OC)\C,C29H38O9,530.61,38,12,0.48,9,9,1,143.92,101.91,4.09,4.69,4.57,1.87,5.24,4.09,-5.72,1.00e-03,1.89e-06,Moderately soluble,-6.56,1.47e-04,2.77e-07,Poorly soluble,-6.86,7.38e-05,1.39e-07,Poorly soluble,High,No,Yes,No,No,No,Yes,No,-6.21,1,3,0,0,0,0.55,0,1,3,5.48
Molecule 30,C/C(=C\CCC1C(=C)CCC2C1(C)CCCC2(C)C)/CC/C=C(/CCC=C(C)C)\C,C30H50,410.72,30,0,0.73,9,0,0,139.68,0.00,5.88,11.04,9.98,7.70,9.48,8.82,-8.75,7.34e-07,1.79e-09,Poorly soluble,-11.01,4.04e-09,9.83e-12,Insoluble,-7.88,5.41e-06,1.32e-08,Poorly soluble,Low,No,Yes,Yes,No,No,No,No,-0.97,1,3,0,1,2,0.55,0,1,3,5.70
Molecule 31,CC(=O)OC1CC2C(C)(C)CCC(C2(C2C31C(=O)C(=C)C(C3O)CC2)C)O,C22H32O5,376.49,27,0,0.82,2,5,2,101.97,83.83,2.22,2.62,2.64,2.42,2.88,2.56,-3.69,7.64e-02,2.03e-04,Soluble,-4.03,3.51e-02,9.32e-05,Moderately soluble,-3.20,2.35e-01,6.25e-04,Soluble,High,No,Yes,No,No,No,No,No,-6.74,0,0,0,0,0,0.55,0,1,1,6.07
Molecule 32,COc1cc(ccc1O)C(=O)OC1C(O)CC(CC1OC(=O)c1ccc(c(c1)OC)O)(O)C(=O)O,C23H24O12,492.43,35,12,0.35,9,12,5,116.41,189.28,2.47,1.33,0.84,-0.09,0.53,1.01,-3.39,2.00e-01,4.07e-04,Soluble,-4.91,6.11e-03,1.24e-05,Moderately soluble,-2.42,1.89e+00,3.83e-03,Soluble,Low,No,Yes,No,No,No,No,No,-8.36,1,1,1,1,2,0.11,0,1,2,4.61
Molecule 33,CC(=O)OC1=CC2(C)C3CC(=O)C4(CC3(CCC2C(C1=O)(C)C)C=C4)C,C22H28O4,356.46,26,0,0.68,2,4,0,99.11,60.44,2.72,4.00,4.00,3.07,4.06,3.57,-4.44,1.30e-02,3.65e-05,Moderately soluble,-4.97,3.81e-03,1.07e-05,Moderately soluble,-4.45,1.26e-02,3.53e-05,Moderately soluble,High,Yes,No,No,No,Yes,No,No,-5.63,0,0,0,0,0,0.55,0,1,2,6.02
Molecule 34,COc1c2CC(Oc2[n+](c2c1cccc2OC)C)C(O)(C)C,C17H22NO4,304.36,22,10,0.47,3,4,1,85.49,51.80,0.81,2.60,1.76,1.73,2.54,1.89,-3.50,9.55e-02,3.14e-04,Soluble,-3.34,1.40e-01,4.60e-04,Soluble,-3.82,4.63e-02,1.52e-04,Soluble,High,Yes,Yes,No,No,No,Yes,No,-6.31,0,0,0,0,0,0.55,0,1,0,3.66
Molecule 35,COC(=O)C1OC(OC2CCC3(C(C2(C)CO)CCC2(C3C(=O)C=C3C2(C)CCC2(C3CC(C)(C)CC2O)C)C)C)C(C(C1O)O)OC1OCC(C(C1OC1OC(C)C(C(C1O)O)O)O)O,C48H76O18,941.11,66,0,0.92,9,18,9,232.36,280.82,5.13,1.70,0.61,-1.50,0.08,1.20,-6.15,6.63e-04,7.05e-07,Poorly soluble,-7.21,5.77e-05,6.13e-08,Poorly soluble,-1.35,4.21e+01,4.48e-02,Soluble,Low,No,Yes,No,No,No,No,No,-10.83,3,3,1,1,5,0.17,0,1,2,9.95
Molecule 36,OCC1CC(OC2CCC3(C(C2(C)C)CCC2(C3CC(O)C3C2(C)CCC3C2(C)CCCC(O2)(C)C)C)C)C(C(C1O)O)O,C37H64O7,620.90,44,0,1.00,4,7,5,174.30,119.61,4.36,5.88,5.23,3.25,4.44,4.63,-7.13,4.60e-05,7.41e-08,Poorly soluble,-8.16,4.25e-06,6.84e-09,Poorly soluble,-4.83,9.29e-03,1.50e-05,Moderately soluble,Low,No,Yes,No,No,No,No,No,-5.91,1,3,0,0,2,0.55,0,0,2,7.77
Molecule 37,C1Oc2c(O1)cc(cc2)C1OCC2C1COC2c1ccc2c(c1)OCO2,C20H18O6,354.35,26,12,0.40,2,6,0,90.00,55.38,3.46,2.68,2.57,1.98,3.25,2.79,-3.93,4.12e-02,1.16e-04,Soluble,-3.50,1.13e-01,3.20e-04,Soluble,-4.60,8.98e-03,2.54e-05,Moderately soluble,High,Yes,No,No,Yes,No,Yes,Yes,-6.56,0,0,0,0,0,0.55,0,0,1,4.12
Molecule 38,OCC1CCC2C31CC(C(O3)(C)C)CCC2C,C15H26O2,238.37,17,0,1.00,1,2,1,70.20,29.46,2.95,2.75,2.99,2.88,2.91,2.90,-2.98,2.47e-01,1.04e-03,Soluble,-3.02,2.26e-01,9.47e-04,Soluble,-2.72,4.52e-01,1.90e-03,Soluble,High,Yes,No,No,No,No,No,No,-5.80,0,0,0,0,0,0.55,0,0,1,4.96
Molecule 39,COc1ccc(cc1)CCc1cc(=O)c2c(o1)ccc(c2)O,C18H16O4,296.32,22,16,0.17,4,4,1,85.26,59.67,2.87,4.18,3.29,1.81,4.27,3.29,-4.58,7.71e-03,2.60e-05,Moderately soluble,-5.14,2.14e-03,7.21e-06,Moderately soluble,-6.48,9.79e-05,3.30e-07,Poorly soluble,High,Yes,No,Yes,Yes,Yes,Yes,Yes,-5.14,0,0,0,0,0,0.55,0,0,1,2.98
Molecule 40,COc1c(cc(c2c1C=CC(O2)(C)C)OC)C(=O)CC(=O)c1ccccc1,C22H22O5,366.41,27,12,0.27,6,5,0,103.46,61.83,2.85,3.98,4.23,1.92,4.74,3.55,-4.55,1.03e-02,2.81e-05,Moderately soluble,-4.98,3.84e-03,1.05e-05,Moderately soluble,-6.29,1.90e-04,5.18e-07,Poorly soluble,High,Yes,No,Yes,Yes,Yes,No,Yes,-5.71,0,0,0,0,0,0.55,0,1,2,3.72
Molecule 41,CCCCCCCCCCCCCCCC(=O)OCC(OC(=O)CCCCCCCCCCCCCCC)COC1OC(COC2OC(CO)C(C(C2O)O)O)C(C(C1O)O)O,C47H88O15,893.19,62,0,0.96,40,15,7,238.86,231.13,7.12,10.30,6.04,1.03,8.44,6.59,-9.23,5.30e-07,5.93e-10,Poorly soluble,-15.09,7.21e-13,8.07e-16,Insoluble,-7.69,1.83e-05,2.05e-08,Poorly soluble,Low,No,Yes,No,No,No,No,No,-4.44,3,4,2,2,6,0.17,0,1,3,9.52
Molecule 42,OC/C=C(/COC1OC(CO)C(C(C1OC(=O)Cc1ccc(cc1)O)OC(=O)Cc1ccc(c(c1)O)O)O)\C,C27H32O12,548.54,39,12,0.41,13,12,6,134.90,192.44,1.92,1.47,0.45,-0.48,1.37,0.95,-3.54,1.59e-01,2.91e-04,Soluble,-5.12,4.18e-03,7.62e-06,Moderately soluble,-2.83,8.21e-01,1.50e-03,Soluble,Low,No,Yes,No,No,No,No,No,-8.60,3,3,2,1,3,0.17,1,3,2,5.58
Molecule 43,COc1ccc(cc1)c1coc2c(c1=O)ccc(c2)OC1OC(COC2OC(C)C(C(C2O)O)O)C(C(C1O)O)O,C28H32O13,576.55,41,16,0.46,7,13,6,139.78,197.74,2.58,-0.65,-0.50,-2.28,-0.15,-0.20,-2.83,8.49e-01,1.47e-03,Soluble,-3.03,5.39e-01,9.35e-04,Soluble,-2.76,1.00e+00,1.74e-03,Soluble,Low,No,Yes,No,No,No,No,Yes,-10.28,3,4,1,1,3,0.17,0,0,1,6.32
Molecule 44,OC1C(OCCc2ccccc2)OC(C(C1O)O)COC1OC(C)C(C(C1O)O)O,C20H30O10,430.45,30,6,0.70,7,10,6,100.98,158.30,1.98,-1.74,-2.10,-1.97,-1.47,-1.06,-1.10,3.43e+01,7.97e-02,Very soluble,-1.07,3.66e+01,8.51e-02,Very soluble,0.12,5.71e+02,1.33e+00,Soluble,Low,No,No,No,No,No,No,No,-10.16,1,1,1,1,2,0.55,0,0,1,5.53
Molecule 45,CC1=CC23C(CC1)C(C)CCC3C(=C)C(=O)O2,C15H20O2,232.32,17,0,0.67,0,2,0,68.25,26.30,2.82,3.09,3.24,3.35,3.25,3.15,-3.23,1.38e-01,5.93e-04,Soluble,-3.31,1.14e-01,4.90e-04,Soluble,-3.05,2.06e-01,8.85e-04,Soluble,High,Yes,No,No,Yes,Yes,No,No,-5.52,0,0,0,0,0,0.55,0,2,1,4.73
Molecule 46,O=C1CC(=CC(C1O)O)C(=O)O,C7H8O5,172.14,12,0,0.43,1,5,3,37.47,94.83,0.32,-1.65,-1.31,-1.53,-0.77,-0.99,0.20,2.72e+02,1.58e+00,Highly soluble,0.17,2.54e+02,1.48e+00,Highly soluble,1.05,1.95e+03,1.14e+01,Soluble,High,No,No,No,No,No,No,No,-8.52,0,2,0,0,1,0.56,0,0,1,3.69
Molecule 47,C/C=C/1\C[N+]23CCC1CC3c1c(CC2)c2c([nH]1)cccc2OC,C20H25N2O,309.43,23,9,0.50,1,1,1,99.04,25.02,-0.14,2.79,3.26,-0.56,3.91,1.85,-3.74,5.63e-02,1.82e-04,Soluble,-2.97,3.30e-01,1.07e-03,Soluble,-5.90,3.92e-04,1.27e-06,Moderately soluble,High,Yes,Yes,No,No,No,Yes,Yes,-6.21,0,0,0,0,0,0.55,0,2,0,4.82
Molecule 48,OC1OCC2(C1)CCC1(O2)C2(C)CCCC(C2CC(=O)C1(C)OC(=O)C)(C)C,C22H34O6,394.50,28,0,0.91,2,6,1,103.82,82.06,3.02,2.78,3.14,2.11,3.50,2.91,-3.91,4.91e-02,1.24e-04,Soluble,-4.16,2.73e-02,6.93e-05,Moderately soluble,-4.14,2.83e-02,7.16e-05,Moderately soluble,High,No,Yes,No,No,No,No,No,-6.73,0,0,0,0,0,0.55,0,0,1,5.94
Molecule 49,OCC/C=C/CC1C(CCC1=O)CC(=O)OC,C13H20O4,240.30,17,0,0.69,7,4,1,64.66,63.60,2.54,0.70,1.47,1.10,2.38,1.64,-1.31,1.18e+01,4.91e-02,Very soluble,-1.61,5.86e+00,2.44e-02,Very soluble,-1.91,2.94e+00,1.22e-02,Soluble,High,Yes,No,No,No,No,No,No,-7.27,0,0,0,0,0,0.55,0,1,1,3.53
Molecule 50,CC(=CC(=O)C(C(C1CCC2(C1(C)CCC1C2=CCC2C1(C)CCC(C2(C)C)O)C)C)O)C,C30H48O3,456.70,33,0,0.83,4,3,2,138.40,57.53,4.01,7.26,6.48,4.91,6.17,5.77,-6.98,4.77e-05,1.04e-07,Poorly soluble,-8.29,2.33e-06,5.09e-09,Poorly soluble,-5.33,2.14e-03,4.68e-06,Moderately soluble,High,No,No,No,No,No,No,No,-3.93,1,3,0,1,1,0.55,0,2,2,6.19
Molecule 51,C=CCc1ccc(c(c1)OC)OC1OC(CO)C(C(C1O)O)O,C16H22O7,326.34,23,6,0.50,6,7,4,81.19,108.61,2.79,0.03,-0.40,-0.54,0.56,0.49,-1.68,6.83e+00,2.09e-02,Very soluble,-1.86,4.47e+00,1.37e-02,Very soluble,-1.17,2.19e+01,6.71e-02,Soluble,High,No,Yes,No,No,No,No,No,-8.27,0,0,0,0,0,0.55,0,1,0,4.45
Molecule 52,O=C(OC1CCC2(C(C1(C)C)CCC1(C2CCC2C1(C)CCC1(C2C(CC1)C(=C)C)C)C)C)/C=C/c1ccc(c(c1)O)O,C39H56O4,588.86,43,6,0.72,5,4,2,178.54,66.76,5.19,11.82,9.59,6.78,8.10,8.30,-10.71,1.15e-08,1.95e-11,Insoluble,-13.22,3.56e-11,6.04e-14,Insoluble,-8.28,3.10e-06,5.26e-09,Poorly soluble,Low,No,No,No,No,No,No,No,-1.50,2,4,0,1,1,0.17,1,3,2,6.64
Molecule 53,OCC1OC(OC2C(O)COC(C2O)OC2CCC3(C(C2(C)C)CCC2(C3CC=C3C2(C)CCC2(C3CC(C)(C)CC2)C(=O)O)C)C)C(C(C1OC1OC(C)C(C(C1O)O)O)O)OC1OC(C)C(C(C1O)O)O,C53H86O20,1043.24,73,0,0.94,10,20,11,257.89,313.44,3.74,1.62,1.22,-1.65,-0.80,0.83,-6.67,2.24e-04,2.14e-07,Poorly soluble,-7.81,1.60e-05,1.53e-08,Poorly soluble,-0.33,4.86e+02,4.66e-01,Soluble,Low,No,Yes,No,No,No,No,No,-11.51,3,3,1,1,5,0.11,0,2,2,10.00
Molecule 54,COc1ccc(c(c1)c1cc(=O)c2c(o1)cc(cc2O)OC)OC,C18H16O6,328.32,24,16,0.17,4,6,1,89.42,78.13,3.49,3.64,3.19,0.70,3.60,2.92,-4.40,1.31e-02,4.00e-05,Moderately soluble,-4.97,3.52e-03,1.07e-05,Moderately soluble,-5.91,4.03e-04,1.23e-06,Moderately soluble,High,Yes,No,Yes,No,Yes,Yes,Yes,-5.72,0,0,0,0,0,0.55,0,0,1,3.43
Molecule 55,COC(=O)C1(C)CCCC2(C1CCC1(C2CC(=O)C(=C1)C(C)C)O)C,C21H32O4,348.48,25,0,0.81,3,4,1,98.41,63.60,3.37,3.47,3.67,3.03,3.90,3.49,-3.99,3.58e-02,1.03e-04,Soluble,-4.49,1.13e-02,3.25e-05,Moderately soluble,-3.97,3.73e-02,1.07e-04,Soluble,High,Yes,No,No,No,No,No,No,-5.96,0,0,0,0,0,0.55,0,0,0,4.86
Molecule 56,OCC1OC(OC(C2(C)CCC3C(=C2)CCC2C3(C)CCC(C2(C)C)OC2OC(CO)C(C(C2O)O)O)CO)C(C(C1O)O)O,C32H54O13,646.76,45,0,0.94,8,13,9,158.91,218.99,1.72,0.01,-1.07,-1.59,-0.87,-0.36,-3.33,3.04e-01,4.70e-04,Soluble,-4.16,4.47e-02,6.91e-05,Moderately soluble,0.51,2.07e+03,3.20e+00,Soluble,Low,No,No,No,No,No,No,No,-10.24,3,4,1,1,4,0.17,0,2,2,8.00
Molecule 57,CC(C1OC(O)C2(C(C1)(C)O2)C)c1ccc2c(c1)CCC1C2C2OC2C2(C1(C)C(=O)C=CC2)O,C28H34O6,466.57,34,6,0.68,2,6,2,125.15,91.82,3.58,2.49,3.14,2.26,4.25,3.14,-4.30,2.34e-02,5.01e-05,Moderately soluble,-4.06,4.03e-02,8.64e-05,Moderately soluble,-4.62,1.13e-02,2.42e-05,Moderately soluble,High,No,Yes,No,No,No,Yes,No,-7.38,0,0,0,0,0,0.55,0,1,1,6.04
Molecule 58,Cn1c2ccccc2c(=O)c2c1cccc2O,C14H11NO2,225.24,17,14,0.07,0,2,1,69.00,42.23,2.33,3.77,2.40,1.71,2.54,2.55,-4.22,1.35e-02,6.01e-05,Moderately soluble,-4.35,1.01e-02,4.47e-05,Moderately soluble,-4.28,1.19e-02,5.27e-05,Moderately soluble,High,Yes,No,Yes,No,No,Yes,Yes,-5.00,0,0,0,0,0,0.55,0,1,2,1.72
Molecule 59,COC12CCC(=CC2C(CCC1C)C(C)C)C,C16H28O,236.39,17,0,0.88,2,1,0,75.45,9.23,3.49,4.24,4.43,3.92,3.75,3.96,-3.84,3.38e-02,1.43e-04,Soluble,-4.14,1.69e-02,7.16e-05,Moderately soluble,-3.44,8.66e-02,3.66e-04,Soluble,High,Yes,No,No,Yes,Yes,No,No,-4.73,0,0,0,0,1,0.55,0,1,2,4.39
Molecule 60,C=CC1(C)CCC2C(C1)(O)CCC1C2(C)CCC(C1(C)C)OC(=O)C,C22H36O3,348.52,25,0,0.86,3,3,1,102.76,46.53,3.57,5.19,4.88,4.20,4.61,4.49,-5.07,2.95e-03,8.46e-06,Moderately soluble,-5.91,4.25e-04,1.22e-06,Moderately soluble,-4.49,1.14e-02,3.27e-05,Moderately soluble,High,Yes,No,No,No,Yes,No,No,-4.74,1,0,0,0,1,0.55,0,1,1,4.38
Molecule 61,CC(=O)OCC12C(OC(=O)C)C(OC(=O)C)C3C(C42OC(C(C(C1OC(=O)C)OC(=O)c1cccnc1)C4OC(=O)c1ccco1)(C)COC(=O)c1c(C(C(C(=O)O3)C)C)nccc1)(C)O,C45H48N2O19,920.86,66,17,0.51,15,21,1,217.20,278.78,3.85,2.13,2.61,0.12,2.69,2.28,-6.09,7.45e-04,8.09e-07,Poorly soluble,-7.62,2.23e-05,2.42e-08,Poorly soluble,-7.48,3.08e-05,3.34e-08,Poorly soluble,Low,No,Yes,No,No,No,No,No,-10.40,2,3,2,1,3,0.17,0,1,2,9.12
Molecule 62,C=C1C(=O)OC2C1CC1(C)C(=O)CCC1C(C2)C,C15H20O3,248.32,18,0,0.73,0,3,0,68.63,43.37,2.28,2.10,2.50,2.47,2.94,2.46,-2.70,4.93e-01,1.98e-03,Soluble,-2.64,5.67e-01,2.28e-03,Soluble,-2.96,2.74e-01,1.10e-03,Soluble,High,Yes,No,No,No,No,No,No,-6.32,0,0,0,0,0,0.55,0,1,1,3.90
Molecule 63,OCC1OC(OC(/C(=C/CCC2(C)C(CCCOC3OC(CO)C(C(C3O)O)O)/C(=C(/C=O)\C)/CCC2(C)O)/C)C/C=C(\CCC(C(O)(C)C)O)/C)C(C(C1O)O)O,C42H72O16,833.01,58,0,0.83,20,16,11,213.38,276.52,3.41,0.32,0.43,-2.33,2.56,0.88,-3.89,1.08e-01,1.30e-04,Soluble,-5.69,1.70e-03,2.04e-06,Moderately soluble,-0.81,1.28e+02,1.54e-01,Soluble,Low,No,No,No,No,No,No,No,-11.15,3,3,2,1,5,0.17,0,3,2,9.30
Molecule 64,OCC1OC(OC2C(OC(C(C2OC2OC(CO)C(C(C2O)OC2OC(C)C(C(C2O)O)O)O)O)C(=O)O)OC2CCC3(C(C2(C)C)CCC2(C3CC=C3C2(C)CC(C2(C3CC(C)(C)C(=O)C2)CO)O)C)C)C(C(C1O)O)O,C54H86O24,1119.25,78,0,0.93,12,24,14,266.39,391.20,3.82,-0.34,-2.29,-4.43,-3.02,-1.25,-5.77,1.89e-03,1.69e-06,Moderately soluble,-7.41,4.32e-05,3.86e-08,Poorly soluble,1.68,5.41e+04,4.83e+01,Soluble,Low,No,Yes,No,No,No,No,No,-13.37,3,4,2,1,5,0.11,0,2,2,10.00
Molecule 65,CC(=C)C1CCC2(C(=C(C)C(CC2)O)C1)C,C15H24O,220.35,16,0,0.73,1,1,1,69.94,20.23,2.98,3.43,3.84,3.56,3.62,3.49,-3.30,1.10e-01,5.00e-04,Soluble,-3.54,6.42e-02,2.92e-04,Soluble,-3.19,1.41e-01,6.40e-04,Soluble,High,Yes,No,No,Yes,Yes,No,No,-5.21,0,0,0,0,1,0.55,0,1,1,4.18
Molecule 66,CCOCc1ccc(cc1)O,C9H12O2,152.19,11,6,0.33,3,2,1,44.13,29.46,1.93,1.80,1.78,1.53,2.00,1.81,-2.12,1.15e+00,7.53e-03,Soluble,-2.04,1.40e+00,9.17e-03,Soluble,-2.74,2.76e-01,1.81e-03,Soluble,High,Yes,No,Yes,No,No,No,No,-5.95,0,1,0,0,1,0.55,0,0,1,1.20
Molecule 67,COC1C=CC2=CCN3C2(C1)c1cc(OC)c(cc1CC3)OC,C19H23NO3,313.39,23,6,0.47,3,4,0,93.11,30.93,3.28,2.14,2.18,2.13,2.70,2.49,-3.13,2.34e-01,7.48e-04,Soluble,-2.42,1.19e+00,3.79e-03,Soluble,-3.91,3.86e-02,1.23e-04,Soluble,High,Yes,No,No,No,No,Yes,No,-6.69,0,0,0,0,0,0.55,0,0,0,4.84
Molecule 68,CCC(C(=O)OC1C(O)C(O)C(OC1c1c(O)cc(c2c1oc(cc2=O)c1ccc(cc1)O)O)CO)C,C26H28O11,516.49,37,16,0.38,7,11,6,130.77,187.12,2.69,2.18,1.36,-0.98,1.86,1.42,-4.27,2.75e-02,5.33e-05,Moderately soluble,-5.74,9.34e-04,1.81e-06,Moderately soluble,-3.78,8.59e-02,1.66e-04,Soluble,Low,No,Yes,No,No,No,No,Yes,-7.90,3,2,1,1,3,0.17,0,0,1,5.78
Molecule 69,OC(C#CC#C/C=C/CO)/C=C/CCCCCC=C,C17H22O2,258.36,19,0,0.41,8,2,2,81.06,40.46,3.95,3.66,2.75,3.24,4.34,3.59,-3.22,1.56e-01,6.03e-04,Soluble,-4.20,1.63e-02,6.33e-05,Moderately soluble,-2.00,2.57e+00,9.93e-03,Soluble,High,Yes,No,Yes,No,Yes,No,No,-5.28,0,0,0,0,0,0.55,0,2,2,4.57
Molecule 70,OCC1(C)C(O)CCC2(C1CC(=O)C1=C2C(=O)CC2(C1(C)C(=O)CC2C(CCC(=O)O)C)C)C,C27H38O7,474.59,34,0,0.78,5,7,3,126.63,128.97,1.68,2.10,3.11,1.67,4.35,2.58,-3.78,7.96e-02,1.68e-04,Soluble,-4.44,1.73e-02,3.64e-05,Moderately soluble,-4.77,8.10e-03,1.71e-05,Moderately soluble,High,No,Yes,No,No,No,No,Yes,-7.70,0,1,0,0,0,0.56,0,0,1,5.98
Molecule 71,O=C1OC(C(C1CCCCCCCCCCCc1ccc2c(c1)OCO2)O)C,C23H34O5,390.51,28,6,0.70,12,5,1,109.91,64.99,4.52,6.67,4.78,3.49,5.73,5.04,-5.83,5.78e-04,1.48e-06,Moderately soluble,-7.84,5.68e-06,1.45e-08,Poorly soluble,-6.39,1.58e-04,4.06e-07,Poorly soluble,High,Yes,No,No,No,Yes,Yes,Yes,-3.95,0,0,1,0,1,0.55,0,0,3,4.51
Molecule 72,Oc1ccc(cc1)C1Oc2cccc(c2C(C1O)O)O,C15H14O5,274.27,20,12,0.20,1,5,4,71.45,90.15,1.59,1.02,0.98,0.52,1.05,1.03,-2.56,7.54e-01,2.75e-03,Soluble,-2.50,8.62e-01,3.14e-03,Soluble,-2.49,8.81e-01,3.21e-03,Soluble,High,No,Yes,No,No,No,No,No,-7.25,0,0,0,0,0,0.55,0,0,0,3.62
Molecule 73,CC(=C)C1CC=C2C(C1)(C)C(C)CCC2O,C15H24O,220.35,16,0,0.73,1,1,1,69.94,20.23,3.10,3.76,3.70,3.56,3.23,3.47,-3.51,6.83e-02,3.10e-04,Soluble,-3.88,2.92e-02,1.33e-04,Soluble,-2.74,3.97e-01,1.80e-03,Soluble,High,Yes,No,No,Yes,Yes,No,No,-4.97,0,0,0,0,1,0.55,0,1,2,4.30
Molecule 74,OC1C(C)CCC1O,C6H12O2,116.16,8,0,1.00,0,2,2,31.17,40.46,1.51,0.27,0.14,0.21,0.34,0.50,-0.73,2.16e+01,1.86e-01,Very soluble,-0.68,2.42e+01,2.08e-01,Very soluble,0.24,2.02e+02,1.74e+00,Soluble,High,No,No,No,No,No,No,No,-6.82,0,2,0,0,1,0.55,0,0,1,2.62
Molecule 75,COc1cc2c(cc1OC)cc1c3c2c(OC)c(OC)cc3CCN1C,C21H23NO4,353.41,26,14,0.33,4,4,0,107.42,40.16,3.60,4.46,3.64,2.31,4.27,3.66,-4.98,3.74e-03,1.06e-05,Moderately soluble,-5.02,3.35e-03,9.49e-06,Moderately soluble,-6.49,1.14e-04,3.22e-07,Poorly soluble,High,Yes,Yes,Yes,Yes,Yes,Yes,Yes,-5.29,0,0,0,0,0,0.55,0,1,2,2.69
Molecule 76,NC(C(=O)O)CS(=O)CC=C,C6H11NO3S,177.22,11,0,0.50,5,4,2,43.24,99.60,0.55,-3.53,0.20,-2.88,-1.00,-1.33,1.62,7.31e+03,4.12e+01,Highly soluble,2.02,1.86e+04,1.05e+02,Highly soluble,-0.21,1.08e+02,6.10e-01,Soluble,High,No,No,No,No,No,No,No,-9.89,0,0,0,0,2,0.55,0,1,1,3.21
Molecule 77,COc1cc2C(=O)c3ccc(cc3C(=O)c2c(c1OC)O)C,C17H14O5,298.29,22,12,0.18,2,5,1,79.72,72.83,2.65,3.37,2.49,0.86,3.60,2.59,-4.08,2.46e-02,8.24e-05,Moderately soluble,-4.58,7.89e-03,2.64e-05,Moderately soluble,-5.30,1.49e-03,5.00e-06,Moderately soluble,High,Yes,No,Yes,Yes,Yes,No,Yes,-5.73,0,0,0,0,0,0.55,1,0,0,2.80
Molecule 78,COc1cc2oc3cc(OC)c(c(c3c(=O)c2c(c1CC=C(C)C)O)CC(C(=C)C)O)OC,C26H30O7,454.51,33,14,0.35,8,7,2,130.09,98.36,5.19,5.88,4.67,1.80,6.05,4.72,-6.15,3.23e-04,7.11e-07,Poorly soluble,-7.72,8.69e-06,1.91e-08,Poorly soluble,-6.95,5.14e-05,1.13e-07,Poorly soluble,High,No,No,No,Yes,Yes,No,Yes,-4.90,0,1,0,0,1,0.55,0,2,3,4.70
Molecule 79,OC1C(OC(C(C1O)O)C)OC(=O)c1cc(O)c(c(c1)O)O,C13H16O9,316.26,22,6,0.46,3,9,6,70.28,156.91,-0.01,-0.92,-1.21,-1.52,-1.63,-1.06,-1.23,1.88e+01,5.96e-02,Very soluble,-1.89,4.06e+00,1.28e-02,Very soluble,1.02,3.30e+03,1.04e+01,Soluble,Low,No,No,No,No,No,No,No,-8.88,1,1,1,1,2,0.55,1,1,0,4.14
Molecule 80,O=C1C=CC23C(C(O1)(C)C)CCC1C(C3)(OO2)CCC2(C1(C)CC1C2C(C)CC2(O1)CC(C(=O)O2)C)C,C30H42O7,514.65,37,0,0.87,0,7,0,136.51,80.29,4.02,5.14,5.26,4.46,4.17,4.61,-6.27,2.77e-04,5.38e-07,Poorly soluble,-6.57,1.38e-04,2.68e-07,Poorly soluble,-5.22,3.13e-03,6.08e-06,Moderately soluble,High,No,Yes,No,No,No,No,No,-5.79,2,3,0,0,1,0.17,0,2,2,8.01
Molecule 81,COc1ccc2c(c1)OCc1c2oc2c1ccc(c2)O,C16H12O4,268.26,20,15,0.12,1,4,1,74.70,51.83,2.73,3.15,3.55,1.71,3.50,2.93,-3.98,2.83e-02,1.06e-04,Soluble,-3.91,3.31e-02,1.23e-04,Soluble,-5.37,1.14e-03,4.27e-06,Moderately soluble,High,Yes,Yes,Yes,No,No,Yes,Yes,-5.70,0,0,0,0,0,0.55,0,0,0,3.30
Molecule 82,OCC1OC(OCC2=CCC(CC2)C(O)(C)C)C(C(C1O)O)O,C16H28O7,332.39,23,0,0.88,5,7,5,82.34,119.61,2.48,-1.00,-0.70,-0.78,-0.37,-0.07,-0.94,3.81e+01,1.15e-01,Very soluble,-1.03,3.14e+01,9.43e-02,Very soluble,0.49,1.02e+03,3.06e+00,Soluble,High,No,Yes,No,No,No,No,No,-9.04,0,1,0,0,0,0.55,0,1,0,5.49
Molecule 83,COc1cc(O)c(c2c1c1cc(c(cc1CC2)O)c1c(O)cc(c2c1ccc1c2ccc(c1)O)OC)Cc1ccc(cc1)O,C37H30O7,586.63,44,32,0.14,5,7,5,172.70,119.61,4.27,8.06,7.56,3.73,7.42,6.21,-8.76,1.01e-06,1.73e-09,Poorly soluble,-10.43,2.20e-08,3.74e-11,Insoluble,-11.35,2.61e-09,4.45e-12,Insoluble,Low,No,No,Yes,Yes,No,No,No,-4.16,1,4,0,1,1,0.55,0,1,2,4.47
Molecule 84,O=C1OC2C=C1CCC1OC1(Cc1c2c(C)co1)C,C15H16O4,260.29,19,5,0.53,0,4,0,67.65,51.97,2.47,1.98,2.28,1.48,3.20,2.28,-2.90,3.31e-01,1.27e-03,Soluble,-2.70,5.23e-01,2.01e-03,Soluble,-3.53,7.73e-02,2.97e-04,Soluble,High,Yes,Yes,No,No,No,No,No,-6.48,0,0,0,0,0,0.55,0,1,0,5.25
Molecule 85,OCC1OC(Oc2cc3oc(=O)ccc3cc2CC(C(O)(C)C)O)C(C(C1O)O)O,C20H26O10,426.41,30,10,0.55,6,10,6,103.18,170.05,2.62,-0.67,-1.35,-1.33,0.12,-0.12,-1.91,5.22e+00,1.22e-02,Very soluble,-2.43,1.60e+00,3.74e-03,Soluble,-1.46,1.49e+01,3.48e-02,Soluble,Low,No,No,No,No,No,No,No,-9.38,1,1,1,1,2,0.55,0,1,1,5.38
Molecule 86,C/C=C(/C(=O)OC1C=C(C)CCC=C(CC2C1C(C)(OC(=O)/C(=C\C)/C)C(=O)O2)C)\C,C25H34O6,430.53,31,0,0.56,6,6,0,120.06,78.90,4.08,4.58,4.75,3.53,4.27,4.24,-5.00,4.32e-03,1.00e-05,Moderately soluble,-5.96,4.71e-04,1.09e-06,Moderately soluble,-3.81,6.73e-02,1.56e-04,Soluble,High,No,No,No,No,Yes,No,Yes,-5.67,0,0,0,0,0,0.55,0,3,2,5.87
Molecule 87,O=C1NCC(=O)NC(C)C(=O)NC(C)C(=O)NC(C(=O)NC(C(=O)NC1)Cc1ccc(cc1)O)C(C)C,C24H34N6O7,518.56,37,6,0.50,3,7,7,154.54,194.83,1.19,-0.12,-4.47,-1.97,-0.33,-1.14,-2.90,6.51e-01,1.25e-03,Soluble,-3.52,1.57e-01,3.03e-04,Soluble,-5.69,1.06e-03,2.05e-06,Moderately soluble,Low,No,Yes,No,No,No,No,No,-9.55,3,4,1,1,2,0.17,0,0,1,4.60
Molecule 88,CN(CCc1cc2OCOc2c2c1ccc1c2cccc1)C,C19H19NO2,293.36,22,14,0.26,3,3,0,89.80,21.70,3.40,4.53,3.83,3.14,4.25,3.83,-4.79,4.81e-03,1.64e-05,Moderately soluble,-4.71,5.75e-03,1.96e-05,Moderately soluble,-6.41,1.13e-04,3.85e-07,Poorly soluble,High,Yes,Yes,Yes,Yes,Yes,Yes,Yes,-4.87,0,0,0,0,0,0.55,0,1,1,2.48
Molecule 89,C=CC1C(OC=C2C1CCOC2=O)OC1OC(COC(=O)C)C(C(C1OC(=O)c1cccc(c1O)O)OC(=O)C)OC(=O)c1cccc(c1OC1OC(CO)C(C(C1O)O)O)O,C40H44O22,876.76,62,12,0.47,17,22,7,199.89,319.26,2.30,1.47,-0.43,-2.00,-1.01,0.07,-5.22,5.24e-03,5.98e-06,Moderately soluble,-7.78,1.45e-05,1.66e-08,Poorly soluble,-1.03,8.16e+01,9.31e-02,Soluble,Low,No,Yes,No,No,No,No,No,-10.60,3,4,2,1,5,0.11,1,3,2,7.97
Molecule 90,OCC(=C)C1C(O)C(C(CC1(C)C=C)OC(=O)C(=C)C(CO)O)C(=C)C(=O)OC,C21H30O8,410.46,29,0,0.52,11,8,4,106.01,133.52,2.18,1.02,0.27,0.35,2.00,1.17,-2.30,2.05e+00,5.00e-03,Soluble,-3.41,1.58e-01,3.86e-04,Soluble,-1.02,3.89e+01,9.48e-02,Soluble,High,No,Yes,No,No,No,No,No,-8.08,0,0,1,1,0,0.55,0,3,2,5.20
Molecule 91,C=C1C(=O)OC2C1CC1(C)C(=O)C=CC1C(C2)C,C15H18O3,246.30,18,0,0.60,0,3,0,68.15,43.37,2.22,1.17,2.28,2.38,2.53,2.12,-2.10,1.94e+00,7.87e-03,Soluble,-1.68,5.19e+00,2.11e-02,Very soluble,-2.49,7.97e-01,3.24e-03,Soluble,High,Yes,No,No,No,No,No,No,-6.97,0,0,0,0,0,0.55,0,1,1,4.29
Molecule 92,COc1cc(c(cc1O)O)C1COc2c(C1=O)c(O)c(c(c2)O)C,C17H16O7,332.30,24,12,0.24,2,7,4,85.05,116.45,2.19,2.54,2.18,0.13,2.11,1.83,-3.74,6.07e-02,1.83e-04,Soluble,-4.63,7.75e-03,2.33e-05,Moderately soluble,-3.33,1.55e-01,4.67e-04,Soluble,High,No,Yes,Yes,No,No,No,Yes,-6.52,0,0,0,0,0,0.55,0,0,0,3.53
Molecule 93,OCC1OC(OC2CCC3(C(C2)CCC2C3CCC3(C2CC2C3C(C)C(O2)(OC)CCC(COC2OC(CO)C(C(C2O)O)O)C)C)C)C(C(C1OC1OC(CO)C(C(C1OC1OC(CO)C(C(C1O)OC1OC(CO)C(C(C1O)O)O)O)OC1OC(CO)C(C(C1O)O)OC1OC(C)C(C(C1O)O)O)O)O)O,C70H118O38,1567.66,108,0,1.00,25,38,22,355.67,592.74,4.29,-5.73,-8.80,-10.55,-9.28,-6.01,-4.30,7.86e-02,5.02e-05,Moderately soluble,-6.05,1.39e-03,8.86e-07,Poorly soluble,7.94,1.38e+11,8.79e+07,Soluble,Low,No,Yes,No,No,No,No,No,-19.93,3,4,2,1,7,0.17,0,1,2,10.00
Molecule 94,O=Cc1c2C(O)C3C(c2c(c(c1C(C)C)O)O)(C)CCCC3(C)C,C20H28O4,332.43,24,6,0.65,2,4,3,95.40,77.76,2.94,4.17,3.84,2.44,4.09,3.50,-4.58,8.72e-03,2.62e-05,Moderately soluble,-5.51,1.02e-03,3.08e-06,Moderately soluble,-4.03,3.08e-02,9.27e-05,Moderately soluble,High,No,Yes,No,No,No,Yes,No,-5.37,0,0,0,0,0,0.55,1,2,1,4.05
Molecule 95,OCC(=C)C(OC1OC(CO)C(C(C1O)O)O)C#N,C11H17NO7,275.26,19,0,0.73,5,8,5,60.13,143.40,1.60,-2.05,-2.76,-2.99,-1.79,-1.60,0.07,3.27e+02,1.19e+00,Highly soluble,-0.44,1.01e+02,3.67e-01,Very soluble,1.89,2.13e+04,7.73e+01,Soluble,Low,No,Yes,No,No,No,No,No,-9.43,0,1,1,1,1,0.55,0,1,0,4.62
Molecule 96,CC(=O)/C=C/c1ccccc1,C10H10O,146.19,11,6,0.10,2,1,0,46.35,17.07,2.00,2.07,2.18,2.31,2.67,2.25,-2.32,6.96e-01,4.76e-03,Soluble,-2.06,1.28e+00,8.76e-03,Soluble,-2.80,2.31e-01,1.58e-03,Soluble,High,Yes,No,Yes,No,No,No,No,-5.72,0,1,0,0,2,0.55,0,1,1,2.00
Molecule 97,OC1CC2(C)C(=CCC3C2(C)CCC2C3(C)CCC(C2(C)C)O)C2(C31CC(OC3=O)C(C2)(C)C)C,C31H48O4,484.71,35,0,0.90,0,4,2,139.76,66.76,4.09,6.31,6.05,5.16,5.54,5.43,-6.82,7.33e-05,1.51e-07,Poorly soluble,-7.50,1.53e-05,3.15e-08,Poorly soluble,-6.19,3.13e-04,6.46e-07,Poorly soluble,High,No,No,No,No,No,No,No,-4.78,1,4,0,1,1,0.55,0,1,2,7.39
Molecule 98,OC1C(OC(C(C1O)O)COC1OCC(C(C1O)O)O)Oc1cc(O)c2c(c1)occ(c2=O)c1ccc(cc1)O,C26H28O14,564.49,40,16,0.42,6,14,8,132.53,228.97,1.92,-1.22,-1.49,-3.16,-1.29,-1.05,-2.47,1.91e+00,3.38e-03,Soluble,-3.09,4.55e-01,8.06e-04,Soluble,-1.34,2.57e+01,4.56e-02,Soluble,Low,No,Yes,No,No,No,No,No,-10.61,3,3,1,1,3,0.17,0,0,1,6.13
Molecule 99,COC1C(O)C(OC2CCC3(C(C2)CCC2C3CCC3(C2(O)CCC3C2=CC(=O)OC2)C)CO)OC(C1O)C,C30H46O9,550.68,39,0,0.90,5,9,4,141.87,134.91,3.82,0.88,2.08,1.37,1.86,2.00,-3.48,1.83e-01,3.32e-04,Soluble,-3.30,2.78e-01,5.04e-04,Soluble,-2.38,2.28e+00,4.14e-03,Soluble,High,No,Yes,No,No,No,No,No,-9.03,1,3,0,1,0,0.55,0,1,1,7.01
Molecule 100,CC(CNC(=O)/C=C/CC/C=C/c1ccc2c(c1)OCO2)C,C18H23NO3,301.38,22,6,0.39,8,3,1,88.39,47.56,3.70,4.91,3.43,2.62,4.25,3.78,-4.48,1.01e-02,3.34e-05,Moderately soluble,-5.65,6.82e-04,2.26e-06,Moderately soluble,-4.36,1.33e-02,4.41e-05,Moderately soluble,High,Yes,No,Yes,Yes,Yes,No,No,-4.65,0,0,0,0,0,0.55,0,1,2,3.11
