Molecule,Canonical SMILES,Formula,MW,#Heavy atoms,#Aromatic heavy atoms,Fraction Csp3,#Rotatable bonds,#H-bond acceptors,#H-bond donors,MR,TPSA,iLOGP,XLOGP3,WLOGP,MLOGP,Silicos-IT Log P,Consensus Log P,ESOL Log S,ESOL Solubility (mg/ml),ESOL Solubility (mol/l),ESOL Class,Ali Log S,Ali Solubility (mg/ml),Ali Solubility (mol/l),Ali Class,Silicos-IT LogSw,Silicos-IT Solubility (mg/ml),Silicos-IT Solubility (mol/l),Silicos-IT class,GI absorption,BBB permeant,Pgp substrate,CYP1A2 inhibitor,CYP2C19 inhibitor,CYP2C9 inhibitor,CYP2D6 inhibitor,CYP3A4 inhibitor,log Kp (cm/s),Lipinski #violations,Ghose #violations,Veber #violations,Egan #violations,Muegge #violations,Bioavailability Score,PAINS #alerts,Brenk #alerts,Leadlikeness #violations,Synthetic Accessibility
Molecule 1,OCC1OC(C(C1O)OC(=O)c1ccccc1)(COC(=O)/C=C/c1ccc(c(c1)OC)O)OC1OC(COC(=O)C)C(C(C1OC1OC(CO)C(C(C1O)O)O)OC1OC(COC(=O)C)C(C(C1O)O)OC1OC(CO)C(C(C1O)O)O)OC(=O)/C=C/c1ccc(cc1)O,C60H74O34,1339.21,94,18,0.55,30,34,14,303.66,507.02,3.02,-2.36,-5.19,-7.09,-3.83,-3.09,-4.82,2.04e-02,1.52e-05,Moderately soluble,-7.75,2.38e-05,1.78e-08,Poorly soluble,1.25,2.36e+04,1.76e+01,Soluble,Low,No,Yes,No,No,No,No,No,-16.14,3,4,2,1,7,0.17,0,2,2,10.00
Molecule 2,OC/C(=C\CCC(C1CCC2(C1(C)CCC13C2CCC2C3(C1)CCC(=O)C2(C)C)C)C)/C(=O)O,C30H46O4,470.68,34,0,0.87,6,4,2,137.11,74.60,3.57,6.90,6.41,4.87,6.45,5.64,-6.71,9.19e-05,1.95e-07,Poorly soluble,-8.28,2.48e-06,5.27e-09,Poorly soluble,-5.95,5.29e-04,1.12e-06,Moderately soluble,High,No,No,No,No,No,No,No,-4.27,1,3,0,1,1,0.56,0,1,2,6.62
Molecule 3,OCC1OC(OC2CC3(C)C(C4(C2C(C)(C)C(O)CC4)C)CC(C2C3(C)CCC2C(OC2OC(CO)C(C(C2O)O)O)(CCC=C(C)C)C)O)C(C(C1O)O)OC1OC(CO)C(C(C1O)O)O,C48H82O19,963.15,67,0,0.96,13,19,13,238.19,318.37,4.89,1.07,-1.06,-2.83,-1.20,0.17,-5.63,2.27e-03,2.36e-06,Moderately soluble,-7.35,4.33e-05,4.49e-08,Poorly soluble,1.00,9.74e+03,1.01e+01,Soluble,Low,No,Yes,No,No,No,No,No,-11.42,3,4,2,1,4,0.17,0,2,2,10.00
Molecule 4,OCC1OC(Oc2cc(O)c3c(c2)oc(c(c3=O)OC2OC(COC(=O)/C=C/c3ccc(cc3)O)C(C(C2O)O)O)c2ccc(cc2)O)C(C(C1O)O)O,C36H36O18,756.66,54,22,0.33,11,18,10,181.63,295.73,2.30,0.66,-0.91,-3.19,-0.53,-0.34,-4.52,2.27e-02,3.00e-05,Moderately soluble,-6.45,2.71e-04,3.58e-07,Poorly soluble,-2.39,3.10e+00,4.09e-03,Soluble,Low,No,Yes,No,No,No,No,No,-10.45,3,4,2,1,4,0.17,0,1,2,7.26
Molecule 5,COc1cc2oc(cc(=O)c2c(c1OC)O)c1ccc(c(c1)O)OC,C18H16O7,344.32,25,16,0.17,4,7,2,91.44,98.36,3.07,3.40,2.90,0.17,3.12,2.53,-4.33,1.62e-02,4.72e-05,Moderately soluble,-5.14,2.47e-03,7.16e-06,Moderately soluble,-5.33,1.63e-03,4.72e-06,Moderately soluble,High,No,No,Yes,No,Yes,Yes,Yes,-5.99,0,0,0,0,0,0.55,0,0,0,3.43
Molecule 6,COc1cc(O)c2c(c1)occ(c2=O)c1ccc(c(c1)O)O,C16H12O6,300.26,22,16,0.06,2,6,3,80.48,100.13,2.40,2.64,2.59,0.22,2.55,2.08,-3.77,5.09e-02,1.69e-04,Soluble,-4.39,1.21e-02,4.04e-05,Moderately soluble,-4.52,9.07e-03,3.02e-05,Moderately soluble,High,No,No,Yes,No,No,Yes,Yes,-6.26,0,0,0,0,0,0.55,1,1,0,3.07
Molecule 7,COC1C=CC23C(C1)N(C)CC2OC(c1c3cc2OCOc2c1)O,C18H21NO5,331.36,24,6,0.56,1,6,1,88.91,60.39,2.48,1.25,0.63,1.42,1.06,1.37,-2.80,5.24e-01,1.58e-03,Soluble,-2.12,2.53e+00,7.65e-03,Soluble,-2.23,1.96e+00,5.92e-03,Soluble,High,No,No,No,No,No,Yes,No,-7.43,0,0,0,0,0,0.55,0,1,0,5.20
Molecule 8,O=C1CCC2C(C1C)(C)CCC1C2(C)CCC2(C1(C)CCC1(C2CC(C)(CC1)C(=O)O)C)C,C30H48O3,456.70,33,0,0.93,1,3,1,136.17,54.37,3.54,8.13,7.52,5.82,6.45,6.29,-7.73,8.55e-06,1.87e-08,Poorly soluble,-9.13,3.39e-07,7.42e-10,Poorly soluble,-6.83,6.69e-05,1.47e-07,Poorly soluble,Low,No,No,No,No,No,No,No,-3.31,1,3,0,1,1,0.56,0,0,2,5.19
Molecule 9,ClCCc1c(C)c2c(c(c1C)O)CC(C2=O)(C)C,C15H19ClO2,266.76,18,6,0.53,2,2,1,75.37,37.30,2.79,3.82,3.56,2.96,5.12,3.65,-4.02,2.58e-02,9.66e-05,Moderately soluble,-4.30,1.34e-02,5.03e-05,Moderately soluble,-5.51,8.32e-04,3.12e-06,Moderately soluble,High,Yes,No,Yes,No,No,Yes,No,-5.22,0,0,0,0,0,0.55,0,1,1,2.45
Molecule 10,OC1CCC2(C(C1)CCC1C2CCC2(C31OC3C(C2c1ccc(=O)oc1)OC(=O)C)C)C,C26H34O6,442.54,32,6,0.77,3,6,1,118.56,89.27,3.35,3.34,3.80,3.08,3.90,3.50,-4.63,1.04e-02,2.35e-05,Moderately soluble,-4.89,5.68e-03,1.28e-05,Moderately soluble,-4.89,5.64e-03,1.27e-05,Moderately soluble,High,No,Yes,No,No,No,Yes,No,-6.63,0,0,0,0,0,0.55,0,1,1,6.48
Molecule 11,CC(C1CCC2(C1(C)CC=C1C2=CCC2C1(C)CCC(C2(C)C)O)C)CC/C=C(/C(=O)O)\C,C30H46O3,454.68,33,0,0.77,5,3,2,138.34,57.53,4.45,7.32,7.32,5.63,6.33,6.21,-6.94,5.21e-05,1.15e-07,Poorly soluble,-8.36,2.01e-06,4.41e-09,Poorly soluble,-5.69,9.33e-04,2.05e-06,Moderately soluble,Low,No,No,No,No,Yes,No,No,-3.88,1,3,0,1,1,0.56,0,1,2,6.24
Molecule 12,CC1=CC(=O)C(CC1)C(=C)C,C10H14O,150.22,11,0,0.50,1,1,0,47.32,17.07,2.25,2.28,2.49,2.10,2.64,2.35,-2.14,1.08e+00,7.22e-03,Soluble,-2.28,7.96e-01,5.30e-03,Soluble,-2.16,1.04e+00,6.95e-03,Soluble,High,Yes,No,No,No,No,No,No,-5.60,0,1,0,0,2,0.55,0,1,1,3.34
Molecule 13,COc1ccc2c(c1OC)OC1C2COc2c1ccc(c2)O,C17H16O5,300.31,22,12,0.29,2,5,1,79.66,57.15,2.58,2.58,2.69,1.55,2.78,2.44,-3.60,7.56e-02,2.52e-04,Soluble,-3.43,1.12e-01,3.73e-04,Soluble,-4.43,1.12e-02,3.74e-05,Moderately soluble,High,Yes,Yes,Yes,Yes,No,Yes,Yes,-6.30,0,0,0,0,0,0.55,0,0,0,3.70
Molecule 14,COc1ccc2c(c1)c(CCN(C)C)c[nH]2,C13H18N2O,218.29,16,9,0.38,4,2,1,67.07,28.26,2.54,2.79,2.28,1.50,2.79,2.38,-3.10,1.72e-01,7.88e-04,Soluble,-3.04,1.99e-01,9.12e-04,Soluble,-4.34,1.00e-02,4.58e-05,Moderately soluble,High,Yes,No,Yes,No,No,Yes,No,-5.65,0,0,0,0,0,0.55,0,0,1,1.78
Molecule 15,OC(CC(=O)CCc1ccc(c(c1)O)O)CCc1ccc(c(c1)O)O,C19H22O6,346.37,25,12,0.32,8,6,5,94.19,118.22,1.88,2.05,2.39,1.25,2.97,2.11,-3.11,2.71e-01,7.83e-04,Soluble,-4.16,2.39e-02,6.90e-05,Moderately soluble,-4.02,3.28e-02,9.46e-05,Moderately soluble,High,No,No,No,No,No,Yes,No,-6.96,0,0,0,0,0,0.55,1,1,1,2.74
Molecule 16,O=C(c1cc(O)c(c(c1)O)O)Oc1c(O)ccc(c1O)C(=O)O,C14H10O9,322.22,23,12,0.00,4,9,6,74.92,164.75,0.98,1.75,1.13,0.02,-0.04,0.77,-3.06,2.79e-01,8.66e-04,Soluble,-4.83,4.80e-03,1.49e-05,Moderately soluble,-1.08,2.67e+01,8.30e-02,Soluble,Low,No,No,Yes,No,No,No,No,-7.02,1,0,1,1,2,0.11,1,2,0,2.45
Molecule 17,CC1=CCCC2(C1C(CCC2)C(=C)C)C,C15H24,204.35,15,0,0.73,1,0,0,68.78,0.00,3.23,5.20,4.73,4.63,4.14,4.38,-4.32,9.85e-03,4.82e-05,Moderately soluble,-4.95,2.31e-03,1.13e-05,Moderately soluble,-3.55,5.79e-02,2.83e-04,Soluble,Low,No,No,No,Yes,Yes,No,No,-3.85,1,0,0,0,2,0.55,0,1,2,4.33
Molecule 18,OC(=O)/C=C(\C1C(OC(=O)c2c1c(O)c(c(c2)O)O)C(=O)O)/C(=O)OC1C2COC(=O)c3cc(O)c(c(c3c3c(C(=O)OC1C(C(O2)OC(=O)c1cc(O)c(c(c1)O)O)O)cc(O)c(c3O)O)O)O,C41H30O28,970.66,69,24,0.20,9,28,15,213.61,478.32,-0.59,0.32,-0.21,-3.80,-3.05,-1.47,-5.72,1.84e-03,1.89e-06,Moderately soluble,-9.93,1.15e-07,1.18e-10,Poorly soluble,0.14,1.33e+03,1.37e+00,Soluble,Low,No,Yes,No,No,No,No,No,-11.99,3,3,1,1,4,0.11,1,3,2,8.53
Molecule 19,CC(=O)OC1CCC2(C(C1(C)C)CC=C1C2CCC2(C1(C)CCC1(C2C(C)CC1)C(C)C)C)C,C32H52O2,468.75,34,0,0.91,3,2,0,144.88,26.30,4.95,9.58,8.60,7.08,7.30,7.50,-8.58,1.22e-06,2.61e-09,Poorly soluble,-10.04,4.23e-08,9.02e-11,Insoluble,-7.32,2.22e-05,4.74e-08,Poorly soluble,Low,No,No,No,No,No,No,No,-2.36,1,3,0,1,1,0.55,0,1,2,6.14
Molecule 20,OC1CCC(C1(C)C)(C)c1ccc(cc1)C,C15H22O,218.33,16,6,0.60,1,1,1,68.69,20.23,2.85,3.94,3.43,3.46,3.97,3.53,-3.89,2.83e-02,1.30e-04,Soluble,-4.06,1.88e-02,8.62e-05,Moderately soluble,-4.51,6.70e-03,3.07e-05,Moderately soluble,High,Yes,No,No,No,No,Yes,No,-4.83,0,0,0,0,1,0.55,0,0,2,2.40
Molecule 21,Oc1cc(/C=C/c2ccccc2)cc(c1C)O,C15H14O2,226.27,17,12,0.07,2,2,2,70.82,40.46,2.42,3.85,3.36,3.13,3.56,3.26,-4.06,1.98e-02,8.74e-05,Moderately soluble,-4.40,9.09e-03,4.02e-05,Moderately soluble,-4.25,1.28e-02,5.64e-05,Moderately soluble,High,Yes,No,Yes,No,Yes,No,No,-4.95,0,0,0,0,0,0.55,0,1,2,2.13
Molecule 22,CC(C1CCC2C1(C)CCC1(C2(C)CCC2(C1CCC1(C2CCC2C1(C)O2)C)C)C)C,C30H50O,426.72,31,0,1.00,1,1,0,133.46,12.53,4.85,9.52,8.27,7.07,7.54,7.45,-8.42,1.63e-06,3.83e-09,Poorly soluble,-9.69,8.65e-08,2.03e-10,Poorly soluble,-7.26,2.34e-05,5.48e-08,Poorly soluble,Low,No,No,No,No,No,No,No,-2.14,1,3,0,1,2,0.55,0,1,2,5.86
Molecule 23,COC1CCC(=O)N1C1OCC(=C1)COC(=O)c1ccc[nH]1,C15H18N2O5,306.31,22,5,0.47,6,5,1,79.81,80.86,2.45,0.04,0.67,0.44,1.28,0.98,-1.54,8.91e+00,2.91e-02,Very soluble,-1.29,1.57e+01,5.12e-02,Very soluble,-2.29,1.57e+00,5.14e-03,Soluble,High,No,No,No,No,No,No,No,-8.14,0,0,0,0,0,0.55,0,1,0,3.83
Molecule 24,OC1NC(=O)C(=C1)C,C5H7NO2,113.11,8,0,0.40,0,2,2,31.64,49.33,0.99,-0.53,-1.00,-0.48,0.07,-0.19,-0.21,7.02e+01,6.20e-01,Very soluble,-0.04,1.04e+02,9.18e-01,Very soluble,-0.20,7.07e+01,6.25e-01,Soluble,High,No,No,No,No,No,No,No,-7.37,0,4,0,0,1,0.55,0,0,1,2.53
Molecule 25,COc1c2occc2c(c2c1oc(=O)cc2)OCC(C(Cl)(C)C)O,C17H17ClO6,352.77,24,13,0.35,5,6,1,90.46,82.04,3.05,2.85,3.30,1.32,3.79,2.87,-3.89,4.51e-02,1.28e-04,Soluble,-4.23,2.07e-02,5.87e-05,Moderately soluble,-5.64,7.99e-04,2.26e-06,Moderately soluble,High,No,No,Yes,Yes,Yes,Yes,Yes,-6.43,0,0,0,0,0,0.55,0,2,1,4.07
Molecule 26,OCC1OC(Oc2c(CCC(=O)O)ccc3c2C2C(=C)COC2O3)C(C(C1O)O)O,C20H24O10,424.40,30,6,0.55,6,10,5,99.20,155.14,0.81,-0.66,-0.73,-0.80,0.05,-0.27,-1.81,6.61e+00,1.56e-02,Very soluble,-2.12,3.19e+00,7.51e-03,Soluble,-0.81,6.56e+01,1.55e-01,Soluble,Low,No,No,No,No,No,No,No,-9.36,0,1,1,1,1,0.11,0,1,1,5.31
Molecule 27,CCCCCCCCCCCCCCCC(=O)OC1CCC2(C(=CCC3C2CCC2(C3CCC2C(CCC(C(C)C)C)C)C)C1)C,C44H78O2,639.09,46,0,0.93,21,2,0,205.46,26.30,8.53,16.70,13.67,9.18,13.06,12.23,-12.94,7.38e-11,1.16e-13,Insoluble,-17.43,2.36e-15,3.69e-18,Insoluble,-11.84,9.32e-10,1.46e-12,Insoluble,Low,No,Yes,No,No,No,No,No,1.66,2,4,1,1,3,0.17,0,1,3,7.99
Molecule 28,OCC1OC(OC2CC(C)(C)CC3C2(C)CCC2(C3=CCC3C2(C)CCC2C3(C)CCC(C2(C)CO)OC2OC(C(=O)OC)C(C(C2OC2OCC(C(C2OC2OC(C)C(C(C2O)O)O)O)O)O)O)C)C(C(C1O)O)O,C54H88O22,1089.26,76,0,0.94,12,22,12,264.54,342.90,4.10,1.17,-0.74,-2.92,-1.71,-0.02,-6.54,3.15e-04,2.89e-07,Poorly soluble,-7.97,1.18e-05,1.08e-08,Poorly soluble,0.41,2.82e+03,2.59e+00,Soluble,Low,No,Yes,No,No,No,No,No,-12.11,3,4,2,1,5,0.17,0,2,2,10.00
Molecule 29,OCC(C(Cc1ccc(c(c1)OC)O)CO)Cc1ccc(c(c1)OC)O,C20H26O6,362.42,26,12,0.40,9,6,4,99.28,99.38,2.98,2.52,2.12,1.56,3.34,2.50,-3.42,1.37e-01,3.78e-04,Soluble,-4.25,2.02e-02,5.58e-05,Moderately soluble,-4.54,1.05e-02,2.90e-05,Moderately soluble,High,No,Yes,No,No,No,Yes,No,-6.72,0,0,0,0,0,0.55,0,0,2,3.21
Molecule 30,CCOC1Cc2cccc(c2)Oc2c(cccc2O)CCc2ccc(Oc3cc1cc(c3O)O)cc2,C30H28O6,484.54,36,24,0.20,2,6,3,138.32,88.38,3.70,6.22,6.48,3.59,4.99,5.00,-7.12,3.64e-05,7.51e-08,Poorly soluble,-7.86,6.66e-06,1.38e-08,Poorly soluble,-8.95,5.39e-07,1.11e-09,Poorly soluble,Low,No,No,No,No,No,No,No,-4.84,0,3,0,1,1,0.55,1,1,2,6.01
Molecule 31,OCC1OC(OC2OC=C(C(/C/2=C/C(=O)O)CC(=O)OCCc2ccc(cc2)O)C(=O)OC)C(C(C1O)O)O,C25H30O14,554.50,39,6,0.48,12,14,6,127.03,218.74,3.09,-1.15,-1.28,-1.62,-0.71,-0.33,-1.88,7.39e+00,1.33e-02,Very soluble,-2.95,6.20e-01,1.12e-03,Soluble,-0.20,3.47e+02,6.27e-01,Soluble,Low,No,No,No,No,No,No,No,-10.50,3,2,2,1,3,0.11,0,2,2,6.25
Molecule 32,C=C(C1CCC(OO1)(C)C)CC(=O)c1cc(O)ccc1O,C16H20O5,292.33,21,6,0.44,4,5,2,78.76,75.99,2.46,3.29,3.12,1.40,2.79,2.61,-3.67,6.21e-02,2.13e-04,Soluble,-4.56,8.03e-03,2.75e-05,Moderately soluble,-3.16,2.01e-01,6.89e-04,Soluble,High,Yes,No,No,No,No,No,No,-5.75,0,0,0,0,0,0.55,0,3,0,3.48
Molecule 33,COc1c(oc2c(c1=O)c(O)c(c(c2)OS(=O)(=O)O)OC)c1ccc(c(c1)O)O,C17H14O11S,426.35,29,16,0.12,5,11,4,99.19,181.34,1.51,1.87,2.86,-1.01,0.54,1.15,-3.74,7.76e-02,1.82e-04,Soluble,-5.30,2.14e-03,5.01e-06,Moderately soluble,-3.65,9.57e-02,2.24e-04,Soluble,Low,No,Yes,Yes,No,No,No,No,-7.57,1,0,1,1,2,0.11,1,2,1,3.75
Molecule 34,OCC1OC(Oc2cc(O)cc3c2c(=O)c(c(o3)c2ccc(c(c2)OC)O)O)C(C(C1O)O)O,C22H22O12,478.40,34,16,0.32,5,12,7,114.63,199.51,2.12,0.14,-0.24,-2.37,-0.05,-0.08,-2.91,5.85e-01,1.22e-03,Soluble,-3.89,6.22e-02,1.30e-04,Soluble,-2.20,3.03e+00,6.32e-03,Soluble,Low,No,No,No,No,No,No,No,-9.12,2,0,1,1,3,0.17,0,0,1,5.47
Molecule 35,CCC(=O)OC1C(OC(=O)C)C2(CO)C(O)C(O)C3(C(=CCC4C3(C)CCC3C4(C)CCC(C3(C)C)OC3OC(C(=O)O)C(C(C3OC3OC(CO)C(C(C3O)O)O)O)O)C2CC1(C)C)C,C47H74O19,943.08,66,0,0.89,12,19,10,230.35,308.89,3.76,2.34,0.30,-1.25,-0.29,0.97,-6.37,4.03e-04,4.27e-07,Poorly soluble,-8.47,3.22e-06,3.42e-09,Poorly soluble,-0.69,1.92e+02,2.04e-01,Soluble,Low,No,Yes,No,No,No,No,No,-10.39,3,3,2,1,4,0.11,0,3,2,9.73
Molecule 36,O=C(C1CN(C)C2C(=C1)c1cccc3c1c(C2)c[nH]3)NC1(OC2(N(C1=O)C(Cc1ccccc1)C(=O)N1C2CCC1)O)C(C)C,C35H39N5O5,609.71,45,15,0.46,6,6,3,179.96,118.21,3.92,4.02,1.48,1.80,2.73,2.79,-6.00,6.05e-04,9.92e-07,Poorly soluble,-6.21,3.80e-04,6.23e-07,Poorly soluble,-7.01,5.97e-05,9.79e-08,Poorly soluble,High,No,Yes,No,No,Yes,Yes,Yes,-7.17,1,3,0,0,2,0.55,0,0,2,6.36
Molecule 37,CC(C1CCC2(C1(C)CC=C1C2=CCC2C1(C)CCC(C2(C)C)O)C)CC/C=C(/C(=O)O)\C,C30H46O3,454.68,33,0,0.77,5,3,2,138.34,57.53,4.45,7.32,7.32,5.63,6.33,6.21,-6.94,5.21e-05,1.15e-07,Poorly soluble,-8.36,2.01e-06,4.41e-09,Poorly soluble,-5.69,9.33e-04,2.05e-06,Moderately soluble,Low,No,No,No,No,Yes,No,No,-3.88,1,3,0,1,1,0.56,0,1,2,6.24
Molecule 38,CCOC(=O)CCCCCCCCCCCCCC(C)C,C19H38O2,298.50,21,0,0.95,16,2,0,94.73,26.30,4.89,8.13,6.28,4.91,6.54,6.15,-5.76,5.23e-04,1.75e-06,Moderately soluble,-8.54,8.61e-07,2.88e-09,Poorly soluble,-6.44,1.09e-04,3.66e-07,Poorly soluble,High,No,No,Yes,No,No,No,No,-2.35,1,1,1,1,2,0.55,0,0,2,2.91
Molecule 39,Oc1cc(O)c2c(c1)oc(c(c2=O)OC1OC(COC(=O)c2cc(O)c(c(c2)O)O)C(C(C1OC(=O)c1cc(O)c(c(c1)O)O)O)O)c1ccc(c(c1)O)O,C35H28O20,768.58,55,28,0.17,10,20,12,181.57,344.03,1.90,2.14,1.42,-2.99,-0.35,0.42,-5.67,1.64e-03,2.14e-06,Moderately soluble,-9.00,7.75e-07,1.01e-09,Poorly soluble,-3.21,4.68e-01,6.10e-04,Soluble,Low,No,Yes,No,No,No,No,No,-9.47,3,3,1,1,4,0.17,1,2,2,6.51
Molecule 40,CCCCCCCCCCCCCCc1cccc(c1C(=O)O)O,C21H34O3,334.49,24,6,0.67,14,3,2,102.88,57.53,4.16,8.72,6.33,4.72,6.31,6.05,-6.67,7.18e-05,2.15e-07,Poorly soluble,-9.81,5.20e-08,1.56e-10,Poorly soluble,-6.82,5.11e-05,1.53e-07,Poorly soluble,High,No,No,Yes,Yes,Yes,Yes,No,-2.15,1,1,1,1,1,0.56,0,0,2,2.86
Molecule 41,CC(=CCCC1(C)C=Cc2c(O1)cc(c1c2OC(CC1=O)c1ccc(cc1O)O)O)C,C25H26O6,422.47,31,12,0.32,4,6,3,119.25,96.22,3.70,5.27,4.99,2.28,4.59,4.16,-5.80,6.67e-04,1.58e-06,Moderately soluble,-7.04,3.85e-05,9.11e-08,Poorly soluble,-5.47,1.42e-03,3.37e-06,Moderately soluble,High,No,No,Yes,Yes,Yes,No,Yes,-5.14,0,0,0,0,1,0.55,0,1,2,4.77
Molecule 42,CC(COC(=O)C1CCC(=O)N1)C,C9H15NO3,185.22,13,0,0.78,4,3,1,51.46,55.40,2.02,0.89,0.08,0.45,1.18,0.92,-1.29,9.61e+00,5.19e-02,Very soluble,-1.64,4.26e+00,2.30e-02,Very soluble,-1.62,4.47e+00,2.42e-02,Soluble,High,No,No,No,No,No,No,No,-6.80,0,0,0,0,1,0.55,0,0,1,2.35
Molecule 43,CC1=CCCC2=CC(c3c(C1)occ3C)OC2=O,C15H16O3,244.29,18,5,0.40,0,3,0,68.17,39.44,2.53,2.68,3.07,2.25,3.34,2.77,-3.25,1.38e-01,5.64e-04,Soluble,-3.16,1.69e-01,6.91e-04,Soluble,-3.79,3.96e-02,1.62e-04,Soluble,High,Yes,No,Yes,No,No,No,No,-5.89,0,0,0,0,0,0.55,0,1,1,4.84
Molecule 44,O=C(c1cc(O)c(c(c1)O)O)OC1OC2COC(=O)c3cc(O)c(c(c3c3c(C(=O)OC(C1OC(=O)c1cc(O)c(c(c1)O)O)C2OC(=O)c1cc(O)c(c(c1)O)O)cc(O)c(c3O)O)O)O,C41H30O26,938.66,67,30,0.15,9,26,15,213.27,444.18,-0.02,2.40,1.67,-2.83,-1.89,-0.13,-6.91,1.16e-04,1.23e-07,Poorly soluble,-11.37,4.01e-09,4.27e-12,Insoluble,-2.14,6.77e+00,7.21e-03,Soluble,Low,No,Yes,No,No,No,No,No,-10.32,3,3,1,1,4,0.17,1,2,2,7.89
Molecule 45,OCC1OC(Oc2c(oc3c(c2=O)c(O)cc(c3)O)c2ccc(cc2)O)C(C(C1O)O)OC1OC(COC(=O)/C=C/c2cc(OC)c(c(c2)OC)O)C(C(C1O)O)O,C38H40O20,816.71,58,22,0.37,13,20,10,194.87,314.19,1.22,0.82,-0.54,-3.74,-0.33,-0.51,-4.84,1.17e-02,1.44e-05,Moderately soluble,-7.00,8.17e-05,1.00e-07,Poorly soluble,-2.55,2.32e+00,2.84e-03,Soluble,Low,No,Yes,No,No,No,No,No,-10.70,3,4,2,1,4,0.17,0,1,2,7.58
Molecule 46,COc1cc(C)cc2c1[nH]c1c2cccc1,C14H13NO,211.26,16,13,0.14,1,1,1,67.26,25.02,2.44,3.72,3.64,2.71,4.04,3.31,-4.03,1.98e-02,9.36e-05,Moderately soluble,-3.94,2.44e-02,1.16e-04,Soluble,-5.48,7.00e-04,3.31e-06,Moderately soluble,High,Yes,Yes,Yes,Yes,No,Yes,Yes,-4.95,0,0,0,0,0,0.55,0,0,2,1.67
Molecule 47,OCC1OC(Oc2c(oc3c(c2=O)c(O)cc(c3)OC2OC(C)C(C(C2O)O)O)c2ccc(c(c2)O)O)C(C(C1O)O)OC1OC(COC(=O)/C=C/c2ccc(cc2)O)C(C(C1O)O)O,C42H46O23,918.80,65,22,0.43,13,23,13,214.87,374.88,2.54,-0.79,-2.35,-5.05,-2.49,-1.63,-4.43,3.40e-02,3.70e-05,Moderately soluble,-6.60,2.29e-04,2.49e-07,Poorly soluble,-0.50,2.92e+02,3.18e-01,Soluble,Low,No,Yes,No,No,No,No,No,-12.47,3,4,2,1,4,0.17,1,2,2,8.42
Molecule 48,CC(=C)C1CCC2(C(=C1)C(C)(O)CCC2)C,C15H24O,220.35,16,0,0.73,1,1,1,69.98,20.23,2.99,3.95,3.84,3.56,3.62,3.59,-3.63,5.18e-02,2.35e-04,Soluble,-4.07,1.85e-02,8.42e-05,Moderately soluble,-3.19,1.41e-01,6.40e-04,Soluble,High,Yes,No,No,Yes,Yes,No,No,-4.84,0,0,0,0,1,0.55,0,1,2,4.19
Molecule 49,COc1ccc2c(c1)N(C)C(=O)C12CC2NC1CC1C2(O)COC=C1C(=O)C,C21H24N2O5,384.43,28,6,0.52,2,6,2,108.27,88.10,3.07,-0.28,0.13,0.46,1.45,0.97,-2.07,3.24e+00,8.44e-03,Soluble,-1.11,2.98e+01,7.75e-02,Very soluble,-3.70,7.62e-02,1.98e-04,Soluble,High,No,Yes,No,No,No,No,No,-8.84,0,0,0,0,0,0.56,0,0,1,5.60
Molecule 50,COC1=CC(=O)C(=C/C/1=C/1\Oc2cc3OCC(Cc3cc2C(=C1)c1ccccc1)c1ccc(cc1O)OC)O,C32H26O7,522.54,39,18,0.16,4,7,2,145.52,94.45,4.36,4.98,5.75,2.22,5.25,4.51,-6.29,2.65e-04,5.07e-07,Poorly soluble,-6.70,1.04e-04,1.98e-07,Poorly soluble,-8.02,4.97e-06,9.51e-09,Poorly soluble,High,No,No,No,Yes,Yes,No,Yes,-5.95,1,3,0,0,0,0.56,0,0,2,5.28
Molecule 51,C/C(=C\C=C\C=C(\C=C\C=C(\C=C\C1=C(C)CC(CC1(C)C)O)/C)/C)/C=C/C=C(/C=C/C(=O)C1(C)CC(CC1(C)C)O)\C,C40H56O3,584.87,43,0,0.47,11,3,2,187.17,57.53,6.94,10.60,9.81,6.08,10.65,8.81,-9.42,2.23e-07,3.82e-10,Poorly soluble,-11.76,1.02e-09,1.74e-12,Insoluble,-5.61,1.44e-03,2.47e-06,Moderately soluble,Low,No,Yes,No,No,No,No,No,-2.34,2,4,1,1,1,0.17,0,2,3,6.86
Molecule 52,CCCCOCCOC1c2cc(C(C)C)c(cc2C2(C(C1Oc1cc3c(cc1C(C)C)C=CC1C3(C)CCCC1(C)C)C(C)(C)CCC2)C)OC(=O)C,C48H70O5,727.07,53,12,0.69,13,5,0,221.62,53.99,6.61,13.47,11.96,7.28,12.03,10.27,-12.14,5.23e-10,7.19e-13,Insoluble,-14.66,1.58e-12,2.17e-15,Insoluble,-13.11,5.67e-11,7.80e-14,Insoluble,Low,No,Yes,No,No,No,No,Yes,-1.17,2,4,1,1,2,0.17,0,1,3,7.98
Molecule 53,CCCC(=O)C1=C(O)C(C(=C(C1=O)Cc1c(O)c(C)c(c(c1OC)C(=O)CCC)O)O)(C)C,C25H32O8,460.52,33,6,0.48,9,8,4,124.63,141.36,3.09,4.59,4.54,0.23,4.99,3.49,-5.13,3.43e-03,7.46e-06,Moderately soluble,-7.28,2.40e-05,5.21e-08,Poorly soluble,-5.43,1.70e-03,3.69e-06,Moderately soluble,Low,No,Yes,No,No,No,No,Yes,-5.85,0,0,1,1,0,0.56,0,1,3,4.12
Molecule 54,CCC(C(C)C)/C=C/C(C1CCC2C1(C)CCC1C2C(OO)C=C2C1(C)CCC(C2)O)C,C29H48O3,444.69,32,0,0.86,6,3,2,135.41,49.69,4.63,7.49,7.27,5.63,5.52,6.11,-6.92,5.35e-05,1.20e-07,Poorly soluble,-8.37,1.91e-06,4.29e-09,Poorly soluble,-4.38,1.88e-02,4.22e-05,Moderately soluble,Low,No,No,No,No,Yes,No,No,-3.69,1,3,0,1,1,0.55,0,2,2,6.64
Molecule 55,COc1cc2oc(cc(=O)c2c(c1C)O)c1ccc(c(c1)O)O,C17H14O6,314.29,23,16,0.12,2,6,3,85.45,100.13,2.54,3.22,2.89,0.47,3.05,2.43,-4.20,1.98e-02,6.31e-05,Moderately soluble,-5.00,3.18e-03,1.01e-05,Moderately soluble,-4.90,3.95e-03,1.26e-05,Moderately soluble,High,No,No,Yes,No,Yes,Yes,Yes,-5.93,0,0,0,0,0,0.55,1,1,0,3.19
Molecule 56,O=CC1(CCc2cocc2)C(C)C(OC(=O)C)CC2(C1CCC1C2(C)O1)C,C22H30O5,374.47,27,5,0.73,6,5,0,101.14,69.04,2.88,3.12,3.94,2.29,4.56,3.36,-3.87,5.07e-02,1.35e-04,Soluble,-4.24,2.16e-02,5.77e-05,Moderately soluble,-5.10,2.95e-03,7.89e-06,Moderately soluble,High,Yes,No,No,No,No,Yes,Yes,-6.37,0,0,0,0,0,0.55,0,2,1,5.20
Molecule 57,O=C1C23CCC4C(C3CCC(C31CO3)C2)(C)CCCC4(C)C,C20H30O2,302.45,22,0,0.95,0,2,0,88.23,29.60,3.10,4.83,4.37,3.93,4.83,4.21,-4.76,5.28e-03,1.75e-05,Moderately soluble,-5.18,1.98e-03,6.53e-06,Moderately soluble,-4.63,7.09e-03,2.34e-05,Moderately soluble,High,Yes,No,No,No,No,No,No,-4.72,0,0,0,0,0,0.55,0,1,1,5.31
Molecule 58,C/C=C(/C(=O)OC1CC(C)(C)CC2C1(CCC1(C2=CCC2C1(C)CCC1C32CCC(C1(C)C)(OC3)O)C)C(=O)O)\C,C35H52O6,568.78,41,0,0.83,4,6,2,160.51,93.06,4.36,7.10,7.06,5.29,6.08,5.98,-7.58,1.51e-05,2.66e-08,Poorly soluble,-8.87,7.62e-07,1.34e-09,Poorly soluble,-6.16,3.94e-04,6.93e-07,Poorly soluble,Low,No,Yes,No,No,No,No,No,-4.73,2,4,0,1,1,0.56,0,2,2,7.91
Molecule 59,OCC1OC(OC23CCC4C(C3(C)C(C(C(C2O)O)O)O)CCC2(C4CC3C2C(C2(O3)CCC(=C)CO2)C)C)C(C(C1O)O)O,C33H52O12,640.76,45,0,0.94,3,12,8,158.66,198.76,3.32,-0.08,-0.43,-0.65,-0.73,0.28,-3.56,1.75e-01,2.73e-04,Soluble,-3.64,1.46e-01,2.28e-04,Soluble,-0.10,5.11e+02,7.98e-01,Soluble,Low,No,No,No,No,No,No,No,-10.27,3,4,1,1,4,0.17,0,2,1,8.24
Molecule 60,O=C1c2cc3ccoc3cc2OC2C1(O)c1cc3OCOc3cc1OC2,C19H12O7,352.29,26,15,0.21,0,7,1,86.76,87.36,2.43,2.33,2.28,0.58,2.85,2.09,-3.92,4.24e-02,1.20e-04,Soluble,-3.80,5.54e-02,1.57e-04,Soluble,-5.17,2.38e-03,6.75e-06,Moderately soluble,High,No,No,Yes,Yes,Yes,Yes,Yes,-6.79,0,0,0,0,0,0.55,0,0,1,4.13
Molecule 61,OCC1OC(OC2Cc3c(OC)cc(cc3OC2c2ccc(c(c2)OC)O)O)C(C(C1O)O)O,C23H28O11,480.46,34,12,0.48,6,11,6,115.66,167.53,2.11,0.48,-0.35,-1.40,-0.09,0.15,-2.99,4.96e-01,1.03e-03,Soluble,-3.57,1.30e-01,2.71e-04,Soluble,-1.79,7.70e+00,1.60e-02,Soluble,Low,No,Yes,No,No,No,No,No,-8.89,2,1,1,1,3,0.17,0,0,1,5.61
Molecule 62,COC(=O)CC1C2(C)C(OC3C2=C(C)C(C3)c2cocc2)C(C2C1(C)C(=O)C=CC2(C)C(=O)OC)OC(=O)C,C30H36O9,540.60,39,5,0.60,8,9,0,138.81,118.34,3.95,2.28,3.92,2.04,3.96,3.23,-4.20,3.45e-02,6.38e-05,Moderately soluble,-4.40,2.14e-02,3.96e-05,Moderately soluble,-5.44,1.97e-03,3.64e-06,Moderately soluble,High,No,No,No,No,No,No,No,-7.98,1,3,0,0,0,0.55,0,2,2,6.54
Molecule 63,CC(=C)C1CCC(O1)(C)C1CCC2(C1CCC1C2(C)CCC2C1(C)CCC(=O)C2(C)C)C,C30H48O2,440.70,32,0,0.90,2,2,0,135.56,26.30,4.72,8.23,7.75,5.89,7.24,6.77,-7.63,1.04e-05,2.37e-08,Poorly soluble,-8.64,1.00e-06,2.27e-09,Poorly soluble,-7.17,3.01e-05,6.84e-08,Poorly soluble,Low,No,No,No,No,No,No,No,-3.14,1,3,0,1,1,0.55,0,1,2,5.75
Molecule 64,CCCCCCCCCCCCCCCC(=O)OC1C(C)C2(O)C(C3C1(OC(=O)C)C3(C)CO)C=C(CC1(C2C=C(C1=O)C)O)CO,C38H60O9,660.88,47,0,0.82,20,9,4,182.65,150.59,5.27,6.41,5.51,2.96,7.18,5.47,-6.66,1.46e-04,2.21e-07,Poorly soluble,-9.37,2.85e-07,4.31e-10,Poorly soluble,-7.33,3.06e-05,4.62e-08,Poorly soluble,Low,No,Yes,No,No,No,No,Yes,-5.78,1,3,2,1,4,0.55,0,2,3,7.73
Molecule 65,OCC1OC(Oc2cc(O)c3c(c2CC=C(C)C)oc(c(c3=O)OC2OC(C)C(C(C2O)O)O)c2ccc(cc2)O)C(C(C1O)O)O,C32H38O15,662.64,47,16,0.47,8,15,9,162.81,249.20,1.88,1.34,-0.24,-2.53,0.20,0.13,-4.52,2.02e-02,3.04e-05,Moderately soluble,-6.17,4.43e-04,6.68e-07,Poorly soluble,-2.06,5.78e+00,8.73e-03,Soluble,Low,No,Yes,No,No,No,No,No,-9.39,3,3,1,1,4,0.17,0,1,2,7.11
Molecule 66,Oc1cc(O)c2c(c1)oc(c(c2=O)OC1OC(COC(=O)C2CCC(CC2)C(O)(C)C)C(C(C1O)O)O)c1ccc(c(c1)O)O,C31H36O14,632.61,45,16,0.48,8,14,8,157.44,236.81,2.01,1.74,1.59,-1.31,1.04,1.01,-4.59,1.61e-02,2.55e-05,Moderately soluble,-6.33,2.96e-04,4.68e-07,Poorly soluble,-3.02,6.01e-01,9.51e-04,Soluble,Low,No,Yes,No,No,No,No,No,-8.92,3,3,1,1,4,0.17,1,1,2,6.59
Molecule 67,COc1cc2CCN3C(c2cc1OC)C(C)c1c(C3)c(OC)c(cc1)OC,C22H27NO4,369.45,27,12,0.45,4,5,0,108.80,40.16,3.83,3.57,3.08,2.42,3.86,3.35,-4.44,1.33e-02,3.59e-05,Moderately soluble,-4.10,2.94e-02,7.96e-05,Moderately soluble,-6.01,3.57e-04,9.66e-07,Poorly soluble,High,Yes,No,No,No,No,Yes,Yes,-6.02,0,0,0,0,0,0.55,0,0,2,3.89
Molecule 68,OCC(C(CCC(C1CCC2(C1(C)CCC1=C2C(=O)CC2C1(C)CCC(=O)C2(C)C)C)C)O)(O)C,C30H48O5,488.70,35,0,0.87,6,5,3,140.28,94.83,3.91,4.15,5.00,3.23,6.12,4.48,-5.09,3.99e-03,8.16e-06,Moderately soluble,-5.85,6.92e-04,1.42e-06,Moderately soluble,-6.02,4.71e-04,9.64e-07,Poorly soluble,High,No,Yes,No,No,No,No,Yes,-6.33,0,3,0,0,0,0.55,0,0,2,6.23
Molecule 69,CN1CCc2c3C1Cc1ccc(cc1c3c1c(c2)OCO1)O,C18H17NO3,295.33,22,12,0.33,0,4,1,87.06,41.93,2.79,2.95,2.17,2.49,3.24,2.73,-3.93,3.44e-02,1.17e-04,Soluble,-3.49,9.49e-02,3.21e-04,Soluble,-4.68,6.18e-03,2.09e-05,Moderately soluble,High,Yes,Yes,Yes,No,No,Yes,Yes,-6.01,0,0,0,0,0,0.55,0,0,0,3.53
Molecule 70,COc1cc2OC(C)(C)C=Cc2c(c1C(=O)/C=C(/c1ccccc1)\O)OC,C22H22O5,366.41,27,12,0.23,5,5,1,104.93,64.99,3.77,4.54,4.56,1.92,4.25,3.81,-4.97,3.92e-03,1.07e-05,Moderately soluble,-5.63,8.65e-04,2.36e-06,Moderately soluble,-5.45,1.31e-03,3.56e-06,Moderately soluble,High,Yes,No,Yes,Yes,Yes,No,Yes,-5.31,0,0,0,0,0,0.56,0,2,2,3.78
Molecule 71,CC(=O)OC1CCC2(C(=CCC3C2CCC2(C3CCC2O)C)C1)C,C21H32O3,332.48,24,0,0.86,2,3,1,96.06,46.53,3.32,4.12,4.24,3.98,3.43,3.82,-4.36,1.43e-02,4.32e-05,Moderately soluble,-4.80,5.23e-03,1.57e-05,Moderately soluble,-3.42,1.27e-01,3.81e-04,Soluble,High,Yes,No,No,No,Yes,No,No,-5.40,0,0,0,0,0,0.55,0,1,1,5.03
Molecule 72,O=C(c1ccccc1)CC(=O)C,C10H10O2,162.19,12,6,0.20,3,2,0,46.45,34.14,1.52,1.57,1.85,1.39,2.38,1.74,-2.01,1.60e+00,9.85e-03,Soluble,-1.90,2.05e+00,1.27e-02,Very soluble,-3.08,1.36e-01,8.39e-04,Soluble,High,Yes,No,Yes,No,No,No,No,-6.17,0,0,0,0,1,0.55,0,1,1,1.00
Molecule 73,OCC1OC(C(C(C1O)O)O)c1c(O)cc2c(c1O)c(=O)cc(o2)C,C16H18O9,354.31,25,10,0.44,2,9,6,84.12,160.82,1.57,-0.70,-1.30,-2.45,-0.23,-0.62,-1.76,6.16e+00,1.74e-02,Very soluble,-2.20,2.23e+00,6.28e-03,Soluble,-0.89,4.59e+01,1.29e-01,Soluble,Low,No,No,No,No,No,No,No,-8.96,1,1,1,1,2,0.55,0,0,1,4.61
Molecule 74,CC(=C)c1ccccc1C,C10H12,132.20,10,6,0.20,1,0,0,46.31,0.00,2.42,3.69,3.03,4.38,3.29,3.36,-3.36,5.74e-02,4.34e-04,Soluble,-3.38,5.51e-02,4.17e-04,Soluble,-3.58,3.46e-02,2.62e-04,Soluble,Low,Yes,No,No,No,No,Yes,No,-4.49,1,1,0,0,2,0.55,0,0,2,1.14
Molecule 75,O=C1CC2(C)CC3(C(C4(O1)C2(O)CCC(C4O)C)(O)C(=C(C3)C(C)C)C)O,C21H32O6,380.48,27,0,0.86,1,6,4,99.96,107.22,3.12,0.01,1.44,1.48,2.38,1.69,-2.14,2.76e+00,7.26e-03,Soluble,-1.81,5.85e+00,1.54e-02,Very soluble,-2.74,6.89e-01,1.81e-03,Soluble,High,No,Yes,No,No,No,No,No,-8.61,0,0,0,0,0,0.55,0,1,1,5.97
Molecule 76,CCCCCCCCCCCC(=O)OCC,C14H28O2,228.37,16,0,0.93,12,2,0,70.70,26.30,3.75,5.71,4.47,3.69,4.52,4.43,-4.06,1.98e-02,8.69e-05,Moderately soluble,-6.03,2.14e-04,9.36e-07,Poorly soluble,-4.80,3.59e-03,1.57e-05,Moderately soluble,High,Yes,No,Yes,No,No,No,No,-3.64,0,0,1,0,1,0.55,0,0,3,2.35
Molecule 77,COc1cc(/C=C/c2cc(O)cc(c2)O)cc2c1OC(C2c1cc(O)cc(c1)O)c1ccc(c(c1)OC)O,C30H26O8,514.52,38,24,0.13,6,8,5,143.23,128.84,3.31,5.35,5.13,2.20,4.60,4.12,-6.47,1.74e-04,3.37e-07,Poorly soluble,-7.81,8.00e-06,1.55e-08,Poorly soluble,-7.05,4.53e-05,8.81e-08,Poorly soluble,Low,No,No,No,No,Yes,No,No,-5.64,1,2,0,0,1,0.55,0,1,2,4.76
Molecule 78,OCC1OC(Oc2cc3CC(/[N+](=C/C=C\4/CC(NC(=C4)C(=O)O)C(=O)O)/c3cc2O)C(=O)[O-])C(C(C1O)O)OC1OC(C(=O)O)C(C(C1O)O)O,C30H34N2O19,726.59,51,6,0.50,10,19,11,167.15,345.60,-2.94,-2.86,-6.54,-6.71,-5.66,-4.94,-1.97,7.78e+00,1.07e-02,Very soluble,-3.84,1.05e-01,1.44e-04,Soluble,3.37,1.71e+06,2.35e+03,Soluble,Low,No,Yes,No,No,No,No,No,-12.76,3,4,1,1,5,0.11,0,1,2,7.08
Molecule 79,CC(=C)CCC/C(=C/1\CCC(=CC1)C)/C,C15H24,204.35,15,0,0.60,4,0,0,70.68,0.00,3.67,6.64,5.18,4.53,4.78,4.96,-5.03,1.92e-03,9.42e-06,Moderately soluble,-6.44,7.39e-05,3.62e-07,Poorly soluble,-4.16,1.43e-02,6.98e-05,Moderately soluble,Low,No,No,Yes,No,Yes,No,No,-2.83,1,0,0,0,2,0.55,0,1,2,3.45
Molecule 80,OCC1OC(OC2CC3=CCC4C(C3(CC2O)C)CCC2(C4CC(C2C(=O)C)OC(=O)CCC(COC2OC(CO)C(C(C2O)O)O)C)C)C(C(C1OC1OC(CO)C(C(C1OC1OC(CO)C(C(C1O)OC1OC(CO)C(C(C1O)O)O)O)OC1OCC(C(C1O)O)O)O)O)O,C62H100O35,1405.44,97,0,0.94,24,35,20,315.76,558.73,2.62,-7.17,-9.00,-10.00,-8.42,-6.39,-2.45,4.96e+00,3.53e-03,Soluble,-3.84,2.01e-01,1.43e-04,Soluble,7.52,4.64e+10,3.30e+07,Soluble,Low,No,Yes,No,No,No,No,No,-19.96,3,4,2,1,7,0.17,0,1,2,10.00
Molecule 81,C/C=C/c1cc2c(c(c1)OC)OC(C2C)c1ccc2c(c1)OCO2,C20H20O4,324.37,24,12,0.30,3,4,0,92.53,36.92,3.89,4.58,4.26,3.13,4.67,4.11,-4.91,4.00e-03,1.23e-05,Moderately soluble,-5.08,2.70e-03,8.33e-06,Moderately soluble,-5.47,1.11e-03,3.42e-06,Moderately soluble,High,Yes,No,No,Yes,Yes,Yes,Yes,-5.03,0,0,0,0,0,0.55,0,0,1,4.03
Molecule 82,C/C(=C\COc1c2ccoc2cc2c1ccc(=O)o2)/C/C=C/C(=C)C,C21H20O4,336.38,25,13,0.19,6,4,0,100.59,52.58,4.01,5.40,5.39,3.16,5.61,4.71,-5.32,1.62e-03,4.83e-06,Moderately soluble,-6.26,1.85e-04,5.51e-07,Poorly soluble,-6.42,1.28e-04,3.80e-07,Poorly soluble,High,Yes,No,Yes,Yes,Yes,No,Yes,-4.52,0,0,0,0,1,0.55,0,3,1,3.85
Molecule 83,OCC1(C)C(CCC2(C1CCC1(C2CC=C2C1(C)CC(O)C1(C2CC(CC1)(C)C)C(=O)O)C)C)OC1OCC(C(C1O)O)O,C35H56O9,620.81,44,0,0.91,4,9,6,165.39,156.91,3.36,4.13,3.64,2.30,2.76,3.24,-6.03,5.83e-04,9.40e-07,Poorly soluble,-7.13,4.58e-05,7.38e-08,Poorly soluble,-3.36,2.73e-01,4.40e-04,Soluble,Low,No,Yes,No,No,No,No,No,-7.15,2,3,1,1,3,0.11,0,2,2,7.76
Molecule 84,CC(=O)OCC1OC(OC(=O)C2=CCCC3C2(C)CCC(C3(C)CCC2=CC(=O)OC2)C)C(C(C1OC(=O)C)OC(=O)C)OC(=O)C,C34H46O13,662.72,47,0,0.71,15,13,0,164.42,167.03,3.86,4.35,3.66,2.63,3.96,3.69,-5.70,1.32e-03,2.00e-06,Moderately soluble,-7.57,1.77e-05,2.67e-08,Poorly soluble,-4.37,2.82e-02,4.26e-05,Moderately soluble,Low,No,Yes,No,Yes,No,Yes,No,-7.25,2,3,2,1,3,0.17,0,1,3,7.18
Molecule 85,COC1CC2(OCOC3C(OC2)C(C)OC(C3)OC(C2(O)CCC3C2(C)CCC2C3CC=C3C2(C)CCC(C3)O)C)OC(C1OC1CC(OC)C(C(O1)C)OC1CC(OC)C(C(O1)C)OC1CC(OC)C(C(O1)C)OC1OC(C)C(C(C1OC(=O)C)OC)O)C,C66H108O24,1285.55,90,0,0.95,18,24,3,320.59,262.36,10.02,4.58,5.90,-1.37,2.21,4.27,-9.51,3.99e-07,3.11e-10,Poorly soluble,-9.81,1.98e-07,1.54e-10,Poorly soluble,-4.13,9.62e-02,7.48e-05,Moderately soluble,Low,No,Yes,No,No,No,No,No,-10.89,2,4,2,2,5,0.17,0,1,3,10.00
Molecule 86,O=C1CCC2C(C1C)(C)CCC1C2(C)C(=O)CC2(C1(C)CCC1(C2CC(C)(C)CC1)C)C,C30H48O2,440.70,32,0,0.93,0,2,0,134.59,34.14,4.16,8.14,7.64,5.89,7.21,6.61,-7.70,8.78e-06,1.99e-08,Poorly soluble,-8.72,8.49e-07,1.93e-09,Poorly soluble,-7.75,7.80e-06,1.77e-08,Poorly soluble,Low,No,No,No,No,No,No,No,-3.21,1,3,0,1,1,0.55,0,0,2,5.13
Molecule 87,OC1C(OC(C(C1O)O)COC(=O)c1ccccc1)Oc1ccc(cc1COc1cccc(c1O)C(=O)O)O,C27H26O12,542.49,39,18,0.26,10,12,6,132.21,192.44,3.18,2.28,1.27,-0.09,0.83,1.49,-4.32,2.59e-02,4.77e-05,Moderately soluble,-5.96,5.97e-04,1.10e-06,Moderately soluble,-3.66,1.19e-01,2.20e-04,Soluble,Low,No,Yes,No,No,No,No,No,-7.99,3,2,1,1,3,0.11,0,0,2,5.38
Molecule 88,CN(C(C1CCC2C1(C)CCC1C2CC=C2C1(C)CCC(C2)N(C)C)C)C(=O)C,C26H44N2O,400.64,29,0,0.88,4,2,0,123.64,23.55,4.38,5.26,5.36,4.63,3.87,4.70,-5.37,1.69e-03,4.23e-06,Moderately soluble,-5.50,1.26e-03,3.13e-06,Moderately soluble,-4.47,1.35e-02,3.37e-05,Moderately soluble,High,Yes,No,No,No,No,Yes,No,-5.01,1,1,0,0,1,0.55,0,1,2,5.47
Molecule 89,OCC1OC(Oc2ccccc2COC(=O)c2c(OC)ccc(c2OC)OC2OC(CO)C(C(C2O)O)O)C(C(C1O)O)O,C28H36O16,628.58,44,12,0.54,12,16,8,143.48,243.52,2.10,-1.11,-2.73,-2.96,-1.67,-1.27,-2.45,2.24e+00,3.57e-03,Soluble,-3.51,1.93e-01,3.07e-04,Soluble,-0.57,1.71e+02,2.72e-01,Soluble,Low,No,No,No,No,No,No,No,-10.92,3,4,2,1,4,0.17,0,0,2,6.37
Molecule 90,OC1COC(C(C1O)O)(O)CN1CCc2c(C1(C)C)cc(c(c2)O)O,C17H25NO7,355.38,25,6,0.65,2,8,6,91.92,133.85,1.40,-1.26,-1.50,-0.99,-0.40,-0.55,-1.30,1.80e+01,5.07e-02,Very soluble,-1.05,3.13e+01,8.82e-02,Very soluble,-0.67,7.69e+01,2.16e-01,Soluble,Low,No,No,No,No,No,No,No,-9.36,1,1,0,1,1,0.55,1,1,1,4.19
Molecule 91,OCC12CCC(CC1=CCC1C2CCC2(C1CCC2C(CCC(=C)C(C)C)C)C)O,C28H46O2,414.66,30,0,0.86,6,2,2,129.11,40.46,4.63,7.40,6.53,5.50,6.04,6.02,-6.68,8.73e-05,2.10e-07,Poorly soluble,-8.08,3.45e-06,8.32e-09,Poorly soluble,-5.24,2.41e-03,5.81e-06,Moderately soluble,High,No,No,No,No,No,No,No,-3.58,1,2,0,1,1,0.55,0,1,2,6.14
Molecule 92,OCC1C(O)CC2C1C(OC=C2COC1OC(CO)C(C(C1O)O)O)OC(=O)CC(C)C,C21H34O11,462.49,32,0,0.86,9,11,6,107.76,175.37,2.94,-1.12,-1.76,-1.60,-1.36,-0.58,-1.41,1.81e+01,3.91e-02,Very soluble,-2.07,3.92e+00,8.48e-03,Soluble,1.30,9.27e+03,2.00e+01,Soluble,Low,No,No,No,No,No,No,No,-9.92,2,1,1,1,3,0.17,0,0,2,6.18
Molecule 93,O=C(C(O)(C)C)CCc1c(C)ccc2c1C(=O)C(=O)C(=C2)C(C)C,C20H24O4,328.40,24,6,0.45,5,4,1,94.60,71.44,2.80,2.84,2.96,1.66,4.84,3.02,-3.52,9.91e-02,3.02e-04,Soluble,-4.00,3.30e-02,1.00e-04,Soluble,-5.23,1.95e-03,5.94e-06,Moderately soluble,High,Yes,No,No,Yes,No,No,No,-6.29,0,0,0,0,0,0.55,2,1,0,3.60
Molecule 94,COc1cc(O)cc(c1C(=O)C1C(c2ccccc2)C(C1C(=O)c1c(OC)cc(cc1OC)O)c1ccccc1)OC,C34H32O8,568.61,42,24,0.24,10,8,2,157.65,111.52,3.21,5.37,6.01,2.34,5.77,4.54,-6.51,1.75e-04,3.08e-07,Poorly soluble,-7.47,1.95e-05,3.42e-08,Poorly soluble,-9.13,4.20e-07,7.38e-10,Poorly soluble,Low,No,Yes,No,No,Yes,No,Yes,-5.96,1,4,0,1,1,0.55,0,0,3,4.78
Molecule 95,O=C/C=C/c1ccc(c(c1)c1ccc(c(c1)CC=C)O)O,C18H16O3,280.32,21,12,0.06,5,3,2,85.13,57.53,2.52,3.80,3.60,2.82,4.51,3.45,-4.06,2.41e-02,8.61e-05,Moderately soluble,-4.70,5.56e-03,1.98e-05,Moderately soluble,-4.65,6.26e-03,2.23e-05,Moderately soluble,High,Yes,No,Yes,No,Yes,No,Yes,-5.31,0,0,0,0,0,0.55,0,3,1,2.77
Molecule 96,COC(=O)c1cc(OC)c(c(c1)OC)O,C10H12O5,212.20,15,6,0.30,4,5,1,52.73,64.99,2.31,1.37,1.20,0.80,1.28,1.39,-2.05,1.89e+00,8.90e-03,Soluble,-2.34,9.75e-01,4.60e-03,Soluble,-2.16,1.46e+00,6.90e-03,Soluble,High,Yes,No,No,No,No,No,No,-6.62,0,0,0,0,0,0.55,0,0,1,1.93
Molecule 97,OC(=O)C12CCC3(C(C1=CCC1C2(C)CCC2C1(C)CCC(C2(C)C)O)CC(CC3)(C)C)C(=O)O,C30H46O5,486.68,35,0,0.87,2,5,3,138.43,94.83,3.21,6.02,6.30,4.86,4.79,5.03,-6.52,1.48e-04,3.03e-07,Poorly soluble,-7.79,7.90e-06,1.62e-08,Poorly soluble,-5.08,4.09e-03,8.39e-06,Moderately soluble,Low,No,Yes,No,No,Yes,No,No,-4.99,1,4,0,1,1,0.56,0,1,2,6.38
Molecule 98,OCC(C1(C)CCC2C(=C1)CCC1C2(C)CCCC1(C)COC(=O)C)O,C22H36O4,364.52,26,0,0.86,5,4,2,103.88,66.76,3.65,3.90,3.85,3.35,4.00,3.75,-4.23,2.16e-02,5.93e-05,Moderately soluble,-5.00,3.64e-03,1.00e-05,Moderately soluble,-3.92,4.40e-02,1.21e-04,Soluble,High,Yes,No,No,No,No,No,No,-5.75,0,0,0,0,0,0.55,0,1,2,5.05
Molecule 99,O=C1OC2CC3(C1O)C(C)CC(C3(C1(C2(C)O)COC1=O)O)O,C15H20O8,328.31,23,0,0.87,0,8,4,72.54,133.52,0.89,-1.89,-1.91,-0.70,-0.38,-0.80,-0.68,6.78e+01,2.07e-01,Very soluble,-0.39,1.33e+02,4.04e-01,Very soluble,-0.22,1.98e+02,6.03e-01,Soluble,Low,No,Yes,No,No,No,No,No,-9.64,0,1,0,1,0,0.55,0,2,0,5.79
Molecule 100,OCC1OC(OC2OCCC3C2C(=CC3O)COC(=O)c2ccccc2)C(C(C1O)O)O,C22H28O10,452.45,32,6,0.59,7,10,5,107.27,155.14,2.71,-0.92,-1.06,-0.63,-0.85,-0.15,-1.74,8.19e+00,1.81e-02,Very soluble,-1.85,6.33e+00,1.40e-02,Very soluble,-0.40,1.81e+02,4.00e-01,Soluble,Low,No,No,No,No,No,No,No,-9.71,0,1,1,1,1,0.55,0,1,1,5.68
