Molecule,Canonical SMILES,Formula,MW,#Heavy atoms,#Aromatic heavy atoms,Fraction Csp3,#Rotatable bonds,#H-bond acceptors,#H-bond donors,MR,TPSA,iLOGP,XLOGP3,WLOGP,MLOGP,Silicos-IT Log P,Consensus Log P,ESOL Log S,ESOL Solubility (mg/ml),ESOL Solubility (mol/l),ESOL Class,Ali Log S,Ali Solubility (mg/ml),Ali Solubility (mol/l),Ali Class,Silicos-IT LogSw,Silicos-IT Solubility (mg/ml),Silicos-IT Solubility (mol/l),Silicos-IT class,GI absorption,BBB permeant,Pgp substrate,CYP1A2 inhibitor,CYP2C19 inhibitor,CYP2C9 inhibitor,CYP2D6 inhibitor,CYP3A4 inhibitor,log Kp (cm/s),Lipinski #violations,Ghose #violations,Veber #violations,Egan #violations,Muegge #violations,Bioavailability Score,PAINS #alerts,Brenk #alerts,Leadlikeness #violations,Synthetic Accessibility
Molecule 1,OCC1OC(Oc2cc(O)cc(c2C(=O)C(CC)C)O)C(C(C1O)O)O,C17H24O9,372.37,26,6,0.59,6,9,6,89.25,156.91,0.95,0.69,-0.49,-1.59,-0.26,-0.14,-2.36,1.63e+00,4.38e-03,Soluble,-3.56,1.02e-01,2.74e-04,Soluble,-0.19,2.40e+02,6.46e-01,Soluble,Low,No,Yes,No,No,No,No,No,-8.08,1,1,1,1,2,0.55,0,0,1,4.84
Molecule 2,NCCc1ccc(c(c1)O)O,C8H11NO2,153.18,11,6,0.25,2,3,3,42.97,66.48,1.27,-0.98,0.60,0.60,0.80,0.46,-0.44,5.51e+01,3.60e-01,Very soluble,0.07,1.80e+02,1.17e+00,Highly soluble,-1.68,3.19e+00,2.08e-02,Soluble,High,No,No,No,No,No,No,No,-7.93,0,1,0,0,1,0.55,1,1,1,1.01
Molecule 3,OC/C=C(/COC1OC(COC(=O)Cc2ccc(c(c2)O)O)C(C(C1O)O)O)\C,C19H26O10,414.40,29,6,0.53,9,10,6,98.65,166.14,1.83,-0.90,-1.05,-1.43,-0.20,-0.35,-1.40,1.64e+01,3.97e-02,Very soluble,-2.11,3.24e+00,7.83e-03,Soluble,-0.36,1.81e+02,4.38e-01,Soluble,Low,No,No,No,No,No,No,No,-9.47,1,1,1,1,2,0.55,1,2,2,4.98
Molecule 4,COc1cccc2c1nc1c2c(OC)c[nH]c1C1CCCc2[n+]1cc(OC)c1c2[nH]c2c1cccc2,C29H27N4O3,479.55,36,26,0.24,4,4,2,142.98,76.04,1.03,4.57,5.59,2.39,5.72,3.86,-5.96,5.22e-04,1.09e-06,Moderately soluble,-5.89,6.17e-04,1.29e-06,Moderately soluble,-9.58,1.27e-07,2.65e-10,Poorly soluble,High,No,Yes,No,Yes,Yes,No,Yes,-5.98,0,1,0,0,0,0.55,0,1,2,4.25
Molecule 5,CCC(C(C)C)CCC(C1CCC2C1(C)CCC1C2CCC2C1(C)CCC(C2)OC(=O)/C=C/c1ccc(c(c1)OC)O)C,C39H60O4,592.89,43,6,0.77,11,4,1,181.57,55.76,6.46,12.43,9.97,6.87,8.96,8.94,-10.72,1.12e-08,1.89e-11,Insoluble,-13.62,1.42e-11,2.39e-14,Insoluble,-8.43,2.21e-06,3.73e-09,Poorly soluble,Low,No,No,No,No,No,No,No,-1.09,2,4,1,1,1,0.17,0,1,3,6.82
Molecule 6,CCCCCCCCCCCCC(C1CCC(O1)C(CCCC(=O)CCCCCCC(CC1=CC(OC1=O)C)O)O)O,C35H62O7,594.86,42,0,0.89,26,7,3,171.71,113.29,6.77,8.09,7.27,3.36,9.20,6.94,-6.91,7.34e-05,1.23e-07,Poorly soluble,-10.33,2.81e-08,4.73e-11,Insoluble,-7.88,7.91e-06,1.33e-08,Poorly soluble,Low,No,Yes,No,No,No,No,Yes,-4.18,1,4,1,1,2,0.55,0,0,3,7.19
Molecule 7,OCC1OC(C(C1O)O)(CO)OC1OC(COC(=O)/C=C/c2cc(OC)c(c(c2)OC)OC)C(C(C1O)O)O,C24H34O15,562.52,39,6,0.62,12,15,7,126.98,223.29,2.01,-1.68,-3.21,-3.41,-1.45,-1.55,-1.59,1.44e+01,2.56e-02,Very soluble,-2.50,1.79e+00,3.18e-03,Soluble,0.64,2.46e+03,4.37e+00,Soluble,Low,No,No,No,No,No,No,No,-10.92,3,3,2,1,3,0.17,0,1,2,5.97
Molecule 8,COc1ccc(cc1C1CC(C2C1C(C2c1cc(CCN(C)C)ccc1OC)(C)C)(C)O)CCN(C)C,C32H48N2O3,508.74,37,12,0.62,10,5,1,153.42,45.17,5.54,5.44,5.21,3.89,5.96,5.21,-6.00,5.07e-04,9.97e-07,Poorly soluble,-6.14,3.64e-04,7.16e-07,Poorly soluble,-8.40,2.01e-06,3.95e-09,Poorly soluble,High,Yes,Yes,No,No,No,Yes,No,-5.54,1,3,0,0,1,0.55,0,0,3,5.08
Molecule 9,CCCCCCCCCCCCCCCC(C(O)C)O,C18H38O2,286.49,20,0,1.00,15,2,2,90.96,40.46,4.47,7.11,5.21,4.01,5.63,5.29,-5.11,2.25e-03,7.84e-06,Moderately soluble,-7.78,4.77e-06,1.66e-08,Poorly soluble,-5.26,1.56e-03,5.46e-06,Moderately soluble,High,Yes,Yes,No,No,Yes,Yes,No,-3.00,0,0,1,0,1,0.55,0,0,2,3.47
Molecule 10,C=CC1(C)C(O)CC(=C(C)C)CC1C(=C)C,C15H24O,220.35,16,0,0.60,2,1,1,71.58,20.23,3.06,4.19,3.86,3.46,3.73,3.66,-3.71,4.26e-02,1.93e-04,Soluble,-4.32,1.05e-02,4.74e-05,Moderately soluble,-2.98,2.31e-01,1.05e-03,Soluble,High,Yes,No,No,Yes,Yes,No,No,-4.67,0,0,0,0,1,0.55,0,1,2,4.03
Molecule 11,OCC1OC(OC2CC(O)CC3=CCC4C(C23C)CCC2(C4CC3C2C(C)C2(O3)CCC(CO2)C)C)C(C(C1O)OC1OC(C)C(C(C1OC1OCC(C(C1O)O)O)OC1OC(CO)C(C(C1O)O)O)O)O,C50H80O22,1033.16,72,0,0.96,10,22,12,245.16,335.06,2.93,-1.11,-2.35,-3.84,-4.00,-1.67,-4.89,1.34e-02,1.30e-05,Moderately soluble,-5.44,3.79e-03,3.67e-06,Moderately soluble,2.68,4.97e+05,4.81e+02,Soluble,Low,No,Yes,No,No,No,No,No,-13.39,3,4,1,1,5,0.17,0,1,2,10.00
Molecule 12,CC(=O)OC1C2C(OC1(C)C)Oc1c2c2OC(CC(=O)c2cc1)c1ccccc1,C23H22O6,394.42,29,12,0.39,3,6,0,103.98,71.06,3.01,3.07,3.61,2.35,3.80,3.17,-4.33,1.85e-02,4.70e-05,Moderately soluble,-4.23,2.33e-02,5.90e-05,Moderately soluble,-5.80,6.24e-04,1.58e-06,Moderately soluble,High,Yes,No,No,Yes,Yes,Yes,Yes,-6.53,0,0,0,0,0,0.55,0,0,1,4.79
Molecule 13,CC(=CC(=O)C)C,C6H10O,98.14,7,0,0.50,1,1,0,30.68,17.07,1.82,1.39,1.54,1.28,1.10,1.43,-1.26,5.42e+00,5.52e-02,Very soluble,-1.35,4.36e+00,4.45e-02,Very soluble,-1.00,9.86e+00,1.00e-01,Soluble,High,Yes,No,No,No,No,No,No,-5.91,0,3,0,0,2,0.55,0,1,1,1.97
Molecule 14,CC1=C2CC3C(=CC(=O)C3=C(CC2OC1=O)C)C,C15H16O3,244.29,18,0,0.47,0,3,0,67.94,43.37,2.37,0.98,2.48,2.29,3.02,2.23,-1.97,2.61e+00,1.07e-02,Very soluble,-1.48,8.11e+00,3.32e-02,Very soluble,-3.12,1.84e-01,7.52e-04,Soluble,High,Yes,No,No,No,No,No,No,-7.09,0,0,0,0,0,0.55,0,0,1,4.18
Molecule 15,CC(CC(=O)OC(C1Oc2c(C1)c1oc(=O)ccc1cc2)(C)C)C,C19H22O5,330.37,24,10,0.47,5,5,0,91.61,65.74,3.13,3.75,3.46,2.72,4.21,3.46,-4.23,1.95e-02,5.90e-05,Moderately soluble,-4.82,4.96e-03,1.50e-05,Moderately soluble,-5.38,1.36e-03,4.12e-06,Moderately soluble,High,Yes,No,No,Yes,Yes,No,Yes,-5.65,0,0,0,0,0,0.55,0,1,1,4.07
Molecule 16,OCC1OC(OC2C=C(C)C3C(C2O)(C)C2C4(O)OCC52C(C3)OC(=O)C(C5C(C4O)C)O)C(C(C1O)O)O,C26H38O13,558.57,39,0,0.88,3,13,8,127.29,215.83,1.73,-2.84,-3.25,-2.05,-2.83,-1.85,-1.32,2.70e+01,4.83e-02,Very soluble,-1.14,4.08e+01,7.30e-02,Very soluble,1.96,5.14e+04,9.20e+01,Soluble,Low,No,No,No,No,No,No,No,-11.72,3,3,1,1,4,0.17,0,1,1,7.32
Molecule 17,OC/C=C/c1cc(OC)c(c(c1)OC)OC(C(c1ccc(c(c1)OC)OC1OC(CO)C(C(C1O)O)O)O)CO,C27H36O13,568.57,40,12,0.48,13,13,7,139.04,196.99,2.85,-0.37,-1.06,-2.16,0.84,0.02,-2.50,1.81e+00,3.19e-03,Soluble,-3.30,2.82e-01,4.97e-04,Soluble,-1.87,7.65e+00,1.35e-02,Soluble,Low,No,Yes,No,No,No,No,No,-10.03,3,4,2,1,3,0.17,0,0,2,5.98
Molecule 18,C/C(=C\Cc1cc2c(cc1O)oc(=O)c1c2oc2c1ccc(c2)O)/CCC=C(C)C,C25H24O5,404.46,30,17,0.24,5,5,2,121.09,83.81,4.05,6.55,6.34,3.88,6.21,5.41,-6.56,1.11e-04,2.73e-07,Poorly soluble,-8.11,3.15e-06,7.80e-09,Poorly soluble,-7.50,1.28e-05,3.16e-08,Poorly soluble,High,No,No,No,Yes,Yes,No,No,-4.12,0,1,0,1,1,0.55,0,2,2,3.85
Molecule 19,CCCCC1OC(=O)C2=C1CCC1C2C23CCC1C=C3C(=O)O/C/2=C\CCC,C24H30O4,382.49,28,0,0.67,5,4,0,107.80,52.60,4.04,4.93,5.00,4.31,5.14,4.68,-4.99,3.94e-03,1.03e-05,Moderately soluble,-5.77,6.47e-04,1.69e-06,Moderately soluble,-5.12,2.90e-03,7.59e-06,Moderately soluble,High,Yes,No,No,No,Yes,No,Yes,-5.13,1,0,0,0,0,0.55,0,1,2,6.04
Molecule 20,CC1=CCCC2(C1CC(C(=C)C)C(C2)O)C,C15H24O,220.35,16,0,0.73,1,1,1,69.94,20.23,3.09,3.67,3.70,3.56,3.23,3.45,-3.45,7.78e-02,3.53e-04,Soluble,-3.78,3.62e-02,1.64e-04,Soluble,-2.74,3.97e-01,1.80e-03,Soluble,High,Yes,No,No,Yes,Yes,No,No,-5.04,0,0,0,0,1,0.55,0,1,2,4.28
Molecule 21,O=C1OC2CC3C(=CC(=O)C(C3(C3C42C(C1O)C(C)(OC4)C(C3O)O)C)O)C,C20H26O8,394.42,28,0,0.80,0,8,4,93.95,133.52,1.49,-1.37,-1.07,-0.42,-0.14,-0.30,-1.42,1.49e+01,3.78e-02,Very soluble,-0.93,4.60e+01,1.17e-01,Very soluble,-0.51,1.22e+02,3.10e-01,Soluble,Low,No,Yes,No,No,No,No,No,-9.68,0,1,0,1,0,0.55,0,0,1,5.91
Molecule 22,O=CC12CCC3C(C2CCC(=O)C1C)(C)CCC1(C3(C)CCC2(C1CC(CC2)(C)C(=O)O)C)C,C30H46O4,470.68,34,0,0.90,2,4,1,136.37,71.44,3.01,6.59,6.70,4.87,6.15,5.47,-6.78,7.85e-05,1.67e-07,Poorly soluble,-7.89,6.07e-06,1.29e-08,Poorly soluble,-6.38,1.96e-04,4.16e-07,Poorly soluble,Low,No,Yes,No,No,No,No,No,-4.49,1,3,0,1,1,0.56,0,1,2,5.23
Molecule 23,COC1C(O)C(OC2CCC3(C(C2)CCC2C3CCC3(C2(O)CC(C3C2=CC(=O)OC2)O)C)C)OC(C1O)C,C30H46O9,550.68,39,0,0.90,4,9,4,141.87,134.91,3.60,-0.39,2.08,1.37,1.57,1.65,-2.74,9.92e-01,1.80e-03,Soluble,-1.98,5.77e+00,1.05e-02,Very soluble,-2.13,4.04e+00,7.33e-03,Soluble,High,No,Yes,No,No,No,No,No,-9.94,1,3,0,1,0,0.55,0,1,1,7.10
Molecule 24,CC1C(=O)CC2C1C1OC(=O)C(=C)C1CCC2(C)O,C15H20O4,264.32,19,0,0.73,0,4,1,70.09,63.60,1.83,1.20,1.47,1.62,2.03,1.63,-2.23,1.54e+00,5.82e-03,Soluble,-2.13,1.95e+00,7.38e-03,Soluble,-2.15,1.88e+00,7.10e-03,Soluble,High,Yes,No,No,No,No,No,No,-7.06,0,0,0,0,0,0.55,0,1,0,4.22
Molecule 25,O=C(OC1C(O)C(OC(C1O)COC1OC(C)C(C(C1O)O)O)Oc1c(oc2c(c1=O)c(O)cc(c2)O)c1ccc(c(c1)O)O)/C=C/c1ccc(cc1)O,C36H36O18,756.66,54,22,0.33,10,18,10,182.75,295.73,2.80,1.02,0.17,-2.92,-0.40,0.13,-4.82,1.16e-02,1.53e-05,Moderately soluble,-6.82,1.15e-04,1.51e-07,Poorly soluble,-2.37,3.23e+00,4.27e-03,Soluble,Low,No,Yes,No,No,No,No,No,-10.19,3,3,1,1,4,0.17,1,2,2,7.21
Molecule 26,C=CC1CNCCC1CCC(=O)c1ccnc2c1cc(OC)cc2,C20H24N2O2,324.42,24,10,0.40,6,4,1,101.01,51.22,3.23,2.99,3.24,2.15,4.29,3.18,-3.65,7.31e-02,2.25e-04,Soluble,-3.73,6.05e-02,1.86e-04,Soluble,-5.99,3.34e-04,1.03e-06,Moderately soluble,High,Yes,Yes,No,No,No,Yes,Yes,-6.16,0,0,0,0,0,0.55,0,1,0,3.07
Molecule 27,CCCCCCCCCCCCCCCCCCCCCCCC(CCC(=O)CCC)C,C31H62O,450.82,32,0,0.97,27,1,0,151.33,17.07,7.65,14.31,11.37,7.51,12.27,10.62,-9.87,6.10e-08,1.35e-10,Poorly soluble,-14.76,7.85e-13,1.74e-15,Insoluble,-11.44,1.65e-09,3.66e-12,Insoluble,Low,No,Yes,No,No,No,No,No,1.11,1,3,1,1,3,0.55,0,0,3,4.51
Molecule 28,COc1cc2ccc(=O)oc2cc1O,C10H8O4,192.17,14,10,0.10,1,4,1,51.00,59.67,1.86,1.53,1.51,0.76,1.94,1.52,-2.46,6.70e-01,3.48e-03,Soluble,-2.39,7.79e-01,4.06e-03,Soluble,-3.17,1.31e-01,6.81e-04,Soluble,High,Yes,No,Yes,No,No,No,No,-6.39,0,0,0,0,1,0.55,0,1,1,2.62
Molecule 29,OCC1(C)C(CCC2(C1CCC1(C2C=CC23C1(C)CC(O)C1(C3CC(CC1)(C)C)CO2)C)C)OC1OC(C)C(C(C1O)OC1OC(COC(=O)C)C(C(C1O)O)O)O,C44H70O14,823.02,58,0,0.93,8,14,7,209.56,214.06,3.65,2.54,2.35,0.47,1.68,2.14,-6.01,7.95e-04,9.66e-07,Poorly soluble,-6.68,1.71e-04,2.08e-07,Poorly soluble,-2.66,1.78e+00,2.17e-03,Soluble,Low,No,Yes,No,No,No,No,No,-9.52,3,3,1,1,5,0.17,0,2,2,9.91
Molecule 30,CC(=O)OCCCC(C1=C(C)CC2C(C1O)C(=C)C(=O)O2)C,C17H24O5,308.37,22,0,0.65,6,5,1,82.39,72.83,2.49,1.31,2.14,2.00,2.95,2.18,-2.18,2.03e+00,6.59e-03,Soluble,-2.44,1.12e+00,3.63e-03,Soluble,-2.92,3.73e-01,1.21e-03,Soluble,High,Yes,No,No,No,No,No,No,-7.25,0,0,0,0,0,0.55,0,3,0,4.64
Molecule 31,Oc1cc(O)c2c(c1)OC(C(C2c1c(O)cc(c2c1OC(C(C2)O)c1cc(O)c(c(c1)O)O)O)O)c1cc(O)c(c(c1)O)O,C30H26O14,610.52,44,24,0.20,3,14,12,150.76,261.22,1.78,1.66,1.76,-1.22,0.20,0.84,-4.88,8.11e-03,1.33e-05,Moderately soluble,-6.76,1.06e-04,1.74e-07,Poorly soluble,-2.72,1.16e+00,1.90e-03,Soluble,Low,No,No,No,No,No,No,No,-8.85,3,2,1,1,4,0.17,1,1,1,5.40
Molecule 32,OC1C(OC(C(C1O)O)C)Oc1cc(O)cc2c1c(=O)cc(o2)c1ccc(cc1)O,C21H20O9,416.38,30,16,0.29,3,9,5,104.95,149.82,2.02,1.16,1.08,-0.84,0.96,0.87,-3.35,1.86e-01,4.48e-04,Soluble,-3.90,5.23e-02,1.26e-04,Soluble,-3.27,2.26e-01,5.43e-04,Soluble,Low,No,No,No,No,No,No,Yes,-8.02,0,0,1,1,0,0.55,0,0,1,5.15
Molecule 33,C=C(C1CCC2(C1CCC1C2(C)CCC2C1(C)CCC(C2(C)C)O)C)CCC1OC1(C)C,C30H50O2,442.72,32,0,0.93,4,2,1,136.52,32.76,5.09,8.67,7.55,6.00,7.23,6.91,-7.78,7.30e-06,1.65e-08,Poorly soluble,-9.24,2.57e-07,5.81e-10,Poorly soluble,-6.72,8.44e-05,1.91e-07,Poorly soluble,Low,No,No,No,No,No,No,No,-2.84,1,3,0,1,1,0.55,0,2,2,5.85
Molecule 34,CC1=CCC2C(C1)C(CC=C2C)C(C)C,C15H24,204.35,15,0,0.73,1,0,0,69.04,0.00,3.37,4.00,4.58,4.63,3.73,4.06,-3.56,5.62e-02,2.75e-04,Soluble,-3.70,4.06e-02,1.99e-04,Soluble,-3.07,1.74e-01,8.51e-04,Soluble,Low,No,No,No,Yes,Yes,No,No,-4.71,1,0,0,0,1,0.55,0,1,2,4.35
Molecule 35,OCC1(C)CCC2(O1)OC1C(C2C)C2(C(C1)C1CC=C3C(C1CC2)(C)CCC(C3)O)C,C27H42O4,430.62,31,0,0.93,1,4,2,122.79,58.92,4.24,4.44,4.83,4.09,3.94,4.31,-5.24,2.47e-03,5.74e-06,Moderately soluble,-5.40,1.73e-03,4.02e-06,Moderately soluble,-4.25,2.44e-02,5.66e-05,Moderately soluble,High,Yes,Yes,No,No,No,No,No,-5.77,0,1,0,0,0,0.55,0,1,2,6.95
Molecule 36,OCC1OC(OC/C(=C/CC/C(=C/CC/C(=C/OC2OC(CO)C(C(C2OC2OC(C)C(C(C2O)O)O)OC2OC(C)C(C(C2O)O)O)O)/C)/C)/C)C(C(C1O)OC1OC(C)C(C(C1O)O)O)OC1OC(C)C(C(C1O)O)O,C50H84O28,1133.19,78,0,0.88,21,28,16,259.97,434.44,4.09,-3.96,-5.62,-7.83,-5.92,-3.85,-2.98,1.17e+00,1.04e-03,Soluble,-4.57,3.08e-02,2.72e-05,Moderately soluble,6.40,2.83e+09,2.49e+06,Soluble,Low,No,Yes,No,No,No,No,No,-16.02,3,4,2,1,6,0.17,0,2,2,10.00
Molecule 37,COc1cccc(c1C(=O)OCc1ccccc1)O,C15H14O4,258.27,19,12,0.13,5,4,1,70.72,55.76,2.85,3.44,2.61,2.47,2.82,2.84,-3.75,4.64e-02,1.80e-04,Soluble,-4.29,1.32e-02,5.11e-05,Moderately soluble,-4.57,7.03e-03,2.72e-05,Moderately soluble,High,Yes,No,Yes,Yes,No,No,No,-5.43,0,0,0,0,0,0.55,0,0,0,1.99
Molecule 38,OCC1CCC2CC1C2(C)CO,C10H18O2,170.25,12,0,1.00,2,2,2,48.02,40.46,2.05,2.19,1.02,1.52,1.53,1.66,-2.14,1.22e+00,7.19e-03,Soluble,-2.67,3.61e-01,2.12e-03,Soluble,-1.16,1.19e+01,6.97e-02,Soluble,High,Yes,No,No,No,No,No,No,-5.78,0,0,0,0,1,0.55,0,0,1,4.07
Molecule 39,CCCCCCC(CCCC(C1CCC(O1)C1CCC(O1)C(CCCCC(CCCCCCCC1=CC(OC1=O)C)O)O)O)O,C37H66O8,638.92,45,0,0.92,25,8,4,181.26,125.68,6.18,7.62,6.83,3.02,8.47,6.43,-6.95,7.14e-05,1.12e-07,Poorly soluble,-10.10,5.10e-08,7.98e-11,Insoluble,-6.92,7.68e-05,1.20e-07,Poorly soluble,Low,No,No,No,No,No,No,Yes,-4.79,1,4,1,1,3,0.55,0,0,3,7.63
Molecule 40,C=C/C(=C/CC1(C)C(C)CC(C2(C1CCC=C2C)C)O)/C,C20H32O,288.47,21,0,0.70,3,1,1,93.25,20.23,3.65,5.76,5.28,4.65,4.83,4.83,-5.06,2.52e-03,8.72e-06,Moderately soluble,-5.95,3.21e-04,1.11e-06,Moderately soluble,-3.99,2.96e-02,1.03e-04,Soluble,High,Yes,No,No,Yes,Yes,No,No,-3.97,1,0,0,0,2,0.55,0,2,1,5.13
Molecule 41,OC(=O)C(=O)C,C3H4O3,88.06,6,0,0.33,1,3,1,18.51,54.37,0.25,-0.33,-0.34,-0.96,-0.48,-0.37,-0.11,6.80e+01,7.73e-01,Very soluble,-0.35,3.93e+01,4.46e-01,Very soluble,0.51,2.86e+02,3.25e+00,Soluble,High,No,No,No,No,No,No,No,-7.07,0,3,0,0,2,0.56,0,1,1,1.00
Molecule 42,C/C(=C\CCC1(C)Oc2c(C1C)c(=O)oc1c2ccc(c1)O)/CC(=O)C=C(C)C,C24H28O5,396.48,29,10,0.42,6,5,1,115.63,76.74,3.96,4.89,5.41,3.12,5.87,4.65,-5.24,2.29e-03,5.78e-06,Moderately soluble,-6.24,2.30e-04,5.79e-07,Poorly soluble,-6.29,2.03e-04,5.13e-07,Poorly soluble,High,No,No,No,Yes,Yes,No,Yes,-5.25,0,0,0,0,0,0.55,0,3,2,4.87
Molecule 43,CCCCCCCCCc1ccc(cn1)C(=O)CCCCCCCCC,C24H41NO,359.59,26,6,0.75,17,2,0,116.31,29.96,5.31,9.05,7.70,4.50,8.47,7.01,-6.82,5.45e-05,1.51e-07,Poorly soluble,-9.57,9.64e-08,2.68e-10,Poorly soluble,-9.18,2.39e-07,6.64e-10,Poorly soluble,Low,No,Yes,Yes,No,No,No,Yes,-2.07,1,1,1,1,2,0.55,0,0,3,3.42
Molecule 44,COC1=C2C(C)(C)C(=O)CCC2(c2c(C1=O)c(O)c1cc(oc1c2O)C)C,C21H22O6,370.40,27,9,0.43,1,6,2,99.86,96.97,2.94,3.65,3.90,0.96,4.26,3.14,-4.62,8.95e-03,2.42e-05,Moderately soluble,-5.38,1.56e-03,4.22e-06,Moderately soluble,-5.70,7.34e-04,1.98e-06,Moderately soluble,High,No,Yes,Yes,Yes,Yes,No,Yes,-5.97,0,0,0,0,0,0.55,0,1,2,4.35
Molecule 45,OCC1(C)CCC2(C(C1)C1(C)CC=C3C(=CCC4C3(C)CCC(C4(C)C)O)C1(CC2)C)C,C30H48O2,440.70,32,0,0.87,1,2,2,135.57,40.46,4.40,6.97,7.06,5.89,6.29,6.12,-6.90,5.58e-05,1.27e-07,Poorly soluble,-7.63,1.02e-05,2.32e-08,Poorly soluble,-6.58,1.17e-04,2.66e-07,Poorly soluble,Low,No,No,No,No,No,No,No,-4.04,1,3,0,1,1,0.55,0,0,2,6.46
Molecule 46,COc1cc(CCC(=O)CC(S(=O)(=O)O)CCc2cc(O)c(c(c2)OC)O)cc(c1O)O,C21H26O10S,470.49,32,12,0.38,11,10,5,116.55,179.20,1.49,1.56,3.39,0.57,2.05,1.81,-3.29,2.41e-01,5.11e-04,Soluble,-4.93,5.49e-03,1.17e-05,Moderately soluble,-4.10,3.77e-02,8.02e-05,Moderately soluble,Low,No,Yes,No,No,No,No,No,-8.06,0,0,2,1,1,0.11,1,2,2,3.99
Molecule 47,OCC1OC(OC2C(CCC3(C2C(=CCC3O)C)C)C(C)C)C(C(C1O)O)O,C21H36O7,400.51,28,0,0.90,4,7,5,103.96,119.61,2.03,0.99,0.57,0.39,0.31,0.86,-2.68,8.31e-01,2.08e-03,Soluble,-3.09,3.25e-01,8.12e-04,Soluble,-0.24,2.30e+02,5.75e-01,Soluble,High,No,Yes,No,No,No,No,No,-8.04,0,0,0,0,0,0.55,0,1,1,6.28
Molecule 48,OC/C=C(/CCC1(C)C(C)CC(=O)C2C1CCC=C(C2)CO)\CO,C20H32O4,336.47,24,0,0.75,6,4,3,96.50,77.76,2.83,1.78,2.63,1.99,3.37,2.52,-2.65,7.51e-01,2.23e-03,Soluble,-3.03,3.13e-01,9.31e-04,Soluble,-3.00,3.33e-01,9.89e-04,Soluble,High,Yes,Yes,No,No,No,No,No,-7.09,0,0,0,0,0,0.55,0,1,0,4.89
Molecule 49,CCCCCCCCCCCCCCCC(=O)OCC12OC1C1C3OC4(OC1(C1C(C2O)(O)C(=O)C(=C1)C)C(C(C3(O4)C(=C)C)OC(=O)c1ccccc1)C)/C=C/C=C/CCCCC,C53H74O11,887.15,64,6,0.68,27,11,2,247.80,150.35,8.91,12.17,9.74,4.56,11.69,9.41,-11.29,4.50e-09,5.07e-12,Insoluble,-15.34,4.08e-13,4.60e-16,Insoluble,-11.21,5.50e-09,6.19e-12,Insoluble,Low,No,Yes,No,No,No,No,Yes,-3.07,3,4,2,2,5,0.17,0,4,3,10.00
Molecule 50,OCC1CC23CC1CCC3C1(C(CC2)C(C)(CO)CCC1)C,C20H34O2,306.48,22,0,1.00,2,2,2,91.34,40.46,3.29,4.91,4.00,4.07,3.91,4.04,-4.70,6.09e-03,1.99e-05,Moderately soluble,-5.50,9.78e-04,3.19e-06,Moderately soluble,-3.78,5.09e-02,1.66e-04,Soluble,High,Yes,No,No,No,Yes,No,No,-4.68,0,0,0,0,0,0.55,0,0,1,5.10
Molecule 51,O=CC1=CC(O)C2C(C1(O)C=O)(C)CCCC2(C)C,C15H22O4,266.33,19,0,0.73,2,4,2,71.76,74.60,1.63,1.72,1.25,0.80,2.11,1.50,-2.44,9.61e-01,3.61e-03,Soluble,-2.90,3.33e-01,1.25e-03,Soluble,-1.82,4.00e+00,1.50e-02,Soluble,High,No,No,No,No,No,No,No,-6.70,0,0,0,0,0,0.55,0,1,0,4.54
Molecule 52,CCOC12C(O)C(C(C2(Oc2c1c(OC)cc(c2)OC)c1ccc(c(c1)O)OC)c1ccccc1)C(=O)N(C)C,C31H35NO8,549.61,40,18,0.39,9,8,2,147.71,106.92,4.07,3.37,3.58,1.42,3.92,3.27,-5.11,4.27e-03,7.77e-06,Moderately soluble,-5.29,2.80e-03,5.09e-06,Moderately soluble,-7.43,2.06e-05,3.74e-08,Poorly soluble,High,No,Yes,No,No,No,Yes,Yes,-7.26,1,3,0,0,0,0.55,0,0,2,5.63
Molecule 53,CC1CN(C)C2C(C1)c1cccc3c1c(C2)c[nH]3,C16H20N2,240.34,18,9,0.50,0,1,1,79.66,19.03,2.48,3.16,2.77,2.88,3.25,2.91,-3.69,4.90e-02,2.04e-04,Soluble,-3.23,1.42e-01,5.89e-04,Soluble,-4.37,1.03e-02,4.28e-05,Moderately soluble,High,Yes,Yes,No,No,No,Yes,No,-5.52,0,0,0,0,0,0.55,0,0,1,3.20
Molecule 54,COc1cc2CCN(C(c2cc1O)C)C,C12H17NO2,207.27,15,6,0.50,1,3,1,64.01,32.70,2.57,1.81,1.24,1.40,1.85,1.77,-2.50,6.62e-01,3.20e-03,Soluble,-2.12,1.59e+00,7.65e-03,Soluble,-2.67,4.46e-01,2.15e-03,Soluble,High,Yes,No,No,No,No,No,No,-6.28,0,0,0,0,0,0.55,0,0,1,2.39
Molecule 55,C=CC1(C)CCC2C(O1)(C)CCC(C2(C)CC(=O)OCC(C1(C)CCC2C(O1)(C)CCC(C2(C)CC(=O)O)C(C(=O)O)(C)C)O)C(C(=O)O)(C)C,C40H64O11,720.93,51,0,0.85,13,11,4,194.51,176.89,4.20,5.40,6.88,3.40,6.49,5.27,-6.85,1.01e-04,1.40e-07,Poorly soluble,-8.87,9.74e-07,1.35e-09,Poorly soluble,-5.80,1.13e-03,1.57e-06,Moderately soluble,Low,No,Yes,No,No,No,No,Yes,-6.86,2,4,2,2,4,0.11,0,1,3,7.46
Molecule 56,C/C=C(/C(=O)OC1CC(=CC(C2(C1C(O)(CC2OC(=O)C)C(C)C)C)OC(=O)c1ccccc1)C)\C,C29H38O7,498.61,36,6,0.55,9,7,1,137.00,99.13,4.53,5.10,4.79,3.72,4.50,4.53,-5.67,1.06e-03,2.12e-06,Moderately soluble,-6.93,5.92e-05,1.19e-07,Poorly soluble,-5.14,3.58e-03,7.18e-06,Moderately soluble,High,No,Yes,No,No,Yes,No,Yes,-5.72,0,3,0,0,1,0.55,0,3,3,5.75
Molecule 57,C/C=C(/C(=O)OC1CC2(C)C=CC(O2)(C(=CC2C1C(=C)C(=O)O2)C)O)\C,C20H24O6,360.40,26,0,0.50,3,6,1,94.91,82.06,2.82,1.87,2.35,2.12,2.33,2.30,-3.05,3.18e-01,8.82e-04,Soluble,-3.21,2.20e-01,6.10e-04,Soluble,-2.24,2.08e+00,5.77e-03,Soluble,High,No,No,No,No,No,No,No,-7.17,0,0,0,0,0,0.55,0,3,1,6.41
Molecule 58,O=C1OC2C(C1=C)CC(C(C13C2C(C)(O)C(C3O1)O)(C)O)O,C15H20O7,312.32,22,0,0.80,0,7,4,72.42,119.75,1.38,-1.75,-1.52,-0.73,-0.09,-0.54,-0.67,6.62e+01,2.12e-01,Very soluble,-0.25,1.76e+02,5.62e-01,Very soluble,0.00,3.14e+02,1.01e+00,Soluble,High,No,Yes,No,No,No,No,No,-9.45,0,1,0,0,0,0.55,0,2,0,5.16
Molecule 59,OC1CCC2(C(C1)CCC1C2CC(O)C2(C1CCC2C(CCC(=O)O)C)C)C,C24H40O4,392.57,28,0,0.96,4,4,3,112.60,77.76,3.15,3.50,4.48,3.88,3.42,3.68,-4.21,2.39e-02,6.10e-05,Moderately soluble,-4.82,6.00e-03,1.53e-05,Moderately soluble,-3.13,2.90e-01,7.40e-04,Soluble,High,No,Yes,No,No,No,No,No,-6.21,0,0,0,0,0,0.56,0,0,1,4.76
Molecule 60,CCOC(CC1=C(O)C(=O)C2=C(C1=O)C(O)C(C1C2(C)CCC(=C1C)C)O)C,C22H30O6,390.47,28,0,0.64,4,6,3,105.22,104.06,3.08,1.05,2.55,0.62,3.06,2.07,-2.66,8.57e-01,2.20e-03,Soluble,-2.83,5.83e-01,1.49e-03,Soluble,-3.49,1.26e-01,3.23e-04,Soluble,High,No,Yes,No,No,No,No,No,-7.94,0,0,0,0,0,0.56,1,2,1,5.49
Molecule 61,C/C=C(/C(=O)OC1Cc2c(OC1(C)C)ccc1c2oc(=O)cc1)\C,C19H20O5,328.36,24,10,0.37,3,5,0,91.13,65.74,3.13,3.69,3.38,2.64,4.06,3.38,-4.31,1.61e-02,4.89e-05,Moderately soluble,-4.76,5.70e-03,1.73e-05,Moderately soluble,-5.24,1.88e-03,5.73e-06,Moderately soluble,High,Yes,No,No,Yes,Yes,No,Yes,-5.68,0,0,0,0,0,0.55,0,2,1,4.08
Molecule 62,O=C1OC2C(C1=C)C(CC(C1(C2(C)C(=O)C=C1)O)C)OC(=O)C1(C)CO1,C19H22O7,362.37,26,0,0.63,3,7,1,88.88,102.43,1.34,0.25,0.70,0.77,2.18,1.05,-2.05,3.26e+00,8.99e-03,Soluble,-1.96,3.96e+00,1.09e-02,Very soluble,-2.21,2.25e+00,6.21e-03,Soluble,High,No,Yes,No,No,No,No,No,-8.33,0,0,0,0,0,0.55,0,3,1,5.18
Molecule 63,CC(=O)OC1=C(C)C(=O)C(=C(C1=O)CCCCCCCCCCCCCCC1=C(OC(=O)C)C(=O)C(=C(C1=O)O)C)O,C32H42O10,586.67,42,0,0.56,19,10,2,156.33,161.34,5.23,7.25,6.05,0.72,7.36,5.32,-6.79,9.50e-05,1.62e-07,Poorly soluble,-10.46,2.02e-08,3.45e-11,Insoluble,-7.81,9.07e-06,1.55e-08,Poorly soluble,Low,No,Yes,No,No,Yes,No,No,-4.73,1,4,2,2,3,0.11,1,2,3,5.19
Molecule 64,OCC1OC(OCC2OC(Oc3c4CCCCC(O)CCc5cc(c(c4)c(c3OC)OC)c(O)cc5)C(C(C2O)O)O)C(C(C1O)O)O,C33H46O15,682.71,48,12,0.64,8,15,9,166.43,237.45,2.57,0.12,-0.90,-2.27,-0.67,-0.23,-3.81,1.07e-01,1.57e-04,Soluble,-4.66,1.49e-02,2.18e-05,Moderately soluble,-1.54,1.99e+01,2.91e-02,Soluble,Low,No,Yes,No,No,No,No,No,-10.38,3,4,1,1,4,0.17,0,0,2,8.41
Molecule 65,OC1=C2C(C)(C)CCCC2(c2c(C1=O)cc(O)c(c2)O)C,C17H20O4,288.34,21,6,0.47,0,4,3,80.60,77.76,1.81,3.79,3.57,1.66,3.07,2.78,-4.23,1.71e-02,5.93e-05,Moderately soluble,-5.12,2.20e-03,7.64e-06,Moderately soluble,-3.88,3.77e-02,1.31e-04,Soluble,High,Yes,Yes,No,No,Yes,No,Yes,-5.37,0,0,0,0,0,0.55,1,1,1,3.56
Molecule 66,COc1cc(CCC(CC(=O)CCc2cc(OC)c(c(c2)OC)O)O)ccc1O,C22H28O7,404.45,29,12,0.41,11,7,3,109.62,105.45,3.25,2.67,3.01,1.39,4.17,2.90,-3.61,9.93e-02,2.46e-04,Soluble,-4.54,1.18e-02,2.91e-05,Moderately soluble,-5.51,1.24e-03,3.08e-06,Moderately soluble,High,No,Yes,No,No,No,Yes,No,-6.87,0,0,1,0,0,0.55,0,0,2,3.32
Molecule 67,CCC12CCC3(C(C2CCC2C1CCC(C2(C)C)O)(C)CCC3C(CCCC(C)C)C)C,C31H56O,444.78,32,0,1.00,6,1,1,142.80,20.23,5.58,11.13,8.88,7.26,7.98,8.17,-9.21,2.72e-07,6.12e-10,Poorly soluble,-11.53,1.33e-09,2.98e-12,Insoluble,-7.52,1.36e-05,3.05e-08,Poorly soluble,Low,No,No,No,No,No,No,No,-1.11,1,3,0,1,2,0.55,0,0,2,5.56
Molecule 68,CC(=O)CC/C(=C\C1=C(C)CCC1=O)/C(C)C,C15H22O2,234.33,17,0,0.60,5,2,0,71.56,34.14,2.80,2.41,3.62,2.45,4.27,3.11,-2.48,7.74e-01,3.30e-03,Soluble,-2.77,3.99e-01,1.70e-03,Soluble,-3.58,6.16e-02,2.63e-04,Soluble,High,Yes,No,Yes,No,No,No,No,-6.02,0,0,0,0,0,0.55,0,0,1,3.83
Molecule 69,OCC1OC(OC2C(OC(C(C2O)O)C(=O)O)OC2CCC3(C(C2(C)CO)CCC2(C3CC=C3C2(C)CC(C2(C3CC(C)(C)CC2O)C)O)C)C)C(C(C1O)O)OC1OC(C)C(C(C1O)O)O,C48H78O19,959.12,67,0,0.94,9,19,12,234.97,315.21,4.79,1.21,-0.32,-2.12,-1.54,0.40,-5.95,1.06e-03,1.11e-06,Moderately soluble,-7.43,3.59e-05,3.75e-08,Poorly soluble,0.48,2.90e+03,3.02e+00,Soluble,Low,No,Yes,No,No,No,No,No,-11.29,3,3,1,1,5,0.11,0,2,2,10.00
Molecule 70,O=C(OCC1OC(Oc2cc3oc(c4ccc(c(c4)O)O)c(c(=O)c3c(c2O)O)O)C(C(C1O)O)O)/C=C/c1ccc(c(c1)O)O,C30H26O16,642.52,46,22,0.20,8,16,10,155.58,277.27,1.83,1.40,0.73,-2.45,0.16,0.34,-4.53,1.89e-02,2.94e-05,Moderately soluble,-6.83,9.58e-05,1.49e-07,Poorly soluble,-2.44,2.35e+00,3.66e-03,Soluble,Low,No,No,No,No,No,No,No,-9.23,3,3,1,1,4,0.17,1,2,2,6.09
Molecule 71,CC(=O)OC1CC2CC3(C1C1(C)C(O)CC(C(C1C(=O)C3)(C)C)OC(=O)C)C(=O)C2=C,C24H32O7,432.51,31,0,0.75,4,7,1,111.90,106.97,2.43,1.76,2.39,1.87,3.09,2.31,-3.37,1.86e-01,4.30e-04,Soluble,-3.62,1.03e-01,2.38e-04,Soluble,-3.69,8.73e-02,2.02e-04,Soluble,High,No,Yes,No,No,No,No,No,-7.69,0,0,0,0,0,0.55,0,2,1,6.20
Molecule 72,OCc1ccc(cc1)C1(C)CCCC1(C)C,C15H22O,218.33,16,6,0.60,2,1,1,68.69,20.23,2.73,4.22,3.49,3.46,4.25,3.63,-4.00,2.19e-02,1.01e-04,Soluble,-4.36,9.64e-03,4.41e-05,Moderately soluble,-4.76,3.79e-03,1.73e-05,Moderately soluble,High,Yes,No,No,No,No,Yes,No,-4.64,0,0,0,0,1,0.55,0,0,2,2.16
Molecule 73,CC(=CCc1c(O)ccc2c1OC(CC2=O)c1cc(CC=C(C)C)c2c(c1)C=CC(O2)(C)C)C,C30H34O4,458.59,34,12,0.37,5,4,1,139.09,55.76,4.53,7.33,6.87,4.30,7.50,6.10,-7.23,2.69e-05,5.86e-08,Poorly soluble,-8.33,2.15e-06,4.69e-09,Poorly soluble,-7.84,6.66e-06,1.45e-08,Poorly soluble,Low,No,Yes,No,No,No,No,Yes,-3.89,1,2,0,1,1,0.55,0,1,2,5.01
Molecule 74,O=C1c2ccc3c(c2OC2C1(O)c1cc4OCOc4cc1OC2)C=CC(O3)(C)C,C22H18O7,394.37,29,12,0.32,0,7,1,101.11,83.45,2.92,2.85,2.61,1.32,3.34,2.61,-4.39,1.62e-02,4.10e-05,Moderately soluble,-4.26,2.16e-02,5.48e-05,Moderately soluble,-5.12,3.03e-03,7.67e-06,Moderately soluble,High,No,No,Yes,Yes,Yes,Yes,Yes,-6.68,0,0,0,0,0,0.55,0,0,1,4.58
Molecule 75,OC1CCC2(C(C1)C(=O)CC1C2CC2C1CCC(C2C)C(C1CCC(CN1C)C)C)C,C28H47NO2,429.68,31,0,0.96,2,3,1,134.05,40.54,4.31,6.03,5.03,4.73,4.17,4.85,-6.17,2.90e-04,6.75e-07,Poorly soluble,-6.66,9.40e-05,2.19e-07,Poorly soluble,-4.20,2.74e-02,6.37e-05,Moderately soluble,High,Yes,No,No,No,No,No,No,-4.64,1,2,0,0,1,0.55,0,0,2,5.09
Molecule 76,CC1=CCC(CC1)C1(C)CCC=C(CO1)C,C15H24O,220.35,16,0,0.73,1,1,0,70.17,9.23,3.31,2.98,4.25,3.56,3.96,3.61,-3.02,2.12e-01,9.60e-04,Soluble,-2.84,3.20e-01,1.45e-03,Soluble,-3.38,9.10e-02,4.13e-04,Soluble,High,Yes,No,No,No,No,No,No,-5.53,0,0,0,0,1,0.55,0,1,1,4.59
Molecule 77,O=C1CC(C)C(C(C1)(C)C)/C=C/C(OC1OC(COC2OCC(C(C2O)O)O)C(C(C1O)O)O)C,C24H40O11,504.57,35,0,0.88,7,11,6,121.92,175.37,2.74,-1.73,-1.15,-1.77,-0.58,-0.50,-1.42,1.93e+01,3.83e-02,Very soluble,-1.44,1.84e+01,3.64e-02,Very soluble,0.91,4.14e+03,8.20e+00,Soluble,Low,No,No,No,No,No,No,No,-10.61,3,3,1,1,3,0.17,0,1,1,6.67
Molecule 78,CCCCCCCC(OC(=O)C)C,C11H22O2,186.29,13,0,0.91,8,2,0,56.28,26.30,2.99,3.97,3.30,2.87,3.04,3.24,-2.97,2.00e-01,1.08e-03,Soluble,-4.22,1.11e-02,5.98e-05,Moderately soluble,-3.21,1.15e-01,6.18e-04,Soluble,High,Yes,No,No,No,No,No,No,-4.62,0,0,0,0,1,0.55,0,0,3,2.37
Molecule 79,CCC(C1NC(=O)C(NC1=O)CC(C)C)C,C12H22N2O2,226.32,16,0,0.83,4,2,2,71.52,58.20,2.42,2.14,0.30,0.92,1.81,1.52,-2.33,1.07e+00,4.71e-03,Soluble,-2.99,2.29e-01,1.01e-03,Soluble,-2.87,3.04e-01,1.34e-03,Soluble,High,No,No,No,No,No,No,No,-6.16,0,0,0,0,0,0.55,0,0,1,2.75
Molecule 80,CC1OC(OC2CCC3(C(C2(C)C)CCC2(C3CC=C3C2(CCC2(C3C(C)C(C)CC2)C(=O)O)C(=O)O)C)C)C(C2C1OC(O2)(C)C)O,C39H60O9,672.89,48,0,0.90,4,9,3,182.10,131.75,4.77,6.35,6.80,4.12,4.36,5.28,-7.75,1.20e-05,1.78e-08,Poorly soluble,-8.91,8.33e-07,1.24e-09,Poorly soluble,-5.01,6.64e-03,9.86e-06,Moderately soluble,Low,No,Yes,No,No,No,No,No,-5.90,1,4,0,2,2,0.56,0,2,2,8.26
Molecule 81,OCC1OC(OCC2OC(OC(=O)C34CCC5(C(=CCC6C5(C)CCC5C6(C)CC(C(C5(C)CO)OC5OC(CO)C(C(C5O)O)O)O)C4CC(CC3)(C)C)C)C(C(C2O)O)O)C(C(C1O)O)O,C48H78O20,975.12,68,0,0.94,11,20,13,235.72,335.44,2.42,-0.25,-1.92,-2.84,-1.85,-0.89,-5.00,9.70e-03,9.95e-06,Moderately soluble,-6.34,4.50e-04,4.61e-07,Poorly soluble,0.82,6.41e+03,6.58e+00,Soluble,Low,No,Yes,No,No,No,No,No,-12.43,3,4,2,1,5,0.17,0,2,2,10.00
Molecule 82,CC/C=C/CCOC1OC(CO)C(C(C1O)O)O,C12H22O6,262.30,18,0,0.83,6,6,4,64.03,99.38,1.97,-0.88,-0.84,-1.02,-0.23,-0.20,-0.52,8.00e+01,3.05e-01,Very soluble,-0.73,4.94e+01,1.88e-01,Very soluble,0.60,1.05e+03,4.02e+00,Soluble,High,No,Yes,No,No,No,No,No,-8.52,0,1,0,0,0,0.55,0,1,0,4.96
Molecule 83,OC1COC(C(C1OC1OC(C)C(C(C1O)O)O)O)OC1CCC2(C(C1(C)C)CCC1(C2CC(O)C2C1(C)CC(C1C2(C)CCC1(C)C(=O)C)O)C)C,C41H68O12,752.97,53,0,0.98,5,12,7,195.52,195.60,4.86,2.91,2.68,0.76,1.79,2.60,-6.01,7.33e-04,9.73e-07,Poorly soluble,-6.68,1.58e-04,2.10e-07,Poorly soluble,-2.57,2.02e+00,2.69e-03,Soluble,Low,No,Yes,No,No,No,No,No,-8.83,3,3,1,1,4,0.17,0,1,1,8.74
Molecule 84,COC(=O)C1CCC(C1(C)C)(C)C(=O)OC,C12H20O4,228.28,16,0,0.83,4,4,0,59.73,52.60,2.75,1.98,1.77,1.73,2.10,2.07,-2.24,1.32e+00,5.77e-03,Soluble,-2.71,4.45e-01,1.95e-03,Soluble,-2.34,1.05e+00,4.60e-03,Soluble,High,Yes,No,No,No,No,No,No,-6.29,0,0,0,0,0,0.55,0,1,1,2.97
Molecule 85,C/C=C(/C(=O)OC1CC2(C)OC2CC(C(=CC2C1C(=C)C(=O)O2)C)OC(=O)C)\C,C22H28O7,404.45,29,0,0.59,5,7,0,105.08,91.43,2.99,2.46,2.79,2.17,3.11,2.71,-3.57,1.10e-01,2.71e-04,Soluble,-4.02,3.83e-02,9.46e-05,Moderately soluble,-2.87,5.42e-01,1.34e-03,Soluble,High,No,No,No,No,No,No,No,-7.02,0,0,0,0,0,0.55,0,4,1,5.85
Molecule 86,COc1cc(cc(c1O)O)c1[o+]c2cc(O)cc(c2cc1O)O,C16H13O7,317.27,23,16,0.06,2,7,5,82.66,123.52,-1.72,0.74,2.92,0.03,0.27,0.45,-2.66,7.00e-01,2.21e-03,Soluble,-2.91,3.88e-01,1.22e-03,Soluble,-2.77,5.39e-01,1.70e-03,Soluble,High,No,Yes,Yes,No,No,No,No,-7.71,0,0,0,0,0,0.55,1,2,0,3.23
Molecule 87,COc1cc(O)c2c(c1CC=C(C)C)n(C)c1c(c2=O)cccc1O,C20H21NO4,339.39,25,14,0.25,3,4,2,101.23,71.69,3.35,4.85,3.62,1.94,3.79,3.51,-5.22,2.06e-03,6.08e-06,Moderately soluble,-6.09,2.76e-04,8.14e-07,Poorly soluble,-5.06,2.96e-03,8.71e-06,Moderately soluble,High,Yes,No,Yes,Yes,Yes,Yes,No,-4.93,0,0,0,0,0,0.55,0,2,1,2.86
Molecule 88,OCC(CCCC(C1C(O)C(C2C1(C)CCC1C2(O)C(O)C(C2C1(C)CCC(C2)O)O)O)C)C,C27H48O7,484.67,34,0,1.00,6,7,7,131.10,141.61,1.67,2.08,1.44,1.38,1.77,1.67,-3.76,8.44e-02,1.74e-04,Soluble,-4.68,1.00e-02,2.07e-05,Moderately soluble,-1.57,1.32e+01,2.72e-02,Soluble,High,No,Yes,No,No,No,No,No,-7.78,1,3,1,1,1,0.55,0,0,1,6.32
Molecule 89,CCOCc1ccc(cc1)O,C9H12O2,152.19,11,6,0.33,3,2,1,44.13,29.46,1.93,1.80,1.78,1.53,2.00,1.81,-2.12,1.15e+00,7.53e-03,Soluble,-2.04,1.40e+00,9.17e-03,Soluble,-2.74,2.76e-01,1.81e-03,Soluble,High,Yes,No,Yes,No,No,No,No,-5.95,0,1,0,0,1,0.55,0,0,1,1.20
Molecule 90,COc1ccc(cc1)CC1C(=O)NC(C)C(=O)N(C)C2Cc3ccc(cc3)Oc3cc(CC(N(C2=O)C)C(=O)NC(C(=O)N2C(C(=O)N1C)CCC2=O)C)ccc3OC,C43H50N6O10,810.89,59,18,0.42,4,10,2,237.04,184.20,4.07,3.01,-0.43,0.45,1.52,1.72,-6.73,1.53e-04,1.88e-07,Poorly soluble,-6.54,2.32e-04,2.86e-07,Poorly soluble,-9.16,5.60e-07,6.90e-10,Poorly soluble,Low,No,Yes,No,No,No,No,No,-9.11,2,4,1,1,2,0.17,0,1,1,8.37
Molecule 91,COc1cc2C(=C)OCc2c(c1C/C=C(/CC(=O)C=C(C)C)\C)O,C20H24O4,328.40,24,6,0.35,6,4,1,96.47,55.76,3.38,4.28,4.16,2.19,5.14,3.83,-4.36,1.43e-02,4.35e-05,Moderately soluble,-5.16,2.25e-03,6.86e-06,Moderately soluble,-4.70,6.52e-03,1.99e-05,Moderately soluble,High,Yes,No,No,Yes,Yes,No,Yes,-5.26,0,0,0,0,0,0.55,0,2,1,3.42
Molecule 92,COc1cc2c(c(c1OC)OC)c1c(cc(c(c1OC)OC)OC)CC(C(C2OC(=O)c1ccccc1)(C)O)C,C31H36O9,552.61,40,18,0.39,9,9,1,149.88,101.91,4.05,5.15,4.92,2.10,5.40,4.32,-6.25,3.11e-04,5.63e-07,Poorly soluble,-7.04,5.09e-05,9.22e-08,Poorly soluble,-8.48,1.82e-06,3.30e-09,Poorly soluble,High,No,Yes,No,No,No,No,No,-6.01,1,3,0,0,1,0.55,0,0,3,5.39
Molecule 93,OC(=O)CC1(C)CC2=C3C=CC4C(C3(C)CCC2(CC1O)C)(C)CCC1C4(C)CCC(C1(C)C)O,C31H48O4,484.71,35,0,0.84,2,4,3,142.15,77.76,3.69,6.26,6.51,5.06,5.36,5.38,-6.66,1.07e-04,2.20e-07,Poorly soluble,-7.68,1.01e-05,2.09e-08,Poorly soluble,-5.67,1.03e-03,2.12e-06,Moderately soluble,High,No,Yes,No,No,No,No,No,-4.81,1,4,0,1,1,0.56,0,0,2,6.61
Molecule 94,OCC1OC(OCC2COC3(CC2O)OC2C(C3(O)CO)CCC(C2)C(=O)O)C(C(C1O)O)O,C21H34O13,494.49,34,0,0.95,6,13,8,108.93,215.83,1.58,-3.61,-3.48,-3.00,-2.87,-2.28,-0.24,2.87e+02,5.81e-01,Very soluble,-0.34,2.27e+02,4.60e-01,Very soluble,2.38,1.18e+05,2.39e+02,Soluble,Low,No,No,No,No,No,No,No,-11.88,2,2,1,1,4,0.11,0,0,1,6.60
Molecule 95,CC(=O)OC1CC(OC(=O)C)C(C2C1(C)C1C(O)CC3CC1(CC2=O)C(=O)C3=C)(C)C,C24H32O7,432.51,31,0,0.75,4,7,1,111.90,106.97,2.36,1.76,2.39,1.87,3.09,2.29,-3.37,1.86e-01,4.30e-04,Soluble,-3.62,1.03e-01,2.38e-04,Soluble,-3.69,8.73e-02,2.02e-04,Soluble,High,No,Yes,No,No,No,No,No,-7.69,0,0,0,0,0,0.55,0,2,1,6.16
Molecule 96,COc1ccc2c(c1)n1c(=O)ccc3c1c2ccn3,C15H10N2O2,250.25,19,16,0.07,1,3,0,74.15,43.60,2.26,2.39,2.45,2.09,2.69,2.38,-3.45,8.79e-02,3.51e-04,Soluble,-2.95,2.83e-01,1.13e-03,Soluble,-5.05,2.22e-03,8.85e-06,Moderately soluble,High,Yes,No,Yes,No,No,No,Yes,-6.13,0,0,0,0,0,0.55,0,0,0,2.00
Molecule 97,CN(C(C1CCC2C1(C)CCC1C2CCC2C1(C)CC=C(C2O)NC(=O)c1ccccc1)C)C,C30H44N2O2,464.68,34,6,0.70,5,3,2,139.80,52.57,4.57,6.09,5.49,4.56,4.11,4.96,-6.36,2.04e-04,4.38e-07,Poorly soluble,-6.97,4.92e-05,1.06e-07,Poorly soluble,-6.06,4.01e-04,8.63e-07,Poorly soluble,High,Yes,No,No,No,No,No,No,-4.81,1,2,0,0,1,0.55,0,0,2,5.64
Molecule 98,Oc1ccc(c(c1)C(=O)O)O,C7H6O4,154.12,11,6,0.00,1,4,3,37.45,77.76,0.49,1.74,0.80,0.40,0.26,0.74,-2.23,9.09e-01,5.90e-03,Soluble,-2.99,1.58e-01,1.02e-03,Soluble,-0.60,3.83e+01,2.48e-01,Soluble,High,No,No,No,No,No,No,Yes,-6.00,0,3,0,0,1,0.56,0,1,1,1.10
Molecule 99,OCC1(O)COC(C1O)OC1C(OC(C(C1O)O)C(=O)O)OC1CCC2(C(C1(C)C)CCC1(C2C(=O)C=C2C1(C)CCC1(C2CC(C)(CC1)C(=O)O)C)C)C,C41H62O14,778.92,55,0,0.88,7,14,7,196.30,229.74,2.04,2.92,2.79,0.59,2.00,2.07,-6.05,6.99e-04,8.98e-07,Poorly soluble,-7.41,3.06e-05,3.93e-08,Poorly soluble,-2.89,1.00e+00,1.29e-03,Soluble,Low,No,Yes,No,No,No,No,No,-8.98,3,3,1,1,4,0.11,0,1,1,8.64
Molecule 100,OCC1OC(OC2CCC3(C(C2(C)C)CCC2(C3CC(O)C3C2(C)CCC3C(OC2OC(COC3OC(C)C(C(C3O)O)O)C(C(C2O)O)O)(CCC=C(C)C)C)C)C)C(C(C1O)O)OC1OC(CO)C(C(C1O)O)O,C54H92O22,1093.30,76,0,0.96,15,22,14,268.25,357.06,4.90,0.77,-1.17,-3.63,-1.79,-0.18,-6.11,8.42e-04,7.70e-07,Poorly soluble,-7.85,1.55e-05,1.42e-08,Poorly soluble,1.48,3.33e+04,3.05e+01,Soluble,Low,No,Yes,No,No,No,No,No,-12.42,3,4,2,1,5,0.17,0,2,2,10.00
