Molecule,Canonical SMILES,Formula,MW,#Heavy atoms,#Aromatic heavy atoms,Fraction Csp3,#Rotatable bonds,#H-bond acceptors,#H-bond donors,MR,TPSA,iLOGP,XLOGP3,WLOGP,MLOGP,Silicos-IT Log P,Consensus Log P,ESOL Log S,ESOL Solubility (mg/ml),ESOL Solubility (mol/l),ESOL Class,Ali Log S,Ali Solubility (mg/ml),Ali Solubility (mol/l),Ali Class,Silicos-IT LogSw,Silicos-IT Solubility (mg/ml),Silicos-IT Solubility (mol/l),Silicos-IT class,GI absorption,BBB permeant,Pgp substrate,CYP1A2 inhibitor,CYP2C19 inhibitor,CYP2C9 inhibitor,CYP2D6 inhibitor,CYP3A4 inhibitor,log Kp (cm/s),Lipinski #violations,Ghose #violations,Veber #violations,Egan #violations,Muegge #violations,Bioavailability Score,PAINS #alerts,Brenk #alerts,Leadlikeness #violations,Synthetic Accessibility
Molecule 1,COc1cc2CC(C)C(C)Cc3c(c2c(c1OC)OC)c(OC)c(c(c3)O)OC,C23H30O6,402.48,29,12,0.48,5,6,1,113.41,66.38,3.92,4.93,4.47,2.36,4.61,4.06,-5.42,1.54e-03,3.82e-06,Moderately soluble,-6.06,3.50e-04,8.69e-07,Poorly soluble,-6.32,1.92e-04,4.78e-07,Poorly soluble,High,Yes,No,No,No,No,No,No,-5.25,0,0,0,0,0,0.55,0,0,2,4.40
Molecule 2,O=C1CC2C3(C)CCC(C(C3CCC2(C2(C1C1C(C)(CCC1(O)C(=C)C)CC2)C)C)(C)C)O,C30H48O3,456.70,33,0,0.90,1,3,2,136.54,57.53,4.04,6.80,6.32,5.01,6.01,5.64,-6.89,5.89e-05,1.29e-07,Poorly soluble,-7.82,6.98e-06,1.53e-08,Poorly soluble,-6.25,2.59e-04,5.66e-07,Poorly soluble,High,No,No,No,No,No,No,No,-4.26,1,3,0,1,1,0.55,0,1,2,5.66
Molecule 3,O=COC1C(C(=O)OC)C(C2(C1(O)c1c(OC)cc(cc1O2)OC)c1ccc2c(c1)OCO2)c1ccccc1,C29H26O10,534.51,39,18,0.31,8,10,1,134.42,118.98,3.99,3.10,2.82,1.82,3.79,3.10,-4.92,6.42e-03,1.20e-05,Moderately soluble,-5.27,2.89e-03,5.41e-06,Moderately soluble,-6.82,8.11e-05,1.52e-07,Poorly soluble,High,No,Yes,No,No,Yes,Yes,Yes,-7.36,1,2,0,0,0,0.55,0,2,2,5.43
Molecule 4,OCC1CCC2C31CC(C(O3)(C)C)CCC2C,C15H26O2,238.37,17,0,1.00,1,2,1,70.20,29.46,2.95,2.75,2.99,2.88,2.91,2.90,-2.98,2.47e-01,1.04e-03,Soluble,-3.02,2.26e-01,9.47e-04,Soluble,-2.72,4.52e-01,1.90e-03,Soluble,High,Yes,No,No,No,No,No,No,-5.80,0,0,0,0,0,0.55,0,0,1,4.96
Molecule 5,COC1C2C3(CCC(C42C(C1(O)C1(O)CC(C2CC4C1C2OC)OC)N(C3)CC)OC)COC(=O)c1ccccc1NC(=O)C,C34H48N2O9,628.75,45,6,0.76,11,10,3,167.75,136.02,4.30,1.38,1.52,0.85,2.04,2.02,-3.98,6.58e-02,1.05e-04,Soluble,-3.84,9.10e-02,1.45e-04,Soluble,-4.89,8.16e-03,1.30e-05,Moderately soluble,High,No,Yes,No,No,No,No,No,-9.16,2,3,1,1,1,0.17,0,0,2,7.33
Molecule 6,CC(=O)OCC12C(OC(=O)C)CC(C(C1C(CCC12CO1)OC(=O)C)(C)CC(C1=CC(=O)OC1)OC(=O)C)C,C28H38O11,550.59,39,0,0.75,12,11,0,134.81,144.03,2.95,1.60,2.43,1.94,3.84,2.55,-3.47,1.87e-01,3.39e-04,Soluble,-4.24,3.20e-02,5.81e-05,Moderately soluble,-3.90,6.90e-02,1.25e-04,Soluble,Low,No,No,No,No,No,Yes,No,-8.52,2,3,2,1,1,0.17,0,2,2,6.63
Molecule 7,CC(=O)CCCCCCCCCCc1nc(C)ccc1O,C18H29NO2,291.43,21,6,0.67,11,3,1,89.27,50.19,3.36,4.81,4.74,2.56,5.49,4.19,-4.16,2.00e-02,6.88e-05,Moderately soluble,-5.60,7.38e-04,2.53e-06,Moderately soluble,-6.21,1.78e-04,6.11e-07,Poorly soluble,High,Yes,No,Yes,No,No,Yes,No,-4.66,0,0,1,0,0,0.55,0,0,2,2.73
Molecule 8,COC1CC(OC2C(O)CC(OC2C)OC2=CC3C(CC2)(C)C2CCC4(C(C2CC3)(O)CCC4C(O)C)C)OC(C1O)C,C34H56O9,608.80,43,0,0.94,6,9,4,161.98,127.07,4.83,3.84,4.04,1.82,2.42,3.39,-5.64,1.40e-03,2.30e-06,Moderately soluble,-6.20,3.80e-04,6.25e-07,Poorly soluble,-2.78,1.00e+00,1.65e-03,Soluble,Low,No,Yes,No,No,No,No,No,-7.29,1,3,0,0,1,0.55,0,0,2,7.96
Molecule 9,CC(=O)OC1CC2CC3(C1C14CCCC(C4C(C3(OC1)O)OC(=O)C)(C)C)C(C2=C)OC(=O)C,C26H36O8,476.56,34,0,0.81,6,8,1,121.41,108.36,3.53,2.49,2.91,2.80,3.04,2.95,-3.97,5.14e-02,1.08e-04,Soluble,-4.41,1.85e-02,3.88e-05,Moderately soluble,-3.56,1.30e-01,2.74e-04,Soluble,High,No,Yes,No,No,No,No,Yes,-7.44,0,0,0,0,0,0.55,0,2,1,6.98
Molecule 10,O=C1C2C(C2(C)C)C2(C3(C1=O)OC3CCC2C)C,C15H20O3,248.32,18,0,0.87,0,3,0,66.77,46.67,2.13,2.07,1.98,1.75,3.13,2.21,-2.68,5.14e-01,2.07e-03,Soluble,-2.68,5.20e-01,2.09e-03,Soluble,-3.04,2.28e-01,9.16e-04,Soluble,High,Yes,No,No,No,No,No,No,-6.35,0,0,0,0,0,0.55,1,2,1,4.48
Molecule 11,OCC1OC(OC2CCC3(C(=CCC4C3CCC3(C4CC4C3C(C)C(=O)O4)C)C2)C)C(C(C1OC1OC(C)C(C(C1O)O)O)O)OC1OC(C)C(C(C1O)O)O,C40H62O16,798.91,56,0,0.93,7,16,8,193.58,243.52,4.64,-0.03,-0.37,-1.26,-1.81,0.23,-4.31,3.89e-02,4.87e-05,Moderately soluble,-4.63,1.86e-02,2.32e-05,Moderately soluble,0.82,5.23e+03,6.55e+00,Soluble,Low,No,Yes,No,No,No,No,No,-11.19,3,3,1,1,5,0.17,0,1,1,8.84
Molecule 12,COc1c(OC)cc(cc1OC)C1C2C(=O)OCC2C(c2c1cc1OCOc1c2)OC(=O)C,C24H24O9,456.44,33,12,0.42,6,9,0,113.58,98.75,3.60,2.58,2.66,1.81,3.39,2.81,-4.17,3.10e-02,6.79e-05,Moderately soluble,-4.30,2.28e-02,4.99e-05,Moderately soluble,-5.36,1.98e-03,4.34e-06,Moderately soluble,High,No,No,No,No,Yes,Yes,Yes,-7.25,0,0,0,0,0,0.55,0,1,1,4.91
Molecule 13,C/C(=C\C)/C(=O)O,C5H8O2,100.12,7,0,0.40,1,2,1,27.45,37.30,1.14,0.99,1.04,0.79,0.19,0.83,-1.02,9.60e+00,9.58e-02,Very soluble,-1.36,4.35e+00,4.35e-02,Very soluble,-0.04,9.15e+01,9.14e-01,Soluble,High,Yes,No,No,No,No,No,No,-6.21,0,3,0,0,1,0.56,0,1,1,1.42
Molecule 14,CC(C12CC2C(=C)C(C1)O)C,C10H16O,152.23,11,0,0.80,1,1,1,46.38,20.23,2.44,1.79,1.97,2.30,2.31,2.16,-1.85,2.17e+00,1.43e-02,Very soluble,-1.83,2.23e+00,1.47e-02,Very soluble,-1.69,3.14e+00,2.07e-02,Soluble,High,Yes,No,No,No,No,No,No,-5.96,0,1,0,0,2,0.55,0,1,1,3.02
Molecule 15,COc1cc(/C=C/C(=O)OCC(COC(=O)/C=C/c2ccc(cc2)O)O)ccc1O,C22H22O8,414.41,30,12,0.18,11,8,3,109.26,122.52,3.51,2.84,2.06,1.46,3.11,2.60,-3.77,7.06e-02,1.70e-04,Soluble,-5.07,3.52e-03,8.49e-06,Moderately soluble,-3.64,9.43e-02,2.28e-04,Soluble,High,No,No,No,No,Yes,No,No,-6.81,0,0,1,0,0,0.55,0,2,2,3.70
Molecule 16,CC(=O)OC1C(O)C2(C)C(O)CC3C(C2C(C2(C(C1=C(C)C(OC(=O)C(C(c1ccccc1)NC(=O)c1ccccc1)O)C2)(C)C)O)OC(=O)c1ccccc1)(CO3)OC(=O)C,C47H53NO14,855.92,62,18,0.47,15,14,5,219.92,224.45,3.78,3.01,3.20,1.77,4.00,3.15,-6.27,4.62e-04,5.40e-07,Poorly soluble,-7.39,3.50e-05,4.09e-08,Poorly soluble,-8.11,6.72e-06,7.85e-09,Poorly soluble,Low,No,Yes,No,No,No,No,No,-9.38,2,3,2,1,3,0.17,0,2,2,8.39
Molecule 17,CCCC1OCC2(C(O1)C(O)CC1(C2CCC2(C1CC=C1C2(C)CCC2(C1C(C)(O)C(CC2)C)C(=O)OC1OC(CO)C(C(C1O)O)O)C)C)C,C40H64O11,720.93,51,0,0.93,6,11,6,189.37,175.37,4.17,4.19,3.59,2.05,2.96,3.39,-6.55,2.02e-04,2.80e-07,Poorly soluble,-7.58,1.89e-05,2.62e-08,Poorly soluble,-3.75,1.28e-01,1.78e-04,Soluble,Low,No,Yes,No,No,No,No,No,-7.72,3,3,1,1,4,0.17,0,1,2,8.49
Molecule 18,OCC1OC(Oc2cc3oc(c4ccc(cc4)O)c(c(=O)c3c(c2CCC(O)(C)C)O)O)C(C(C1O)O)O,C26H30O12,534.51,38,16,0.42,7,12,8,133.53,210.51,2.53,1.27,0.46,-1.80,1.09,0.71,-3.80,8.40e-02,1.57e-04,Soluble,-5.29,2.74e-03,5.13e-06,Moderately soluble,-3.06,4.61e-01,8.63e-04,Soluble,Low,No,Yes,No,No,No,No,No,-8.66,3,2,1,1,3,0.17,0,0,1,5.86
Molecule 19,OCC1OC(OC(/C=C\C2(O)C(C)(C)CC(CC2(C)O)O)C)C(C(C1O)O)O,C19H34O9,406.47,28,0,0.89,5,9,7,98.86,160.07,2.15,-1.54,-1.59,-1.63,-0.61,-0.64,-1.06,3.54e+01,8.71e-02,Very soluble,-1.31,1.97e+01,4.85e-02,Very soluble,1.02,4.23e+03,1.04e+01,Soluble,Low,No,Yes,No,No,No,No,No,-9.87,1,1,1,1,2,0.55,0,1,1,6.16
Molecule 20,COCC12CN(C)C3C4(C2C(OC)C3C2(C3C4(O)CC(C3OC(=O)c3ccccc3)(C(C2O)OC)O)OC(=O)C)C(CC1O)OC,C33H45NO12,647.71,46,6,0.76,10,13,4,161.89,173.68,3.68,-1.15,-1.01,-0.70,0.16,0.20,-2.57,1.75e+00,2.71e-03,Soluble,-2.01,6.40e+00,9.88e-03,Soluble,-2.75,1.14e+00,1.77e-03,Soluble,Low,No,Yes,No,No,No,No,No,-11.07,2,4,1,1,3,0.17,0,1,2,7.35
Molecule 21,COc1c(OC)cc2c3c1Oc1cc4CCN(C(c4cc1OC)Cc1ccc(Oc4cc(CC3N(CC2)C)ccc4OC)cc1)C,C38H42N2O6,622.75,46,24,0.37,4,8,0,186.07,61.86,4.98,6.66,5.75,3.73,6.06,5.44,-8.02,5.96e-06,9.57e-09,Poorly soluble,-7.76,1.08e-05,1.73e-08,Poorly soluble,-10.80,9.78e-09,1.57e-11,Insoluble,High,No,No,No,No,No,No,No,-5.37,1,4,0,0,2,0.55,0,0,2,7.01
Molecule 22,Oc1cc(O)c2c(c1)[o+]c(c(c2)O)c1cc(O)c(c(c1)O)O,C15H11O7,303.24,22,16,0.00,1,7,6,78.20,134.52,-3.10,1.58,2.61,-0.22,-0.25,0.13,-3.19,1.97e-01,6.49e-04,Soluble,-4.02,2.92e-02,9.65e-05,Moderately soluble,-2.07,2.56e+00,8.43e-03,Soluble,High,No,Yes,Yes,No,No,No,No,-7.03,1,0,0,1,1,0.55,1,2,0,3.18
Molecule 23,C/C=C/1\CC(C)C(C)(O)C(=O)OCC2C3C(OC1=O)CCN3CC2,C18H27NO5,337.41,24,0,0.78,0,6,1,92.40,76.07,3.02,1.93,0.89,1.52,1.47,1.77,-3.15,2.40e-01,7.11e-04,Soluble,-3.15,2.38e-01,7.06e-04,Soluble,-2.01,3.27e+00,9.71e-03,Soluble,High,No,No,No,No,No,No,No,-6.99,0,0,0,0,0,0.55,0,2,0,5.14
Molecule 24,OCC1Oc2cc(ccc2OC1c1ccc(c(c1)OC)O)C1CC(=O)c2c(O1)cc(cc2O)O,C25H22O9,466.44,34,18,0.24,4,9,4,119.39,134.91,3.33,3.23,2.74,0.37,2.81,2.50,-4.89,5.95e-03,1.27e-05,Moderately soluble,-5.74,8.56e-04,1.84e-06,Moderately soluble,-5.32,2.22e-03,4.76e-06,Moderately soluble,High,No,No,No,No,Yes,No,Yes,-6.85,0,0,0,1,0,0.55,0,0,1,4.70
Molecule 25,CC(=O)OC1COC(C(C1O)O)OC1C(O)C(OC2C(OCC(C2O)O)OC2CCC3(C(C2(C)C)CCC2(C3CC=C3C2(C)CCC2(C3CC(C)(C)CC2)C(=O)O)C)C)OC(C1O)C,C48H76O16,909.11,64,0,0.92,9,16,7,230.44,240.36,4.60,3.91,3.58,0.77,1.69,2.91,-7.35,4.10e-05,4.51e-08,Poorly soluble,-8.66,2.01e-06,2.21e-09,Poorly soluble,-2.67,1.94e+00,2.13e-03,Soluble,Low,No,Yes,No,No,No,No,No,-9.07,3,3,1,1,5,0.11,0,2,3,9.63
Molecule 26,CC(=O)OC1C(C)CC2(C1C(OC(=O)C)C(=C)C(OC(=O)C)CC(OC(=O)c1cccnc1)C(C1C(C(C2=O)C)O1)(C)C)OC(=O)C,C34H43NO12,657.70,47,6,0.62,11,13,0,164.69,173.99,4.55,3.00,3.32,1.53,3.49,3.18,-5.18,4.38e-03,6.66e-06,Moderately soluble,-6.32,3.16e-04,4.81e-07,Poorly soluble,-5.27,3.54e-03,5.38e-06,Moderately soluble,Low,No,No,No,No,No,Yes,No,-8.18,2,3,2,1,3,0.17,0,3,2,6.66
Molecule 27,OCC1OC(OC(/C=C/C23OC3(C)CC(CC2(C)C)O)C)C(C(C1O)O)O,C19H32O8,388.45,27,0,0.89,5,8,5,95.51,132.14,2.60,-0.55,-0.54,-0.85,0.60,0.25,-1.57,1.04e+01,2.68e-02,Very soluble,-1.76,6.82e+00,1.76e-02,Very soluble,0.12,5.10e+02,1.31e+00,Soluble,High,No,Yes,No,No,No,No,No,-9.06,0,1,0,1,0,0.55,0,2,1,6.04
Molecule 28,CCCCCCC/C=C/CCCCCCCCC(=O)O,C18H34O2,282.46,20,0,0.83,15,2,1,89.94,37.30,4.14,7.64,6.11,4.57,5.95,5.68,-5.41,1.09e-03,3.85e-06,Moderately soluble,-8.26,1.54e-06,5.46e-09,Poorly soluble,-5.39,1.14e-03,4.04e-06,Moderately soluble,High,No,No,Yes,No,Yes,No,No,-2.60,1,1,1,1,1,0.56,0,1,2,3.07
Molecule 29,CC(C1CCC2C1(C)CCC1(C2(C)CCC2C1=CCC1C2(C)CCCC1(C)C)C)C,C30H50,410.72,30,0,0.93,1,0,0,133.98,0.00,5.03,10.54,9.05,8.91,7.69,8.24,-8.96,4.50e-07,1.09e-09,Poorly soluble,-10.49,1.33e-08,3.25e-11,Insoluble,-7.54,1.20e-05,2.92e-08,Poorly soluble,Low,No,No,No,No,No,No,No,-1.32,1,3,0,1,2,0.55,0,1,2,6.33
Molecule 30,C/C(=C\C=C\C=C(\C=C\C=C(\C=C\C1=C(C)C(=O)CCC1(C)C)/C)/C)/C=C/C=C(/C=C/C1=C(C)C(=O)CCC1(C)C)\C,C40H52O2,564.84,42,0,0.40,10,2,0,184.83,34.14,7.13,11.38,10.96,6.82,12.07,9.67,-9.85,7.95e-08,1.41e-10,Poorly soluble,-12.08,4.73e-10,8.37e-13,Insoluble,-7.33,2.62e-05,4.63e-08,Poorly soluble,Low,No,Yes,No,No,No,No,No,-1.67,2,4,0,1,1,0.17,0,1,3,5.84
Molecule 31,OCC1OC(Oc2ccc3c(c2)OC(CC3=O)c2ccc(c(c2)OC2OC(CO)C(C(C2O)O)O)O)C(C(C1O)O)O,C27H32O15,596.53,42,12,0.52,7,15,9,135.81,245.29,1.72,-1.67,-2.87,-3.50,-2.23,-1.71,-2.24,3.47e+00,5.81e-03,Soluble,-2.97,6.40e-01,1.07e-03,Soluble,0.09,7.27e+02,1.22e+00,Soluble,Low,No,No,No,No,No,No,No,-11.12,3,4,1,1,3,0.17,0,0,1,6.22
Molecule 32,Oc1ccc(cc1)C1Oc2c(C1C(=O)c1ccc(cc1O)O)cc(cc2)CCC(=O)c1ccc(cc1O)O,C30H24O8,512.51,38,24,0.13,7,8,5,139.59,144.52,2.23,5.41,4.81,1.59,4.53,3.71,-6.43,1.90e-04,3.71e-07,Poorly soluble,-8.20,3.23e-06,6.31e-09,Poorly soluble,-7.42,1.96e-05,3.82e-08,Poorly soluble,Low,No,No,No,No,Yes,No,No,-5.59,1,2,1,1,1,0.55,0,0,2,4.48
Molecule 33,OCC1OC(Oc2ccc(cc2OC)C2OCC3(C2COC3c2ccc(c(c2)OC)O)O)C(C(C1O)O)O,C26H32O12,536.53,38,12,0.54,7,12,6,128.22,176.76,2.85,-0.58,-0.87,-1.80,0.03,-0.07,-2.57,1.43e+00,2.67e-03,Soluble,-2.66,1.17e+00,2.18e-03,Soluble,-2.06,4.68e+00,8.73e-03,Soluble,Low,No,Yes,No,No,No,No,No,-9.98,3,2,1,1,3,0.17,0,0,1,5.78
Molecule 34,OCC/C(=C(\N(Cc1cnc(nc1N)C)C=O)/C)/SSCC=C,C15H22N4O2S2,354.49,23,6,0.40,10,4,2,98.51,142.94,2.63,0.85,2.36,0.80,2.02,1.73,-2.11,2.77e+00,7.83e-03,Soluble,-3.43,1.30e-01,3.67e-04,Soluble,-3.11,2.73e-01,7.71e-04,Soluble,Low,No,Yes,No,No,No,No,No,-7.86,0,0,1,1,0,0.55,0,3,2,3.77
Molecule 35,CCCCCCCCCCCCCCCCCCCCC,C21H44,296.57,21,0,1.00,18,0,0,103.06,0.00,5.85,10.99,8.44,7.60,8.43,8.26,-7.41,1.14e-05,3.85e-08,Poorly soluble,-10.96,3.29e-09,1.11e-11,Insoluble,-8.34,1.37e-06,4.61e-09,Poorly soluble,Low,No,No,Yes,No,No,No,No,-0.31,1,1,1,1,3,0.55,0,0,2,2.84
Molecule 36,OCC1OC(OC2OC=C(C(/C/2=C/C)CC(=O)OCCc2ccc(cc2)O)C(=O)O)C(C(C1O)O)O,C24H30O12,510.49,36,6,0.50,10,12,6,120.93,192.44,2.42,-0.42,-0.43,-1.47,-0.24,-0.03,-2.20,3.19e+00,6.26e-03,Soluble,-3.16,3.56e-01,6.97e-04,Soluble,-0.57,1.38e+02,2.71e-01,Soluble,Low,No,No,No,No,No,No,No,-9.71,3,2,1,1,3,0.11,0,1,2,6.08
Molecule 37,CCC(C(C)C)CCC(C1CCC2C1(C)CCC1C2CCC2C1(C)CCC(C2)OC(=O)/C=C/c1ccc(c(c1)OC)O)C,C39H60O4,592.89,43,6,0.77,11,4,1,181.57,55.76,6.46,12.43,9.97,6.87,8.96,8.94,-10.72,1.12e-08,1.89e-11,Insoluble,-13.62,1.42e-11,2.39e-14,Insoluble,-8.43,2.21e-06,3.73e-09,Poorly soluble,Low,No,No,No,No,No,No,No,-1.09,2,4,1,1,1,0.17,0,1,3,6.82
Molecule 38,COC(C(Cc1c(O)cc(c(c1O)C(=O)/C=C/c1ccc(cc1)O)OC)O)(C)C,C22H26O7,402.44,29,12,0.32,8,7,4,110.10,116.45,2.64,3.26,2.93,1.04,3.52,2.68,-4.17,2.74e-02,6.81e-05,Moderately soluble,-5.38,1.68e-03,4.17e-06,Moderately soluble,-4.11,3.16e-02,7.85e-05,Moderately soluble,High,No,No,No,No,Yes,Yes,Yes,-6.44,0,0,0,0,0,0.55,0,1,2,3.96
Molecule 39,O=CC1=Cc2cc(OC)c(cc2C(C1CO)c1ccc(c(c1)OC)O)O,C20H20O6,356.37,26,12,0.25,5,6,3,96.68,96.22,2.61,1.98,2.34,1.01,2.83,2.15,-3.31,1.75e-01,4.92e-04,Soluble,-3.63,8.42e-02,2.36e-04,Soluble,-4.15,2.50e-02,7.01e-05,Moderately soluble,High,No,Yes,No,No,No,Yes,No,-7.07,0,0,0,0,0,0.55,0,1,1,4.07
Molecule 40,CC(=CCc1c2OC(C)(C)C=Cc2c(c2c1[nH]c1ccccc1c2=O)O)C,C23H23NO3,361.43,27,14,0.26,2,3,2,111.94,62.32,3.89,6.02,4.97,3.09,5.71,4.73,-6.13,2.71e-04,7.50e-07,Poorly soluble,-7.11,2.83e-05,7.82e-08,Poorly soluble,-6.80,5.78e-05,1.60e-07,Poorly soluble,High,Yes,No,Yes,Yes,Yes,No,No,-4.23,0,0,0,0,1,0.55,0,2,2,3.63
Molecule 41,COc1cc(O)c2c(c1)CCc1c2c(O)ccc1,C15H14O3,242.27,18,12,0.20,1,3,2,70.23,49.69,2.62,3.10,2.87,2.20,3.21,2.80,-3.72,4.59e-02,1.89e-04,Soluble,-3.81,3.74e-02,1.54e-04,Soluble,-4.45,8.60e-03,3.55e-05,Moderately soluble,High,Yes,Yes,Yes,No,No,Yes,Yes,-5.58,0,0,0,0,0,0.55,0,0,1,2.63
Molecule 42,COc1cc(O)c2c(c1)occ(c2=O)c1ccc(cc1)O,C16H12O5,284.26,21,16,0.06,2,5,2,78.46,79.90,2.50,2.99,2.88,0.77,3.03,2.43,-3.92,3.43e-02,1.21e-04,Soluble,-4.33,1.32e-02,4.66e-05,Moderately soluble,-5.10,2.25e-03,7.91e-06,Moderately soluble,High,No,No,Yes,No,No,Yes,Yes,-5.91,0,0,0,0,0,0.55,0,0,0,2.96
Molecule 43,OCC1OC(OC2C(OC(C(C2O)O)C)OC2CCC3(C(C2(C)C)CCC2(C3C=CC34C2(C)CC(C2(C4C(C)C(C)C(C2)O)CO3)O)C)C)C(C(C1O)O)OC1OC(C)C(C(C1O)O)O,C48H78O17,927.12,65,0,0.96,7,17,10,231.30,266.91,4.65,1.53,0.48,-1.38,-1.03,0.85,-6.09,7.53e-04,8.13e-07,Poorly soluble,-6.74,1.67e-04,1.80e-07,Poorly soluble,-0.09,7.50e+02,8.09e-01,Soluble,Low,No,Yes,No,No,No,No,No,-10.87,3,3,1,1,5,0.17,0,2,1,10.00
Molecule 44,CC1C=C(C)C(=O)NC2(C1c1cc3ccccc3cc1O2)C,C19H19NO2,293.36,22,10,0.32,0,2,1,91.31,38.33,2.89,3.90,3.36,3.32,3.63,3.42,-4.45,1.04e-02,3.53e-05,Moderately soluble,-4.40,1.16e-02,3.95e-05,Moderately soluble,-5.85,4.18e-04,1.43e-06,Moderately soluble,High,Yes,Yes,No,Yes,Yes,Yes,No,-5.32,0,0,0,0,0,0.55,0,0,1,4.13
Molecule 45,O=C1OC2C3(C1CCCC3C1(C(C2)(C)C(C1=O)(O)c1ccoc1)C)C,C20H24O5,344.40,25,5,0.70,1,5,1,89.07,76.74,2.06,2.68,2.71,1.84,3.35,2.53,-3.75,6.19e-02,1.80e-04,Soluble,-3.94,3.92e-02,1.14e-04,Soluble,-4.54,9.89e-03,2.87e-05,Moderately soluble,High,Yes,Yes,No,No,No,Yes,No,-6.50,0,0,0,0,0,0.55,0,0,0,4.99
Molecule 46,COc1c(CCCCCCCCCCCC(=O)C)[nH]c2c(c1=O)cccc2,C23H33NO3,371.51,27,10,0.57,13,3,1,113.91,59.16,4.12,6.17,5.57,2.81,7.26,5.19,-5.45,1.33e-03,3.58e-06,Moderately soluble,-7.20,2.36e-05,6.37e-08,Poorly soluble,-8.47,1.26e-06,3.40e-09,Poorly soluble,High,No,No,No,No,No,Yes,Yes,-4.19,0,0,1,0,1,0.55,0,0,3,3.28
Molecule 47,OC/C=C/1\CN2CCC34C2CC1C1=CCC(=O)N(C31)c1c4cccc1,C21H22N2O2,334.41,25,6,0.48,1,3,1,102.77,43.78,2.71,0.44,1.23,2.63,2.06,1.82,-2.30,1.67e+00,4.99e-03,Soluble,-0.93,3.95e+01,1.18e-01,Very soluble,-3.43,1.25e-01,3.72e-04,Soluble,High,Yes,Yes,No,No,No,Yes,No,-8.03,0,0,0,0,0,0.55,0,1,0,4.96
Molecule 48,COC1=C(OC)C23C(CC1=O)(CC(=O)N3C)c1c(CC2)ccc(c1OC)OC,C21H25NO6,387.43,28,6,0.52,4,6,0,104.72,74.30,2.98,1.10,1.59,0.46,3.03,1.83,-2.83,5.74e-01,1.48e-03,Soluble,-2.25,2.16e+00,5.59e-03,Soluble,-5.06,3.38e-03,8.73e-06,Moderately soluble,High,No,Yes,No,No,No,No,Yes,-7.88,0,0,0,0,0,0.56,0,0,1,4.93
Molecule 49,OC/C=C(/COC1OC(COC(=O)/C=C/c2ccc(c(c2)O)O)C(C(C1O)O)O)\CO,C20H26O11,442.41,31,6,0.45,10,11,7,104.94,186.37,1.11,-1.66,-1.72,-2.05,-0.56,-0.98,-1.02,4.22e+01,9.54e-02,Very soluble,-1.74,8.01e+00,1.81e-02,Very soluble,0.54,1.53e+03,3.46e+00,Soluble,Low,No,No,No,No,No,No,No,-10.18,2,1,1,1,3,0.17,1,3,2,5.14
Molecule 50,OCC1OC(OC2CC(C)(C)C3(C(C2)(C)O3)/C=C/C(O)C)C(C(C1O)O)O,C19H32O8,388.45,27,0,0.89,5,8,5,95.51,132.14,2.32,-0.55,-0.54,-0.85,0.60,0.20,-1.57,1.04e+01,2.68e-02,Very soluble,-1.76,6.82e+00,1.76e-02,Very soluble,0.12,5.10e+02,1.31e+00,Soluble,High,No,Yes,No,No,No,No,No,-9.06,0,1,0,1,0,0.55,0,2,1,5.99
Molecule 51,OCC12C(O)CC(CC2(O)CCC2C1C(O)CC1(C2(O)CCC1C1=CC(=O)OC1)C)OC1OC(C)C(C(C1O)O)O,C29H44O12,584.65,41,0,0.90,4,12,8,140.66,206.60,2.73,-1.70,-1.51,-1.11,-0.97,-0.51,-2.13,4.34e+00,7.42e-03,Soluble,-2.13,4.38e+00,7.49e-03,Soluble,0.33,1.25e+03,2.13e+00,Soluble,Low,No,No,No,No,No,No,No,-11.07,3,4,1,1,3,0.17,0,1,1,7.13
Molecule 52,O=CC12CCC(C(C2CCC2(C1CCC1C2(C)CCC2(C1=CC(C)(CO)CC2OC(=O)c1cc(OC)c(c(c1)OC)O)C)C)(C)C)OC1OC(C(=O)O)C(C(C1OC1OCC(C(C1OC1OC(C)C(C(C1O)O)O)O)O)O)O,C56H82O22,1107.24,78,6,0.80,14,22,10,272.68,336.58,6.05,3.12,2.11,-1.58,0.82,2.10,-7.80,1.74e-05,1.57e-08,Poorly soluble,-9.86,1.54e-07,1.39e-10,Poorly soluble,-2.48,3.69e+00,3.33e-03,Soluble,Low,No,No,No,No,No,No,No,-10.84,3,3,2,1,5,0.11,0,3,2,10.00
Molecule 53,COc1cc2CCN(C3(c2cc1O)OC(=O)c1c(C3=O)ccc2c1OCO2)C,C20H17NO7,383.35,28,12,0.30,1,8,1,99.22,94.53,2.70,2.47,1.33,1.17,2.45,2.02,-4.02,3.63e-02,9.46e-05,Moderately soluble,-4.10,3.05e-02,7.95e-05,Moderately soluble,-4.77,6.54e-03,1.71e-05,Moderately soluble,High,No,No,Yes,No,Yes,Yes,Yes,-6.88,0,0,0,0,0,0.55,0,0,1,4.35
Molecule 54,COc1cc2occc2c2c1ccc(=O)o2,C12H8O4,216.19,16,13,0.08,1,4,0,58.75,52.58,2.38,2.05,2.55,1.18,2.88,2.21,-3.01,2.13e-01,9.84e-04,Soluble,-2.78,3.57e-01,1.65e-03,Soluble,-4.63,5.01e-03,2.32e-05,Moderately soluble,High,Yes,No,Yes,No,No,No,No,-6.16,0,0,0,0,0,0.55,0,1,1,2.89
Molecule 55,CO/C=C(\C1CC2N(CC1CC)CCc1c2[nH]c2c1c(OC)ccc2)/C(=O)OC,C23H30N2O4,398.50,29,9,0.52,6,5,1,116.89,63.79,3.78,3.41,3.12,2.02,3.72,3.21,-4.29,2.03e-02,5.10e-05,Moderately soluble,-4.43,1.48e-02,3.72e-05,Moderately soluble,-5.00,3.95e-03,9.91e-06,Moderately soluble,High,Yes,No,No,No,No,Yes,Yes,-6.31,0,0,0,0,0,0.56,0,2,1,4.49
Molecule 56,O=C1c2cccc(c2C(=O)c2c1ccc(c2O)C)O,C15H10O4,254.24,19,12,0.07,0,4,2,68.76,74.60,1.87,3.53,2.18,0.92,3.04,2.31,-4.11,1.98e-02,7.81e-05,Moderately soluble,-4.78,4.21e-03,1.66e-05,Moderately soluble,-4.49,8.32e-03,3.27e-05,Moderately soluble,High,Yes,No,Yes,No,No,No,Yes,-5.34,0,0,0,0,0,0.55,1,0,1,2.47
Molecule 57,OCC1OC(Oc2cc(O)c(c(c2)O)C(=O)c2ccc(cc2)O)C(C(C1O)O)O,C19H20O10,408.36,29,12,0.32,5,10,7,96.53,177.14,1.28,-0.17,-0.79,-1.87,-0.66,-0.44,-2.24,2.34e+00,5.74e-03,Soluble,-3.09,3.28e-01,8.04e-04,Soluble,-0.88,5.45e+01,1.33e-01,Soluble,Low,No,No,No,No,No,No,No,-8.91,1,1,1,1,2,0.55,0,0,1,4.63
Molecule 58,CC1=C(O)C(=O)c2c(C1=O)c(O)ccc2O,C11H8O5,220.18,16,6,0.09,0,5,3,54.67,94.83,1.57,2.07,1.31,-0.82,1.22,1.07,-2.79,3.60e-01,1.63e-03,Soluble,-3.69,4.49e-02,2.04e-04,Soluble,-1.92,2.62e+00,1.19e-02,Soluble,High,No,No,Yes,No,No,No,Yes,-6.17,0,0,0,0,0,0.56,1,1,1,2.64
Molecule 59,COc1c(CC=C(C)C)c2OC(C)(C)C=Cc2c2c1c(=O)c(co2)c1ccc(cc1)O,C26H26O5,418.48,31,16,0.27,4,5,1,124.28,68.90,4.08,5.65,5.76,2.84,6.21,4.91,-6.11,3.23e-04,7.73e-07,Poorly soluble,-6.86,5.76e-05,1.38e-07,Poorly soluble,-7.72,7.96e-06,1.90e-08,Poorly soluble,High,No,No,No,Yes,Yes,No,No,-4.84,0,1,0,0,1,0.55,0,1,2,4.37
Molecule 60,COc1cc(O)c2c(c1Cc1ccc(cc1)O)CCc1c2c(O)c(c2ccccc2)c(c1Cc1ccc(cc1)O)O,C35H30O6,546.61,41,30,0.14,6,6,5,160.64,110.38,3.90,7.51,6.84,4.04,7.27,5.91,-8.11,4.28e-06,7.84e-09,Poorly soluble,-9.66,1.19e-07,2.18e-10,Poorly soluble,-10.85,7.81e-09,1.43e-11,Insoluble,Low,No,No,Yes,Yes,No,No,No,-4.30,1,4,0,1,1,0.55,0,0,2,4.29
Molecule 61,CC(/C=C/CC1=CCOC1)(O)C,C10H16O2,168.23,12,0,0.60,3,2,1,49.41,29.46,2.43,0.50,1.66,1.27,2.10,1.59,-1.00,1.68e+01,1.00e-01,Very soluble,-0.69,3.45e+01,2.05e-01,Very soluble,-1.22,1.02e+01,6.08e-02,Soluble,High,Yes,No,No,No,No,No,No,-6.97,0,0,0,0,1,0.55,0,1,1,3.04
Molecule 62,COc1cc(/C=C/C(=O)OC2CC3C(C2(C)CC3)(C)C)ccc1O,C20H26O4,330.42,24,6,0.55,5,4,1,94.46,55.76,3.83,6.00,4.06,3.17,4.08,4.23,-5.52,9.90e-04,3.00e-06,Moderately soluble,-6.95,3.72e-05,1.13e-07,Poorly soluble,-4.32,1.59e-02,4.80e-05,Moderately soluble,High,Yes,No,No,Yes,Yes,No,Yes,-4.06,0,0,0,0,1,0.55,0,1,1,4.74
Molecule 63,COc1c(O)cc2c(c1O)c(=O)c1c(o2)ccc(c1OC)O,C15H12O7,304.25,22,14,0.13,2,7,3,79.04,109.36,2.43,2.39,2.08,-0.25,2.04,1.74,-3.57,8.17e-02,2.69e-04,Soluble,-4.33,1.43e-02,4.70e-05,Moderately soluble,-3.81,4.77e-02,1.57e-04,Soluble,High,No,No,Yes,No,Yes,No,Yes,-6.46,0,0,0,0,0,0.55,0,1,0,3.19
Molecule 64,COc1cccc2c1nc1c2c(OC)c[nH]c1CCC(=O)c1[nH]ccc2c1nc1c2cccc1,C27H22N4O3,450.49,34,26,0.15,6,5,2,133.23,92.89,3.18,3.96,5.58,1.66,6.27,4.13,-5.30,2.27e-03,5.04e-06,Moderately soluble,-5.61,1.10e-03,2.45e-06,Moderately soluble,-10.18,2.97e-08,6.59e-11,Insoluble,High,No,Yes,Yes,Yes,Yes,Yes,Yes,-6.24,0,1,0,0,0,0.55,0,0,2,3.19
Molecule 65,CN(C(C1CCC2C1(C)CCC1C2CCC2C1(C)CCC(C2O)NC(=O)c1ccccc1)C)C,C30H46N2O2,466.70,34,6,0.77,5,3,2,140.27,52.57,4.26,6.40,5.36,4.65,4.12,4.96,-6.57,1.27e-04,2.72e-07,Poorly soluble,-7.30,2.36e-05,5.05e-08,Poorly soluble,-6.08,3.88e-04,8.32e-07,Poorly soluble,High,Yes,Yes,No,No,No,No,No,-4.60,1,2,0,0,1,0.55,0,0,2,4.80
Molecule 66,COC(=O)C12COCC=C3C1CC[N+](C3)(Cc1c2[nH]c2c1cccc2)C,C21H25N2O3,353.43,26,9,0.48,2,3,1,104.41,51.32,-0.59,1.17,1.98,-1.55,3.13,0.83,-2.89,4.53e-01,1.28e-03,Soluble,-1.84,5.07e+00,1.44e-02,Very soluble,-5.78,5.88e-04,1.66e-06,Moderately soluble,High,Yes,Yes,No,No,No,No,No,-7.63,0,0,0,0,0,0.55,0,2,1,4.96
Molecule 67,Oc1ccc(cc1)c1coc2c(c1=O)c(O)cc(c2)O,C15H10O5,270.24,20,16,0.00,1,5,3,73.99,90.90,1.91,2.67,2.58,0.52,2.52,2.04,-3.72,5.11e-02,1.89e-04,Soluble,-4.23,1.59e-02,5.88e-05,Moderately soluble,-4.40,1.07e-02,3.94e-05,Moderately soluble,High,No,No,Yes,No,No,Yes,Yes,-6.05,0,0,0,0,0,0.55,0,0,0,2.87
Molecule 68,COc1ccc2c(c1)c1CCN3C(c1[nH]2)CC1C(C3)C(C)OC=C1C(=O)OC,C22H26N2O4,382.45,28,9,0.50,3,5,1,109.96,63.79,3.48,2.72,2.48,1.80,2.83,2.66,-3.96,4.15e-02,1.08e-04,Soluble,-3.71,7.40e-02,1.93e-04,Soluble,-4.49,1.25e-02,3.27e-05,Moderately soluble,High,Yes,No,No,No,No,Yes,No,-6.70,0,0,0,0,0,0.56,1,0,1,4.70
Molecule 69,COC(=O)/C=C(/CCC1(C)C(C)C(OC(=O)C)CC2(C1CCC(C2=C)O)C)\C,C23H36O5,392.53,28,0,0.74,7,5,1,110.71,72.83,3.94,4.49,4.20,3.36,4.29,4.05,-4.64,8.98e-03,2.29e-05,Moderately soluble,-5.74,7.14e-04,1.82e-06,Moderately soluble,-4.05,3.48e-02,8.87e-05,Moderately soluble,High,Yes,No,No,No,No,Yes,Yes,-5.51,0,0,0,0,0,0.55,0,3,2,5.09
Molecule 70,COc1cccc2c1nc1c2c(OC)c[nH]c1CCn1ccc2c3c1cc(=O)c(=O)n3c1c2cccc1,C29H22N4O4,490.51,37,29,0.14,5,5,1,144.82,90.62,3.38,4.02,4.49,2.15,5.13,3.83,-5.66,1.06e-03,2.17e-06,Moderately soluble,-5.63,1.16e-03,2.37e-06,Moderately soluble,-9.61,1.22e-07,2.48e-10,Poorly soluble,High,No,Yes,No,Yes,Yes,No,Yes,-6.44,0,2,0,0,0,0.55,0,1,2,3.49
Molecule 71,OC(=O)CCCCC1CCS(=O)S1,C8H14O3S2,222.32,13,0,0.88,5,3,1,56.10,98.88,1.34,0.63,2.67,0.58,1.05,1.25,-1.29,1.15e+01,5.18e-02,Very soluble,-2.28,1.16e+00,5.23e-03,Soluble,-1.61,5.47e+00,2.46e-02,Soluble,High,No,No,No,No,No,No,No,-7.21,0,0,0,0,0,0.56,0,1,1,3.64
Molecule 72,OC/C(=C/CCC(C1CCC2(C1C(O)CC1C2(C)CCC2C1(C)C(O)CC(C2(C)C)O)C)(OC1OC(CO)C(C(C1O)O)O)C)/C,C36H62O10,654.87,46,0,0.94,8,10,8,174.58,180.30,4.04,3.38,2.27,1.00,2.28,2.59,-5.50,2.06e-03,3.15e-06,Moderately soluble,-6.84,9.36e-05,1.43e-07,Poorly soluble,-2.14,4.70e+00,7.18e-03,Soluble,Low,No,Yes,No,No,No,No,No,-7.89,2,3,1,1,3,0.17,0,1,2,8.16
Molecule 73,OCC1OC(OC(=O)c2cc(O)c(c(c2)O)O)C(C(C1OC1OC(CO)C(C(C1O)O)O)O)O,C19H26O15,494.40,34,6,0.63,7,15,10,103.83,256.29,0.97,-2.40,-4.42,-4.15,-4.29,-2.86,-1.06,4.29e+01,8.67e-02,Very soluble,-2.44,1.78e+00,3.61e-03,Soluble,3.33,1.06e+06,2.15e+03,Soluble,Low,No,No,No,No,No,No,No,-11.02,2,2,1,1,4,0.17,1,1,1,5.40
Molecule 74,Oc1ccc2c(c1)C1Oc3ccccc3C3C1c1c2c(O)cc(c1C(=O)C3)O,C23H16O5,372.37,28,18,0.17,0,5,3,102.71,86.99,2.24,3.67,4.05,2.33,3.60,3.18,-4.94,4.31e-03,1.16e-05,Moderately soluble,-5.19,2.42e-03,6.51e-06,Moderately soluble,-5.96,4.05e-04,1.09e-06,Moderately soluble,High,No,Yes,Yes,Yes,No,No,No,-5.97,0,0,0,0,0,0.55,0,0,2,4.34
Molecule 75,COC(=O)c1ccc2c(c1)C=CC(O2)(C)C,C13H14O3,218.25,16,6,0.31,2,3,0,61.84,35.53,2.90,2.70,2.55,2.31,2.70,2.63,-3.04,1.99e-01,9.13e-04,Soluble,-3.10,1.74e-01,7.96e-04,Soluble,-3.35,9.84e-02,4.51e-04,Soluble,High,Yes,No,Yes,Yes,No,No,No,-5.71,0,0,0,0,0,0.55,0,0,1,2.99
Molecule 76,CS,CH4S,48.11,2,0,1.00,0,0,0,14.85,38.80,1.13,0.51,0.55,0.20,0.27,0.53,-0.46,1.67e+01,3.47e-01,Very soluble,-0.90,6.12e+00,1.27e-01,Very soluble,-0.16,3.33e+01,6.92e-01,Soluble,High,Yes,No,No,No,No,No,No,-6.23,0,3,0,0,3,0.55,0,1,1,1.27
Molecule 77,Oc1ccc2cc1Oc1ccc(cc1)CCc1ccc(c3c(CC2)cccc3O)c(O)c1,C28H24O4,424.49,32,24,0.14,0,4,3,126.54,69.92,3.57,6.52,6.15,4.30,5.37,5.18,-7.13,3.11e-05,7.34e-08,Poorly soluble,-7.79,6.96e-06,1.64e-08,Poorly soluble,-8.97,4.52e-07,1.06e-09,Poorly soluble,High,No,Yes,Yes,Yes,No,No,No,-4.26,1,1,0,1,1,0.55,0,0,2,5.04
Molecule 78,COc1cc(O)c(c(c1Cc1c(OC)cc(c(c1O)C(=O)CCc1ccccc1)O)O)C(=O)CCc1ccccc1,C33H32O8,556.60,41,24,0.21,12,8,4,155.95,133.52,3.16,6.62,5.75,2.55,6.74,4.96,-7.10,4.39e-05,7.89e-08,Poorly soluble,-9.22,3.32e-07,5.96e-10,Poorly soluble,-9.58,1.47e-07,2.64e-10,Poorly soluble,Low,No,No,No,Yes,No,No,No,-5.00,1,4,1,1,1,0.55,0,0,3,3.71
Molecule 79,COC1(CC(=O)C)Oc2c(/C/1=C\c1ccc(c(c1)O)O)c(=O)oc(c2)/C=C\c1ccc(c(c1)O)O,C26H22O9,478.45,35,18,0.15,6,9,4,128.74,146.66,2.95,2.27,3.56,1.05,4.24,2.81,-4.22,2.88e-02,6.01e-05,Moderately soluble,-4.99,4.93e-03,1.03e-05,Moderately soluble,-5.78,7.87e-04,1.64e-06,Moderately soluble,Low,No,Yes,No,No,Yes,No,No,-7.61,0,0,1,1,0,0.55,1,1,1,4.91
Molecule 80,CC1CCC=C(C)CCC(C(C=C1)(C)C)OC(=O)/C(=C/1\OC(=O)C(=C1O)c1ccccc1)/c1ccccc1,C33H36O5,512.64,38,12,0.33,5,5,1,151.38,72.83,4.88,7.61,7.57,4.71,5.99,6.15,-7.72,9.85e-06,1.92e-08,Poorly soluble,-8.98,5.40e-07,1.05e-09,Poorly soluble,-8.00,5.19e-06,1.01e-08,Poorly soluble,Low,No,Yes,No,Yes,Yes,No,Yes,-4.02,2,4,0,1,1,0.56,0,3,2,6.20
Molecule 81,O=C1CC2(C)CC3(C(C4(O1)C2(O)CCC(C4O)C)(O)C(=C(C3)C(C)C)C)O,C21H32O6,380.48,27,0,0.86,1,6,4,99.96,107.22,3.12,0.01,1.44,1.48,2.38,1.69,-2.14,2.76e+00,7.26e-03,Soluble,-1.81,5.85e+00,1.54e-02,Very soluble,-2.74,6.89e-01,1.81e-03,Soluble,High,No,Yes,No,No,No,No,No,-8.61,0,0,0,0,0,0.55,0,1,1,5.97
Molecule 82,O=C1CCCCCCCC2CCC(C(N2)C)OC(=O)CCCCCCCC2CCC(O1)C(C)N2,C28H50N2O4,478.71,34,0,0.93,0,6,2,146.37,76.66,4.77,6.29,4.80,3.75,3.63,4.65,-6.77,8.12e-05,1.70e-07,Poorly soluble,-7.69,9.81e-06,2.05e-08,Poorly soluble,-5.71,9.29e-04,1.94e-06,Moderately soluble,High,No,No,No,No,No,No,No,-4.75,0,2,0,0,1,0.55,0,1,2,6.82
Molecule 83,c1ccc(cc1)/C=C/c1cc2c([nH]1)cccc2,C16H13N,219.28,17,15,0.00,2,0,1,73.67,15.79,2.64,4.35,4.12,3.49,4.65,3.85,-4.46,7.59e-03,3.46e-05,Moderately soluble,-4.40,8.79e-03,4.01e-05,Moderately soluble,-5.90,2.78e-04,1.27e-06,Moderately soluble,High,Yes,No,Yes,Yes,No,No,No,-4.55,0,0,0,0,1,0.55,0,0,2,2.04
Molecule 84,O=C1OCC23C1C=CCC3C(C)C1=C(CC2)C(=O)OC1c1cocc1,C20H20O5,340.37,25,5,0.50,1,5,0,88.68,65.74,2.49,2.38,3.02,2.49,2.92,2.66,-3.53,1.00e-01,2.94e-04,Soluble,-3.40,1.35e-01,3.97e-04,Soluble,-3.95,3.83e-02,1.12e-04,Soluble,High,Yes,No,No,No,No,No,No,-6.69,0,0,0,0,0,0.55,0,2,0,5.49
Molecule 85,CC(=O)OC(C1Oc2c(C1)cc1c(c2)oc(=O)cc1)(C)C,C16H16O5,288.30,21,10,0.38,3,5,0,77.19,65.74,2.71,2.49,2.44,2.01,3.21,2.57,-3.35,1.29e-01,4.46e-04,Soluble,-3.52,8.79e-02,3.05e-04,Soluble,-4.57,7.83e-03,2.72e-05,Moderately soluble,High,Yes,No,No,Yes,No,No,No,-6.29,0,0,0,0,0,0.55,0,1,0,3.58
Molecule 86,C=CC1(C)CC(=O)C2C(C1=O)(O)C(OC(=O)C)CC1C2(C)C(OC(=O)c2ccccc2)C(OC(=O)C)C(C1(C)C)OC(=O)C,C33H40O11,612.66,44,6,0.58,10,11,1,155.76,159.57,2.49,3.36,3.15,2.04,4.07,3.02,-5.20,3.90e-03,6.36e-06,Moderately soluble,-6.39,2.50e-04,4.08e-07,Poorly soluble,-5.65,1.37e-03,2.23e-06,Moderately soluble,Low,No,Yes,No,No,No,No,Yes,-7.65,2,3,1,1,3,0.17,0,2,2,6.15
Molecule 87,CC1C2C(OC1C1C=C(C(=O)O1)C)CCCN1C2CCC1C1CC(C(=O)O1)C,C22H31NO5,389.49,28,0,0.82,2,6,0,107.29,65.07,3.54,3.18,2.08,2.42,1.94,2.63,-4.13,2.91e-02,7.48e-05,Moderately soluble,-4.22,2.36e-02,6.06e-05,Moderately soluble,-2.25,2.19e+00,5.61e-03,Soluble,High,Yes,No,No,No,No,No,No,-6.42,0,0,0,0,0,0.55,0,1,1,5.38
Molecule 88,OCC1OC(Oc2ccc(cc2)c2coc3c(c2=O)c(O)cc(c3)OC2OC(CO)C(C(C2O)O)O)C(C(C1O)O)OC1OC(C)C(C(C1O)O)O,C33H40O19,740.66,52,16,0.55,9,19,11,169.46,308.12,1.83,-1.97,-3.63,-5.04,-3.28,-2.42,-2.82,1.11e+00,1.50e-03,Soluble,-3.98,7.80e-02,1.05e-04,Soluble,0.35,1.68e+03,2.26e+00,Soluble,Low,No,No,No,No,No,No,No,-12.22,3,4,1,1,4,0.17,0,0,2,7.43
Molecule 89,COc1c(CC=C(C)C)cc(cc1CC=C(C)C)C1CC(=O)c2c(O1)cc(cc2O)O,C26H30O5,422.51,31,12,0.35,6,5,2,123.48,75.99,4.37,6.70,5.51,3.03,6.10,5.14,-6.57,1.13e-04,2.69e-07,Poorly soluble,-8.10,3.36e-06,7.95e-09,Poorly soluble,-6.56,1.16e-04,2.75e-07,Poorly soluble,High,No,No,No,No,Yes,No,Yes,-4.12,0,0,0,0,1,0.55,0,1,2,4.29
Molecule 90,OCC1OC(OC2CC(C)(O)C3C(C2)(C)CCC(C3)C(=C)C(=O)O)C(C(C1O)O)O,C21H34O9,430.49,30,0,0.86,5,9,6,105.77,156.91,1.81,0.41,-0.22,-0.48,-0.32,0.24,-2.44,1.57e+00,3.65e-03,Soluble,-3.27,2.30e-01,5.35e-04,Soluble,0.32,9.04e+02,2.10e+00,Soluble,Low,No,Yes,No,No,No,No,No,-8.63,1,0,1,1,2,0.11,0,2,1,5.85
Molecule 91,CC1OC1C#CC#CC(/C=C/CCCCCC=C)O,C17H22O2,258.36,19,0,0.53,7,2,1,79.34,32.76,3.89,3.79,2.99,2.94,4.61,3.64,-3.37,1.11e-01,4.29e-04,Soluble,-4.17,1.74e-02,6.73e-05,Moderately soluble,-2.30,1.29e+00,5.00e-03,Soluble,High,Yes,No,No,No,Yes,No,No,-5.19,0,0,0,0,0,0.55,0,3,1,4.91
Molecule 92,OCC1C(COC1c1ccc(c(c1)OC)O)Cc1ccc(c(c1)OC)O,C20H24O6,360.40,26,12,0.40,6,6,3,97.09,88.38,3.16,2.40,2.33,1.17,2.86,2.38,-3.53,1.06e-01,2.94e-04,Soluble,-3.90,4.56e-02,1.27e-04,Soluble,-4.37,1.55e-02,4.31e-05,Moderately soluble,High,No,Yes,No,No,No,Yes,No,-6.79,0,0,0,0,0,0.55,0,0,1,3.94
Molecule 93,CCC(CC(=O)OC1OC=C(C2C1C(O)(COC(=O)/C=C/c1ccc(cc1)O)C(C2)O)CO)C,C25H32O9,476.52,34,6,0.52,11,9,4,122.75,142.75,3.61,1.71,1.78,1.02,2.35,2.09,-3.28,2.52e-01,5.29e-04,Soluble,-4.32,2.26e-02,4.75e-05,Moderately soluble,-2.63,1.11e+00,2.33e-03,Soluble,Low,No,Yes,No,No,No,No,Yes,-7.99,0,0,2,1,0,0.55,0,2,2,5.78
Molecule 94,O=CC1=CC(OOC(C1)O)C1C(=C)CCC2C1(C)CCCC2(C)C,C20H30O4,334.45,24,0,0.75,2,4,1,93.98,55.76,3.09,4.11,3.95,3.21,3.52,3.58,-4.37,1.42e-02,4.26e-05,Moderately soluble,-4.99,3.45e-03,1.03e-05,Moderately soluble,-3.22,2.00e-01,5.97e-04,Soluble,High,Yes,No,No,No,Yes,No,No,-5.42,0,0,0,0,0,0.55,0,3,1,5.63
Molecule 95,O=C(CC1c2c3OCOc3ccc2c2c(N1C)c1cc3OCOc3cc1cc2)CC1c2c3OCOc3ccc2c2c(N1C)c1cc3OCOc3cc1cc2,C43H32N2O9,720.72,54,32,0.23,4,9,0,205.90,97.39,5.31,7.67,6.86,4.02,7.03,6.18,-9.32,3.49e-07,4.84e-10,Poorly soluble,-9.56,2.01e-07,2.78e-10,Poorly soluble,-12.12,5.40e-10,7.50e-13,Insoluble,Low,No,Yes,No,No,No,No,Yes,-5.25,2,4,0,1,3,0.17,0,0,2,5.54
Molecule 96,CC(C(=C)CC1OC1c1ccc(cc1)C)CC(C(=C)CC1OC1c1ccc(cc1)C)C,C29H36O2,416.59,31,12,0.45,10,2,0,130.12,25.06,5.41,7.85,6.79,5.18,8.51,6.75,-6.99,4.22e-05,1.01e-07,Poorly soluble,-8.22,2.49e-06,5.98e-09,Poorly soluble,-8.23,2.43e-06,5.83e-09,Poorly soluble,Low,No,Yes,No,No,Yes,Yes,No,-3.27,1,2,0,1,1,0.55,0,2,3,4.86
Molecule 97,OCC1OC(OCC2(C)CCCC3(C2CCC(=C)C3CCC2=CCOC2=O)C)C(C(C1O)O)O,C26H40O8,480.59,34,0,0.81,7,8,4,125.27,125.68,3.27,2.63,1.85,1.26,2.55,2.31,-4.01,4.65e-02,9.67e-05,Moderately soluble,-4.92,5.78e-03,1.20e-05,Moderately soluble,-2.70,9.54e-01,1.99e-03,Soluble,High,No,Yes,No,No,No,No,Yes,-7.36,0,2,0,0,0,0.55,0,1,1,6.36
Molecule 98,CC(=CCC1(CC(C(=C)C)CC=C(C)C)C2=C(C(=O)C(C(O2)C)C)C(=C(C1=O)C(c1ccccc1)CC(=O)O)O)C,C35H44O6,560.72,41,6,0.46,11,6,2,163.97,100.90,3.88,7.72,7.80,3.52,7.84,6.15,-7.56,1.54e-05,2.74e-08,Poorly soluble,-9.68,1.17e-07,2.08e-10,Poorly soluble,-7.48,1.85e-05,3.30e-08,Poorly soluble,Low,No,Yes,No,No,Yes,No,Yes,-4.24,1,4,1,1,1,0.56,0,1,3,6.80
Molecule 99,OC/C=C(/CC/C=C(/CC(=O)C=C(C)C)\C)\C,C15H24O2,236.35,17,0,0.53,7,2,1,74.16,37.30,2.95,3.60,3.58,2.84,3.81,3.35,-3.11,1.83e-01,7.74e-04,Soluble,-4.07,2.01e-02,8.51e-05,Moderately soluble,-2.70,4.73e-01,2.00e-03,Soluble,High,Yes,No,No,No,No,No,No,-5.19,0,0,0,0,0,0.55,0,2,2,3.30
Molecule 100,CC(=CCC(C(=C)C)Cc1c(O)cc(c2c1OC(CC2=O)c1ccccc1O)O)C,C25H28O5,408.49,30,12,0.32,6,5,3,118.85,86.99,3.40,6.13,5.28,2.82,5.42,4.61,-6.13,3.00e-04,7.34e-07,Poorly soluble,-7.74,7.45e-06,1.82e-08,Poorly soluble,-5.89,5.27e-04,1.29e-06,Moderately soluble,High,No,No,No,No,Yes,No,Yes,-4.44,0,0,0,0,1,0.55,0,1,2,4.40
