Molecule,Canonical SMILES,Formula,MW,#Heavy atoms,#Aromatic heavy atoms,Fraction Csp3,#Rotatable bonds,#H-bond acceptors,#H-bond donors,MR,TPSA,iLOGP,XLOGP3,WLOGP,MLOGP,Silicos-IT Log P,Consensus Log P,ESOL Log S,ESOL Solubility (mg/ml),ESOL Solubility (mol/l),ESOL Class,Ali Log S,Ali Solubility (mg/ml),Ali Solubility (mol/l),Ali Class,Silicos-IT LogSw,Silicos-IT Solubility (mg/ml),Silicos-IT Solubility (mol/l),Silicos-IT class,GI absorption,BBB permeant,Pgp substrate,CYP1A2 inhibitor,CYP2C19 inhibitor,CYP2C9 inhibitor,CYP2D6 inhibitor,CYP3A4 inhibitor,log Kp (cm/s),Lipinski #violations,Ghose #violations,Veber #violations,Egan #violations,Muegge #violations,Bioavailability Score,PAINS #alerts,Brenk #alerts,Leadlikeness #violations,Synthetic Accessibility
Molecule 1,CCOCc1ccc(cc1)OCc1ccc(cc1)O,C16H18O3,258.31,19,12,0.25,6,3,1,75.11,38.69,2.89,3.05,3.20,2.57,3.66,3.08,-3.43,9.50e-02,3.68e-04,Soluble,-3.53,7.65e-02,2.96e-04,Soluble,-5.42,9.71e-04,3.76e-06,Moderately soluble,High,Yes,No,Yes,Yes,No,Yes,No,-5.71,0,0,0,0,0,0.55,0,0,0,1.97
Molecule 2,COc1c(CC=C(C)C)c(O)c(c2c1C=CC(O2)(C)C)C(=O)c1ccccc1,C24H26O4,378.46,28,12,0.29,5,4,1,112.67,55.76,3.51,6.28,5.22,3.17,5.65,4.77,-6.13,2.81e-04,7.41e-07,Poorly soluble,-7.24,2.18e-05,5.77e-08,Poorly soluble,-6.49,1.22e-04,3.24e-07,Poorly soluble,High,Yes,No,No,Yes,Yes,No,Yes,-4.15,0,0,0,0,1,0.55,0,1,2,4.03
Molecule 3,CC1CC=C2N(C1)C(CCC2C)c1ccoc1,C15H21NO,231.33,17,5,0.60,1,1,0,73.85,16.38,3.10,3.43,3.27,2.49,2.62,2.98,-3.59,5.99e-02,2.59e-04,Soluble,-3.45,8.12e-02,3.51e-04,Soluble,-3.29,1.20e-01,5.19e-04,Soluble,High,Yes,No,No,No,No,Yes,No,-5.28,0,0,0,0,0,0.55,0,0,1,4.37
Molecule 4,COc1c(OC)c(C)cc2c1C(=O)c1c(C2=O)cccc1O,C17H14O5,298.29,22,12,0.18,2,5,1,79.72,72.83,2.61,3.37,2.49,0.86,3.60,2.59,-4.08,2.46e-02,8.24e-05,Moderately soluble,-4.58,7.89e-03,2.64e-05,Moderately soluble,-5.30,1.49e-03,5.00e-06,Moderately soluble,High,Yes,No,Yes,Yes,Yes,No,Yes,-5.73,0,0,0,0,0,0.55,1,0,0,2.76
Molecule 5,CC(=CCc1c(O)cc2c(c1O)c(=O)c1c(o2)c(O)c2c(c1)C=CC(O2)(C)C)C,C23H22O6,394.42,29,14,0.26,2,6,3,113.90,100.13,3.90,5.30,4.65,1.98,4.62,4.09,-5.85,5.58e-04,1.41e-06,Moderately soluble,-7.15,2.77e-05,7.02e-08,Poorly soluble,-5.62,9.37e-04,2.38e-06,Moderately soluble,High,No,No,No,No,Yes,No,No,-4.94,0,0,0,0,1,0.55,0,2,2,4.09
Molecule 6,OCC1OC(OC(=O)C23CCC4(C(=CCC5C4(C)CCC4C5(C)CCC(C4(C)C(=O)O)OC4OC(C(=O)O)C5C(C4O)OC(C(O5)(O)C(=O)O)OCC(=O)O)C3CC(CC2)(C)C)C)C(C(C1O)O)O,C47H68O22,985.03,69,0,0.85,12,22,10,230.99,352.26,1.34,1.81,0.74,-1.12,-1.10,0.33,-6.30,4.99e-04,5.06e-07,Poorly soluble,-8.83,1.47e-06,1.49e-09,Poorly soluble,0.08,1.19e+03,1.21e+00,Soluble,Low,No,Yes,No,No,No,No,No,-11.02,3,3,2,1,5,0.11,0,2,2,9.58
Molecule 7,OCC1OC(OC2OC=C(C3C2C(C)CC3)C(=O)O)C(C(C1O)O)O,C16H24O9,360.36,25,0,0.81,4,9,5,81.88,145.91,1.73,-0.37,-1.21,-1.23,-1.84,-0.58,-1.58,9.54e+00,2.65e-02,Very soluble,-2.23,2.12e+00,5.87e-03,Soluble,1.80,2.25e+04,6.25e+01,Soluble,Low,No,Yes,No,No,No,No,No,-8.76,0,1,1,1,0,0.56,0,0,1,5.57
Molecule 8,COc1cc(O)cc(c1C(=O)/C=C/c1ccccc1)O,C16H14O4,270.28,20,12,0.06,4,4,2,76.79,66.76,1.78,3.50,2.89,1.83,3.00,2.60,-3.90,3.40e-02,1.26e-04,Soluble,-4.59,7.03e-03,2.60e-05,Moderately soluble,-3.93,3.17e-02,1.17e-04,Soluble,High,Yes,No,Yes,No,Yes,No,Yes,-5.46,0,0,0,0,0,0.55,0,1,0,2.62
Molecule 9,COC(=O)C1(C)C(O)CCC2(C1CC(=O)C1C2CC/C(=C\C(=O)OCCN(C)C)/C1C)C,C25H39NO6,449.58,32,0,0.80,7,7,1,121.78,93.14,3.16,2.70,2.61,2.16,3.03,2.73,-3.87,6.12e-02,1.36e-04,Soluble,-4.31,2.21e-02,4.91e-05,Moderately soluble,-3.66,9.90e-02,2.20e-04,Soluble,High,No,No,No,No,No,No,Yes,-7.13,0,1,0,0,0,0.55,0,2,1,5.51
Molecule 10,OCC1Cc2cc(OC)c(cc2C(C1CO)c1ccc(c(c1)OC)O)O,C20H24O6,360.40,26,12,0.40,5,6,4,97.33,99.38,2.38,2.05,2.02,1.17,2.53,2.03,-3.38,1.51e-01,4.19e-04,Soluble,-3.77,6.18e-02,1.72e-04,Soluble,-4.05,3.21e-02,8.91e-05,Moderately soluble,High,No,Yes,No,No,No,Yes,No,-7.04,0,0,0,0,0,0.55,0,0,1,3.89
Molecule 11,C=CC12CC(=O)C3(C(=O)O1)C(C2C)(C)CCC3C,C15H20O3,248.32,18,0,0.73,1,3,0,68.41,43.37,2.41,3.00,2.50,2.47,3.40,2.76,-3.20,1.55e-01,6.26e-04,Soluble,-3.58,6.61e-02,2.66e-04,Soluble,-3.29,1.29e-01,5.18e-04,Soluble,High,Yes,No,No,No,No,No,No,-5.68,0,0,0,0,0,0.55,0,2,1,4.77
Molecule 12,CC(=O)OCC1OC(OCCc2ccc(c(c2)O)O)C(C(C1OC(=O)/C=C/c1ccc(c(c1)O)O)OC1OC(C)C(C(C1O)O)O)O,C31H38O16,666.62,47,12,0.48,13,16,8,158.16,251.36,3.76,0.07,-0.55,-1.99,-0.61,0.14,-3.35,2.99e-01,4.49e-04,Soluble,-4.90,8.35e-03,1.25e-05,Moderately soluble,-0.81,1.03e+02,1.55e-01,Soluble,Low,No,Yes,No,No,No,No,No,-10.32,3,4,2,1,4,0.17,1,3,2,6.57
Molecule 13,CC(=O)OC1C=C2CC(C)(C(CC2O)OC(=O)C)C(=O)C(C2=C(C(CC1C2(C)C)O)C)O,C24H34O8,450.52,32,0,0.71,4,8,3,115.93,130.36,2.84,0.11,1.60,1.08,1.73,1.47,-2.44,1.64e+00,3.64e-03,Soluble,-2.40,1.78e+00,3.95e-03,Soluble,-2.38,1.88e+00,4.17e-03,Soluble,High,No,Yes,No,No,No,No,No,-8.97,0,0,0,0,0,0.55,0,2,1,7.43
Molecule 14,C=CC(c1ccc(cc1)O)/C=C/c1ccc(cc1)OC,C18H18O2,266.33,20,12,0.11,5,2,1,83.48,29.46,3.25,4.71,4.27,3.78,4.53,4.11,-4.57,7.13e-03,2.68e-05,Moderately soluble,-5.06,2.33e-03,8.76e-06,Moderately soluble,-5.05,2.36e-03,8.85e-06,Moderately soluble,High,Yes,No,Yes,Yes,Yes,Yes,Yes,-4.58,0,0,0,0,0,0.55,0,1,1,3.08
Molecule 15,COc1cc(OC)c(cc1c1oc2cc(O)cc(c2c(=O)c1CC=C(C)C)O)O,C22H22O7,398.41,29,16,0.23,5,7,3,110.69,109.36,3.26,4.54,4.10,1.00,4.36,3.45,-5.25,2.25e-03,5.64e-06,Moderately soluble,-6.56,1.10e-04,2.76e-07,Poorly soluble,-5.85,5.60e-04,1.41e-06,Moderately soluble,High,No,No,No,No,Yes,No,No,-5.51,0,0,0,0,0,0.55,0,1,2,4.03
Molecule 16,O=CC1=C2CCOC(=O)C2=CNC1C,C10H11NO3,193.20,14,0,0.40,1,3,1,53.21,55.40,1.40,-0.12,-0.08,0.16,1.31,0.54,-0.90,2.45e+01,1.27e-01,Very soluble,-0.59,4.97e+01,2.57e-01,Very soluble,-1.61,4.75e+00,2.46e-02,Soluble,High,No,No,No,No,No,No,No,-7.56,0,0,0,0,1,0.55,0,1,1,3.77
Molecule 17,Oc1ccc2c(c1)OCC1(C2Oc2c1ccc1c2C=CC(O1)(C)C)O,C20H18O5,338.35,25,12,0.30,0,5,2,91.84,68.15,2.97,2.48,2.75,1.90,3.10,2.64,-3.86,4.72e-02,1.40e-04,Soluble,-3.56,9.41e-02,2.78e-04,Soluble,-4.66,7.40e-03,2.19e-05,Moderately soluble,High,Yes,Yes,Yes,Yes,No,Yes,Yes,-6.60,0,0,0,0,0,0.55,0,0,0,4.30
Molecule 18,COc1c2CCC3C(c2ccc1C(C)C)(C)CCC1=C3COC1=O,C21H26O3,326.43,24,6,0.57,2,3,0,95.06,35.53,3.41,4.38,4.29,3.97,5.21,4.25,-4.68,6.88e-03,2.11e-05,Moderately soluble,-4.84,4.69e-03,1.44e-05,Moderately soluble,-5.84,4.75e-04,1.46e-06,Moderately soluble,High,Yes,Yes,No,Yes,Yes,Yes,Yes,-5.18,0,0,0,0,0,0.55,0,0,1,4.04
Molecule 19,CC(=CCCC(=C)C(CCC1(C)C=Cc2c(O1)cc(cc2O)C)O)C,C22H30O3,342.47,25,6,0.45,7,3,2,105.84,49.69,3.79,5.68,5.20,3.56,5.41,4.73,-5.26,1.89e-03,5.53e-06,Moderately soluble,-6.49,1.11e-04,3.24e-07,Poorly soluble,-5.06,3.00e-03,8.77e-06,Moderately soluble,High,Yes,No,No,No,Yes,Yes,Yes,-4.36,0,0,0,0,1,0.55,0,1,1,4.69
Molecule 20,CC1=C(O)C(=O)c2c(C1=O)c(O)ccc2C,C12H10O4,218.21,16,6,0.17,0,4,2,57.61,74.60,1.54,2.24,1.91,0.02,2.19,1.58,-2.88,2.87e-01,1.31e-03,Soluble,-3.44,7.88e-02,3.61e-04,Soluble,-2.89,2.84e-01,1.30e-03,Soluble,High,Yes,No,Yes,No,No,No,Yes,-6.04,0,0,0,0,0,0.56,1,0,1,2.67
Molecule 21,O=C1CC(OC2=C1C(=C(C)C(=O)C2(C)C)O)c1ccccc1,C18H18O4,298.33,22,6,0.33,1,4,1,81.91,63.60,1.93,2.67,3.09,1.20,3.40,2.46,-3.51,9.27e-02,3.11e-04,Soluble,-3.66,6.57e-02,2.20e-04,Soluble,-4.69,6.12e-03,2.05e-05,Moderately soluble,High,Yes,No,Yes,Yes,No,No,Yes,-6.22,0,0,0,0,0,0.56,0,0,0,4.27
Molecule 22,OC(=O)CC(=O)OC1CCC2(C(C1(C)C)CCC1=C2CC2OC3(CC(C4C2(C1(C)CC4)C)C)OC(=O)C(=C3C)C)C,C34H48O7,568.74,41,0,0.79,4,7,1,156.34,99.13,3.63,6.43,6.75,5.03,5.88,5.54,-7.15,4.00e-05,7.03e-08,Poorly soluble,-8.31,2.82e-06,4.95e-09,Poorly soluble,-6.66,1.24e-04,2.19e-07,Poorly soluble,Low,No,Yes,No,No,No,No,No,-5.20,2,4,0,1,1,0.56,0,3,2,7.55
Molecule 23,OCC1OC(Oc2cc3c(O)cc(cc3[o+]c2c2cc(O)c(c(c2)OC2OC(C(=O)[O-])C(C(C2O)O)O)O)OC2OC(COC(=O)/C=C/c3ccc(c(c3)O)O)C(C(C2O)O)O)C(C(C1O)O)OC1OC(CO)C(C(C1OC(=O)/C=C/c1ccc(c(c1)O)O)O)O,C57H60O34,1289.07,91,28,0.40,21,34,19,292.40,564.08,-6.68,-3.00,-5.25,-7.51,-6.58,-5.80,-4.78,2.12e-02,1.64e-05,Moderately soluble,-8.28,6.71e-06,5.20e-09,Poorly soluble,2.84,8.90e+05,6.90e+02,Soluble,Low,No,Yes,No,No,No,No,No,-16.29,3,4,2,1,7,0.17,1,4,2,10.00
Molecule 24,CCOC(=O)/C=C/c1nccc2c1[nH]c1c2ccc(c1)C=O,C17H14N2O3,294.30,22,13,0.12,5,4,1,84.78,72.05,2.35,2.46,3.00,1.21,4.01,2.61,-3.32,1.40e-01,4.77e-04,Soluble,-3.62,7.11e-02,2.42e-04,Soluble,-5.10,2.35e-03,7.98e-06,Moderately soluble,High,Yes,No,Yes,Yes,Yes,No,No,-6.35,0,0,0,0,0,0.55,0,2,0,2.65
Molecule 25,COC1=C(C(C)C)C2C(OC1=O)(C)CCC(=C1C3C(C(=CC2)C)OC(C3C(=O)O1)(C)O)C,C25H34O7,446.53,32,0,0.68,2,7,1,118.39,91.29,3.60,2.17,3.78,2.48,3.41,3.09,-3.84,6.40e-02,1.43e-04,Soluble,-3.72,8.51e-02,1.91e-04,Soluble,-4.14,3.20e-02,7.16e-05,Moderately soluble,High,No,Yes,No,No,No,No,No,-7.48,0,0,0,0,0,0.55,0,2,1,6.60
Molecule 26,COc1cc(/C=C/C(=O)N2CCCCC2)cc2c1OCO2,C16H19NO4,289.33,21,6,0.44,4,4,0,82.83,48.00,3.27,2.44,1.96,1.66,2.87,2.44,-3.12,2.20e-01,7.61e-04,Soluble,-3.09,2.35e-01,8.11e-04,Soluble,-3.04,2.67e-01,9.23e-04,Soluble,High,Yes,No,Yes,Yes,No,Yes,No,-6.33,0,0,0,0,0,0.55,0,1,0,2.84
Molecule 27,CCC(=O)C1=C2CC(CC(C2(CCC1)C)O)C(=C)C,C17H26O2,262.39,19,0,0.71,3,2,1,79.76,37.30,3.08,3.34,3.80,3.03,3.93,3.44,-3.37,1.11e-01,4.24e-04,Soluble,-3.80,4.15e-02,1.58e-04,Soluble,-3.54,7.52e-02,2.86e-04,Soluble,High,Yes,No,No,Yes,Yes,No,No,-5.53,0,0,0,0,0,0.55,0,1,0,4.35
Molecule 28,CC(=O)OC1CCC(C2C31COC(C2)(C12C3CCC(C1)(C(=C)C2=O)O)O)(C)C,C22H30O6,390.47,28,0,0.82,2,6,2,101.01,93.06,2.42,1.34,2.12,2.01,3.00,2.18,-2.97,4.15e-01,1.06e-03,Soluble,-2.90,4.96e-01,1.27e-03,Soluble,-3.49,1.27e-01,3.26e-04,Soluble,High,No,Yes,No,No,No,No,No,-7.73,0,0,0,0,0,0.55,0,1,1,6.44
Molecule 29,O=C1OC(C(C1)O)C(C(C(c1ccccc1)O)O)O,C13H16O6,268.26,19,6,0.46,4,6,4,64.07,107.22,1.61,-0.57,-1.21,-0.64,0.24,-0.11,-1.11,2.06e+01,7.69e-02,Very soluble,-1.21,1.65e+01,6.15e-02,Very soluble,-0.52,8.06e+01,3.01e-01,Soluble,High,No,No,Yes,No,No,No,No,-8.34,0,1,0,0,0,0.55,0,0,0,3.65
Molecule 30,OC(=O)C1OC(Oc2cc(O)c3c(c2O)oc(c(c3=O)O)c2ccc(cc2)O)C(C(C1O)O)O,C21H18O13,478.36,34,16,0.24,4,13,8,110.77,227.58,1.10,0.61,-0.45,-2.60,-1.04,-0.48,-3.27,2.54e-01,5.32e-04,Soluble,-4.96,5.20e-03,1.09e-05,Moderately soluble,-1.04,4.36e+01,9.12e-02,Soluble,Low,No,Yes,No,No,No,No,No,-8.78,2,1,1,1,3,0.11,0,1,1,5.22
Molecule 31,OCC1OC(OC(/C=C/C23OC3(C)C(C(CC2(C)C)O)O)C)C(C(C1O)O)O,C19H32O9,404.45,28,0,0.89,5,9,6,96.67,152.37,1.58,-1.52,-1.57,-1.63,-0.27,-0.68,-1.06,3.52e+01,8.71e-02,Very soluble,-1.17,2.71e+01,6.70e-02,Very soluble,0.94,3.50e+03,8.65e+00,Soluble,Low,No,Yes,No,No,No,No,No,-9.85,1,1,1,1,2,0.55,0,2,1,6.15
Molecule 32,OCC1OC(OC2C(O)C(OC(C2O)C(=O)O)OC2CCC3(C(C2(C)C)CCC2(C3CC=C3C2(C)CC(C2(C3CC(C)(C)CC2)C)O)C)C)C(C(C1O)O)O,C42H68O13,780.98,55,0,0.93,6,13,8,201.42,215.83,3.68,4.68,2.88,0.88,1.42,2.71,-7.23,4.55e-05,5.83e-08,Poorly soluble,-8.94,8.97e-07,1.15e-09,Poorly soluble,-2.23,4.60e+00,5.89e-03,Soluble,Low,No,Yes,No,No,No,No,No,-7.74,3,3,1,1,4,0.11,0,2,2,8.88
Molecule 33,OCC1OC(Oc2cc(O)c3c(c2)oc(c(c3=O)OC2OC(CO)C(C(C2O)O)O)c2ccc(c(c2)OC)O)C(C(C1O)O)O,C28H32O17,640.54,45,16,0.46,8,17,10,146.75,278.66,1.55,-0.16,-2.76,-4.42,-2.15,-1.59,-3.45,2.30e-01,3.58e-04,Soluble,-5.24,3.71e-03,5.79e-06,Moderately soluble,-0.39,2.60e+02,4.06e-01,Soluble,Low,No,Yes,No,No,No,No,No,-10.32,3,4,1,1,4,0.17,0,0,2,6.72
Molecule 34,CC(=CC1COC23C(C1(C)O)C1CCC4C(C1(C3)CO2)(C)CCC1C4(C)CCC(C1(C)C)OC1OCC(C(C1O)OC1OC(COS(=O)(=O)O)C(C(C1OC1OCC(C(C1O)O)O)O)O)O)C,C46H74O20S,979.13,67,0,0.96,10,20,9,232.37,307.66,4.07,0.55,1.37,-1.63,-1.68,0.54,-5.60,2.48e-03,2.53e-06,Moderately soluble,-6.58,2.56e-04,2.61e-07,Poorly soluble,-0.13,7.28e+02,7.43e-01,Soluble,Low,No,Yes,No,No,No,No,No,-11.88,3,3,1,1,5,0.11,0,3,2,10.00
Molecule 35,CC1C(O)CC2(C(C1C)C1=CC(O)C3C(C1(CC2)C)(C)CCC1C3(C)CCC(C1(C)C)O)C,C30H50O3,458.72,33,0,0.93,0,3,3,137.47,60.69,4.14,6.56,5.97,5.12,4.73,5.30,-6.82,6.99e-05,1.52e-07,Poorly soluble,-7.63,1.07e-05,2.33e-08,Poorly soluble,-5.07,3.89e-03,8.47e-06,Moderately soluble,High,No,Yes,No,No,No,No,No,-4.44,1,3,0,1,1,0.55,0,1,2,6.51
Molecule 36,Oc1ccc(cc1)c1oc2cc(O)cc(c2c(=O)c1OC1OC(COC2OCC(C(C2O)O)O)C(C(C1O)O)O)O,C26H28O15,580.49,41,16,0.42,6,15,9,134.55,249.20,1.56,-1.36,-1.78,-3.63,-1.76,-1.39,-2.48,1.94e+00,3.35e-03,Soluble,-3.37,2.46e-01,4.24e-04,Soluble,-0.75,1.04e+02,1.79e-01,Soluble,Low,No,Yes,No,No,No,No,No,-10.81,3,3,1,1,3,0.17,0,0,1,6.30
Molecule 37,OCC1OC(Oc2ccc(cc2OC)CC2COC(=O)C2Cc2ccc(c(c2)O)OC)C(C(C1O)O)O,C26H32O11,520.53,37,12,0.50,9,11,5,128.25,164.37,3.01,1.46,0.16,-0.31,1.37,1.14,-3.63,1.21e-01,2.33e-04,Soluble,-4.52,1.58e-02,3.03e-05,Moderately soluble,-3.30,2.60e-01,5.00e-04,Soluble,Low,No,Yes,No,No,No,No,Yes,-8.44,2,1,1,1,2,0.17,0,0,2,5.47
Molecule 38,CCCC(C1=C2OC(C)C(C(=O)C2=C(C(C1=O)(CC=C(C)C)CC1CC(C1(C)C)C(=C)C)O)C)CC(=O)O,C32H46O6,526.70,38,0,0.66,10,6,2,152.01,100.90,4.60,7.48,7.12,3.27,7.06,5.91,-7.16,3.66e-05,6.95e-08,Poorly soluble,-9.43,1.95e-07,3.70e-10,Poorly soluble,-6.30,2.66e-04,5.06e-07,Poorly soluble,Low,No,Yes,No,No,Yes,No,Yes,-4.20,1,4,0,1,1,0.56,0,1,3,7.06
Molecule 39,Oc1ccc2c(c1O)c(=O)c1c(o2)c2C=CC(Oc2cc1O)(C)C,C18H14O6,326.30,24,14,0.17,0,6,3,90.18,100.13,3.03,3.37,3.14,0.93,2.87,2.67,-4.42,1.25e-02,3.82e-05,Moderately soluble,-5.15,2.30e-03,7.06e-06,Moderately soluble,-4.40,1.29e-02,3.95e-05,Moderately soluble,High,No,No,Yes,No,Yes,Yes,Yes,-5.90,0,0,0,0,0,0.55,1,2,0,3.68
Molecule 40,COC(=O)C1(C)CCC2(C(C1)C1=CC(=O)C3C(C1(CC2)C)(C)CCC1C3(C)CCC(C1(C)C)O)C,C31H48O4,484.71,35,0,0.87,2,4,1,141.17,63.60,4.48,5.82,6.50,5.06,6.10,5.59,-6.38,2.02e-04,4.17e-07,Poorly soluble,-6.93,5.74e-05,1.19e-07,Poorly soluble,-6.68,1.01e-04,2.07e-07,Poorly soluble,High,No,No,No,No,No,No,No,-5.12,1,4,0,1,1,0.55,0,0,2,6.12
Molecule 41,COc1cc2CCN=C(c2cc1O)O,C10H11NO3,193.20,14,6,0.30,1,4,2,56.16,62.05,1.87,1.01,0.88,0.97,2.04,1.35,-1.93,2.29e+00,1.19e-02,Very soluble,-1.90,2.42e+00,1.25e-02,Very soluble,-2.24,1.11e+00,5.73e-03,Soluble,High,Yes,No,No,No,No,No,No,-6.76,0,0,0,0,1,0.55,0,0,1,2.60
Molecule 42,CN1CCc2c3C1Cc1ccc(cc1c3c1c(c2)OCO1)O,C18H17NO3,295.33,22,12,0.33,0,4,1,87.06,41.93,2.79,2.95,2.17,2.49,3.24,2.73,-3.93,3.44e-02,1.17e-04,Soluble,-3.49,9.49e-02,3.21e-04,Soluble,-4.68,6.18e-03,2.09e-05,Moderately soluble,High,Yes,Yes,Yes,No,No,Yes,Yes,-6.01,0,0,0,0,0,0.55,0,0,0,3.53
Molecule 43,OC1C2C(=C)C(=O)C3(C2O)C(C1O)C1(C)CCCC(C1CC3O)(C)C,C20H30O5,350.45,25,0,0.85,0,5,4,93.39,97.99,2.13,1.44,1.04,1.26,1.50,1.47,-2.92,4.21e-01,1.20e-03,Soluble,-3.10,2.76e-01,7.88e-04,Soluble,-1.77,6.01e+00,1.71e-02,Soluble,High,No,Yes,No,No,No,No,No,-7.42,0,0,0,0,0,0.55,0,1,1,6.15
Molecule 44,CC1SSC=C1,C4H6S2,118.22,6,0,0.50,0,0,0,33.94,50.60,1.82,1.31,2.28,1.28,1.92,1.72,-1.40,4.73e+00,4.00e-02,Very soluble,-1.97,1.26e+00,1.06e-02,Very soluble,-0.57,3.20e+01,2.70e-01,Soluble,High,Yes,No,No,No,No,No,No,-6.09,0,3,0,0,2,0.55,0,1,1,3.66
Molecule 45,Cc1cc(O)c2c(c1)C(C1c3cccc(c3C(=O)c3c1cc(C)cc3O)O)c1c(C2=O)c(O)cc(c1)O,C30H22O7,494.49,37,24,0.13,1,7,5,136.59,135.29,3.19,6.12,4.88,2.11,5.10,4.28,-7.18,3.30e-05,6.68e-08,Poorly soluble,-8.74,8.94e-07,1.81e-09,Poorly soluble,-8.10,3.97e-06,8.04e-09,Poorly soluble,Low,No,No,No,No,Yes,No,No,-4.97,0,2,0,1,1,0.55,0,0,2,4.38
Molecule 46,COC1CC(OC2CCC3(C(C2)CCC2(C3CC(OC(=O)C)C3(C2(O)CCC3(O)C(OC(=O)C)C)C)O)C)OC(C1OC1CC(OC)C(C(O1)C)OC1OC(C)C(C(C1O)OC)O)C,C46H76O18,917.08,64,0,0.96,14,18,5,226.18,236.82,6.55,1.54,2.42,-0.91,1.32,2.19,-5.57,2.46e-03,2.68e-06,Moderately soluble,-6.12,6.92e-04,7.54e-07,Poorly soluble,-2.46,3.15e+00,3.44e-03,Soluble,Low,No,Yes,No,No,No,No,No,-10.80,2,3,2,1,3,0.17,0,2,2,9.59
Molecule 47,COc1c(OC)nc2c3c1ccc(c3c1c(C2=O)cccc1)OC,C19H15NO4,321.33,24,16,0.16,3,5,0,90.09,57.65,2.98,3.82,3.47,1.62,4.18,3.21,-4.53,9.39e-03,2.92e-05,Moderately soluble,-4.73,6.04e-03,1.88e-05,Moderately soluble,-6.74,5.85e-05,1.82e-07,Poorly soluble,High,Yes,No,Yes,Yes,Yes,Yes,Yes,-5.55,0,0,0,0,0,0.55,0,0,1,3.05
Molecule 48,COc1cc2CC3(O)C(O)CCC(C3CCc2cc1C(C)C)(C)C,C21H32O3,332.48,24,6,0.71,2,3,2,98.58,49.69,3.78,4.19,3.84,3.34,4.39,3.91,-4.59,8.47e-03,2.55e-05,Moderately soluble,-4.94,3.79e-03,1.14e-05,Moderately soluble,-4.96,3.66e-03,1.10e-05,Moderately soluble,High,Yes,No,No,No,No,Yes,No,-5.35,0,0,0,0,0,0.55,0,0,1,3.94
Molecule 49,OCC1OC(OCC2(C)CCCC3(C2CCC24C3CCC(C2)C(C4)(O)CO)C)C(C(C1OC)O)O,C27H46O8,498.65,35,0,1.00,6,8,5,129.66,128.84,3.19,1.87,1.59,1.00,1.87,1.91,-3.71,9.64e-02,1.93e-04,Soluble,-4.20,3.17e-02,6.35e-05,Moderately soluble,-2.36,2.17e+00,4.36e-03,Soluble,High,No,Yes,No,No,No,No,No,-8.01,0,2,0,0,0,0.55,0,0,1,7.83
Molecule 50,COc1cc(OC)c2c(c1)ccc1c2cc(O)c(c1)OC,C17H16O4,284.31,21,14,0.18,3,4,1,82.95,47.92,3.05,3.98,3.72,2.35,3.58,3.34,-4.41,1.12e-02,3.93e-05,Moderately soluble,-4.69,5.84e-03,2.05e-05,Moderately soluble,-5.55,7.96e-04,2.80e-06,Moderately soluble,High,Yes,No,Yes,Yes,Yes,Yes,No,-5.21,0,0,0,0,0,0.55,0,1,1,1.97
Molecule 51,OCC1(C)C(O)CCC2(C1CC=C1C2CCC2C(C1)(C)CCC1C2(C)CCC(C1(C)C(=O)O)O)C,C30H48O5,488.70,35,0,0.90,2,5,4,139.24,97.99,3.32,6.13,5.18,4.14,4.08,4.57,-6.60,1.23e-04,2.51e-07,Poorly soluble,-7.97,5.24e-06,1.07e-08,Poorly soluble,-4.40,1.96e-02,4.01e-05,Moderately soluble,High,No,Yes,No,No,No,No,No,-4.93,0,3,0,0,1,0.56,0,1,2,6.30
Molecule 52,CC12OCCC3(O2)C(C1)OCC3,C9H14O3,170.21,12,0,1.00,0,3,0,42.37,27.69,2.16,0.47,1.07,0.74,1.93,1.27,-1.19,1.10e+01,6.44e-02,Very soluble,-0.62,4.08e+01,2.40e-01,Very soluble,-1.44,6.17e+00,3.62e-02,Soluble,High,Yes,No,No,No,No,No,No,-7.00,0,0,0,0,1,0.55,0,0,1,4.93
Molecule 53,OCC1OC(OC2CC3C4(C)C(=O)CC5(C(C4CC=C3C(C2=O)(C)C)(C)CC(C5C(C(=O)/C=C/C(OC(=O)C)(C)C)(O)C)O)C)C(C(C1O)O)O,C38H56O13,720.84,51,0,0.79,9,13,6,183.32,217.35,2.90,1.04,1.32,-0.56,2.50,1.44,-4.37,3.07e-02,4.26e-05,Moderately soluble,-5.19,4.60e-03,6.39e-06,Moderately soluble,-2.43,2.66e+00,3.69e-03,Soluble,Low,No,No,No,No,No,No,No,-9.96,3,3,1,1,4,0.17,0,2,2,8.20
Molecule 54,OCC1OC(Oc2c(O)c(O)cc3c2c(=O)cc(o3)c2ccc(cc2)O)C(C(C1O)O)O,C21H20O11,448.38,32,16,0.29,4,11,7,108.13,190.28,1.88,-0.04,-0.24,-2.10,-0.12,-0.13,-2.70,8.93e-01,1.99e-03,Soluble,-3.51,1.40e-01,3.12e-04,Soluble,-2.10,3.55e+00,7.91e-03,Soluble,Low,No,No,No,No,No,No,No,-9.06,2,0,1,1,3,0.17,1,1,1,5.25
Molecule 55,OCC1OC(OC2CC(=C(C(C2)(C)C)CCC(O)C)C)C(C(C1O)O)O,C19H34O7,374.47,26,0,0.89,6,7,5,96.46,119.61,2.50,0.23,0.47,-0.06,0.91,0.81,-1.91,4.60e+00,1.23e-02,Very soluble,-2.30,1.87e+00,4.99e-03,Soluble,-0.87,5.03e+01,1.34e-01,Soluble,High,No,Yes,No,No,No,No,No,-8.42,0,0,0,0,0,0.55,0,1,1,5.91
Molecule 56,CC1=CC(=O)C2(O1)C(Oc1c2c(=O)oc(c1)/C=C/c1ccc(c(c1)O)O)c1ccc(c(c1)O)O,C25H18O9,462.41,34,18,0.12,3,9,4,120.08,146.66,2.40,2.67,2.81,0.43,3.31,2.32,-4.58,1.21e-02,2.61e-05,Moderately soluble,-5.40,1.83e-03,3.97e-06,Moderately soluble,-5.27,2.48e-03,5.37e-06,Moderately soluble,Low,No,No,No,No,Yes,No,No,-7.22,0,0,1,1,0,0.56,1,1,1,5.52
Molecule 57,CNCCOC(=O)/C=C/1\CCC2C(C1C)C(=O)CC1C2(C)CCC(C1(C)C)OC(=O)CC(O)(C)C,C28H45NO6,491.66,35,0,0.82,9,7,2,136.15,101.93,3.94,3.09,3.83,2.77,4.40,3.60,-4.24,2.82e-02,5.74e-05,Moderately soluble,-4.90,6.22e-03,1.26e-05,Moderately soluble,-5.17,3.33e-03,6.78e-06,Moderately soluble,High,No,Yes,No,No,No,No,Yes,-7.11,0,3,0,0,0,0.55,0,2,2,5.79
Molecule 58,CCCCCCCCCCCCCCCCCCCCCCCCCCCCCCCCCc1ccc(cc1)OCCC(=O)O,C42H76O3,629.05,45,6,0.83,36,3,1,203.11,46.53,9.17,18.98,14.20,8.44,15.39,13.23,-13.42,2.39e-11,3.80e-14,Insoluble,-20.22,3.76e-18,5.97e-21,Insoluble,-15.32,3.02e-13,4.80e-16,Insoluble,Low,No,Yes,No,No,No,No,No,3.34,2,4,1,1,3,0.56,0,0,3,5.37
Molecule 59,COC1CCC2(C(=CCC3C2CCC2(C3CCC2C(N(C)C)C)C)C1)C,C24H41NO,359.59,26,0,0.92,3,2,0,112.01,12.47,4.54,5.62,5.53,4.80,4.29,4.95,-5.41,1.39e-03,3.87e-06,Moderately soluble,-5.64,8.14e-04,2.26e-06,Moderately soluble,-4.57,9.61e-03,2.67e-05,Moderately soluble,High,No,No,No,No,No,Yes,No,-4.50,1,0,0,0,1,0.55,0,1,2,5.24
Molecule 60,COc1ccc(cc1)C1=CC(=O)c2c(C1)cc(c(c2O)OC)O,C18H16O5,312.32,23,12,0.17,3,5,2,86.13,75.99,2.50,3.19,2.94,1.36,3.23,2.64,-3.97,3.31e-02,1.06e-04,Soluble,-4.46,1.09e-02,3.49e-05,Moderately soluble,-4.75,5.53e-03,1.77e-05,Moderately soluble,High,Yes,No,Yes,No,Yes,Yes,Yes,-5.94,0,0,0,0,0,0.55,1,0,0,3.17
Molecule 61,C=C1C2CCC3(C1O)C(C2)C12C4C3CC2C(CN4CCOCC2CC34CCC2CC4C24C5C3CC2C(C2N5CCO2)(C)CCC4)(CCC1)C,C44H64N2O3,668.99,49,0,0.95,5,5,1,201.06,45.17,6.52,7.50,6.37,6.32,5.91,6.53,-8.38,2.77e-06,4.14e-09,Poorly soluble,-8.28,3.49e-06,5.22e-09,Poorly soluble,-6.88,8.80e-05,1.32e-07,Poorly soluble,High,No,No,No,No,No,No,No,-5.06,2,4,0,1,3,0.17,0,1,2,9.55
Molecule 62,CCCCCCCCCCCCCCC(C1CCC(O1)C(CCC(CCCCCCCC1=CC(OC1=O)C)O)O)O,C35H64O6,580.88,41,0,0.91,26,6,3,171.51,96.22,7.36,10.31,8.09,4.26,9.63,7.93,-8.22,3.49e-06,6.02e-09,Poorly soluble,-12.27,3.12e-10,5.36e-13,Insoluble,-8.35,2.59e-06,4.47e-09,Poorly soluble,Low,No,Yes,No,No,No,No,No,-2.52,2,4,1,1,2,0.17,0,0,3,7.13
Molecule 63,OCC1OC(OC2CCC3(C(=CCC4C3CCC3(C4CC4C3C(C)C3N4CC(CC3)C)C)C2)C)C(C(C1O)OC1OC(CO)C(C(C1O)O)O)OC1OC(C)C(C(C1O)O)O,C45H73NO15,868.06,61,0,0.96,8,16,9,222.19,240.69,4.75,1.81,-0.23,-1.14,-1.93,0.65,-5.83,1.27e-03,1.46e-06,Moderately soluble,-6.48,2.85e-04,3.28e-07,Poorly soluble,0.75,4.84e+03,5.57e+00,Soluble,Low,No,Yes,No,No,No,No,No,-10.31,3,3,1,1,5,0.17,0,1,2,9.47
Molecule 64,OCC1OC(OCC2OC(Oc3cc(O)c4c(c3)oc(c(c4=O)OC3OC(CO)C(C(C3O)O)O)c3ccc(cc3)O)C(C(C2O)O)O)C(C(C1O)O)OC(=O)/C=C/c1cc(OC)c(c(c1)OC)O,C44H50O25,978.85,69,22,0.45,16,25,13,227.00,393.34,2.28,-0.99,-3.07,-5.85,-2.41,-2.01,-4.47,3.35e-02,3.43e-05,Moderately soluble,-6.78,1.61e-04,1.64e-07,Poorly soluble,-0.67,2.12e+02,2.16e-01,Soluble,Low,No,Yes,No,No,No,No,No,-12.97,3,4,2,1,5,0.17,0,1,2,8.77
Molecule 65,OC1CCC2(C(C1)CCC1C2CCC2(C31OC3C(C2c1ccc(=O)oc1)OC(=O)C)C)C,C26H34O6,442.54,32,6,0.77,3,6,1,118.56,89.27,3.35,3.34,3.80,3.08,3.90,3.50,-4.63,1.04e-02,2.35e-05,Moderately soluble,-4.89,5.68e-03,1.28e-05,Moderately soluble,-4.89,5.64e-03,1.27e-05,Moderately soluble,High,No,Yes,No,No,No,Yes,No,-6.63,0,0,0,0,0,0.55,0,1,1,6.48
Molecule 66,CCCCCCC#CCC#CCCCC,C15H24,204.35,15,0,0.73,6,0,0,70.54,0.00,4.25,6.22,4.70,5.94,5.12,5.24,-4.63,4.80e-03,2.35e-05,Moderately soluble,-6.01,2.02e-04,9.87e-07,Poorly soluble,-4.47,6.94e-03,3.40e-05,Moderately soluble,Low,No,No,Yes,No,No,No,No,-3.13,1,0,0,0,2,0.55,0,1,2,4.21
Molecule 67,CC1CCC2C(C1O)C2(C)C,C10H18O,154.25,11,0,1.00,0,1,1,46.86,20.23,2.39,2.55,2.05,2.45,1.87,2.26,-2.40,6.10e-01,3.96e-03,Soluble,-2.62,3.68e-01,2.39e-03,Soluble,-1.46,5.40e+00,3.50e-02,Soluble,High,Yes,No,No,No,No,No,No,-5.43,0,1,0,0,2,0.55,0,0,1,2.89
Molecule 68,COC1=CC(C)C2C(C1=O)(C)C1C(O)C(OC)C(C3(C1(C(C2)OC(=O)C3)C)O)(C)O,C22H32O8,424.48,30,0,0.82,2,8,3,105.63,122.52,1.84,0.24,0.57,0.02,1.13,0.76,-2.49,1.37e+00,3.23e-03,Soluble,-2.37,1.80e+00,4.23e-03,Soluble,-2.14,3.10e+00,7.29e-03,Soluble,High,No,Yes,No,No,No,No,No,-8.72,0,0,0,0,0,0.55,0,0,1,5.61
Molecule 69,CON1c2cc(OC)ccc2C2(C1=O)CC1N=C(C3C(C2OCC13)O)C(=O)C,C20H22N2O6,386.40,28,6,0.55,3,7,1,105.28,97.66,2.23,-0.65,-0.11,0.26,1.44,0.63,-1.79,6.31e+00,1.63e-02,Very soluble,-0.93,4.57e+01,1.18e-01,Very soluble,-2.94,4.40e-01,1.14e-03,Soluble,High,No,No,No,No,No,No,No,-9.12,0,0,0,0,0,0.55,0,0,1,5.85
Molecule 70,CC1C(=O)OC2C1CCC(C1C2C(=CC1=O)C)C,C15H20O3,248.32,18,0,0.73,0,3,0,68.89,43.37,2.39,2.24,2.36,2.47,2.26,2.34,-2.79,4.02e-01,1.62e-03,Soluble,-2.79,4.06e-01,1.64e-03,Soluble,-2.26,1.36e+00,5.50e-03,Soluble,High,Yes,No,No,No,No,No,No,-6.22,0,0,0,0,0,0.55,0,0,1,4.51
Molecule 71,OCC1OC(O/C=C(/CC/C=C(/CCCC(COC2OC(CO)C(C(C2OC2OC(C)C(C(C2O)O)O)O)O)C)\C)\C)C(C(C1O)OC1OC(C)C(C(C1O)O)O)OC1OC(C)C(C(C1O)O)O,C44H76O24,989.06,68,0,0.91,20,24,14,229.22,375.52,5.12,-2.57,-4.39,-6.31,-4.30,-2.49,-3.03,9.17e-01,9.27e-04,Soluble,-4.77,1.68e-02,1.70e-05,Moderately soluble,4.72,5.18e+07,5.24e+04,Soluble,Low,No,Yes,No,No,No,No,No,-14.16,3,4,2,1,6,0.17,0,2,2,10.00
Molecule 72,CN1CC2CC(C1)c1n(C2)c(=O)ccc1,C12H16N2O,204.27,15,6,0.58,0,2,0,63.55,25.24,2.23,0.65,0.52,1.59,1.16,1.23,-1.81,3.15e+00,1.54e-02,Very soluble,-0.76,3.58e+01,1.75e-01,Very soluble,-2.04,1.88e+00,9.23e-03,Soluble,High,No,No,No,No,No,No,No,-7.08,0,0,0,0,0,0.55,0,0,1,3.64
Molecule 73,O=C(C1CN(C)C2C(=C1)c1cccc3c1c(C2)c[nH]3)NC1(C)OC(=O)C(NC1=O)C(C)C,C24H28N4O4,436.50,32,9,0.46,4,5,3,127.56,103.53,2.42,2.76,0.81,1.03,2.48,1.90,-4.23,2.57e-02,5.90e-05,Moderately soluble,-4.59,1.12e-02,2.57e-05,Moderately soluble,-5.49,1.40e-03,3.21e-06,Moderately soluble,High,No,Yes,No,No,No,No,Yes,-7.00,0,0,0,0,0,0.55,0,0,1,5.07
Molecule 74,C=CCCCCCCC(=O)O,C9H16O2,156.22,11,0,0.67,7,2,1,46.67,37.30,2.10,2.78,2.60,2.17,2.19,2.37,-2.10,1.25e+00,7.98e-03,Soluble,-3.22,9.43e-02,6.04e-04,Soluble,-2.11,1.20e+00,7.69e-03,Soluble,High,Yes,No,No,No,No,No,No,-5.28,0,1,0,0,1,0.56,0,1,1,1.69
Molecule 75,OCC1OC(OC(C2Oc3c(C2O)cc2c(c3)oc(=O)cc2)(C)C)C(C(C1O)O)O,C20H24O10,424.40,30,10,0.55,4,10,5,100.99,159.05,1.01,-0.79,-1.14,-1.33,-0.22,-0.49,-1.96,4.69e+00,1.11e-02,Very soluble,-2.07,3.60e+00,8.48e-03,Soluble,-1.41,1.64e+01,3.87e-02,Soluble,Low,No,No,No,No,No,No,No,-9.45,0,1,1,1,1,0.55,0,1,1,5.35
Molecule 76,CCC(C(=O)OC1C2OC1(C)C1C2=C(C)CCC2C1OC(=O)C2=C)C,C20H26O5,346.42,25,0,0.70,4,5,0,92.54,61.83,3.57,2.22,2.94,2.70,3.38,2.96,-3.12,2.61e-01,7.54e-04,Soluble,-3.15,2.43e-01,7.03e-04,Soluble,-3.42,1.33e-01,3.83e-04,Soluble,High,Yes,No,No,No,No,No,Yes,-6.84,0,0,0,0,0,0.55,0,3,0,5.24
Molecule 77,CC12CCC3C(C1)(C1C2O1)CCC1C23CCC(OC2)(C1(C)C)O,C20H30O3,318.45,23,0,1.00,0,3,1,87.90,41.99,2.95,3.46,3.50,3.60,3.83,3.47,-3.99,3.23e-02,1.01e-04,Soluble,-4.02,3.02e-02,9.47e-05,Moderately soluble,-3.65,7.13e-02,2.24e-04,Soluble,High,Yes,Yes,No,No,No,No,No,-5.79,0,0,0,0,0,0.55,0,1,0,6.17
Molecule 78,COc1cc(O)c2c(c1)oc(c(c2=O)OC)c1cc(O)c(c(c1)OC)OC,C19H18O8,374.34,27,16,0.21,5,8,2,97.93,107.59,3.38,3.12,2.91,-0.12,3.19,2.50,-4.24,2.18e-02,5.82e-05,Moderately soluble,-5.05,3.35e-03,8.95e-06,Moderately soluble,-5.43,1.38e-03,3.69e-06,Moderately soluble,High,No,No,Yes,No,Yes,No,Yes,-6.37,0,0,0,0,0,0.55,0,0,1,3.68
Molecule 79,OC/C=C/c1cc(OC)c(c(c1)OC)OC/C=C(/CCC=C(C)C)\C,C21H30O4,346.46,25,6,0.43,10,4,1,104.29,47.92,4.27,4.95,4.67,3.16,5.31,4.47,-4.62,8.23e-03,2.38e-05,Moderately soluble,-5.69,7.01e-04,2.02e-06,Moderately soluble,-4.83,5.10e-03,1.47e-05,Moderately soluble,High,Yes,No,Yes,No,No,Yes,Yes,-4.90,0,0,0,0,0,0.55,0,1,2,3.43
Molecule 80,OC/C(=C/CCC(C1CCC2(C1(C)CCC1C2=CCC2C1(C)CCC(=O)C2(C)C)C)C)/C,C30H48O2,440.70,32,0,0.83,5,2,1,137.24,37.30,4.67,7.64,7.52,5.79,7.38,6.60,-7.06,3.88e-05,8.80e-08,Poorly soluble,-8.26,2.41e-06,5.46e-09,Poorly soluble,-6.87,5.93e-05,1.35e-07,Poorly soluble,Low,No,No,No,No,No,No,No,-3.56,1,3,0,1,1,0.55,0,1,2,5.97
Molecule 81,OCC1OC(OC2CCC3(C(C2(C)C)CCC2(C3CC(O)C3C2(C)CCC3C(OC2OC(CO)C(C(C2O)O)O)(CCC(C(=C)C)OO)C)C)C)C(C(C1O)O)OC1OC(CO)C(C(C1O)O)O,C48H82O20,979.15,68,0,0.96,15,20,13,239.68,327.60,1.48,1.48,-0.56,-2.73,-1.36,-0.34,-5.85,1.37e-03,1.40e-06,Moderately soluble,-7.97,1.06e-05,1.08e-08,Poorly soluble,1.04,1.09e+04,1.11e+01,Soluble,Low,No,Yes,No,No,No,No,No,-11.22,3,4,2,1,4,0.17,0,3,2,10.00
Molecule 82,C/C=C(\c1ccccc1)/C=O,C10H10O,146.19,11,6,0.10,2,1,0,46.35,17.07,1.98,2.18,2.29,2.31,2.67,2.29,-2.39,5.94e-01,4.06e-03,Soluble,-2.17,9.84e-01,6.73e-03,Soluble,-2.80,2.31e-01,1.58e-03,Soluble,High,Yes,No,No,No,No,No,No,-5.64,0,1,0,0,2,0.55,0,2,1,1.63
Molecule 83,CC(=O)OC1CC2(C)C(O)CC=C(C2C2C1C(C)C(=O)O2)C,C17H24O5,308.37,22,0,0.76,2,5,1,80.49,72.83,2.21,1.70,1.83,2.09,1.61,1.89,-2.69,6.28e-01,2.04e-03,Soluble,-2.84,4.41e-01,1.43e-03,Soluble,-1.84,4.44e+00,1.44e-02,Soluble,High,Yes,No,No,No,No,No,No,-6.97,0,0,0,0,0,0.55,0,2,0,4.85
Molecule 84,COc1cc2CCN(C3c2c(c1O)Oc1cc2c(cc1OC)CCN(C2Cc1cc(c2cc(C3)ccc2OC)c(O)cc1)C)C,C37H40N2O6,608.72,45,24,0.35,3,8,2,182.55,83.86,4.80,6.08,5.03,3.28,5.45,4.93,-7.64,1.39e-05,2.28e-08,Poorly soluble,-7.62,1.46e-05,2.39e-08,Poorly soluble,-9.80,9.54e-08,1.57e-10,Poorly soluble,High,No,No,No,No,No,No,No,-5.70,1,3,0,0,2,0.55,0,0,2,6.80
Molecule 85,OCC1OC(Oc2c(OC3OC(CO)C(C(C3O)O)O)c3ccc(=O)oc3c3c2occ3)C(C(C1O)O)O,C23H26O15,542.44,38,13,0.52,6,15,8,120.55,242.11,0.54,-2.01,-3.10,-3.63,-2.45,-2.13,-1.79,8.72e+00,1.61e-02,Very soluble,-2.55,1.53e+00,2.82e-03,Soluble,0.08,6.58e+02,1.21e+00,Soluble,Low,No,No,No,No,No,No,No,-11.04,3,2,1,1,4,0.17,0,1,1,6.19
Molecule 86,OCC1OC(OC2OC=C(C3(C2C(C)(O)C(C3)O)O)C(=O)OC)C(C(C1O)O)O,C17H26O12,422.38,29,0,0.82,5,12,7,89.77,195.60,1.37,-3.14,-3.92,-3.28,-3.15,-2.42,-0.15,2.99e+02,7.07e-01,Very soluble,-0.40,1.68e+02,3.98e-01,Very soluble,2.66,1.94e+05,4.58e+02,Soluble,Low,No,No,No,No,No,No,No,-11.11,2,1,1,1,4,0.11,0,0,1,5.88
Molecule 87,COc1nc2c3OCOc3ccc2c(c1CC(=O)C(C)C)OC,C17H19NO5,317.34,23,10,0.41,5,6,0,85.18,66.88,3.24,2.94,2.75,1.51,3.71,2.83,-3.65,7.08e-02,2.23e-04,Soluble,-4.01,3.13e-02,9.85e-05,Moderately soluble,-4.87,4.32e-03,1.36e-05,Moderately soluble,High,Yes,No,Yes,Yes,Yes,Yes,No,-6.15,0,0,0,0,0,0.55,0,0,0,3.04
Molecule 88,OC1CCC2(C(=CCC3(C2CC(OC(=O)c2cccnc2)C2(C3(O)CCC2C(=O)C)C)O)C1)C,C27H35NO6,469.57,34,6,0.67,4,7,3,125.97,116.95,2.41,1.56,2.98,1.86,2.99,2.36,-3.60,1.18e-01,2.51e-04,Soluble,-3.63,1.11e-01,2.37e-04,Soluble,-4.45,1.65e-02,3.52e-05,Moderately soluble,High,No,Yes,No,No,No,Yes,Yes,-8.06,0,0,0,0,0,0.55,0,1,1,5.38
Molecule 89,CC1CCC(C(C1)O)C(=C)C,C10H18O,154.25,11,0,0.80,1,1,1,48.76,20.23,2.42,2.95,2.36,2.30,2.06,2.42,-2.59,3.98e-01,2.58e-03,Soluble,-3.04,1.42e-01,9.18e-04,Soluble,-1.49,5.05e+00,3.27e-02,Soluble,High,Yes,No,No,No,No,No,No,-5.15,0,1,0,0,2,0.55,0,1,1,2.98
Molecule 90,OCC1OC(Oc2cc(OC)cc3c2C(=O)CC(O3)c2ccc(c(c2)O)OC)C(C(C1O)O)O,C23H26O11,478.45,34,12,0.43,6,11,5,114.65,164.37,3.19,0.57,-0.03,-1.48,0.50,0.55,-3.03,4.46e-01,9.32e-04,Soluble,-3.59,1.22e-01,2.54e-04,Soluble,-2.49,1.54e+00,3.23e-03,Soluble,Low,No,Yes,No,No,No,No,No,-8.81,1,0,1,1,2,0.55,0,0,1,5.36
Molecule 91,CCOC1c2c3OCOc3ccc2c2c(N1C)c1cc3OCOc3cc1cc2,C22H19NO5,377.39,28,16,0.27,2,5,0,107.40,49.39,3.73,4.47,3.74,3.17,3.87,3.79,-5.29,1.95e-03,5.17e-06,Moderately soluble,-5.23,2.24e-03,5.93e-06,Moderately soluble,-6.33,1.75e-04,4.63e-07,Poorly soluble,High,Yes,Yes,Yes,Yes,Yes,Yes,Yes,-5.43,0,0,0,0,0,0.55,0,0,2,3.90
Molecule 92,C=CC(c1c2OC(C)(C)C=Cc2c(c2c1oc1c(O)cccc1c2=O)O)(C)C,C23H22O5,378.42,28,14,0.26,2,5,2,111.76,79.90,3.71,5.67,4.90,2.52,5.10,4.38,-6.00,3.82e-04,1.01e-06,Moderately soluble,-7.11,2.92e-05,7.71e-08,Poorly soluble,-6.21,2.33e-04,6.15e-07,Poorly soluble,High,No,No,No,Yes,Yes,No,No,-4.58,0,0,0,0,1,0.55,0,2,2,4.11
Molecule 93,CC1=CC(=O)C(CC1)C(=C)C,C10H14O,150.22,11,0,0.50,1,1,0,47.32,17.07,2.25,2.28,2.49,2.10,2.64,2.35,-2.14,1.08e+00,7.22e-03,Soluble,-2.28,7.96e-01,5.30e-03,Soluble,-2.16,1.04e+00,6.95e-03,Soluble,High,Yes,No,No,No,No,No,No,-5.60,0,1,0,0,2,0.55,0,1,1,3.34
Molecule 94,OC1CCC2(C(C1)(O)C=CC(=O)C2CC(C1(C)C(=O)CCC1C(=O)C)OC(=O)/C=C/c1ccccc1)C,C30H36O7,508.60,37,6,0.53,8,7,2,139.20,117.97,2.80,2.46,3.50,1.94,4.80,3.10,-4.14,3.73e-02,7.33e-05,Moderately soluble,-4.58,1.33e-02,2.62e-05,Moderately soluble,-5.15,3.60e-03,7.08e-06,Moderately soluble,High,No,Yes,No,No,No,No,Yes,-7.66,1,3,0,0,0,0.55,0,1,2,5.83
Molecule 95,OC(=O)C1=CC2C(CC1)C2(C)C,C10H14O2,166.22,12,0,0.70,1,2,1,46.99,37.30,1.85,2.18,2.06,2.08,1.67,1.97,-2.18,1.10e+00,6.64e-03,Soluble,-2.60,4.21e-01,2.53e-03,Soluble,-1.24,9.61e+00,5.78e-02,Soluble,High,Yes,No,No,No,No,No,No,-5.77,0,0,0,0,1,0.56,0,0,1,3.44
Molecule 96,OC(=O)Cc1cc(O)cc2c1c(=O)cc(o2)C,C12H10O5,234.20,17,10,0.17,2,5,2,61.02,87.74,1.39,1.03,1.43,0.15,2.16,1.23,-2.24,1.33e+00,5.70e-03,Soluble,-2.46,8.07e-01,3.45e-03,Soluble,-3.21,1.45e-01,6.18e-04,Soluble,High,No,No,No,No,No,No,No,-7.00,0,0,0,0,0,0.56,0,0,1,2.67
Molecule 97,COC1=C(OC)C23C(CC1=O)(CCN2)c1c(CC3)ccc(c1O)OC,C19H23NO5,345.39,25,6,0.53,3,6,2,95.15,77.02,2.83,1.27,1.41,0.48,2.85,1.77,-2.76,5.99e-01,1.73e-03,Soluble,-2.49,1.13e+00,3.26e-03,Soluble,-4.83,5.16e-03,1.49e-05,Moderately soluble,High,No,Yes,No,No,No,No,No,-7.51,0,0,0,0,0,0.56,0,0,0,4.74
Molecule 98,COc1cc(=O)n(c2c1cccc2OCC(C(O)(C)C)O)C,C16H21NO5,307.34,22,10,0.44,5,5,2,84.04,80.92,2.79,0.49,1.06,0.73,1.82,1.38,-2.06,2.67e+00,8.70e-03,Soluble,-1.76,5.35e+00,1.74e-02,Very soluble,-3.15,2.18e-01,7.08e-04,Soluble,High,No,Yes,No,No,No,No,No,-7.83,0,0,0,0,0,0.55,0,0,0,3.35
Molecule 99,COc1c(OC)cc2c3c1c1cc(OC)c(cc1CC3NCC2)O,C19H21NO4,327.37,24,12,0.37,3,5,2,95.57,59.95,3.03,2.58,2.12,1.75,3.55,2.61,-3.67,7.05e-02,2.15e-04,Soluble,-3.49,1.07e-01,3.26e-04,Soluble,-5.62,7.84e-04,2.39e-06,Moderately soluble,High,Yes,Yes,Yes,No,No,Yes,Yes,-6.47,0,0,0,0,0,0.55,0,0,0,3.57
Molecule 100,OCC1OC(OCC2OC(OCCc3ccc(c(c3)O)OC)C(C(C2OC(=O)/C=C\c2ccc(c(c2)OC)O)OC2OC(C)C(C(C2O)O)O)O)C(C(C1O)O)O,C37H50O20,814.78,57,12,0.59,16,20,10,189.74,302.44,2.73,-1.45,-2.69,-4.11,-2.07,-1.52,-3.08,6.81e-01,8.36e-04,Soluble,-4.40,3.26e-02,4.00e-05,Moderately soluble,0.27,1.51e+03,1.85e+00,Soluble,Low,No,Yes,No,No,No,No,No,-12.30,3,4,2,1,5,0.17,0,1,2,7.72
