Molecule,Canonical SMILES,Formula,MW,#Heavy atoms,#Aromatic heavy atoms,Fraction Csp3,#Rotatable bonds,#H-bond acceptors,#H-bond donors,MR,TPSA,iLOGP,XLOGP3,WLOGP,MLOGP,Silicos-IT Log P,Consensus Log P,ESOL Log S,ESOL Solubility (mg/ml),ESOL Solubility (mol/l),ESOL Class,Ali Log S,Ali Solubility (mg/ml),Ali Solubility (mol/l),Ali Class,Silicos-IT LogSw,Silicos-IT Solubility (mg/ml),Silicos-IT Solubility (mol/l),Silicos-IT class,GI absorption,BBB permeant,Pgp substrate,CYP1A2 inhibitor,CYP2C19 inhibitor,CYP2C9 inhibitor,CYP2D6 inhibitor,CYP3A4 inhibitor,log Kp (cm/s),Lipinski #violations,Ghose #violations,Veber #violations,Egan #violations,Muegge #violations,Bioavailability Score,PAINS #alerts,Brenk #alerts,Leadlikeness #violations,Synthetic Accessibility
Molecule 1,C=CCC12CC3(C(C2c2cc(OC)c4c(c2)OCO4)C)OCOC3CC1=O,C21H24O6,372.41,27,6,0.57,4,6,0,96.98,63.22,3.26,2.63,3.19,2.02,4.03,3.02,-3.71,7.32e-02,1.97e-04,Soluble,-3.61,9.18e-02,2.47e-04,Soluble,-4.61,9.23e-03,2.48e-05,Moderately soluble,High,Yes,No,No,No,No,Yes,Yes,-6.70,0,0,0,0,0,0.55,0,1,1,5.51
Molecule 2,C=CCC12CC3(C(C2c2cc(OC)c4c(c2)OCO4)C)OCOC3=CC1=O,C21H22O6,370.40,27,6,0.48,4,6,0,96.50,63.22,3.30,2.77,3.32,1.93,4.01,3.07,-3.78,6.12e-02,1.65e-04,Soluble,-3.75,6.54e-02,1.77e-04,Soluble,-4.59,9.54e-03,2.58e-05,Moderately soluble,High,Yes,No,No,No,Yes,Yes,Yes,-6.59,0,0,0,0,0,0.56,0,1,1,5.63
Molecule 3,COc1cc2C[C@@H](C)[C@H]([C@](c2c2c1OCO2)(O)c1ccc2c(c1)OCO2)C,C21H22O6,370.40,27,12,0.43,2,6,1,97.64,66.38,3.42,3.77,3.11,2.47,3.90,3.33,-4.71,7.25e-03,1.96e-05,Moderately soluble,-4.86,5.14e-03,1.39e-05,Moderately soluble,-5.33,1.73e-03,4.68e-06,Moderately soluble,High,Yes,No,Yes,Yes,Yes,Yes,Yes,-5.88,0,0,0,0,0,0.55,0,0,2,4.38
Molecule 4,COc1cc2C[C@@H](C)C(=C(c2c2c1OCO2)c1ccc2c(c1)OCO2)C,C21H20O5,352.38,26,12,0.33,2,5,0,96.91,46.15,3.84,4.03,4.17,3.20,4.79,4.00,-4.77,5.94e-03,1.69e-05,Moderately soluble,-4.70,6.99e-03,1.98e-05,Moderately soluble,-6.13,2.61e-04,7.41e-07,Poorly soluble,High,Yes,Yes,Yes,Yes,Yes,Yes,Yes,-5.59,0,0,0,0,0,0.55,0,0,2,4.07
Molecule 5,COc1cc2c(cc1OC)C[C@H]1c3c2c2OCOc2c(c3CCN1C)OC,C21H23NO5,369.41,27,12,0.43,3,6,0,104.51,49.39,3.72,3.21,2.49,2.06,3.84,3.06,-4.28,1.92e-02,5.21e-05,Moderately soluble,-3.92,4.45e-02,1.20e-04,Soluble,-5.59,9.45e-04,2.56e-06,Moderately soluble,High,Yes,Yes,Yes,Yes,Yes,Yes,Yes,-6.27,0,0,0,0,0,0.55,0,0,1,4.00
Molecule 6,C=CCc1cc(OC)c2c(c1)CC(C(O2)c1cccc2c1OCO2)CO,C21H22O5,354.40,26,12,0.33,5,5,1,97.71,57.15,3.58,3.88,3.11,2.53,4.47,3.51,-4.49,1.14e-02,3.21e-05,Moderately soluble,-4.78,5.91e-03,1.67e-05,Moderately soluble,-5.54,1.02e-03,2.86e-06,Moderately soluble,High,Yes,No,No,Yes,Yes,Yes,Yes,-5.71,0,0,0,0,0,0.55,0,1,2,4.23
Molecule 7,C=CCc1cc2c(c(c1)OC)OC([C@H]2CO)c1ccc2c(c1)OCO2,C20H20O5,340.37,25,12,0.30,5,5,1,92.90,57.15,3.44,3.42,3.04,2.30,4.23,3.29,-4.13,2.52e-02,7.41e-05,Moderately soluble,-4.30,1.70e-02,5.01e-05,Moderately soluble,-5.27,1.82e-03,5.33e-06,Moderately soluble,High,Yes,Yes,Yes,Yes,Yes,Yes,Yes,-5.95,0,0,0,0,0,0.55,0,1,0,4.06
Molecule 8,COc1cccc2c1n(C)c(=O)c1c2OC(C)(C)C=C1,C16H17NO3,271.31,20,10,0.31,1,3,0,80.08,40.46,3.17,2.14,2.62,2.29,2.92,2.63,-3.17,1.82e-01,6.69e-04,Soluble,-2.62,6.49e-01,2.39e-03,Soluble,-4.16,1.86e-02,6.87e-05,Moderately soluble,High,Yes,No,Yes,Yes,No,No,No,-6.44,0,0,0,0,0,0.55,0,0,0,3.26
Molecule 9,COc1c(OC)ccc2c1cnc1c2ccc2c1cc1OCOc1c2,C20H15NO4,333.34,25,18,0.15,2,5,0,95.80,49.81,3.35,4.45,4.29,2.31,4.38,3.76,-5.11,2.58e-03,7.74e-06,Moderately soluble,-5.21,2.03e-03,6.10e-06,Moderately soluble,-7.03,3.10e-05,9.29e-08,Poorly soluble,High,Yes,Yes,Yes,Yes,Yes,No,Yes,-5.17,0,0,0,0,0,0.55,0,1,1,2.64
Molecule 10,COc1c(OC)ccc2c1c[n+]1CCc3c(c1c2)cc1c(c3)OCO1,C20H18NO4,336.36,25,16,0.25,2,4,0,94.87,40.80,-0.00,3.62,3.10,2.19,3.74,2.53,-4.55,9.53e-03,2.83e-05,Moderately soluble,-4.16,2.30e-02,6.85e-05,Moderately soluble,-5.92,4.00e-04,1.19e-06,Moderately soluble,High,Yes,Yes,Yes,No,No,Yes,Yes,-5.78,0,0,0,0,0,0.55,0,1,1,3.14
Molecule 11,COc1c(OC)ccc2c1[CH-][NH+]1CCc3c(C1=C2)cc1c(c3)OCO1,C20H19NO4,337.37,25,12,0.30,2,5,1,100.40,60.77,0.00,3.54,1.41,-1.38,3.26,1.37,-4.39,1.39e-02,4.12e-05,Moderately soluble,-4.50,1.06e-02,3.16e-05,Moderately soluble,-6.08,2.82e-04,8.36e-07,Poorly soluble,High,Yes,Yes,Yes,No,No,Yes,No,-5.84,0,0,0,0,0,0.55,0,2,1,3.42
Molecule 12,COc1c(OC)ccc2c1[CH-][NH+]1CCc3c(C1=C2)cc(c(c3)O)OC,C20H21NO4,339.39,25,12,0.30,3,5,2,102.85,71.77,0.00,3.34,1.39,-1.79,2.96,1.18,-4.21,2.11e-02,6.23e-05,Moderately soluble,-4.52,1.01e-02,2.99e-05,Moderately soluble,-5.88,4.50e-04,1.33e-06,Moderately soluble,High,No,Yes,Yes,No,No,No,No,-6.00,0,0,0,0,0,0.55,0,2,0,3.38
Molecule 13,COc1cc2CC[N+]3([C-](c2cc1OC)Cc1c(C3)c(OC)c(cc1)OC)C,C22H27NO4,369.45,27,12,0.45,4,4,0,111.11,49.28,0.00,3.26,2.83,-1.26,3.81,1.73,-4.25,2.08e-02,5.63e-05,Moderately soluble,-3.97,3.97e-02,1.07e-04,Soluble,-6.96,4.01e-05,1.09e-07,Poorly soluble,High,Yes,Yes,No,No,No,Yes,Yes,-6.24,0,0,0,0,0,0.55,0,2,1,3.44
Molecule 14,COc1cc2CC[N+]3([C-](c2cc1O)Cc1c(C3)c(OC)c(cc1)OC)C,C21H25NO4,355.43,26,12,0.43,3,4,1,106.64,60.28,0.00,2.93,2.52,-1.48,3.27,1.45,-4.03,3.29e-02,9.27e-05,Moderately soluble,-3.86,4.93e-02,1.39e-04,Soluble,-6.27,1.90e-04,5.35e-07,Poorly soluble,High,Yes,Yes,Yes,No,No,Yes,Yes,-6.39,0,0,0,0,0,0.55,0,2,1,3.33
Molecule 15,COc1ccc2c(c1OC)nc1c(c2OC)cco1,C14H13NO4,259.26,19,13,0.21,3,5,0,70.99,53.72,2.78,2.84,3.01,1.36,2.90,2.58,-3.54,7.39e-02,2.85e-04,Soluble,-3.63,6.13e-02,2.36e-04,Soluble,-4.98,2.73e-03,1.05e-05,Moderately soluble,High,Yes,No,Yes,Yes,Yes,Yes,Yes,-5.87,0,0,0,0,0,0.55,0,0,0,2.93
Molecule 16,OC[C@@H]1[C@@H](CO[C@H]1c1ccc(c(c1)OC)OC)Cc1ccc2c(c1)OCO2,C21H24O6,372.41,27,12,0.43,6,6,1,99.11,66.38,3.41,2.92,2.65,1.79,3.69,2.89,-3.92,4.46e-02,1.20e-04,Soluble,-3.98,3.94e-02,1.06e-04,Soluble,-5.26,2.05e-03,5.50e-06,Moderately soluble,High,Yes,No,No,No,No,Yes,Yes,-6.50,0,0,0,0,0,0.55,0,0,1,4.25
Molecule 17,COc1cc(ccc1OC)[C@H]1OCC2C1CO[C@@H]2c1ccc2c(c1)OCO2,C21H22O6,370.40,27,12,0.43,4,6,0,96.92,55.38,3.67,2.81,2.86,1.79,3.48,2.92,-3.97,3.95e-02,1.07e-04,Soluble,-3.63,8.68e-02,2.34e-04,Soluble,-5.09,3.03e-03,8.18e-06,Moderately soluble,High,Yes,No,No,No,No,Yes,Yes,-6.56,0,0,0,0,0,0.55,0,0,1,4.30
Molecule 18,COc1cc(ccc1OC)[C@H]1OCC2C1CO[C@@H]2c1ccc(c(c1)OC)OC,C22H26O6,386.44,28,12,0.45,6,6,0,103.84,55.38,3.85,2.94,3.15,1.61,3.73,3.06,-4.01,3.78e-02,9.79e-05,Moderately soluble,-3.77,6.64e-02,1.72e-04,Soluble,-5.58,1.02e-03,2.65e-06,Moderately soluble,High,Yes,No,No,No,No,Yes,Yes,-6.57,0,0,0,0,0,0.55,0,0,1,4.22
Molecule 19,C=CCc1cc(OC)c2c(c1)[C@H](CO)[C@H](O2)c1ccc(c(c1)OC)OC,C21H24O5,356.41,26,12,0.33,7,5,1,99.82,57.15,3.59,3.55,3.33,2.12,4.47,3.41,-4.17,2.43e-02,6.83e-05,Moderately soluble,-4.44,1.31e-02,3.67e-05,Moderately soluble,-5.76,6.12e-04,1.72e-06,Moderately soluble,High,Yes,No,No,No,Yes,Yes,Yes,-5.95,0,0,0,0,0,0.55,0,1,2,4.08
Molecule 20,COc1cc(ccc1OC)[C@@H]1OCC2C1CO[C@H]2c1ccc(c(c1)OC)OC,C22H26O6,386.44,28,12,0.45,6,6,0,103.84,55.38,3.89,2.94,3.15,1.61,3.73,3.06,-4.01,3.78e-02,9.79e-05,Moderately soluble,-3.77,6.64e-02,1.72e-04,Soluble,-5.58,1.02e-03,2.65e-06,Moderately soluble,High,Yes,No,No,No,No,Yes,Yes,-6.57,0,0,0,0,0,0.55,0,0,1,4.22
Molecule 21,COc1cc(ccc1OC)[C@@H]1OCC2C1CO[C@@H]2c1ccc2c(c1)OCO2,C21H22O6,370.40,27,12,0.43,4,6,0,96.92,55.38,3.66,2.81,2.86,1.79,3.48,2.92,-3.97,3.95e-02,1.07e-04,Soluble,-3.63,8.68e-02,2.34e-04,Soluble,-5.09,3.03e-03,8.18e-06,Moderately soluble,High,Yes,No,No,No,No,Yes,Yes,-6.56,0,0,0,0,0,0.55,0,0,1,4.30
Molecule 22,COc1cc(ccc1OC)C[C@H]1COC(=O)[C@H]1Cc1ccc2c(c1)OCO2,C21H22O6,370.40,27,12,0.38,6,6,0,98.15,63.22,3.20,3.78,3.01,2.53,4.28,3.36,-4.45,1.31e-02,3.54e-05,Moderately soluble,-4.80,5.85e-03,1.58e-05,Moderately soluble,-5.96,4.11e-04,1.11e-06,Moderately soluble,High,Yes,No,No,Yes,Yes,Yes,Yes,-5.88,0,0,0,0,0,0.55,0,0,2,3.72
Molecule 23,CCCc1ccc(c(c1)OC)OC,C11H16O2,180.24,13,6,0.45,4,2,0,54.01,18.46,2.78,2.79,2.66,2.39,3.00,2.72,-2.79,2.90e-01,1.61e-03,Soluble,-2.83,2.64e-01,1.47e-03,Soluble,-3.85,2.56e-02,1.42e-04,Soluble,High,Yes,No,Yes,No,No,Yes,No,-5.42,0,0,0,0,1,0.55,0,0,1,1.55
Molecule 24,C=CCc1ccc(c(c1)OC)OC,C11H14O2,178.23,13,6,0.27,4,2,0,53.53,18.46,2.65,2.52,2.43,2.30,3.00,2.58,-2.61,4.37e-01,2.45e-03,Soluble,-2.55,4.98e-01,2.79e-03,Soluble,-3.50,5.62e-02,3.16e-04,Soluble,High,Yes,No,Yes,No,No,No,No,-5.60,0,0,0,0,1,0.55,0,1,1,1.71
Molecule 25,COc1ccc(cc1OC)CC1C(=O)OCC1Cc1ccc(c(c1)OC)OC,C22H26O6,386.44,28,12,0.41,8,6,0,105.07,63.22,3.26,3.91,3.30,2.34,4.54,3.47,-4.49,1.26e-02,3.25e-05,Moderately soluble,-4.94,4.48e-03,1.16e-05,Moderately soluble,-6.45,1.39e-04,3.59e-07,Poorly soluble,High,Yes,No,No,Yes,Yes,Yes,Yes,-5.88,0,0,0,0,0,0.55,0,0,3,3.55
Molecule 26,COc1cc(O)c2c(c1)oc(c(c2=O)OC)c1ccc(c(c1)OC)OC,C19H18O7,358.34,26,16,0.21,5,7,1,95.91,87.36,3.58,3.47,3.20,0.40,3.66,2.86,-4.37,1.52e-02,4.23e-05,Moderately soluble,-4.99,3.70e-03,1.03e-05,Moderately soluble,-6.02,3.43e-04,9.57e-07,Poorly soluble,High,No,No,Yes,No,Yes,Yes,Yes,-6.02,0,0,0,0,0,0.55,0,0,1,3.64
Molecule 27,OC/C=C/c1ccc(c(c1)OC)OC,C11H14O3,194.23,14,6,0.27,4,3,1,55.49,38.69,2.33,2.15,1.60,1.42,2.23,1.94,-2.45,6.86e-01,3.53e-03,Soluble,-2.59,4.94e-01,2.54e-03,Soluble,-2.58,5.16e-01,2.65e-03,Soluble,High,Yes,No,Yes,No,No,No,No,-5.96,0,0,0,0,1,0.55,0,0,1,1.98
Molecule 28,C/C=C/c1ccc(c(c1)OC)OC,C11H14O2,178.23,13,6,0.27,3,2,0,54.32,18.46,2.75,3.40,2.63,2.30,2.82,2.78,-3.23,1.05e-01,5.88e-04,Soluble,-3.47,6.08e-02,3.41e-04,Soluble,-3.13,1.33e-01,7.45e-04,Soluble,High,Yes,No,Yes,No,No,No,No,-4.97,0,0,0,0,1,0.55,0,0,1,1.93
Molecule 29,COc1cc2cnc3c(c2cc1OC)ccc1c3cc2OCOc2c1,C20H15NO4,333.34,25,18,0.15,2,5,0,95.80,49.81,3.33,4.45,4.29,2.31,4.38,3.75,-5.11,2.58e-03,7.74e-06,Moderately soluble,-5.21,2.03e-03,6.10e-06,Moderately soluble,-7.03,3.10e-05,9.29e-08,Poorly soluble,High,Yes,Yes,Yes,Yes,Yes,No,Yes,-5.17,0,0,0,0,0,0.55,0,1,1,2.62
Molecule 30,COc1cc2oc(=O)ccc2cc1OC,C11H10O4,206.19,15,10,0.18,2,4,0,55.47,48.67,2.23,1.71,1.81,1.05,2.42,1.84,-2.56,5.72e-01,2.77e-03,Soluble,-2.35,9.26e-01,4.49e-03,Soluble,-3.87,2.76e-02,1.34e-04,Soluble,High,Yes,No,Yes,No,No,No,No,-6.34,0,0,0,0,0,0.55,0,1,1,2.77
Molecule 31,COc1cc2oc(=O)c(cc2cc1OC)C(C=C)(C)C,C16H18O4,274.31,20,10,0.31,4,4,0,79.07,48.67,3.25,3.81,3.27,2.29,4.09,3.34,-4.05,2.46e-02,8.97e-05,Moderately soluble,-4.53,8.15e-03,2.97e-05,Moderately soluble,-5.13,2.01e-03,7.33e-06,Moderately soluble,High,Yes,No,Yes,Yes,Yes,No,No,-5.27,0,0,0,0,0,0.55,0,2,1,3.27
Molecule 32,COc1cc2c(cc1OC)C[C@H]1c3c2c2OCOc2cc3CCN1C,C20H21NO4,339.39,25,12,0.40,2,5,0,98.02,40.16,3.53,3.24,2.48,2.38,3.79,3.08,-4.21,2.10e-02,6.19e-05,Moderately soluble,-3.76,5.94e-02,1.75e-04,Soluble,-5.49,1.11e-03,3.27e-06,Moderately soluble,High,Yes,Yes,Yes,Yes,Yes,Yes,Yes,-6.07,0,0,0,0,0,0.55,0,0,0,3.78
Molecule 33,COc1cc2c(cc1OC)CC1c3c2c2OCOc2cc3CCN1,C19H19NO4,325.36,24,12,0.37,2,5,1,93.12,48.95,3.28,2.78,2.14,2.16,3.86,2.84,-3.85,4.63e-02,1.42e-04,Soluble,-3.46,1.12e-01,3.44e-04,Soluble,-5.82,4.90e-04,1.51e-06,Moderately soluble,High,Yes,Yes,Yes,Yes,No,Yes,Yes,-6.31,0,0,0,0,0,0.55,0,0,0,3.67
Molecule 34,COc1cc2c(cc1OC)CC1c3c2c2OCOc2cc3CCN1C,C20H21NO4,339.39,25,12,0.40,2,5,0,98.02,40.16,3.51,3.24,2.48,2.38,3.79,3.08,-4.21,2.10e-02,6.19e-05,Moderately soluble,-3.76,5.94e-02,1.75e-04,Soluble,-5.49,1.11e-03,3.27e-06,Moderately soluble,High,Yes,Yes,Yes,Yes,Yes,Yes,Yes,-6.07,0,0,0,0,0,0.55,0,0,0,3.78
Molecule 35,COC1C2C=COC2=Nc2c1cc(OC)c(c2)OC,C14H15NO4,261.27,19,6,0.36,3,5,0,73.62,49.28,2.65,1.29,1.89,1.16,2.35,1.87,-2.31,1.28e+00,4.92e-03,Soluble,-1.92,3.11e+00,1.19e-02,Very soluble,-3.01,2.56e-01,9.79e-04,Soluble,High,Yes,No,No,No,No,No,No,-6.98,0,0,0,0,0,0.55,0,0,0,4.14
Molecule 36,COc1cc2c(cc1OC)C(=O)c1c3c2c2OCOc2cc3ccn1,C19H13NO5,335.31,25,16,0.16,2,6,0,89.66,66.88,2.62,3.33,3.19,1.07,4.00,2.84,-4.36,1.47e-02,4.38e-05,Moderately soluble,-4.41,1.30e-02,3.88e-05,Moderately soluble,-6.36,1.47e-04,4.40e-07,Poorly soluble,High,Yes,No,Yes,No,Yes,Yes,Yes,-5.98,0,0,0,0,0,0.55,0,0,0,3.12
Molecule 37,COc1cc(cc(c1OC)OC)C1OCC2C1CO[C@@H]2c1cc(OC)c(c(c1)OC)OC,C24H30O8,446.49,32,12,0.50,8,8,0,116.82,73.84,4.30,2.88,3.16,0.98,3.87,3.04,-4.17,3.00e-02,6.73e-05,Moderately soluble,-4.09,3.63e-02,8.12e-05,Moderately soluble,-5.78,7.44e-04,1.67e-06,Moderately soluble,High,Yes,No,No,No,No,Yes,No,-6.98,0,0,0,0,0,0.55,0,0,2,4.60
Molecule 38,COc1cc(cc(c1OC)OC)[C@H]1C2C(=O)OC[C@@H]2[C@H](c2c1cc1OCOc1c2)O,C22H22O8,414.41,30,12,0.41,4,8,1,103.85,92.68,3.25,2.01,2.08,1.43,2.90,2.33,-3.71,8.12e-02,1.96e-04,Soluble,-3.58,1.08e-01,2.61e-04,Soluble,-4.75,7.34e-03,1.77e-05,Moderately soluble,High,No,No,No,No,No,Yes,Yes,-7.40,0,0,0,0,0,0.55,0,0,1,4.64
Molecule 39,C=CC[C@@H]1C[C@]2(OC)C(=C(C1=O)O)O[C@@H]([C@H]2C)c1cc(OC)c(c(c1)OC)OC,C22H28O7,404.45,29,6,0.50,7,7,1,107.37,83.45,3.60,2.84,3.42,0.54,3.60,2.80,-3.83,6.01e-02,1.49e-04,Soluble,-4.25,2.27e-02,5.61e-05,Moderately soluble,-4.60,1.01e-02,2.49e-05,Moderately soluble,High,No,Yes,No,No,No,Yes,Yes,-6.75,0,0,0,0,0,0.56,0,1,1,5.07
Molecule 40,COc1cc(cc(c1OC)OC)[C@@H]1OCC2C1COC2c1cc(OC)c2c(c1)OCO2,C23H26O8,430.45,31,12,0.48,6,8,0,109.90,73.84,3.84,2.75,2.88,1.18,3.59,2.85,-4.13,3.18e-02,7.38e-05,Moderately soluble,-3.96,4.77e-02,1.11e-04,Soluble,-5.29,2.20e-03,5.11e-06,Moderately soluble,High,Yes,No,No,No,No,Yes,No,-6.97,0,0,0,0,0,0.55,0,0,1,4.70
Molecule 41,COc1cc(cc(c1OC)OC)C1OCC2C1CO[C@H]2c1cc(OC)c(c(c1)OC)OC,C24H30O8,446.49,32,12,0.50,8,8,0,116.82,73.84,4.28,2.88,3.16,0.98,3.87,3.04,-4.17,3.00e-02,6.73e-05,Moderately soluble,-4.09,3.63e-02,8.12e-05,Moderately soluble,-5.78,7.44e-04,1.67e-06,Moderately soluble,High,Yes,No,No,No,No,Yes,No,-6.98,0,0,0,0,0,0.55,0,0,2,4.60
Molecule 42,OCC1O[C@H](Oc2cc(OC)c(c(c2)OC)OC)C(C([C@@H]1O)O)O,C15H22O9,346.33,24,6,0.60,6,9,4,80.06,127.07,2.10,-0.58,-1.11,-1.73,-0.58,-0.38,-1.41,1.34e+01,3.88e-02,Very soluble,-1.62,8.35e+00,2.41e-02,Very soluble,-0.56,9.43e+01,2.72e-01,Soluble,High,No,Yes,No,No,No,No,No,-8.82,0,1,0,0,0,0.55,0,0,0,4.69
Molecule 43,COc1cc(OC2OC(COC3OC(C)C(C(C3O)O)O)C(C(C2O)O)O)cc(c1OC)OC,C21H32O13,492.47,34,6,0.71,8,13,6,111.28,185.99,1.88,-1.97,-2.26,-2.94,-2.02,-1.46,-1.25,2.74e+01,5.56e-02,Very soluble,-1.41,1.90e+01,3.87e-02,Very soluble,0.61,2.02e+03,4.10e+00,Soluble,Low,No,No,No,No,No,No,No,-10.70,2,2,1,1,3,0.17,0,0,2,5.92
Molecule 44,COc1cc(CCN(C)C)c2c(c1OC)c1cc3OCOc3cc1cc2,C21H23NO4,353.41,26,14,0.33,5,5,0,102.78,40.16,3.93,4.48,3.84,2.45,4.36,3.81,-4.92,4.23e-03,1.20e-05,Moderately soluble,-5.04,3.20e-03,9.05e-06,Moderately soluble,-6.64,8.17e-05,2.31e-07,Poorly soluble,High,Yes,No,Yes,Yes,Yes,Yes,Yes,-5.28,0,0,0,0,0,0.55,0,1,2,2.80
Molecule 45,C/C=C/c1cc(OC)c(cc1OC)OC,C12H16O3,208.25,15,6,0.33,4,3,0,60.82,27.69,3.02,3.00,2.64,1.97,2.89,2.70,-3.05,1.84e-01,8.85e-04,Soluble,-3.25,1.18e-01,5.68e-04,Soluble,-3.26,1.13e-01,5.45e-04,Soluble,High,Yes,No,Yes,Yes,No,No,No,-5.44,0,0,0,0,0,0.55,0,0,1,2.39
Molecule 46,COc1c(OC)c(OC)c2c3c1c1cc(O)ccc1cc3[nH]c2=O,C18H15NO5,325.32,24,16,0.17,3,5,2,92.27,80.78,2.40,2.89,3.00,1.71,3.91,2.78,-3.97,3.46e-02,1.06e-04,Soluble,-4.25,1.84e-02,5.67e-05,Moderately soluble,-5.90,4.08e-04,1.25e-06,Moderately soluble,High,No,No,Yes,No,Yes,Yes,Yes,-6.23,0,0,0,0,0,0.55,0,1,0,2.57
Molecule 47,COc1c(O)c2c3cc4OCOc4cc3CC3c2c(c1OC)CCN3,C19H19NO5,341.36,25,12,0.37,2,6,2,95.14,69.18,3.14,2.42,1.84,1.61,3.37,2.48,-3.70,6.75e-02,1.98e-04,Soluble,-3.52,1.04e-01,3.05e-04,Soluble,-5.24,1.98e-03,5.79e-06,Moderately soluble,High,Yes,Yes,Yes,No,Yes,Yes,Yes,-6.66,0,0,0,0,0,0.55,0,0,0,3.70
Molecule 48,COc1c(O)c2c3cc(OC)c(cc3CC3c2c(c1OC)CCN3)O,C19H21NO5,343.37,25,12,0.37,3,6,3,97.59,80.18,3.07,2.22,1.83,1.21,3.07,2.28,-3.52,1.03e-01,2.99e-04,Soluble,-3.54,9.93e-02,2.89e-04,Soluble,-5.04,3.16e-03,9.20e-06,Moderately soluble,High,No,Yes,Yes,No,No,Yes,Yes,-6.82,0,0,0,0,0,0.55,0,0,0,3.64
Molecule 49,COc1c(OC)c(OC)c2c3c1c1ccccc1C(=O)c3ncc2,C19H15NO4,321.33,24,16,0.16,3,5,0,90.09,57.65,2.74,3.49,3.47,1.21,4.18,3.02,-4.33,1.52e-02,4.72e-05,Moderately soluble,-4.38,1.33e-02,4.14e-05,Moderately soluble,-6.74,5.85e-05,1.82e-07,Poorly soluble,High,Yes,No,Yes,Yes,Yes,Yes,Yes,-5.78,0,0,0,0,0,0.55,0,0,0,2.93
Molecule 50,COc1c(O)c2c3cc4OCOc4cc3C[C@H]3c2c(c1OC)CCN3,C19H19NO5,341.36,25,12,0.37,2,6,2,95.14,69.18,3.20,2.42,1.84,1.61,3.37,2.49,-3.70,6.75e-02,1.98e-04,Soluble,-3.52,1.04e-01,3.05e-04,Soluble,-5.24,1.98e-03,5.79e-06,Moderately soluble,High,Yes,Yes,Yes,No,Yes,Yes,Yes,-6.66,0,0,0,0,0,0.55,0,0,0,3.70
Molecule 51,COc1c(O)c2c3cc4OCOc4cc3C[C@H]3c2c(c1OC)CC/[N+]/3=C\O,C20H20NO6,370.38,27,12,0.35,2,6,2,102.87,80.39,-1.06,2.35,1.85,1.77,2.36,1.45,-3.81,5.69e-02,1.54e-04,Soluble,-3.68,7.77e-02,2.10e-04,Soluble,-4.69,7.61e-03,2.06e-05,Moderately soluble,High,No,Yes,No,No,No,Yes,Yes,-6.89,0,0,0,0,0,0.55,0,2,1,3.96
Molecule 52,CCCc1cc2OCOc2c(c1OC)OC,C12H16O4,224.25,16,6,0.50,4,4,0,60.07,36.92,3.07,3.02,2.39,1.49,3.03,2.60,-3.15,1.60e-01,7.14e-04,Soluble,-3.46,7.77e-02,3.46e-04,Soluble,-3.61,5.50e-02,2.45e-04,Soluble,High,Yes,No,Yes,No,No,Yes,No,-5.52,0,0,0,0,0,0.55,0,0,1,2.52
Molecule 53,C=CCc1cc2OCOc2c(c1OC)OC,C12H14O4,222.24,16,6,0.33,4,4,0,59.59,36.92,2.82,2.75,2.16,1.40,3.02,2.43,-2.96,2.42e-01,1.09e-03,Soluble,-3.18,1.47e-01,6.60e-04,Soluble,-3.26,1.21e-01,5.45e-04,Soluble,High,Yes,No,Yes,No,No,No,No,-5.70,0,0,0,0,0,0.55,0,1,1,2.57
Molecule 54,COc1c2c3ccccc3CC3c2c(c(c1OC)O)CCN3,C18H19NO3,297.35,22,12,0.33,2,4,2,89.08,50.72,2.93,2.61,2.11,2.08,3.50,2.65,-3.60,7.48e-02,2.51e-04,Soluble,-3.32,1.41e-01,4.73e-04,Soluble,-5.51,9.23e-04,3.10e-06,Moderately soluble,High,Yes,Yes,Yes,No,No,Yes,Yes,-6.26,0,0,0,0,0,0.55,0,0,0,3.45
Molecule 55,COc1c(/C=C/Cc2ccccc2)c(O)c(c(c1OC)OC)OC,C19H22O5,330.37,24,12,0.26,7,5,1,93.82,57.15,3.67,4.02,3.57,2.33,4.13,3.55,-4.33,1.55e-02,4.69e-05,Moderately soluble,-4.92,3.95e-03,1.19e-05,Moderately soluble,-5.32,1.59e-03,4.81e-06,Moderately soluble,High,Yes,No,Yes,Yes,Yes,Yes,Yes,-5.46,0,0,0,0,0,0.55,0,0,1,3.19
Molecule 56,COc1ccc(cc1)c1cc(=O)c2c(o1)c(OC)c(c(c2O)OC)OC,C19H18O7,358.34,26,16,0.21,5,7,1,95.91,87.36,3.57,3.26,3.20,0.40,3.66,2.82,-4.24,2.06e-02,5.74e-05,Moderately soluble,-4.77,6.10e-03,1.70e-05,Moderately soluble,-6.02,3.43e-04,9.57e-07,Poorly soluble,High,No,No,Yes,No,Yes,Yes,Yes,-6.17,0,0,0,0,0,0.55,0,0,1,3.60
Molecule 57,COc1c(O)ccc2c1cnc1c2ccc2c1cc1OCOc1c2,C19H13NO4,319.31,24,18,0.11,1,5,1,91.33,60.81,3.35,4.12,3.98,2.08,3.86,3.48,-4.90,3.98e-03,1.25e-05,Moderately soluble,-5.10,2.52e-03,7.88e-06,Moderately soluble,-6.34,1.47e-04,4.60e-07,Poorly soluble,High,Yes,Yes,Yes,Yes,Yes,Yes,Yes,-5.32,0,0,0,0,0,0.55,0,1,1,2.53
Molecule 58,COc1cc(ccc1O)[C@H]1Oc2cc(O)ccc2C[C@@H]1O,C16H16O5,288.30,21,12,0.25,2,5,3,76.78,79.15,2.28,1.04,1.82,1.04,1.98,1.63,-2.57,7.70e-01,2.67e-03,Soluble,-2.29,1.47e+00,5.10e-03,Soluble,-3.42,1.09e-01,3.79e-04,Soluble,High,No,Yes,No,No,No,No,No,-7.32,0,0,0,0,0,0.55,0,0,0,3.60
Molecule 59,C=CC[C@@]12C=C(OC)C(=O)[C@H](C2=O)[C@@H]([C@H]1C)c1ccc(c(c1)OC)O,C20H22O5,342.39,25,6,0.40,5,5,1,93.66,72.83,2.76,3.30,2.99,1.36,3.55,2.79,-3.89,4.42e-02,1.29e-04,Soluble,-4.51,1.07e-02,3.13e-05,Moderately soluble,-4.33,1.62e-02,4.73e-05,Moderately soluble,High,Yes,No,Yes,No,Yes,No,Yes,-6.05,0,0,0,0,0,0.55,0,2,0,5.11
Molecule 60,COc1cc(ccc1O)[C@@H]1O[C@@H]([C@H]([C@@H]1C)C)c1ccc(c(c1)OC)O,C20H24O5,344.40,25,12,0.40,4,5,2,95.93,68.15,2.87,3.73,3.55,1.98,3.19,3.06,-4.42,1.32e-02,3.83e-05,Moderately soluble,-4.85,4.83e-03,1.40e-05,Moderately soluble,-4.69,7.10e-03,2.06e-05,Moderately soluble,High,Yes,Yes,No,Yes,No,Yes,Yes,-5.75,0,0,0,0,0,0.55,0,0,1,3.88
Molecule 61,COc1cc(ccc1O)C[C@H]([C@@H](Cc1ccc(c(c1)OC)O)C)C,C20H26O4,330.42,24,12,0.40,7,4,2,96.96,58.92,3.62,4.96,4.17,3.20,4.54,4.10,-4.92,3.96e-03,1.20e-05,Moderately soluble,-5.94,3.83e-04,1.16e-06,Moderately soluble,-5.67,7.00e-04,2.12e-06,Moderately soluble,High,Yes,Yes,Yes,Yes,No,Yes,Yes,-4.79,0,0,0,0,0,0.55,0,0,1,3.05
Molecule 62,COc1cc(ccc1O)C[C@@H]([C@H](Cc1ccc2c(c1)OCO2)C)C,C20H24O4,328.40,24,12,0.40,6,4,1,94.51,47.92,3.72,5.16,4.19,3.21,4.85,4.23,-5.10,2.60e-03,7.93e-06,Moderately soluble,-5.91,4.02e-04,1.22e-06,Moderately soluble,-5.88,4.38e-04,1.33e-06,Moderately soluble,High,Yes,No,No,Yes,Yes,Yes,No,-4.64,0,0,0,0,1,0.55,0,0,1,3.58
Molecule 63,COc1cc(ccc1O)C[C@@H]([C@H](Cc1ccc(c(c1)OC)O)C)C,C20H26O4,330.42,24,12,0.40,7,4,2,96.96,58.92,3.55,4.96,4.17,3.20,4.54,4.08,-4.92,3.96e-03,1.20e-05,Moderately soluble,-5.94,3.83e-04,1.16e-06,Moderately soluble,-5.67,7.00e-04,2.12e-06,Moderately soluble,High,Yes,Yes,Yes,Yes,No,Yes,Yes,-4.79,0,0,0,0,0,0.55,0,0,1,3.05
Molecule 64,COc1cc(ccc1O)C[C@@H]([C@@H](Cc1ccc2c(c1)OCO2)C)C,C20H24O4,328.40,24,12,0.40,6,4,1,94.51,47.92,3.82,5.16,4.19,3.21,4.85,4.25,-5.10,2.60e-03,7.93e-06,Moderately soluble,-5.91,4.02e-04,1.22e-06,Moderately soluble,-5.88,4.38e-04,1.33e-06,Moderately soluble,High,Yes,No,No,Yes,Yes,Yes,No,-4.64,0,0,0,0,1,0.55,0,0,1,3.58
Molecule 65,COc1cc(ccc1O)C[C@H]([C@H](Cc1ccc(c(c1)OC)O)C)C,C20H26O4,330.42,24,12,0.40,7,4,2,96.96,58.92,3.60,4.96,4.17,3.20,4.54,4.09,-4.92,3.96e-03,1.20e-05,Moderately soluble,-5.94,3.83e-04,1.16e-06,Moderately soluble,-5.67,7.00e-04,2.12e-06,Moderately soluble,High,Yes,Yes,Yes,Yes,No,Yes,Yes,-4.79,0,0,0,0,0,0.55,0,0,1,3.05
Molecule 66,COc1cc(O)ccc1CCCc1ccc(c(c1)OC)O,C17H20O4,288.34,21,12,0.29,6,4,2,82.54,58.92,2.97,3.91,3.29,2.50,3.69,3.27,-4.12,2.20e-02,7.62e-05,Moderately soluble,-4.85,4.11e-03,1.43e-05,Moderately soluble,-5.23,1.71e-03,5.92e-06,Moderately soluble,High,Yes,No,Yes,Yes,Yes,Yes,No,-5.28,0,0,0,0,0,0.55,0,0,1,2.31
Molecule 67,COc1ccc(c(c1)O)CCCc1ccc(c(c1)OC)O,C17H20O4,288.34,21,12,0.29,6,4,2,82.54,58.92,3.00,3.91,3.29,2.50,3.69,3.28,-4.12,2.20e-02,7.62e-05,Moderately soluble,-4.85,4.11e-03,1.43e-05,Moderately soluble,-5.23,1.71e-03,5.92e-06,Moderately soluble,High,Yes,No,Yes,Yes,Yes,Yes,No,-5.28,0,0,0,0,0,0.55,0,0,1,2.31
Molecule 68,CCCc1ccc(c(c1)OC)O,C10H14O2,166.22,12,6,0.40,3,2,1,49.54,29.46,2.46,2.54,2.35,2.10,2.49,2.39,-2.64,3.78e-01,2.28e-03,Soluble,-2.81,2.60e-01,1.56e-03,Soluble,-3.14,1.21e-01,7.26e-04,Soluble,High,Yes,No,Yes,No,No,No,No,-5.51,0,0,0,0,1,0.55,0,0,1,1.40
Molecule 69,C=CCc1ccc(c(c1)OC)O,C10H12O2,164.20,12,6,0.20,3,2,1,49.06,29.46,2.37,2.27,2.13,2.01,2.48,2.25,-2.46,5.69e-01,3.47e-03,Soluble,-2.53,4.90e-01,2.98e-03,Soluble,-2.79,2.65e-01,1.61e-03,Soluble,High,Yes,No,Yes,No,No,No,No,-5.69,0,0,0,0,1,0.55,0,1,1,1.58
Molecule 70,COc1cc(ccc1O)CC(C(Cc1ccc(c(c1)OC)O)C)C,C20H26O4,330.42,24,12,0.40,7,4,2,96.96,58.92,3.62,4.96,4.17,3.20,4.54,4.10,-4.92,3.96e-03,1.20e-05,Moderately soluble,-5.94,3.83e-04,1.16e-06,Moderately soluble,-5.67,7.00e-04,2.12e-06,Moderately soluble,High,Yes,Yes,Yes,Yes,No,Yes,Yes,-4.79,0,0,0,0,0,0.55,0,0,1,3.05
Molecule 71,C=CCc1cc2c(c(c1)OC)OC([C@H]2CO)c1ccc(c(c1)OC)O,C20H22O5,342.39,25,12,0.30,6,5,2,95.35,68.15,3.36,3.22,3.02,1.90,3.92,3.09,-3.95,3.84e-02,1.12e-04,Soluble,-4.32,1.62e-02,4.75e-05,Moderately soluble,-5.07,2.90e-03,8.47e-06,Moderately soluble,High,Yes,Yes,No,No,No,Yes,Yes,-6.10,0,0,0,0,0,0.55,0,1,0,3.97
Molecule 72,COc1ccc2c(c1)OC(CC2)c1ccc(c(c1)OC)O,C17H18O4,286.32,21,12,0.29,3,4,1,80.09,47.92,3.22,3.40,3.15,2.11,3.41,3.06,-3.98,2.98e-02,1.04e-04,Soluble,-4.09,2.35e-02,8.21e-05,Moderately soluble,-4.93,3.36e-03,1.17e-05,Moderately soluble,High,Yes,Yes,Yes,Yes,No,Yes,Yes,-5.63,0,0,0,0,0,0.55,0,0,0,3.29
Molecule 73,COc1ccc2c(c1)CC(CC2=O)c1ccc(c(c1)OC)O,C18H18O4,298.33,22,12,0.28,3,4,1,83.79,55.76,2.84,3.00,3.32,2.00,3.72,2.98,-3.79,4.89e-02,1.64e-04,Soluble,-3.84,4.36e-02,1.46e-04,Soluble,-5.35,1.33e-03,4.45e-06,Moderately soluble,High,Yes,No,Yes,Yes,No,Yes,Yes,-5.99,0,0,0,0,0,0.55,0,0,0,2.92
Molecule 74,COc1cc2OC(C(Cc2c(c1)OC)O)c1ccc(c(c1)OC)O,C18H20O6,332.35,24,12,0.33,4,6,2,87.74,77.38,3.18,1.34,2.13,0.97,2.55,2.03,-2.85,4.69e-01,1.41e-03,Soluble,-2.57,9.01e-01,2.71e-03,Soluble,-4.23,1.96e-02,5.90e-05,Moderately soluble,High,No,Yes,No,No,No,Yes,No,-7.38,0,0,0,0,0,0.55,0,0,0,3.89
Molecule 75,COc1cc(O)c2c(c1)oc(c(c2=O)OC)c1ccc(c(c1)OC)O,C18H16O7,344.32,25,16,0.17,4,7,2,91.44,98.36,3.26,3.61,2.90,0.17,3.12,2.61,-4.46,1.20e-02,3.48e-05,Moderately soluble,-5.36,1.49e-03,4.34e-06,Moderately soluble,-5.33,1.63e-03,4.72e-06,Moderately soluble,High,No,No,Yes,No,Yes,Yes,Yes,-5.84,0,0,0,0,0,0.55,0,0,1,3.54
Molecule 76,OC/C=C/c1ccc(c(c1)OC)O,C10H12O3,180.20,13,6,0.20,3,3,2,51.02,49.69,2.16,1.79,1.30,1.13,1.71,1.62,-2.23,1.06e+00,5.91e-03,Soluble,-2.45,6.36e-01,3.53e-03,Soluble,-1.87,2.44e+00,1.35e-02,Soluble,High,Yes,No,No,No,No,No,No,-6.13,0,0,0,0,1,0.55,0,0,1,1.86
Molecule 77,C/C=C/c1ccc(c(c1)OC)O,C10H12O2,164.20,12,6,0.20,2,2,1,49.86,29.46,2.38,3.04,2.33,2.01,2.31,2.41,-3.01,1.60e-01,9.74e-04,Soluble,-3.32,7.78e-02,4.74e-04,Soluble,-2.42,6.27e-01,3.82e-03,Soluble,High,Yes,No,Yes,No,No,No,No,-5.14,0,0,0,0,1,0.55,0,0,1,1.81
Molecule 78,COc1cc(ccc1O)c1oc2c(c1C)cc(cc2)C(C(O)C)O,C19H20O5,328.36,24,15,0.26,4,5,3,92.03,83.06,3.26,2.87,3.21,1.33,3.66,2.86,-3.88,4.30e-02,1.31e-04,Soluble,-4.27,1.75e-02,5.33e-05,Moderately soluble,-5.05,2.91e-03,8.85e-06,Moderately soluble,High,No,Yes,No,Yes,No,Yes,No,-6.27,0,0,0,0,0,0.55,0,0,0,3.97
Molecule 79,C/C=C/c1ccc2c(c1)c(C)c(o2)c1ccc(c(c1)OC)O,C19H18O3,294.34,22,15,0.16,3,3,1,90.03,42.60,3.51,4.98,5.05,2.93,5.05,4.30,-5.11,2.29e-03,7.78e-06,Moderately soluble,-5.61,7.17e-04,2.43e-06,Moderately soluble,-6.21,1.80e-04,6.12e-07,Poorly soluble,High,Yes,No,Yes,Yes,Yes,No,No,-4.56,0,0,0,0,0,0.55,0,0,1,3.27
Molecule 80,COc1cc2c(cc1O)n(c1c2cccc1)C,C14H13NO2,227.26,17,13,0.14,1,2,1,69.22,34.39,2.45,2.95,3.05,2.09,2.50,2.61,-3.61,5.61e-02,2.47e-04,Soluble,-3.33,1.05e-01,4.63e-04,Soluble,-4.08,1.89e-02,8.30e-05,Moderately soluble,High,Yes,Yes,Yes,No,No,Yes,Yes,-5.59,0,0,0,0,0,0.55,0,0,1,1.64
Molecule 81,COc1cc2c(cc1O)CC1c3c2c(OC)c(O)cc3CCN1C,C19H21NO4,327.37,24,12,0.37,2,5,2,96.00,62.16,2.93,2.72,2.16,1.75,2.95,2.50,-3.82,4.94e-02,1.51e-04,Soluble,-3.68,6.85e-02,2.09e-04,Soluble,-4.59,8.41e-03,2.57e-05,Moderately soluble,High,Yes,Yes,Yes,No,No,Yes,Yes,-6.37,0,0,0,0,0,0.55,0,0,0,3.58
Molecule 82,COc1cc2c(cc1O)cnc1c2ccc2c1cc1c(c2)OCO1,C19H13NO4,319.31,24,18,0.11,1,5,1,91.33,60.81,3.05,4.12,3.98,2.08,3.86,3.42,-4.90,3.98e-03,1.25e-05,Moderately soluble,-5.10,2.52e-03,7.88e-06,Moderately soluble,-6.34,1.47e-04,4.60e-07,Poorly soluble,High,Yes,Yes,Yes,Yes,Yes,Yes,Yes,-5.32,0,0,0,0,0,0.55,0,1,1,2.51
Molecule 83,COc1cc2c(cc1O)CC1C3=C(CC4C(=C23)OCO4)CCN1,C18H19NO4,313.35,23,6,0.44,1,5,2,88.43,59.95,2.95,0.52,1.72,1.47,2.54,1.84,-2.24,1.81e+00,5.79e-03,Soluble,-1.35,1.40e+01,4.47e-02,Very soluble,-3.99,3.24e-02,1.03e-04,Soluble,High,Yes,Yes,No,No,No,Yes,No,-7.84,0,0,0,0,0,0.55,0,0,0,4.49
Molecule 84,COC1C2=C3C(NCC2)Cc2c(C3=C3C1OCO3)cc(c(c2)O)OC,C19H21NO5,343.37,25,6,0.47,2,6,2,94.32,69.18,3.05,-0.05,1.35,0.89,2.16,1.48,-1.98,3.57e+00,1.04e-02,Very soluble,-0.95,3.83e+01,1.12e-01,Very soluble,-3.87,4.69e-02,1.36e-04,Soluble,High,Yes,Yes,No,No,No,Yes,No,-8.43,0,0,0,0,0,0.55,0,0,0,4.88
Molecule 85,COC1=CC23CCN(C(C2=CC1=O)Cc1c3cc(OC)c(c1)O)C,C19H21NO4,327.37,24,6,0.42,2,5,1,93.65,59.00,2.73,1.95,1.56,1.22,2.35,1.96,-3.15,2.31e-01,7.06e-04,Soluble,-2.81,5.03e-01,1.54e-03,Soluble,-3.69,6.62e-02,2.02e-04,Soluble,High,Yes,Yes,No,No,No,No,No,-6.91,0,0,0,0,0,0.55,0,0,0,4.47
Molecule 86,COc1cc2cc(C)c(c(c2cc1O)c1ccc2c(c1)OCO2)C,C20H18O4,322.35,24,16,0.20,2,4,1,93.89,47.92,3.46,4.96,4.57,3.02,4.96,4.19,-5.32,1.53e-03,4.73e-06,Moderately soluble,-5.70,6.37e-04,1.97e-06,Moderately soluble,-6.65,7.25e-05,2.25e-07,Poorly soluble,High,Yes,Yes,Yes,Yes,Yes,Yes,No,-4.74,0,0,0,0,0,0.55,0,0,1,2.99
Molecule 87,COc1ccc(cc1O)C[C@@H]1c2cc(OC)c(cc2CC[N+]1([CH2-])C)O,C20H25NO4,343.42,25,12,0.40,4,4,2,104.13,71.28,0.00,3.03,2.49,-1.71,2.98,1.36,-3.97,3.69e-02,1.07e-04,Soluble,-4.19,2.21e-02,6.42e-05,Moderately soluble,-5.82,5.22e-04,1.52e-06,Moderately soluble,High,Yes,Yes,No,No,No,No,No,-6.24,0,0,0,0,0,0.55,0,2,0,3.19
Molecule 88,COc1cc2oc(=O)ccc2cc1O,C10H8O4,192.17,14,10,0.10,1,4,1,51.00,59.67,1.95,1.38,1.51,0.76,1.94,1.51,-2.36,8.32e-01,4.33e-03,Soluble,-2.24,1.12e+00,5.80e-03,Soluble,-3.17,1.31e-01,6.81e-04,Soluble,High,Yes,No,Yes,No,No,No,No,-6.49,0,0,0,0,1,0.55,0,1,1,2.65
Molecule 89,COc1cc2ccc(=O)oc2cc1O,C10H8O4,192.17,14,10,0.10,1,4,1,51.00,59.67,1.86,1.53,1.51,0.76,1.94,1.52,-2.46,6.70e-01,3.48e-03,Soluble,-2.39,7.79e-01,4.06e-03,Soluble,-3.17,1.31e-01,6.81e-04,Soluble,High,Yes,No,Yes,No,No,No,No,-6.39,0,0,0,0,1,0.55,0,1,1,2.62
Molecule 90,COc1cc2C(O)C(C)C(C(c2cc1O)c1ccc2c(c1)OCO2)C,C20H22O5,342.39,25,12,0.40,2,5,2,93.71,68.15,3.16,3.58,3.26,2.38,3.16,3.11,-4.44,1.24e-02,3.62e-05,Moderately soluble,-4.70,6.87e-03,2.01e-05,Moderately soluble,-4.57,9.17e-03,2.68e-05,Moderately soluble,High,Yes,Yes,No,Yes,No,Yes,No,-5.85,0,0,0,0,0,0.55,0,0,1,4.27
Molecule 91,COc1ccc(cc1O)CC1N(C)CCc2c1cc(O)c(c2)OC,C19H23NO4,329.39,24,12,0.37,4,5,2,97.01,62.16,3.13,3.01,2.18,1.75,2.92,2.60,-3.88,4.30e-02,1.30e-04,Soluble,-3.98,3.45e-02,1.05e-04,Soluble,-4.72,6.25e-03,1.90e-05,Moderately soluble,High,Yes,Yes,No,No,No,Yes,No,-6.17,0,0,0,0,0,0.55,0,0,0,3.07
Molecule 92,COc1c(O)cc2c3c1c1ccccc1cc3[nH]c2=O,C16H11NO3,265.26,20,16,0.06,1,3,2,79.28,62.32,1.99,2.95,2.99,2.34,3.83,2.82,-3.87,3.59e-02,1.35e-04,Soluble,-3.92,3.18e-02,1.20e-04,Soluble,-5.67,5.65e-04,2.13e-06,Moderately soluble,High,Yes,No,Yes,No,No,Yes,No,-5.82,0,0,0,0,0,0.55,0,1,0,1.96
Molecule 93,COc1cc2CCNC(=O)c2cc1O,C10H11NO3,193.20,14,6,0.30,1,3,2,54.72,58.56,1.60,0.85,0.31,0.56,1.57,0.98,-1.82,2.89e+00,1.50e-02,Very soluble,-1.66,4.20e+00,2.17e-02,Very soluble,-2.72,3.65e-01,1.89e-03,Soluble,High,No,No,No,No,No,No,No,-6.88,0,0,0,0,1,0.55,0,0,1,1.70
Molecule 94,COc1c(O)cc(c2c1c1cc(OC)c(cc1cc2)O)CCN(CC=C(C)C)C,C24H29NO4,395.49,29,14,0.33,7,5,2,119.52,62.16,4.11,5.45,4.86,3.01,4.79,4.45,-5.62,9.47e-04,2.39e-06,Moderately soluble,-6.51,1.22e-04,3.08e-07,Poorly soluble,-6.58,1.04e-04,2.62e-07,Poorly soluble,High,Yes,No,No,Yes,Yes,Yes,Yes,-4.84,0,0,0,0,1,0.55,0,2,2,2.82
Molecule 95,C#CCN(CCc1cc(O)c(c2c1ccc1c2cc(c(c1)O)OC)OC)C,C22H23NO4,365.42,27,14,0.27,6,5,2,108.54,62.16,3.63,4.07,3.61,2.58,4.14,3.61,-4.66,8.04e-03,2.20e-05,Moderately soluble,-5.08,3.04e-03,8.32e-06,Moderately soluble,-5.83,5.47e-04,1.50e-06,Moderately soluble,High,Yes,No,Yes,No,Yes,Yes,Yes,-5.64,0,0,0,0,0,0.55,0,2,2,2.57
Molecule 96,COc1c(O)cc(c2c1c1cc(OC)c(cc1cc2)O)CCN(C/C=C/c1ccccc1)C,C28H29NO4,443.53,33,20,0.21,8,5,2,135.19,62.16,4.24,6.09,5.50,3.60,5.65,5.02,-6.35,1.99e-04,4.50e-07,Poorly soluble,-7.18,2.96e-05,6.67e-08,Poorly soluble,-8.28,2.32e-06,5.24e-09,Poorly soluble,High,No,Yes,No,Yes,No,Yes,No,-4.68,0,1,0,0,1,0.55,0,1,3,3.24
Molecule 97,COc1c(O)cc(c2c1c1cc3OCOc3cc1cc2)CCN(C)C,C20H21NO4,339.39,25,14,0.30,4,5,1,98.31,51.16,3.47,4.15,3.54,2.23,3.82,3.44,-4.71,6.63e-03,1.95e-05,Moderately soluble,-4.93,3.97e-03,1.17e-05,Moderately soluble,-5.94,3.88e-04,1.14e-06,Moderately soluble,High,Yes,No,Yes,Yes,Yes,Yes,Yes,-5.42,0,0,0,0,0,0.55,0,1,1,2.65
Molecule 98,COc1ccc2c(c1)oc(cc2=O)c1ccc(c(c1)O)OC,C17H14O5,298.29,22,16,0.12,3,5,1,82.93,68.90,2.64,3.23,3.18,1.01,3.55,2.72,-4.06,2.57e-02,8.62e-05,Moderately soluble,-4.35,1.33e-02,4.47e-05,Moderately soluble,-5.80,4.74e-04,1.59e-06,Moderately soluble,High,Yes,No,Yes,Yes,Yes,Yes,Yes,-5.83,0,0,0,0,0,0.55,0,0,0,3.11
Molecule 99,COc1ccc2c(c1)OC(=CC2=C)c1ccc(c(c1)O)OC,C18H16O4,296.32,22,12,0.11,3,4,1,85.53,47.92,3.38,3.65,3.86,2.19,3.76,3.37,-4.18,1.95e-02,6.57e-05,Moderately soluble,-4.35,1.34e-02,4.52e-05,Moderately soluble,-5.29,1.51e-03,5.08e-06,Moderately soluble,High,Yes,No,Yes,Yes,Yes,Yes,Yes,-5.52,0,0,0,0,0,0.55,0,0,1,3.48
Molecule 100,COc1cc(O)c2c(c1)oc(c(c2=O)OC)c1ccc(c(c1)O)OC,C18H16O7,344.32,25,16,0.17,4,7,2,91.44,98.36,3.25,3.61,2.90,0.17,3.12,2.61,-4.46,1.20e-02,3.48e-05,Moderately soluble,-5.36,1.49e-03,4.34e-06,Moderately soluble,-5.33,1.63e-03,4.72e-06,Moderately soluble,High,No,No,Yes,No,Yes,Yes,Yes,-5.84,0,0,0,0,0,0.55,0,0,1,3.54
Molecule 101,COc1c(OC)cc2c(c1O)C[C@H]1c3c2c2OCOc2cc3CCN1C,C20H21NO5,355.38,26,12,0.40,2,6,1,100.04,60.39,3.33,2.89,2.18,1.84,3.31,2.71,-4.07,3.00e-02,8.44e-05,Moderately soluble,-3.82,5.40e-02,1.52e-04,Soluble,-4.90,4.47e-03,1.26e-05,Moderately soluble,High,Yes,Yes,Yes,Yes,Yes,Yes,Yes,-6.42,0,0,0,0,0,0.55,0,0,1,3.90
