Molecule,Canonical SMILES,Formula,MW,#Heavy atoms,#Aromatic heavy atoms,Fraction Csp3,#Rotatable bonds,#H-bond acceptors,#H-bond donors,MR,TPSA,iLOGP,XLOGP3,WLOGP,MLOGP,Silicos-IT Log P,Consensus Log P,ESOL Log S,ESOL Solubility (mg/ml),ESOL Solubility (mol/l),ESOL Class,Ali Log S,Ali Solubility (mg/ml),Ali Solubility (mol/l),Ali Class,Silicos-IT LogSw,Silicos-IT Solubility (mg/ml),Silicos-IT Solubility (mol/l),Silicos-IT class,GI absorption,BBB permeant,Pgp substrate,CYP1A2 inhibitor,CYP2C19 inhibitor,CYP2C9 inhibitor,CYP2D6 inhibitor,CYP3A4 inhibitor,log Kp (cm/s),Lipinski #violations,Ghose #violations,Veber #violations,Egan #violations,Muegge #violations,Bioavailability Score,PAINS #alerts,Brenk #alerts,Leadlikeness #violations,Synthetic Accessibility
Molecule 1,COc1c(OC)cc2c(c1O)C[C@H]1c3c2c2OCOc2c(c3CCN1C)OC,C21H23NO6,385.41,28,12,0.43,3,7,1,106.54,69.62,3.66,2.86,2.19,1.53,3.36,2.72,-4.15,2.73e-02,7.07e-05,Moderately soluble,-3.98,4.03e-02,1.04e-04,Soluble,-5.00,3.81e-03,9.89e-06,Moderately soluble,High,Yes,Yes,Yes,No,Yes,Yes,Yes,-6.62,0,0,0,0,0,0.55,0,0,1,4.07
Molecule 2,COc1ccc(cc1O)C[C@H]1c2c(ccc(c2O)OC)CC[N+]1([CH2-])C,C20H25NO4,343.42,25,12,0.40,4,4,2,104.13,71.28,0.00,3.03,2.49,-1.71,2.98,1.36,-3.97,3.69e-02,1.07e-04,Soluble,-4.19,2.21e-02,6.42e-05,Moderately soluble,-5.82,5.22e-04,1.52e-06,Moderately soluble,High,Yes,Yes,No,No,No,No,No,-6.24,0,0,0,0,0,0.55,1,2,0,3.29
Molecule 3,COc1cc2CCNC3c2c(c1O)c1cc2OCOc2cc1C3,C18H17NO4,311.33,23,12,0.33,1,5,2,88.65,59.95,2.97,2.45,1.83,1.92,3.34,2.50,-3.63,7.23e-02,2.32e-04,Soluble,-3.35,1.38e-01,4.44e-04,Soluble,-5.13,2.32e-03,7.46e-06,Moderately soluble,High,Yes,Yes,Yes,No,No,Yes,Yes,-6.46,0,0,0,0,0,0.55,0,0,0,3.50
Molecule 4,COc1cc2c(cc1O)CC1c3c2c(O)c(OC)cc3CCN1C,C19H21NO4,327.37,24,12,0.37,2,5,2,96.00,62.16,3.18,2.24,2.16,1.75,2.95,2.46,-3.52,9.91e-02,3.03e-04,Soluble,-3.18,2.16e-01,6.59e-04,Soluble,-4.59,8.41e-03,2.57e-05,Moderately soluble,High,Yes,Yes,Yes,No,No,Yes,Yes,-6.71,0,0,0,0,0,0.55,0,0,0,3.55
Molecule 5,COc1c(O)c(OC)cc2c1oc(=O)cc2,C11H10O5,222.19,16,10,0.18,2,5,1,57.49,68.90,1.96,1.50,1.52,0.49,1.94,1.48,-2.49,7.14e-01,3.21e-03,Soluble,-2.55,6.20e-01,2.79e-03,Soluble,-3.30,1.12e-01,5.02e-04,Soluble,High,Yes,No,Yes,No,No,No,No,-6.59,0,0,0,0,0,0.55,0,1,1,3.02
Molecule 6,COc1cc(cc(c1O)OC)C1OC[C@H]2[C@@H]1CO[C@@H]2c1cc(OC)c(c(c1)OC)O,C22H26O8,418.44,30,12,0.45,6,8,2,107.89,95.84,3.52,2.23,2.56,0.56,2.78,2.33,-3.74,7.63e-02,1.82e-04,Soluble,-3.88,5.54e-02,1.32e-04,Soluble,-4.40,1.67e-02,3.98e-05,Moderately soluble,High,No,Yes,No,No,No,Yes,No,-7.27,0,0,0,0,0,0.55,0,0,1,4.36
Molecule 7,COc1cc(cc(c1O)OC)[C@@H]1OCC2C1CO[C@H]2c1cc(OC)c(c(c1)OC)O,C22H26O8,418.44,30,12,0.45,6,8,2,107.89,95.84,3.54,2.23,2.56,0.56,2.78,2.33,-3.74,7.63e-02,1.82e-04,Soluble,-3.88,5.54e-02,1.32e-04,Soluble,-4.40,1.67e-02,3.98e-05,Moderately soluble,High,No,Yes,No,No,No,Yes,No,-7.27,0,0,0,0,0,0.55,0,0,1,4.36
Molecule 8,COc1cc(cc(c1O)OC)C1OCC2C1COC2c1cc(OC)c(c(c1)OC)O,C22H26O8,418.44,30,12,0.45,6,8,2,107.89,95.84,3.52,2.23,2.56,0.56,2.78,2.33,-3.74,7.63e-02,1.82e-04,Soluble,-3.88,5.54e-02,1.32e-04,Soluble,-4.40,1.67e-02,3.98e-05,Moderately soluble,High,No,Yes,No,No,No,Yes,No,-7.27,0,0,0,0,0,0.55,0,0,1,4.36
Molecule 9,OCC1C(OC(C1CO)c1cc(OC)c(c(c1)OC)O)c1cc(OC)c(c(c1)OC)O,C22H28O9,436.45,31,12,0.45,8,9,4,111.24,127.07,2.72,1.23,1.51,-0.22,2.13,1.47,-3.08,3.64e-01,8.33e-04,Soluble,-3.50,1.39e-01,3.19e-04,Soluble,-3.75,7.74e-02,1.77e-04,Soluble,High,No,Yes,No,No,No,No,No,-8.09,0,0,0,0,0,0.55,0,0,2,4.50
Molecule 10,C=CCc1c(O)c(OC)cc2c1oc(c2C)c1ccc2c(c1)OCO2,C20H18O5,338.35,25,15,0.20,4,5,1,95.30,61.06,3.70,4.85,4.58,2.42,5.10,4.13,-5.17,2.27e-03,6.71e-06,Moderately soluble,-5.87,4.60e-04,1.36e-06,Moderately soluble,-6.32,1.63e-04,4.83e-07,Poorly soluble,High,Yes,No,Yes,Yes,Yes,Yes,Yes,-4.92,0,0,0,0,0,0.55,0,1,1,3.62
Molecule 11,C=CCc1c2O[C@@H]([C@H](c2cc(c1O)OC)C)c1ccc2c(c1)OCO2,C20H20O5,340.37,25,12,0.30,4,5,1,93.76,57.15,3.66,4.29,3.77,2.57,4.36,3.73,-4.74,6.13e-03,1.80e-05,Moderately soluble,-5.20,2.13e-03,6.26e-06,Moderately soluble,-5.26,1.89e-03,5.55e-06,Moderately soluble,High,Yes,No,Yes,Yes,Yes,Yes,Yes,-5.33,0,0,0,0,0,0.55,0,1,1,4.12
Molecule 12,C=CCc1cc(OC)c(c(c1)c1cc(CC=C)cc(c1O)OC)O,C20H22O4,326.39,24,12,0.20,7,4,2,97.12,58.92,3.76,4.92,4.24,3.04,5.13,4.22,-4.87,4.39e-03,1.35e-05,Moderately soluble,-5.89,4.17e-04,1.28e-06,Moderately soluble,-5.70,6.56e-04,2.01e-06,Moderately soluble,High,Yes,No,Yes,Yes,Yes,Yes,Yes,-4.80,0,0,0,0,0,0.55,0,1,1,3.02
Molecule 13,COc1cc2oc(=O)ccc2cc1C[C@H](C(O)(C)C)O,C15H18O5,278.30,20,10,0.40,4,5,2,75.53,79.90,2.49,1.46,1.48,1.02,2.65,1.82,-2.59,7.13e-01,2.56e-03,Soluble,-2.74,5.02e-01,1.80e-03,Soluble,-3.86,3.82e-02,1.37e-04,Soluble,High,No,No,No,No,No,No,No,-6.96,0,0,0,0,0,0.55,0,1,0,3.36
Molecule 14,COc1cc(O)ccc1CCCc1ccc(c(c1)O)OC,C17H20O4,288.34,21,12,0.29,6,4,2,82.54,58.92,3.01,3.91,3.29,2.50,3.69,3.28,-4.12,2.20e-02,7.62e-05,Moderately soluble,-4.85,4.11e-03,1.43e-05,Moderately soluble,-5.23,1.71e-03,5.92e-06,Moderately soluble,High,Yes,No,Yes,Yes,Yes,Yes,No,-5.28,0,0,0,0,0,0.55,0,0,1,2.26
Molecule 15,COc1cc2OCOc2cc1CCCc1ccc(cc1O)O,C17H18O5,302.32,22,12,0.29,5,5,2,82.11,68.15,2.76,3.75,3.01,1.96,3.55,3.01,-4.15,2.14e-02,7.07e-05,Moderately soluble,-4.87,4.04e-03,1.34e-05,Moderately soluble,-4.85,4.29e-03,1.42e-05,Moderately soluble,High,Yes,No,Yes,No,No,Yes,Yes,-5.48,0,0,0,0,0,0.55,0,0,1,2.80
Molecule 16,COc1c(O)cc2c(c1CC=C(C)C)c(=O)c1c(o2)cc(c(c1O)CC=C(C)C)O,C24H26O6,410.46,30,14,0.29,5,6,3,119.99,100.13,4.14,6.27,5.09,2.19,5.52,4.64,-6.35,1.83e-04,4.46e-07,Poorly soluble,-8.16,2.84e-06,6.91e-09,Poorly soluble,-6.14,2.97e-04,7.23e-07,Poorly soluble,High,No,No,No,No,Yes,No,No,-4.35,0,0,0,0,1,0.55,0,2,2,3.91
Molecule 17,COc1ccc2c(c1CC=C(C)C)c(=O)c1c(o2)cc(c(c1O)CC=C(C)C)O,C24H26O5,394.46,29,14,0.29,5,5,2,117.97,79.90,4.30,6.63,5.38,2.73,5.99,5.01,-6.49,1.28e-04,3.24e-07,Poorly soluble,-8.11,3.07e-06,7.78e-09,Poorly soluble,-6.73,7.35e-05,1.86e-07,Poorly soluble,High,No,No,No,Yes,Yes,No,No,-4.00,0,0,0,0,1,0.55,0,2,2,3.85
Molecule 18,COc1ccc(cc1C)c1oc2cc(O)cc(c2c(=O)c1OC1OC(C)C(C(C1O)O)O)O,C23H24O10,460.43,33,16,0.35,4,10,5,116.41,159.05,2.20,1.91,1.39,-0.91,1.55,1.23,-3.99,4.68e-02,1.02e-04,Soluble,-4.87,6.16e-03,1.34e-05,Moderately soluble,-3.74,8.44e-02,1.83e-04,Soluble,Low,No,Yes,No,No,No,No,Yes,-7.75,0,0,1,1,1,0.55,0,0,1,5.51
Molecule 19,COc1cc2c(c(c1OC)C)[CH-][NH+](c1c2ccc2c1cc1c(c2)OCO1)C,C22H21NO4,363.41,27,16,0.27,2,5,1,110.80,60.77,0.00,4.61,2.85,-0.78,4.38,2.21,-5.30,1.80e-03,4.97e-06,Moderately soluble,-5.61,8.90e-04,2.45e-06,Moderately soluble,-7.65,8.14e-06,2.24e-08,Poorly soluble,High,Yes,Yes,Yes,No,No,No,No,-5.24,0,0,0,0,0,0.55,0,1,2,3.30
Molecule 20,COc1cc2c(c(c1OC)C)[CH-][NH+](c1c2ccc2c1cc(c(c2)O)OC)C,C22H23NO4,365.42,27,16,0.27,3,5,2,113.26,71.77,0.00,4.42,2.84,-1.19,4.09,2.03,-5.13,2.70e-03,7.40e-06,Moderately soluble,-5.65,8.28e-04,2.26e-06,Moderately soluble,-7.45,1.30e-05,3.56e-08,Poorly soluble,High,Yes,Yes,Yes,No,No,No,No,-5.39,0,0,0,0,0,0.55,0,1,2,3.21
Molecule 21,COC1=CC(=O)c2c(C1=O)cc(c(c2O)C(O)C)OC,C14H14O6,278.26,20,6,0.29,3,6,2,69.58,93.06,2.08,1.31,1.04,-0.82,1.87,1.10,-2.41,1.07e+00,3.85e-03,Soluble,-2.86,3.80e-01,1.37e-03,Soluble,-2.58,7.40e-01,2.66e-03,Soluble,High,No,No,No,No,No,No,No,-7.07,0,0,0,0,0,0.56,1,0,0,3.49
Molecule 22,C=CC[C@]1(OC)C=C2C(=CC1=O)OC([C@H]2C)c1ccc2c(c1)OCO2,C20H20O5,340.37,25,6,0.35,4,5,0,91.91,53.99,3.24,2.89,3.15,1.77,3.76,2.96,-3.68,7.04e-02,2.07e-04,Soluble,-3.68,7.05e-02,2.07e-04,Soluble,-4.36,1.49e-02,4.37e-05,Moderately soluble,High,Yes,No,Yes,Yes,Yes,No,Yes,-6.32,0,0,0,0,0,0.56,0,1,0,4.79
Molecule 23,C=CC[C@@]1(OC)C=C2C(=CC1=O)O[C@H]([C@H]2C)c1ccc2c(c1)OCO2,C20H20O5,340.37,25,6,0.35,4,5,0,91.91,53.99,3.41,2.89,3.15,1.77,3.76,3.00,-3.68,7.04e-02,2.07e-04,Soluble,-3.68,7.05e-02,2.07e-04,Soluble,-4.36,1.49e-02,4.37e-05,Moderately soluble,High,Yes,No,Yes,Yes,Yes,No,Yes,-6.32,0,0,0,0,0,0.56,0,1,0,4.79
Molecule 24,COc1cc(=O)n(c2c1cccc2)C,C11H11NO2,189.21,14,10,0.18,1,2,0,55.96,31.23,2.26,1.21,1.55,1.63,1.99,1.73,-2.24,1.09e+00,5.78e-03,Soluble,-1.46,6.52e+00,3.45e-02,Very soluble,-3.30,9.50e-02,5.02e-04,Soluble,High,Yes,No,Yes,No,No,No,No,-6.60,0,0,0,0,1,0.55,0,0,1,1.78
Molecule 25,C=CC[C@@]12C=C(OC)C(=O)[C@H](C2=O)[C@@H]([C@H]1C)c1ccc2c(c1)OCO2,C20H20O5,340.37,25,6,0.40,4,5,0,91.20,61.83,2.90,3.49,3.01,1.77,3.85,3.00,-4.06,2.95e-02,8.66e-05,Moderately soluble,-4.47,1.15e-02,3.38e-05,Moderately soluble,-4.53,1.01e-02,2.97e-05,Moderately soluble,High,Yes,No,Yes,Yes,Yes,No,Yes,-5.90,0,0,0,0,0,0.55,0,2,0,5.17
Molecule 26,COc1cc2ccc3c(c2oc1=O)cco3,C12H8O4,216.19,16,13,0.08,1,4,0,58.75,52.58,2.23,2.26,2.55,1.18,2.88,2.22,-3.14,1.57e-01,7.25e-04,Soluble,-3.00,2.16e-01,9.99e-04,Soluble,-4.63,5.01e-03,2.32e-05,Moderately soluble,High,Yes,No,Yes,No,No,No,No,-6.01,0,0,0,0,0,0.55,0,1,1,2.96
Molecule 27,COc1c(=O)oc2c(c1CC=C(C)C)cccc2,C15H16O3,244.29,18,10,0.27,3,3,0,72.70,39.44,2.95,3.57,3.31,2.63,4.03,3.30,-3.82,3.72e-02,1.52e-04,Soluble,-4.08,2.01e-02,8.24e-05,Moderately soluble,-5.01,2.37e-03,9.68e-06,Moderately soluble,High,Yes,No,Yes,Yes,Yes,No,No,-5.26,0,0,0,0,0,0.55,0,2,2,3.10
Molecule 28,C=CC[C@@]12C=C(OC)C(=O)C=C1O[C@@H]([C@H]2C)c1ccc2c(c1)OCO2,C20H20O5,340.37,25,6,0.35,4,5,0,91.61,53.99,3.26,3.79,3.36,1.77,3.76,3.19,-4.25,1.91e-02,5.60e-05,Moderately soluble,-4.62,8.20e-03,2.41e-05,Moderately soluble,-4.36,1.49e-02,4.37e-05,Moderately soluble,High,Yes,No,Yes,Yes,Yes,No,Yes,-5.69,0,0,0,0,0,0.56,0,1,1,4.64
Molecule 29,C=CC[C@]12C=C(OC)C(=O)C=C1O[C@H]([C@H]2C)c1ccc2c(c1)OCO2,C20H20O5,340.37,25,6,0.35,4,5,0,91.61,53.99,3.23,3.79,3.36,1.77,3.76,3.18,-4.25,1.91e-02,5.60e-05,Moderately soluble,-4.62,8.20e-03,2.41e-05,Moderately soluble,-4.36,1.49e-02,4.37e-05,Moderately soluble,High,Yes,No,Yes,Yes,Yes,No,Yes,-5.69,0,0,0,0,0,0.56,0,1,1,4.64
Molecule 30,COC1C=C(C)CCC1C(C)C,C11H20O,168.28,12,0,0.82,2,1,0,53.49,9.23,2.90,2.67,3.01,2.59,2.55,2.75,-2.43,6.20e-01,3.69e-03,Soluble,-2.52,5.13e-01,3.05e-03,Soluble,-2.17,1.14e+00,6.79e-03,Soluble,High,Yes,No,No,No,No,No,No,-5.43,0,0,0,0,2,0.55,0,1,1,3.65
Molecule 31,COC1=CC2C(C=C1)C(=O)C=C(O2)c1ccc(c(c1)O)O,C16H14O5,286.28,21,6,0.19,2,5,2,76.23,75.99,2.25,1.83,2.12,0.42,1.41,1.61,-2.85,4.07e-01,1.42e-03,Soluble,-3.05,2.58e-01,9.00e-04,Soluble,-2.07,2.44e+00,8.51e-03,Soluble,High,Yes,No,No,No,No,No,No,-6.75,0,0,0,0,0,0.56,1,1,0,4.41
Molecule 32,COc1c(CC=C(C)C)c(=O)n(c2c1cccc2)C,C16H19NO2,257.33,19,10,0.31,3,2,0,79.68,31.23,3.25,3.14,3.06,2.88,3.63,3.19,-3.61,6.39e-02,2.48e-04,Soluble,-3.47,8.81e-02,3.42e-04,Soluble,-4.57,6.93e-03,2.69e-05,Moderately soluble,High,Yes,No,Yes,Yes,Yes,No,No,-5.64,0,0,0,0,0,0.55,0,1,0,2.61
Molecule 33,C/C=C/c1ccc(c(c1)OC)OC(C(c1ccc(c(c1)OC)O)O)C,C20H24O5,344.40,25,12,0.30,7,5,2,98.10,68.15,3.81,3.77,3.51,2.29,3.91,3.46,-4.24,1.97e-02,5.71e-05,Moderately soluble,-4.89,4.39e-03,1.28e-05,Moderately soluble,-4.69,7.10e-03,2.06e-05,Moderately soluble,High,Yes,Yes,Yes,No,Yes,Yes,Yes,-5.72,0,0,0,0,0,0.55,0,0,1,3.80
Molecule 34,CCC/C=C/c1ccccc1CCCCCCN,C17H27N,245.40,18,6,0.53,9,1,1,82.66,26.02,3.36,5.02,4.45,4.26,5.12,4.44,-4.18,1.63e-02,6.66e-05,Moderately soluble,-5.31,1.21e-03,4.93e-06,Moderately soluble,-5.76,4.27e-04,1.74e-06,Moderately soluble,High,Yes,No,Yes,Yes,No,Yes,No,-4.23,1,0,0,0,2,0.55,0,0,3,2.83
Molecule 35,O=C(Nc1ccc(cc1)F)Nc1ccc(cc1)C(=O)/C=C/c1cccc(c1)[N+](=O)[O-],C22H16FN3O4,405.38,30,18,0.00,8,5,2,113.75,104.02,2.91,4.20,5.20,3.29,2.19,3.56,-4.92,4.93e-03,1.22e-05,Moderately soluble,-6.09,3.27e-04,8.05e-07,Poorly soluble,-7.10,3.23e-05,7.98e-08,Poorly soluble,High,No,No,No,Yes,Yes,No,Yes,-5.79,0,0,0,0,0,0.55,0,3,3,3.14
Molecule 36,O=C(Nc1ccc(cc1)F)Nc1ccc(cc1)C(=O)/C=C/c1ccccc1Cl,C22H16ClFN2O2,394.83,28,18,0.00,7,3,2,109.94,58.20,3.42,5.17,5.95,4.73,4.98,4.85,-5.56,1.09e-03,2.76e-06,Moderately soluble,-6.14,2.87e-04,7.27e-07,Poorly soluble,-8.34,1.79e-06,4.54e-09,Poorly soluble,High,No,No,Yes,Yes,Yes,No,Yes,-5.04,1,1,0,1,1,0.55,0,1,2,2.97
Molecule 37,Nc1ccc(cc1)C(=O)/C=C/c1ccccc1Cl,C15H12ClNO,257.71,18,12,0.00,3,1,1,75.66,43.09,2.34,3.83,3.72,3.30,3.84,3.40,-4.15,1.84e-02,7.14e-05,Moderately soluble,-4.43,9.56e-03,3.71e-05,Moderately soluble,-5.21,1.57e-03,6.11e-06,Moderately soluble,High,Yes,No,Yes,Yes,Yes,No,Yes,-5.15,0,0,0,0,0,0.55,0,2,1,2.54
Molecule 38,ClC[C@@]1(O)[C@@H](OC(=O)CC(C)C)C=C2C1[C@@H](OC=C2COC(=O)C)OC(=O)CC(C)C,C22H31ClO8,458.93,31,0,0.68,12,8,1,113.63,108.36,3.66,2.04,2.86,2.09,3.33,2.80,-3.18,3.04e-01,6.63e-04,Soluble,-3.94,5.22e-02,1.14e-04,Soluble,-3.27,2.49e-01,5.43e-04,Soluble,High,No,Yes,No,No,No,Yes,Yes,-7.65,0,0,1,0,0,0.55,0,2,2,5.86
Molecule 39,C[NH+]1[CH-]c2c3OCOc3ccc2c2c1c1cc3OCOc3cc1cc2,C20H15NO4,333.34,25,16,0.20,0,5,1,98.92,60.77,0.00,4.12,2.25,-0.82,3.63,1.84,-4.98,3.52e-03,1.06e-05,Moderately soluble,-5.10,2.63e-03,7.89e-06,Moderately soluble,-6.78,5.52e-05,1.66e-07,Poorly soluble,High,Yes,Yes,Yes,No,No,No,Yes,-5.41,0,0,0,0,0,0.55,0,1,1,3.02
Molecule 40,CC1Cc2ccc3c(c2C(C1C)c1ccc2c(c1)OCO2)OCO3,C20H20O4,324.37,24,12,0.40,1,4,0,90.10,36.92,3.59,4.88,4.10,3.62,4.38,4.11,-5.23,1.91e-03,5.90e-06,Moderately soluble,-5.39,1.32e-03,4.07e-06,Moderately soluble,-5.59,8.36e-04,2.58e-06,Moderately soluble,High,Yes,No,Yes,Yes,Yes,Yes,No,-4.81,0,0,0,0,0,0.55,0,0,1,4.09
Molecule 41,CC1Cc2ccc3c(c2C(=C1C)c1ccc2c(c1)OCO2)OCO3,C20H18O4,322.35,24,12,0.30,1,4,0,90.42,36.92,3.64,4.05,4.16,3.54,4.76,4.03,-4.69,6.52e-03,2.02e-05,Moderately soluble,-4.53,9.53e-03,2.96e-05,Moderately soluble,-6.02,3.07e-04,9.53e-07,Poorly soluble,High,Yes,Yes,Yes,Yes,Yes,Yes,Yes,-5.39,0,0,0,0,0,0.55,0,0,1,3.89
Molecule 42,CC12CCC(C1)C(O2)(C)C,C9H16O,140.22,10,0,1.00,0,1,0,42.31,9.23,2.45,2.38,2.35,2.15,2.59,2.38,-2.21,8.67e-01,6.18e-03,Soluble,-2.21,8.55e-01,6.10e-03,Soluble,-2.16,9.66e-01,6.89e-03,Soluble,High,Yes,No,No,No,No,No,No,-5.47,0,1,0,0,2,0.55,0,0,1,3.59
Molecule 43,CC1=CC=CC(=CC2C(CC1)C2(C)C)C,C15H22,202.34,15,0,0.60,0,0,0,68.31,0.00,3.27,4.34,4.50,4.53,3.50,4.03,-3.83,3.00e-02,1.48e-04,Soluble,-4.05,1.78e-02,8.81e-05,Moderately soluble,-3.05,1.80e-01,8.89e-04,Soluble,Low,No,No,No,Yes,Yes,No,No,-4.45,1,0,0,0,1,0.55,0,0,2,4.87
Molecule 44,CC1=CCC2C(C1)C2(C)C,C10H16,136.23,10,0,0.80,0,0,0,45.22,0.00,2.63,4.38,3.00,4.29,2.79,3.42,-3.44,4.90e-02,3.60e-04,Soluble,-4.10,1.09e-02,8.01e-05,Moderately soluble,-2.23,8.06e-01,5.92e-03,Soluble,Low,Yes,No,No,No,Yes,No,No,-4.02,1,1,0,0,2,0.55,0,1,2,3.84
Molecule 45,CC1=CCC2CC1C2(C)C,C10H16,136.23,10,0,0.80,0,0,0,45.22,0.00,2.63,4.48,3.00,4.29,2.79,3.44,-3.51,4.24e-02,3.11e-04,Soluble,-4.20,8.59e-03,6.31e-05,Moderately soluble,-2.23,8.06e-01,5.92e-03,Soluble,Low,Yes,No,No,No,Yes,No,No,-3.95,1,1,0,0,2,0.55,0,1,2,4.44
Molecule 46,C=C1CC[C@@H]2C[C@H]1C2(C)C,C10H16,136.23,10,0,0.80,0,0,0,45.22,0.00,2.59,4.16,3.00,4.29,3.08,3.42,-3.31,6.74e-02,4.95e-04,Soluble,-3.87,1.85e-02,1.36e-04,Soluble,-2.48,4.55e-01,3.34e-03,Soluble,Low,Yes,No,No,No,Yes,No,No,-4.18,1,1,0,0,2,0.55,0,1,2,3.73
Molecule 47,C=C1CCC2CC1C2(C)C,C10H16,136.23,10,0,0.80,0,0,0,45.22,0.00,2.59,4.16,3.00,4.29,3.08,3.42,-3.31,6.74e-02,4.95e-04,Soluble,-3.87,1.85e-02,1.36e-04,Soluble,-2.48,4.55e-01,3.34e-03,Soluble,Low,Yes,No,No,No,Yes,No,No,-4.18,1,1,0,0,2,0.55,0,1,2,3.73
Molecule 48,C=C1CCC2OC2(CCC2C1CC2(C)C)C,C15H24O,220.35,16,0,0.87,0,1,0,68.27,12.53,3.15,3.56,3.94,3.67,4.07,3.68,-3.45,7.84e-02,3.56e-04,Soluble,-3.51,6.83e-02,3.10e-04,Soluble,-3.51,6.81e-02,3.09e-04,Soluble,High,Yes,No,No,Yes,Yes,No,No,-5.12,0,0,0,0,1,0.55,0,2,2,4.35
Molecule 49,CC1=CCCC(=C)C2C(CC1)C(C2)(C)C,C15H24,204.35,15,0,0.73,0,0,0,68.78,0.00,3.29,4.38,4.73,4.63,4.19,4.24,-3.87,2.78e-02,1.36e-04,Soluble,-4.10,1.64e-02,8.01e-05,Moderately soluble,-3.77,3.49e-02,1.71e-04,Soluble,Low,No,No,No,Yes,Yes,No,No,-4.44,1,0,0,0,1,0.55,0,1,2,4.51
Molecule 50,CC1=CCC2C(C(=C)CCC1)CC2(C)C,C15H24,204.35,15,0,0.73,0,0,0,68.78,0.00,3.31,4.38,4.73,4.63,4.19,4.25,-3.87,2.78e-02,1.36e-04,Soluble,-4.10,1.64e-02,8.01e-05,Moderately soluble,-3.77,3.49e-02,1.71e-04,Soluble,Low,No,No,No,Yes,Yes,No,No,-4.44,1,0,0,0,1,0.55,0,1,2,4.38
Molecule 51,O1CC(C(C1)Cc1ccc2c(c1)OCO2)Cc1ccc2c(c1)OCO2,C20H20O5,340.37,25,12,0.40,4,5,0,91.03,46.15,3.53,3.91,3.19,2.79,4.37,3.56,-4.50,1.06e-02,3.13e-05,Moderately soluble,-4.58,9.00e-03,2.64e-05,Moderately soluble,-5.58,8.85e-04,2.60e-06,Moderately soluble,High,Yes,No,Yes,Yes,Yes,Yes,Yes,-5.60,0,0,0,0,0,0.55,0,0,1,3.57
Molecule 52,CC1=CCC(=C(C)C)CC1,C10H16,136.23,10,0,0.60,0,0,0,47.12,0.00,2.71,4.47,3.45,3.27,3.08,3.40,-3.50,4.30e-02,3.16e-04,Soluble,-4.19,8.80e-03,6.46e-05,Moderately soluble,-2.46,4.73e-01,3.48e-03,Soluble,Low,Yes,No,No,No,Yes,No,No,-3.96,0,1,0,0,2,0.55,0,1,2,2.98
Molecule 53,C[C@H]1CCC(=C(C)C)C(=C)C1,C11H18,150.26,11,0,0.64,0,0,0,51.93,0.00,2.83,3.58,3.70,3.56,3.43,3.42,-3.03,1.41e-01,9.40e-04,Soluble,-3.27,8.14e-02,5.42e-04,Soluble,-2.88,2.00e-01,1.33e-03,Soluble,Low,Yes,No,No,No,Yes,No,No,-4.67,0,1,0,0,2,0.55,0,0,2,3.34
Molecule 54,CCCc1ccc2c(c1)OCO2,C10H12O2,164.20,12,6,0.40,2,2,0,47.09,18.46,2.55,3.23,2.37,2.11,3.02,2.66,-3.13,1.21e-01,7.40e-04,Soluble,-3.29,8.41e-02,5.12e-04,Soluble,-3.34,7.54e-02,4.59e-04,Soluble,High,Yes,No,Yes,No,No,No,No,-5.01,0,0,0,0,1,0.55,0,0,1,2.01
Molecule 55,CCCCCCCCCCCCCCCCCCC(CCCCCCCC)C,C28H58,394.76,28,0,1.00,24,0,0,136.71,0.00,7.46,15.09,11.02,9.06,11.36,10.80,-10.21,2.43e-08,6.16e-11,Insoluble,-15.21,2.43e-13,6.16e-16,Insoluble,-10.73,7.33e-09,1.86e-11,Insoluble,Low,No,Yes,No,No,No,No,No,2.01,1,3,1,1,3,0.55,0,0,3,4.14
Molecule 56,CCCCCCCCCCCC(CCCCCCCCCCCC(CCC)C)C,C29H60,408.79,29,0,1.00,24,0,0,141.52,0.00,7.50,15.34,11.27,9.25,11.63,11.00,-10.45,1.43e-08,3.51e-11,Insoluble,-15.47,1.39e-13,3.39e-16,Insoluble,-10.75,7.27e-09,1.78e-11,Insoluble,Low,No,Yes,No,No,No,No,No,2.10,1,3,1,1,3,0.55,0,0,3,4.53
Molecule 57,CCCCCCCCCCCCCCCCCCC(CCCCCCCCCC(C)C)C,C32H66,450.87,32,0,1.00,27,0,0,155.94,0.00,8.37,16.97,12.44,9.82,12.96,12.11,-11.54,1.29e-09,2.85e-12,Insoluble,-17.16,3.11e-15,6.90e-18,Insoluble,-11.92,5.37e-10,1.19e-12,Insoluble,Low,No,Yes,No,No,No,No,No,3.00,1,3,1,1,3,0.55,0,0,3,4.64
Molecule 58,CCCCCCCCC,C9H20,128.26,9,0,1.00,6,0,0,45.38,0.00,3.06,5.65,3.76,4.52,3.11,4.02,-3.80,2.04e-02,1.59e-04,Soluble,-5.41,4.94e-04,3.85e-06,Moderately soluble,-3.45,4.57e-02,3.56e-04,Soluble,Low,Yes,No,No,No,No,No,No,-3.07,1,1,0,0,3,0.55,0,0,2,1.52
Molecule 59,CCCCCCCCCCCC(CCCC(CCCC(CCCCCCCCCC)C)C)C,C33H68,464.89,33,0,1.00,27,0,0,160.75,0.00,8.32,17.22,12.69,10.01,13.23,12.29,-11.79,7.56e-10,1.63e-12,Insoluble,-17.42,1.77e-15,3.80e-18,Insoluble,-11.94,5.34e-10,1.15e-12,Insoluble,Low,No,Yes,No,No,No,No,No,3.09,1,3,1,1,3,0.55,0,0,3,5.22
Molecule 60,C=CC(=C)CCC=C(C)C,C10H16,136.23,10,0,0.40,4,0,0,48.76,0.00,2.89,4.17,3.48,3.56,3.05,3.43,-3.05,1.22e-01,8.96e-04,Soluble,-3.88,1.80e-02,1.32e-04,Soluble,-2.42,5.24e-01,3.85e-03,Soluble,Low,Yes,No,No,No,No,No,No,-4.17,0,1,0,0,2,0.55,0,2,2,2.85
Molecule 61,Cc1ccc(cc1)C(C)C,C10H14,134.22,10,6,0.40,1,0,0,45.99,0.00,2.51,4.10,3.12,4.47,3.29,3.50,-3.63,3.12e-02,2.33e-04,Soluble,-3.81,2.10e-02,1.56e-04,Soluble,-3.57,3.58e-02,2.67e-04,Soluble,Low,Yes,No,No,No,No,Yes,No,-4.21,1,1,0,0,2,0.55,0,0,2,1.00
Molecule 62,CC1=C[C@@]2([C@H](CC1)C(C)CC[C@H]2C(C)C)C,C16H28,220.39,16,0,0.88,1,0,0,74.06,0.00,3.49,5.67,5.05,5.90,4.22,4.87,-4.71,4.27e-03,1.94e-05,Moderately soluble,-5.43,8.10e-04,3.67e-06,Moderately soluble,-3.70,4.44e-02,2.01e-04,Soluble,Low,No,No,No,Yes,Yes,No,No,-3.62,1,0,0,0,2,0.55,0,1,2,4.51
Molecule 63,CC([C@@H]1CC[C@@]2(C1[C@H]1C(=C)CC[C@@H]21)C)C,C15H24,204.35,15,0,0.87,1,0,0,67.14,0.00,3.34,4.71,4.27,5.65,4.01,4.40,-4.01,2.00e-02,9.81e-05,Moderately soluble,-4.44,7.44e-03,3.64e-05,Moderately soluble,-3.32,9.83e-02,4.81e-04,Soluble,Low,Yes,No,Yes,Yes,Yes,No,No,-4.20,1,0,0,0,1,0.55,0,1,2,3.94
Molecule 64,CC1=CCC(C=C1)C(C)C,C10H16,136.23,10,0,0.60,1,0,0,47.12,0.00,2.64,3.21,3.16,3.27,2.55,2.97,-2.64,3.11e-01,2.29e-03,Soluble,-2.88,1.79e-01,1.31e-03,Soluble,-1.78,2.27e+00,1.67e-02,Soluble,Low,Yes,No,No,No,No,No,No,-4.85,0,1,0,0,2,0.55,0,0,1,4.15
Molecule 65,CC(C1CCC2(C1C1OC2CCC1=C)C)C,C15H24O,220.35,16,0,0.87,1,1,0,68.23,9.23,3.15,3.78,3.79,3.67,3.64,3.61,-3.52,6.63e-02,3.01e-04,Soluble,-3.67,4.74e-02,2.15e-04,Soluble,-3.06,1.92e-01,8.71e-04,Soluble,High,Yes,No,No,Yes,Yes,No,No,-4.96,0,0,0,0,1,0.55,0,1,2,4.09
Molecule 66,CC1=CCC(=CC1)C(C)C,C10H16,136.23,10,0,0.60,1,0,0,47.12,0.00,2.73,4.50,3.31,3.27,2.95,3.35,-3.45,4.79e-02,3.52e-04,Soluble,-4.22,8.19e-03,6.01e-05,Moderately soluble,-2.23,8.06e-01,5.92e-03,Soluble,Low,Yes,No,No,No,No,No,No,-3.94,0,1,0,0,2,0.55,0,1,2,3.11
Molecule 67,CC1=CC=C(CC1)C(C)C,C10H16,136.23,10,0,0.60,1,0,0,47.12,0.00,2.70,4.25,3.31,3.27,2.95,3.30,-3.30,6.89e-02,5.06e-04,Soluble,-3.96,1.49e-02,1.09e-04,Soluble,-2.23,8.06e-01,5.92e-03,Soluble,Low,Yes,No,No,No,No,No,No,-4.11,0,1,0,0,2,0.55,0,0,2,3.63
Molecule 68,C=C1CCC2(C1C2)C(C)C,C10H16,136.23,10,0,0.80,1,0,0,45.22,0.00,2.65,3.09,3.00,4.29,3.23,3.25,-2.57,3.71e-01,2.72e-03,Soluble,-2.76,2.38e-01,1.75e-03,Soluble,-2.48,4.55e-01,3.34e-03,Soluble,Low,Yes,No,No,No,No,No,No,-4.94,1,1,0,0,2,0.55,0,1,1,2.87
Molecule 69,CC1=CCCC(=C)C=CC(CC1)C(C)C,C15H24,204.35,15,0,0.60,1,0,0,70.68,0.00,3.32,4.74,4.89,4.53,4.01,4.30,-4.03,1.92e-02,9.39e-05,Moderately soluble,-4.47,6.93e-03,3.39e-05,Moderately soluble,-3.32,9.83e-02,4.81e-04,Soluble,Low,No,No,No,No,Yes,No,No,-4.18,1,0,0,0,1,0.55,0,1,2,4.55
Molecule 70,C/C=C/c1ccc2c(c1)c(C)c(o2)c1ccc2c(c1)OCO2,C19H16O3,292.33,22,15,0.16,2,3,0,87.58,31.60,3.74,5.17,5.06,3.34,5.38,4.54,-5.28,1.53e-03,5.22e-06,Moderately soluble,-5.58,7.69e-04,2.63e-06,Moderately soluble,-6.41,1.13e-04,3.86e-07,Poorly soluble,High,Yes,No,Yes,Yes,Yes,No,No,-4.41,0,0,0,0,1,0.55,0,0,1,3.33
Molecule 71,C=CC(c1ccc2c(c1)OCO2)(CC/C=C(/CCC=C(C)C)\C)C,C22H30O2,326.47,24,6,0.45,8,2,0,103.23,18.46,4.68,7.50,6.33,4.85,6.62,6.00,-6.25,1.85e-04,5.67e-07,Poorly soluble,-7.72,6.20e-06,1.90e-08,Poorly soluble,-5.97,3.51e-04,1.08e-06,Moderately soluble,Low,No,No,No,No,Yes,No,Yes,-2.97,1,1,0,1,1,0.55,0,1,2,3.86
Molecule 72,C=C/C(=C/C/C=C(/CCC=C(C)C)\C)/C,C15H24,204.35,15,0,0.47,6,0,0,72.32,0.00,3.89,6.12,5.20,4.84,4.76,4.96,-4.57,5.54e-03,2.71e-05,Moderately soluble,-5.90,2.56e-04,1.25e-06,Moderately soluble,-3.37,8.82e-02,4.32e-04,Soluble,Low,No,No,Yes,No,Yes,No,No,-3.20,1,0,0,0,2,0.55,0,2,2,3.72
Molecule 73,C=CCc1ccc2c(c1)OCO2,C10H10O2,162.19,12,6,0.20,2,2,0,46.61,18.46,2.46,2.96,2.14,2.02,3.01,2.52,-2.95,1.83e-01,1.13e-03,Soluble,-3.01,1.58e-01,9.76e-04,Soluble,-2.99,1.66e-01,1.02e-03,Soluble,High,Yes,No,Yes,No,No,No,No,-5.19,0,0,0,0,1,0.55,0,1,1,2.10
Molecule 74,CCCCCCCCCCCCCCCCC=C,C18H36,252.48,18,0,0.89,15,0,0,88.17,0.00,5.05,10.03,7.04,6.77,7.09,7.20,-6.73,4.66e-05,1.84e-07,Poorly soluble,-9.96,2.77e-08,1.10e-10,Poorly soluble,-6.79,4.09e-05,1.62e-07,Poorly soluble,Low,No,No,Yes,No,No,No,No,-0.72,1,1,1,1,2,0.55,0,1,2,2.82
Molecule 75,CC1=CC[C@H](CC1)C(=C)C,C10H16,136.23,10,0,0.60,1,0,0,47.12,0.00,2.64,4.57,3.31,3.27,2.97,3.35,-3.50,4.33e-02,3.18e-04,Soluble,-4.29,6.93e-03,5.09e-05,Moderately soluble,-2.26,7.54e-01,5.53e-03,Soluble,Low,Yes,No,No,No,Yes,No,No,-3.89,0,1,0,0,2,0.55,0,1,2,3.46
Molecule 76,CC(=C)[C@H]1CC=C(C(=C)C1)C,C11H16,148.24,11,0,0.45,1,0,0,51.45,0.00,2.71,3.22,3.48,3.46,3.30,3.23,-2.72,2.81e-01,1.90e-03,Soluble,-2.89,1.90e-01,1.28e-03,Soluble,-2.65,3.29e-01,2.22e-03,Soluble,Low,Yes,No,No,No,Yes,No,No,-4.92,0,1,0,0,2,0.55,0,1,1,3.83
Molecule 77,C=CC1(C)CCC(CC1C(=C)C)C(=C)C,C15H24,204.35,15,0,0.60,3,0,0,70.42,0.00,3.37,6.11,4.75,4.53,4.50,4.65,-4.76,3.57e-03,1.74e-05,Moderately soluble,-5.89,2.62e-04,1.28e-06,Moderately soluble,-3.58,5.36e-02,2.62e-04,Soluble,Low,No,No,No,Yes,Yes,No,No,-3.21,1,0,0,0,2,0.55,0,1,2,3.63
