Molecule,Canonical SMILES,Formula,MW,#Heavy atoms,#Aromatic heavy atoms,Fraction Csp3,#Rotatable bonds,#H-bond acceptors,#H-bond donors,MR,TPSA,iLOGP,XLOGP3,WLOGP,MLOGP,Silicos-IT Log P,Consensus Log P,ESOL Log S,ESOL Solubility (mg/ml),ESOL Solubility (mol/l),ESOL Class,Ali Log S,Ali Solubility (mg/ml),Ali Solubility (mol/l),Ali Class,Silicos-IT LogSw,Silicos-IT Solubility (mg/ml),Silicos-IT Solubility (mol/l),Silicos-IT class,GI absorption,BBB permeant,Pgp substrate,CYP1A2 inhibitor,CYP2C19 inhibitor,CYP2C9 inhibitor,CYP2D6 inhibitor,CYP3A4 inhibitor,log Kp (cm/s),Lipinski #violations,Ghose #violations,Veber #violations,Egan #violations,Muegge #violations,Bioavailability Score,PAINS #alerts,Brenk #alerts,Leadlikeness #violations,Synthetic Accessibility
Molecule 1,CC[C@@H]([C@H]1NC(=O)c2c1n(C)c1c(c2=O)cccc1)C,C16H18N2O2,270.33,20,10,0.38,2,2,1,83.65,51.10,2.08,2.49,1.66,1.62,2.88,2.15,-3.32,1.29e-01,4.76e-04,Soluble,-3.21,1.67e-01,6.19e-04,Soluble,-4.66,5.93e-03,2.19e-05,Moderately soluble,High,Yes,No,Yes,Yes,No,Yes,No,-6.18,0,0,0,0,0,0.55,0,0,0,3.28
Molecule 2,CC[C@@H]([C@@H]1NC(=O)c2c1n(C)c1c(c2=O)cccc1)C,C16H18N2O2,270.33,20,10,0.38,2,2,1,83.65,51.10,2.07,2.49,1.66,1.62,2.88,2.14,-3.32,1.29e-01,4.76e-04,Soluble,-3.21,1.67e-01,6.19e-04,Soluble,-4.66,5.93e-03,2.19e-05,Moderately soluble,High,Yes,No,Yes,Yes,No,Yes,No,-6.18,0,0,0,0,0,0.55,0,0,0,3.28
Molecule 3,OC[C@H]1O[C@H]([C@@H]([C@@H]1O)O)n1cnc2c1nc[nH]c2=O,C10H12N4O5,268.23,19,9,0.50,2,7,4,61.10,133.49,0.25,-1.30,-2.59,-2.26,-1.51,-1.48,-0.90,3.36e+01,1.25e-01,Very soluble,-1.01,2.65e+01,9.87e-02,Very soluble,0.14,3.73e+02,1.39e+00,Soluble,Low,No,No,No,No,No,No,No,-8.86,0,1,0,1,0,0.55,0,0,0,3.77
Molecule 4,CC(C1NC(=O)c2c1n(C)c1c(c2=O)cccc1)C,C15H16N2O2,256.30,19,10,0.33,1,2,1,78.85,51.10,2.05,2.13,1.27,1.37,2.50,1.87,-3.09,2.06e-01,8.05e-04,Soluble,-2.83,3.75e-01,1.46e-03,Soluble,-4.26,1.41e-02,5.52e-05,Moderately soluble,High,Yes,No,Yes,Yes,No,No,No,-6.35,0,0,0,0,0,0.55,0,0,0,2.88
Molecule 5,O=c1[nH]c(=O)c2c1n(C)c1c(c2=O)cccc1,C12H8N2O3,228.20,17,13,0.08,0,3,1,65.05,71.93,1.05,0.91,0.18,1.01,2.37,1.10,-2.39,9.21e-01,4.04e-03,Soluble,-2.01,2.25e+00,9.86e-03,Soluble,-3.87,3.07e-02,1.35e-04,Soluble,High,No,No,Yes,No,No,No,No,-7.05,0,0,0,0,0,0.55,0,0,1,2.05
Molecule 6,OC[C@@]12SS[C@@](C(=O)N1C)(N(C2=O)C)Cc1cn(c2c1cccc2)[C@@]12C[C@]34N([C@H]2Nc2c1cccc2)C(=O)[C@](SS3)(N(C4=O)C)CO,C31H30N6O6S4,710.87,47,15,0.42,5,6,3,200.27,239.86,4.33,1.89,-0.22,-0.59,0.94,1.27,-5.34,3.22e-03,4.53e-06,Moderately soluble,-6.55,2.01e-04,2.82e-07,Poorly soluble,-5.88,9.46e-04,1.33e-06,Moderately soluble,Low,No,Yes,No,No,No,No,No,-9.29,2,3,1,1,3,0.17,0,1,1,7.35
Molecule 7,CN1C(=O)c2ccccc2n2c(C1Cc1ccccc1)nc1ccccc1c2=O,C24H19N3O2,381.43,29,22,0.12,2,3,0,116.49,55.20,2.98,3.69,3.05,3.51,3.56,3.36,-4.96,4.19e-03,1.10e-05,Moderately soluble,-4.54,1.10e-02,2.89e-05,Moderately soluble,-7.72,7.28e-06,1.91e-08,Poorly soluble,High,Yes,No,Yes,Yes,Yes,No,Yes,-6.01,0,0,0,0,0,0.55,0,0,2,3.87
Molecule 8,CC([C@H](/C=C/[C@H]([C@H]1CCC2=C3[C@H](CC[C@]12C)[C@@]1(C)CCC(=O)C=C1C=C3)C)C)C,C28H40O,392.62,29,0,0.68,4,1,0,126.04,17.07,4.68,6.80,7.46,6.16,7.02,6.42,-6.29,1.99e-04,5.08e-07,Poorly soluble,-6.97,4.25e-05,1.08e-07,Poorly soluble,-5.74,7.14e-04,1.82e-06,Moderately soluble,Low,No,No,No,No,Yes,No,No,-3.87,1,1,0,1,2,0.55,0,1,2,6.15
Molecule 9,CC([C@H](/C=C/[C@H]([C@H]1CCC2=C3C(CC[C@]12C)[C@@]1(C)CCC(=O)C=C1C=C3)C)C)C,C28H40O,392.62,29,0,0.68,4,1,0,126.04,17.07,4.68,6.80,7.46,6.16,7.02,6.42,-6.29,1.99e-04,5.08e-07,Poorly soluble,-6.97,4.25e-05,1.08e-07,Poorly soluble,-5.74,7.14e-04,1.82e-06,Moderately soluble,Low,No,No,No,No,Yes,No,No,-3.87,1,1,0,1,2,0.55,0,1,2,6.15
Molecule 10,OC[C@H]1OC(Oc2cc(O)cc3c2C(=CC(=O)C3)c2ccc(c(c2)O)O)[C@@H]([C@H]([C@@H]1O)O)O,C22H22O10,446.40,32,12,0.32,4,10,7,109.09,177.14,0.79,-0.18,-0.46,-1.28,0.03,-0.22,-2.51,1.39e+00,3.11e-03,Soluble,-3.08,3.68e-01,8.23e-04,Soluble,-1.64,1.03e+01,2.30e-02,Soluble,Low,No,No,No,No,No,No,No,-9.15,1,1,1,1,2,0.55,1,1,1,5.30
Molecule 11,C[C@@]12[C@H]3OC3(C(=C)C)C(=O)C=C2CC[C@H]([C@@H]1C)O,C15H20O3,248.32,18,0,0.67,1,3,1,69.15,49.83,2.39,2.07,2.01,1.66,2.79,2.18,-2.62,5.99e-01,2.41e-03,Soluble,-2.75,4.46e-01,1.80e-03,Soluble,-2.35,1.10e+00,4.43e-03,Soluble,High,Yes,No,No,No,No,No,No,-6.35,0,0,0,0,0,0.55,0,2,1,4.78
Molecule 12,Oc1cc2OC(C)(C)C=Cc2cc1C1COc2c(C1=O)c(O)cc1c2C=CC(O1)(C)C,C25H24O6,420.45,31,12,0.32,1,6,2,117.79,85.22,3.73,4.76,4.61,2.28,4.36,3.95,-5.67,9.07e-04,2.16e-06,Moderately soluble,-6.28,2.21e-04,5.24e-07,Poorly soluble,-5.63,9.90e-04,2.36e-06,Moderately soluble,High,No,No,Yes,Yes,Yes,No,Yes,-5.49,0,0,0,0,0,0.55,0,0,2,4.50
Molecule 13,CC(=CCc1cc(c(cc1O)O)C1COc2c(C1=O)c(O)c1c(c2)OC(C=C1)(C)C)C,C25H26O6,422.47,31,12,0.32,3,6,3,119.41,96.22,3.26,5.41,4.75,2.28,4.72,4.08,-5.96,4.67e-04,1.11e-06,Moderately soluble,-7.19,2.75e-05,6.52e-08,Poorly soluble,-5.46,1.48e-03,3.51e-06,Moderately soluble,High,No,No,Yes,No,Yes,No,Yes,-5.04,0,0,0,0,1,0.55,0,1,2,4.64
Molecule 14,Oc1ccc(cc1)c1oc2cc(O)cc(c2c(=O)c1O)O,C15H10O6,286.24,21,16,0.00,1,6,4,76.01,111.13,1.70,1.90,2.28,-0.03,2.03,1.58,-3.31,1.40e-01,4.90e-04,Soluble,-3.86,3.98e-02,1.39e-04,Soluble,-3.82,4.29e-02,1.50e-04,Soluble,High,No,No,Yes,No,No,Yes,Yes,-6.70,0,0,0,0,0,0.55,0,0,0,3.14
Molecule 15,Oc1cc(O)c2c(c1)oc(c(c2=O)O)c1ccc(c(c1)O)O,C15H10O7,302.24,22,16,0.00,1,7,5,78.04,131.36,1.63,1.54,1.99,-0.56,1.54,1.23,-3.16,2.11e-01,6.98e-04,Soluble,-3.91,3.74e-02,1.24e-04,Soluble,-3.24,1.73e-01,5.73e-04,Soluble,High,No,No,Yes,No,No,Yes,Yes,-7.05,0,0,0,0,0,0.55,1,1,0,3.23
Molecule 16,Oc1ccc(cc1O)c1oc2cc(O)c(c(c2c(=O)c1O)O)O,C15H10O8,318.24,23,16,0.00,1,8,6,80.06,151.59,1.73,1.18,1.69,-1.08,1.06,0.92,-3.01,3.14e-01,9.88e-04,Soluble,-3.96,3.50e-02,1.10e-04,Soluble,-2.66,6.98e-01,2.19e-03,Soluble,Low,No,No,Yes,No,No,No,Yes,-7.40,1,0,1,1,2,0.55,1,1,0,3.27
Molecule 17,CC(=CCC[C@H](C1=C(O)C(=O)C(=CC1=O)C)C)C,C15H20O3,248.32,18,0,0.47,4,3,1,72.65,54.37,2.78,3.36,3.28,1.48,3.42,2.86,-3.23,1.45e-01,5.86e-04,Soluble,-4.18,1.64e-02,6.61e-05,Moderately soluble,-2.97,2.64e-01,1.06e-03,Soluble,High,Yes,No,No,Yes,Yes,No,No,-5.43,0,0,0,0,0,0.56,1,2,1,3.79
Molecule 18,OC1=C(C)[C@@H]2C(=O)[C@@]3(C1=O)[C@H](C)CC[C@H]3C2(C)C,C15H20O3,248.32,18,0,0.73,0,3,1,68.85,54.37,2.31,2.72,2.66,1.66,2.75,2.42,-3.09,2.00e-01,8.07e-04,Soluble,-3.52,7.58e-02,3.05e-04,Soluble,-2.94,2.84e-01,1.15e-03,Soluble,High,Yes,No,No,No,Yes,No,No,-5.88,0,0,0,0,0,0.55,0,1,1,5.39
Molecule 19,OC1=C(C)[C@H]2C(=O)[C@]3(C1=O)[C@H](C)CC[C@@H]3C2(C)C,C15H20O3,248.32,18,0,0.73,0,3,1,68.85,54.37,2.28,2.72,2.66,1.66,2.75,2.41,-3.09,2.00e-01,8.07e-04,Soluble,-3.52,7.58e-02,3.05e-04,Soluble,-2.94,2.84e-01,1.15e-03,Soluble,High,Yes,No,No,No,Yes,No,No,-5.88,0,0,0,0,0,0.55,0,1,1,5.39
Molecule 20,O=C1C[C@H](C)[C@@]2(C(=C1O)C=C1C(=C(C(=O)O1)C)C2)C,C15H16O4,260.29,19,0,0.47,0,4,1,69.25,63.60,2.26,1.53,2.57,1.44,2.51,2.06,-2.42,9.95e-01,3.82e-03,Soluble,-2.47,8.73e-01,3.35e-03,Soluble,-2.77,4.47e-01,1.72e-03,Soluble,High,Yes,No,No,No,No,No,No,-6.80,0,0,0,0,0,0.55,0,0,0,4.50
Molecule 21,CNC1=CC(=O)C(=C(C1=O)C)O,C8H9NO3,167.16,12,0,0.25,1,3,2,42.28,66.40,1.37,0.45,0.07,-1.27,0.51,0.23,-1.09,1.35e+01,8.06e-02,Very soluble,-1.41,6.47e+00,3.87e-02,Very soluble,-1.29,8.57e+00,5.13e-02,Soluble,High,No,No,Yes,No,No,No,No,-7.00,0,0,0,0,1,0.56,1,1,1,2.98
Molecule 22,CC([C@@H](C(=C)C)CC[C@H]([C@H]1CC[C@@]2([C@]1(C)CC[C@@]13[C@H]2CC[C@@H]2[C@]3(C1)CCC(=O)C2(C)C)C)C)C,C33H54O,466.78,34,0,0.91,6,1,0,148.60,17.07,5.31,10.89,9.26,7.38,9.18,8.40,-9.20,2.95e-07,6.33e-10,Poorly soluble,-11.21,2.88e-09,6.16e-12,Insoluble,-8.36,2.02e-06,4.33e-09,Poorly soluble,Low,No,No,No,No,No,No,No,-1.42,1,3,0,1,2,0.55,0,1,2,6.55
Molecule 23,CC(=C)[C@H](CC[C@H]([C@H]1CC[C@@]2([C@]1(C)CC[C@@]13[C@H]2CC[C@@H]2[C@]3(C1)CCC(=O)C2(C)C)C)C)C,C31H50O,438.73,32,0,0.90,5,1,0,138.99,17.07,4.98,10.10,8.62,7.01,8.52,7.85,-8.59,1.12e-06,2.55e-09,Poorly soluble,-10.39,1.79e-08,4.07e-11,Insoluble,-7.96,4.84e-06,1.10e-08,Poorly soluble,Low,No,No,No,No,No,No,No,-1.81,1,3,0,1,2,0.55,0,1,2,6.31
Molecule 24,C[C@@H]([C@H]1CC[C@@]2([C@]1(C)CC[C@@]13C2CCC2[C@]3(C1)CCC(=O)C2(C)C)C)CCC(C(=C)C)(C)C,C32H52O,452.75,33,0,0.91,5,1,0,143.53,17.07,5.23,10.64,9.01,7.20,8.78,8.17,-9.02,4.32e-07,9.54e-10,Poorly soluble,-10.95,5.07e-09,1.12e-11,Insoluble,-8.33,2.12e-06,4.68e-09,Poorly soluble,Low,No,No,No,No,No,No,No,-1.51,1,3,0,1,2,0.55,0,1,2,6.36
Molecule 25,C=CC(c1cc2cc3ccoc3cc2oc1=O)(C)C,C16H14O3,254.28,19,13,0.19,2,3,0,75.86,43.35,3.01,3.62,4.00,2.72,4.46,3.56,-4.07,2.16e-02,8.48e-05,Moderately soluble,-4.22,1.54e-02,6.05e-05,Moderately soluble,-5.77,4.28e-04,1.68e-06,Moderately soluble,High,Yes,No,Yes,Yes,Yes,No,No,-5.28,0,0,0,0,0,0.55,0,2,1,3.35
Molecule 26,C=CC(c1cc2cc3C=CC(Oc3cc2oc1=O)(C)C)(C)C,C19H20O3,296.36,22,10,0.32,2,3,0,90.21,39.44,3.53,4.79,4.33,3.51,4.98,4.23,-4.90,3.74e-03,1.26e-05,Moderately soluble,-5.35,1.32e-03,4.47e-06,Moderately soluble,-5.74,5.43e-04,1.83e-06,Moderately soluble,High,Yes,No,Yes,Yes,Yes,No,No,-4.71,0,0,0,0,0,0.55,0,2,1,3.78
Molecule 27,C=CC(c1cc2cc3CC(Oc3cc2oc1=O)C(O)(C)C)(C)C,C19H22O4,314.38,23,10,0.42,3,4,1,91.05,59.67,3.47,3.87,3.33,2.74,4.48,3.58,-4.35,1.40e-02,4.46e-05,Moderately soluble,-4.82,4.76e-03,1.51e-05,Moderately soluble,-5.17,2.12e-03,6.73e-06,Moderately soluble,High,Yes,No,Yes,Yes,Yes,Yes,No,-5.47,0,0,0,0,0,0.55,0,2,1,4.00
Molecule 28,O[C@@H]1C[C@H]2[C@]3(C)CCC[C@@]2(C2=C1C(=O)C(=C(C2=O)O)C(C)C)[C@@H](OC3)O,C20H26O6,362.42,26,0,0.70,1,6,3,93.71,104.06,2.34,1.43,1.81,0.67,2.20,1.69,-2.92,4.34e-01,1.20e-03,Soluble,-3.22,2.18e-01,6.02e-04,Soluble,-2.50,1.15e+00,3.18e-03,Soluble,High,No,Yes,No,No,No,No,No,-7.50,0,0,0,0,0,0.56,1,1,1,5.71
Molecule 29,CC1=CC[C@H]([C@]2([C@H]1[C@H]1OC(=O)C(=C)[C@@H]1CC2)C)O,C15H20O3,248.32,18,0,0.67,0,3,1,69.12,46.53,2.47,1.99,2.21,2.47,2.34,2.30,-2.63,5.78e-01,2.33e-03,Soluble,-2.59,6.33e-01,2.55e-03,Soluble,-2.25,1.41e+00,5.68e-03,Soluble,High,Yes,No,No,No,No,No,No,-6.40,0,0,0,0,0,0.55,0,2,1,4.31
Molecule 30,CC1=CC=CC(C)CC[C@@H]2[C@@H](C1)OC(=O)C2=C,C15H20O2,232.32,17,0,0.53,0,2,0,69.85,26.30,2.55,3.69,3.41,3.26,2.86,3.15,-3.61,5.77e-02,2.48e-04,Soluble,-3.93,2.71e-02,1.17e-04,Soluble,-2.60,5.80e-01,2.49e-03,Soluble,High,Yes,No,No,Yes,Yes,No,No,-5.10,0,0,0,0,0,0.55,0,1,2,4.40
Molecule 31,C=C1C(=O)O[C@H]2C1CCC(=C)[C@H]1[C@@H]2C(=C)CC1,C15H18O2,230.30,17,0,0.53,0,2,0,67.74,26.30,2.67,2.62,3.02,3.26,3.41,3.00,-2.92,2.78e-01,1.21e-03,Soluble,-2.82,3.47e-01,1.51e-03,Soluble,-3.08,1.91e-01,8.30e-04,Soluble,High,Yes,No,No,Yes,Yes,No,No,-5.84,0,0,0,0,0,0.55,0,2,1,3.84
Molecule 32,C=C1C(=O)O[C@@H]2C1CC[C@]1([C@H]2[C@@](C)(O)C=CC1=O)C,C15H18O4,262.30,19,0,0.60,0,4,1,69.35,63.60,1.81,1.14,1.39,1.53,2.02,1.58,-2.18,1.72e+00,6.54e-03,Soluble,-2.07,2.23e+00,8.52e-03,Soluble,-2.13,1.94e+00,7.38e-03,Soluble,High,Yes,No,No,No,No,No,No,-7.09,0,0,0,0,0,0.55,0,1,0,4.31
Molecule 33,O[C@@H]1CCC2=CC(=O)C(=C(C)C)C[C@@]2([C@H]1C)C,C15H22O2,234.33,17,0,0.67,0,2,1,70.14,37.30,2.53,2.78,3.02,2.54,3.02,2.78,-3.04,2.12e-01,9.03e-04,Soluble,-3.22,1.41e-01,6.04e-04,Soluble,-2.83,3.43e-01,1.46e-03,Soluble,High,Yes,No,No,No,No,No,No,-5.76,0,0,0,0,0,0.55,0,1,1,4.08
Molecule 34,C/C/1=C\CC/C(=C/C(=O)C[C@@]2([C@@H](C[C@@H](CC1)C(=C)C)O2)C)/C,C20H30O2,302.45,22,0,0.65,1,2,0,93.93,29.60,3.43,4.11,5.15,3.64,4.80,4.23,-4.24,1.75e-02,5.77e-05,Moderately soluble,-4.44,1.10e-02,3.65e-05,Moderately soluble,-4.41,1.17e-02,3.85e-05,Moderately soluble,High,Yes,No,No,Yes,Yes,No,Yes,-5.23,0,0,0,0,0,0.55,0,2,1,4.93
Molecule 35,C/C/1=C\CC/C(=C\C(=O)C[C@@]2([C@@H](C[C@@H](CC1)C(=C)C)O2)C)/C,C20H30O2,302.45,22,0,0.65,1,2,0,93.93,29.60,3.71,4.11,5.15,3.64,4.80,4.28,-4.24,1.75e-02,5.77e-05,Moderately soluble,-4.44,1.10e-02,3.65e-05,Moderately soluble,-4.41,1.17e-02,3.85e-05,Moderately soluble,High,Yes,No,No,Yes,Yes,No,Yes,-5.23,0,0,0,0,0,0.55,0,2,1,4.93
Molecule 36,C/C=C/C1=CC=C/C(=C\2/C(=O)CNC2=O)/O1,C12H11NO3,217.22,16,0,0.17,1,3,1,61.88,55.40,1.90,1.49,0.60,0.16,1.84,1.20,-2.06,1.89e+00,8.72e-03,Soluble,-2.26,1.19e+00,5.49e-03,Soluble,-1.69,4.49e+00,2.07e-02,Soluble,High,No,No,Yes,No,No,No,No,-6.57,0,0,0,0,0,0.56,0,2,1,3.50
Molecule 37,O[C@@H]1CCC2=CC(=O)C(=C(C)C)[C@@H]([C@@]2([C@H]1C)C)O,C15H22O3,250.33,18,0,0.67,0,3,2,71.31,57.53,2.30,1.66,1.99,1.66,2.13,1.95,-2.44,9.13e-01,3.65e-03,Soluble,-2.48,8.25e-01,3.30e-03,Soluble,-2.03,2.35e+00,9.38e-03,Soluble,High,Yes,No,No,No,No,No,No,-6.65,0,0,0,0,0,0.55,0,1,0,4.45
Molecule 38,OC[C@]12C(=O)C[C@]3([C@@]([C@@H]2CC=C2[C@H]1C[C@H](O)C(=O)C2(C)C)(C)C[C@H]([C@@H]3[C@](C(=O)/C=C/C(OC(=O)C)(C)C)(O)C)O)C,C32H46O9,574.70,41,0,0.75,7,9,4,152.10,158.43,3.52,1.97,2.47,0.99,3.91,2.57,-4.18,3.78e-02,6.57e-05,Moderately soluble,-4.92,6.87e-03,1.20e-05,Moderately soluble,-3.69,1.19e-01,2.07e-04,Soluble,Low,No,No,No,No,No,No,Yes,-8.41,1,3,1,1,1,0.55,0,2,1,6.88
Molecule 39,OC[C@H]1OC(OC2C(O)C[C@@H]3C(=CCC4C3C(=O)C[C@@]3([C@@]4(C)CC([C@@H]3[C@](C(=O)CCC(C)C)(O)C)O)C)C2(C)C)[C@@H]([C@H]([C@@H]1O)O)O,C35H56O11,652.81,46,0,0.89,8,11,7,169.28,194.21,3.25,1.44,1.26,-0.14,1.76,1.51,-4.27,3.53e-02,5.41e-05,Moderately soluble,-5.12,4.91e-03,7.52e-06,Moderately soluble,-1.88,8.71e+00,1.33e-02,Soluble,Low,No,Yes,No,No,No,No,No,-9.26,3,3,1,1,4,0.17,0,1,2,8.06
Molecule 40,Oc1cc(C)c(c(c1)O)C(=O)Oc1cc(C)cc(c1)O,C15H14O5,274.27,20,12,0.13,3,5,3,73.84,86.99,2.11,3.55,2.64,2.18,2.46,2.59,-4.02,2.60e-02,9.48e-05,Moderately soluble,-5.06,2.38e-03,8.67e-06,Moderately soluble,-3.65,6.10e-02,2.22e-04,Soluble,High,No,No,Yes,No,Yes,No,Yes,-5.45,0,0,0,0,0,0.55,0,1,1,2.39
Molecule 41,Oc1cc(C)c(c(c1)O)C(=O)Oc1cc(C)c(c(c1)O)C(=O)Oc1cc(C)c(c(c1)O)C(=O)O,C24H20O10,468.41,34,18,0.12,7,10,5,119.19,170.82,1.73,5.60,3.57,2.35,3.12,3.27,-6.20,2.94e-04,6.28e-07,Poorly soluble,-8.95,5.26e-07,1.12e-09,Poorly soluble,-4.90,5.87e-03,1.25e-05,Moderately soluble,Low,No,No,No,No,No,No,No,-5.18,0,0,1,1,2,0.11,0,1,2,3.12
Molecule 42,C=CC(c1ccc(c(c1)OC)OC(=O)C(C)C)OC(=O)CC(C)C,C19H26O5,334.41,24,6,0.47,10,5,0,93.47,61.83,4.10,4.48,3.75,3.23,4.39,3.99,-4.26,1.83e-02,5.49e-05,Moderately soluble,-5.50,1.06e-03,3.17e-06,Moderately soluble,-4.42,1.27e-02,3.80e-05,Moderately soluble,High,Yes,No,No,Yes,Yes,No,Yes,-5.16,0,0,0,0,0,0.55,0,2,2,3.50
Molecule 43,C[n+]1cccc(c1)C(=O)Oc1c(O)cc(cc1O)C(=O)[O-],C14H11NO6,289.24,21,12,0.07,4,6,2,70.50,110.77,-5.58,1.21,-0.50,0.39,0.51,-0.79,-2.55,8.07e-01,2.79e-03,Soluble,-3.13,2.13e-01,7.36e-04,Soluble,-2.01,2.80e+00,9.68e-03,Soluble,High,No,Yes,No,No,No,No,No,-7.21,0,1,0,0,0,0.55,0,2,0,2.10
Molecule 44,C/C=C(\C(=O)Oc1cc(C)ccc1C1(COC(=O)C)CO1)/C,C17H20O5,304.34,22,6,0.41,7,5,0,81.19,65.13,3.13,2.41,2.55,2.10,4.03,2.84,-2.99,3.15e-01,1.04e-03,Soluble,-3.42,1.16e-01,3.80e-04,Soluble,-4.09,2.49e-02,8.18e-05,Moderately soluble,High,Yes,No,Yes,Yes,Yes,No,No,-6.45,0,0,0,0,0,0.55,0,3,0,3.46
Molecule 45,C/C=C(\C(=O)Oc1cc(C)ccc1C1(CO)CO1)/C,C15H18O4,262.30,19,6,0.40,5,4,1,71.45,59.06,2.57,1.83,1.98,1.71,3.54,2.32,-2.52,7.87e-01,3.00e-03,Soluble,-2.69,5.35e-01,2.04e-03,Soluble,-3.45,9.29e-02,3.54e-04,Soluble,High,Yes,No,No,No,No,No,No,-6.60,0,0,0,0,0,0.55,0,3,0,3.09
Molecule 46,C/C=C(\C(=O)Oc1cc(C)ccc1C1(CO1)C(=O)C)/C,C16H18O4,274.31,20,6,0.38,5,4,0,75.30,55.90,2.81,2.44,2.57,1.88,4.08,2.76,-2.97,2.94e-01,1.07e-03,Soluble,-3.26,1.52e-01,5.53e-04,Soluble,-3.95,3.05e-02,1.11e-04,Soluble,High,Yes,No,No,Yes,No,No,No,-6.24,0,0,0,0,0,0.55,0,3,0,3.16
Molecule 47,COc1c(C(=O)Oc2c(C)c(C)c(c(c2C)O)C(=O)O)c(C)c(c(c1C)OC(=O)c1c(C)cc(c(c1O)C)O)C,C30H32O10,552.57,40,18,0.30,8,10,4,148.49,159.82,3.08,7.19,5.42,3.55,6.40,5.13,-7.60,1.39e-05,2.51e-08,Poorly soluble,-10.37,2.37e-08,4.28e-11,Insoluble,-7.44,1.99e-05,3.60e-08,Poorly soluble,Low,No,No,No,No,No,No,No,-4.57,1,3,1,1,2,0.11,0,1,3,3.97
Molecule 48,O=C(c1c(C)c(C)c(c(c1O)C)OC(=O)c1c(C)cc(c(c1O)C)O)Oc1c(C)c(C)c(c(c1C)O)C(=O)O,C29H30O10,538.54,39,18,0.28,7,10,5,144.02,170.82,2.86,7.42,5.11,3.35,5.84,4.92,-7.73,9.96e-06,1.85e-08,Poorly soluble,-10.84,7.82e-09,1.45e-11,Insoluble,-6.76,9.38e-05,1.74e-07,Poorly soluble,Low,No,No,No,No,No,No,No,-4.32,1,2,1,1,2,0.11,0,1,2,3.81
Molecule 49,COc1c(C(=O)Oc2cc(C)c(c(c2C)O)C(=O)O)c(C)c(c(c1C)OC(=O)c1c(C)cc(c(c1O)C)O)C,C29H30O10,538.54,39,18,0.28,8,10,4,143.53,159.82,2.85,6.83,5.11,3.35,5.86,4.80,-7.30,2.73e-05,5.07e-08,Poorly soluble,-9.99,5.45e-08,1.01e-10,Poorly soluble,-7.07,4.54e-05,8.43e-08,Poorly soluble,Low,No,No,No,No,No,No,No,-4.74,1,2,1,1,2,0.11,0,1,3,3.85
Molecule 50,C/C=C\C(=O)Oc1cc(C)ccc1C(C)C,C14H18O2,218.29,16,6,0.36,4,2,0,66.63,26.30,3.14,4.36,3.60,3.58,3.82,3.70,-3.95,2.43e-02,1.11e-04,Soluble,-4.63,5.14e-03,2.36e-05,Moderately soluble,-3.78,3.61e-02,1.66e-04,Soluble,High,Yes,No,No,No,No,No,No,-4.54,0,0,0,0,0,0.55,0,2,2,2.20
Molecule 51,C/C=C(\C(=O)Oc1cc(C)ccc1C(C)C)/C,C15H20O2,232.32,17,6,0.40,4,2,0,71.43,26.30,3.30,4.36,3.99,3.83,4.06,3.91,-4.02,2.20e-02,9.45e-05,Moderately soluble,-4.63,5.47e-03,2.36e-05,Moderately soluble,-4.17,1.58e-02,6.79e-05,Moderately soluble,High,Yes,No,No,No,No,No,No,-4.62,0,0,0,0,0,0.55,0,2,2,2.37
Molecule 52,COC(=O)[C@]12Oc3c4c(cc(c3C(=O)C2=C(C=C[C@H]1O)O)O)C[C@@]12C=C[C@@H]4C(=O)C1=C(O)c1c([C@@H]2OC(=O)C)cc(cc1O)C,C33H26O12,614.55,45,12,0.27,4,12,5,154.00,197.12,3.72,3.54,2.66,-0.09,2.44,2.46,-5.81,9.44e-04,1.54e-06,Moderately soluble,-7.36,2.66e-05,4.32e-08,Poorly soluble,-4.50,1.96e-02,3.19e-05,Moderately soluble,Low,No,Yes,No,No,Yes,No,No,-7.54,2,3,1,1,3,0.11,0,2,2,6.68
Molecule 53,COC(=O)c1c(O)ccc(c1C(=O)c1c(O)cc2c(c1O)[C@@H]1C=C[C@]3(C2)C(=C(O)c2c([C@@H]3OC(=O)C)cc(cc2O)C)C1=O)O,C33H26O12,614.55,45,18,0.21,6,12,6,156.82,208.12,3.36,4.79,3.57,0.65,3.42,3.16,-6.57,1.66e-04,2.70e-07,Poorly soluble,-8.89,7.88e-07,1.28e-09,Poorly soluble,-5.56,1.70e-03,2.77e-06,Moderately soluble,Low,No,No,No,No,Yes,No,No,-6.65,3,3,1,1,4,0.11,0,3,2,6.32
Molecule 54,CC(=O)O[C@@H]1C[C@H]2C(C)(C)C(=O)C=C[C@@]2([C@@H]2[C@]1(C)[C@@]13O[C@@H]1C(=O)O[C@H]([C@@]3(CC2)C)c1ccoc1)C,C28H34O7,482.57,35,5,0.68,3,7,0,126.04,95.34,3.23,4.22,4.24,2.56,4.44,3.74,-5.40,1.93e-03,4.00e-06,Moderately soluble,-5.93,5.64e-04,1.17e-06,Moderately soluble,-5.75,8.50e-04,1.76e-06,Moderately soluble,High,No,Yes,No,No,No,No,No,-6.25,0,1,0,0,0,0.55,0,2,2,6.48
Molecule 55,C[C@@]12[C@H](OC(=O)/C(=C\C)/C)c3ccoc3C(=O)C2=C[C@@H](C[C@@H]1C)O,C19H22O5,330.37,24,5,0.47,3,5,1,88.56,76.74,2.89,3.00,3.04,1.45,2.91,2.66,-3.73,6.09e-02,1.84e-04,Soluble,-4.28,1.75e-02,5.30e-05,Moderately soluble,-3.49,1.06e-01,3.22e-04,Soluble,High,Yes,No,No,No,No,No,Yes,-6.19,0,0,0,0,0,0.55,0,1,0,4.98
Molecule 56,C/C=C(\C(=O)O[C@@H]1c2c(C)coc2C(=O)C2=CCC[C@@H]([C@@]12C)C)/C,C20H24O4,328.40,24,5,0.50,3,4,0,92.37,56.51,2.88,4.66,4.37,2.51,4.33,3.75,-4.77,5.60e-03,1.71e-05,Moderately soluble,-5.57,8.77e-04,2.67e-06,Moderately soluble,-4.69,6.77e-03,2.06e-05,Moderately soluble,High,Yes,No,No,Yes,Yes,No,Yes,-4.99,0,0,0,0,0,0.55,0,1,1,4.93
Molecule 57,CC(=O)O[C@@H]1C[C@H]2[C@@H](C)c3ccoc3C[C@@H]2[C@@]2([C@@H]1C(C)(C)CCC2)C,C22H32O3,344.49,25,5,0.77,2,3,0,99.97,39.44,3.78,5.75,5.34,4.05,4.48,4.68,-5.61,8.37e-04,2.43e-06,Moderately soluble,-6.35,1.55e-04,4.51e-07,Poorly soluble,-5.35,1.53e-03,4.45e-06,Moderately soluble,High,Yes,No,No,No,Yes,No,No,-4.32,0,0,0,0,1,0.55,0,0,1,5.11
Molecule 58,C=CC1=CC[C@H]2[C@H]([C@H]1C)C[C@H]([C@@H]1[C@]2(C)CCCC1(C)C)OC(=O)C,C22H34O2,330.50,24,0,0.77,3,2,0,101.34,26.30,3.69,6.13,5.54,4.98,4.70,5.01,-5.55,9.25e-04,2.80e-06,Moderately soluble,-6.46,1.13e-04,3.43e-07,Poorly soluble,-4.38,1.36e-02,4.12e-05,Moderately soluble,High,Yes,No,No,Yes,Yes,No,No,-3.96,1,0,0,0,1,0.55,0,0,1,5.02
Molecule 59,C=CC1=C(C)[C@H]2[C@H](CC1)[C@@]1(C)CCCC([C@@H]1[C@@H](C2)OC(=O)C)(C)C,C22H34O2,330.50,24,0,0.77,3,2,0,101.34,26.30,3.68,5.80,5.68,4.98,5.09,5.05,-5.35,1.49e-03,4.52e-06,Moderately soluble,-6.12,2.49e-04,7.55e-07,Poorly soluble,-4.83,4.83e-03,1.46e-05,Moderately soluble,High,Yes,No,No,Yes,Yes,No,No,-4.20,1,1,0,0,1,0.55,0,0,1,4.92
Molecule 60,O=C(O[C@@H]1C[C@@](O)(C[C@H]([C@H]1O)O)C(=O)O)/C=C/c1ccc(c(c1)O)O,C16H18O9,354.31,25,6,0.38,5,9,6,83.50,164.75,0.87,-0.42,-0.75,-1.05,-0.61,-0.39,-1.62,8.50e+00,2.40e-02,Very soluble,-2.58,9.42e-01,2.66e-03,Soluble,0.40,8.94e+02,2.52e+00,Soluble,Low,No,No,No,No,No,No,No,-8.76,1,1,1,1,2,0.11,1,2,1,4.16
Molecule 61,O=Cc1cc2oc1C[C@@H](C[C@@H](OC(=O)C)[C@@]13[C@H]([C@H](C[C@@]([C@H]2O)(C)O)OC3=O)O1)C(=C)C,C22H26O9,434.44,31,5,0.59,4,9,2,105.37,135.80,2.23,0.77,1.08,-0.25,2.25,1.22,-2.87,5.81e-01,1.34e-03,Soluble,-3.20,2.73e-01,6.28e-04,Soluble,-2.84,6.28e-01,1.45e-03,Soluble,High,No,Yes,No,No,No,No,No,-8.40,0,0,0,1,0,0.55,0,4,1,7.09
Molecule 62,O=Cc1cc2oc1C[C@@H](C[C@@H](OC(=O)C)[C@@]13[C@H]([C@H](C[C@@]4([C@@H]2O4)C)OC3=O)O1)C1(C)OC1,C22H24O9,432.42,31,5,0.68,4,9,0,101.50,120.40,2.77,0.38,1.33,-0.17,3.40,1.54,-2.62,1.05e+00,2.42e-03,Soluble,-2.47,1.45e+00,3.36e-03,Soluble,-3.56,1.19e-01,2.76e-04,Soluble,High,No,No,No,Yes,No,No,No,-8.67,0,0,0,0,0,0.55,0,3,1,6.85
Molecule 63,COC(=O)c1cc2oc1C[C@@H](C[C@@H](OC(=O)C)[C@@]13[C@H]([C@H](C[C@@]4([C@@H]2O4)C)OC3=O)O1)C(=C)C,C23H26O9,446.45,32,5,0.61,5,9,0,107.91,117.10,3.37,2.16,2.10,1.05,3.27,2.39,-3.75,7.86e-02,1.76e-04,Soluble,-4.25,2.50e-02,5.60e-05,Moderately soluble,-3.84,6.45e-02,1.45e-04,Soluble,High,No,No,No,No,No,No,No,-7.49,0,0,0,0,0,0.55,0,3,1,6.99
Molecule 64,O=Cc1cc2oc1C[C@@H](C[C@@H](OC(=O)C)[C@@]13[C@H]([C@H](C[C@]([C@@H]2O)(C)O)OC3=O)O1)C(=C)C,C22H26O9,434.44,31,5,0.59,4,9,2,105.37,135.80,2.30,0.77,1.08,-0.25,2.25,1.23,-2.87,5.81e-01,1.34e-03,Soluble,-3.20,2.73e-01,6.28e-04,Soluble,-2.84,6.28e-01,1.45e-03,Soluble,High,No,Yes,No,No,No,No,No,-8.40,0,0,0,1,0,0.55,0,4,1,7.09
Molecule 65,CCC(=O)O[C@@H]1c2c(ccc3c2oc(=O)cc3)OC([C@@H]1OC(=O)C)(C)C,C19H20O7,360.36,26,10,0.42,5,7,0,92.89,92.04,3.08,2.42,2.57,1.84,3.20,2.62,-3.55,1.01e-01,2.80e-04,Soluble,-4.00,3.64e-02,1.01e-04,Soluble,-5.00,3.65e-03,1.01e-05,Moderately soluble,High,No,No,No,Yes,Yes,No,Yes,-6.78,0,0,0,0,0,0.55,0,2,1,4.36
Molecule 66,CC(=O)O[C@@H]1[C@H](OC(=O)C(C)C)c2c(OC1(C)C)ccc1c2oc(=O)cc1,C20H22O7,374.38,27,10,0.45,5,7,0,97.70,92.04,3.34,2.99,2.81,2.07,3.43,2.93,-3.99,3.84e-02,1.03e-04,Soluble,-4.59,9.70e-03,2.59e-05,Moderately soluble,-5.01,3.62e-03,9.66e-06,Moderately soluble,High,No,No,No,Yes,Yes,No,Yes,-6.46,0,0,0,0,0,0.55,0,2,1,4.47
Molecule 67,COC(=O)[C@@]12CC[C@@]3([C@@H]([C@@]1(C)CC[C@@]1([C@@]2(O)CC(=CC1)C)C)[C@H](O)[C@@H]([C@@]1([C@H]3C=CC(=O)OC1)[C@H](O)C)OC(=O)C)C,C32H46O9,574.70,41,0,0.78,5,9,3,150.50,139.59,3.34,3.51,3.24,2.69,3.43,3.24,-5.28,2.99e-03,5.19e-06,Moderately soluble,-6.12,4.31e-04,7.50e-07,Poorly soluble,-4.05,5.13e-02,8.93e-05,Moderately soluble,Low,No,Yes,No,No,No,No,Yes,-7.31,1,3,0,1,0,0.55,0,2,2,7.18
Molecule 68,COC(=O)[C@@]12CC[C@@]3([C@@H]([C@@]1(C)CC[C@@]1([C@@]2(O)CC(=C)CC1)C)[C@H](O)[C@@H]([C@@]1([C@H]3C=CC(=O)OC1)[C@H](O)C)OC(=O)C)C,C32H46O9,574.70,41,0,0.78,5,9,3,150.50,139.59,3.18,3.56,3.24,2.69,3.71,3.28,-5.32,2.78e-03,4.83e-06,Moderately soluble,-6.18,3.83e-04,6.66e-07,Poorly soluble,-4.30,2.90e-02,5.05e-05,Moderately soluble,Low,No,Yes,No,No,No,No,Yes,-7.28,1,3,0,1,0,0.55,0,2,2,7.12
Molecule 69,CCCCCCCCCCCC(=O)O[C@H]1[C@@H](O[C@H]([C@@H]([C@H]1O[C@@H]1O[C@@H](C)[C@@H]([C@H]([C@H]1OC(=O)CCCCCCCCC[C@@H](O[C@@H]1O[C@H](C)[C@@H]([C@@H]([C@H]1O[C@@H]1O[C@@H](C)[C@@H]([C@H]([C@H]1O)O)O[C@@H]1O[C@@H](C)[C@@H]([C@H]([C@H]1OC(=O)CCCCCCCCCCC)O[C@@H]1C[C@@H](C)[C@@H]([C@H]([C@H]1O)O)O)O[C@@H]1O[C@@H](C)[C@@H]([C@H]([C@H]1O)O)OC(=O)C(C)C)O)O)CCCCC)O)O)O[C@@H]1O[C@@H](C)[C@H]([C@H]([C@H]1O)O)OC(=O)C(C)C)C)O[C@H]1[C@H](C)O[C@@H]2[C@@H]([C@@H]1O)OC(=O)CCCCCCCCC[C@@H](O[C@H]1[C@H](O2)[C@@H](O)[C@H]([C@H](O1)C)O)CCCCC,C125H218O47,2473.04,172,0,0.95,66,47,16,626.65,656.85,0.00,16.53,10.55,-5.23,8.11,5.99,-21.23,1.45e-18,5.88e-22,Insoluble,-30.50,7.85e-28,3.18e-31,Insoluble,-7.24,1.44e-04,5.82e-08,Poorly soluble,Low,No,Yes,No,No,No,No,No,-9.65,3,4,2,2,7,0.17,0,1,3,10.00
Molecule 70,CCCCCCCCCCCC(=O)O[C@H]1[C@@H](O[C@H]([C@@H]([C@H]1O[C@@H]1O[C@@H](C)[C@@H]([C@H]([C@H]1O)O)OC(=O)CCCCCCCCC[C@@H](O[C@@H]1O[C@H](C)[C@@H]([C@@H]([C@H]1O[C@@H]1O[C@@H](C)[C@@H]([C@H]([C@H]1O)O)O[C@@H]1O[C@@H](C)[C@@H]([C@H]([C@H]1OC(=O)CCCCCCCCCCC)O[C@@H]1C[C@@H](C)[C@@H]([C@H]([C@H]1O)O)O)O[C@@H]1O[C@@H](C)[C@@H]([C@H]([C@H]1O)O)OC(=O)[C@@H](CC)C)O)O)CCCCC)O[C@@H]1O[C@@H](C)[C@H]([C@H]([C@H]1O)O)OC(=O)[C@@H](CC)C)C)O[C@H]1[C@H](C)O[C@@H]2[C@@H]([C@@H]1OC(=O)CCCCCCCCC[C@@H](O[C@H]1[C@H](O2)[C@@H](O)[C@H]([C@H](O1)C)O)CCCCC)O,C127H222O47,2501.09,174,0,0.95,68,47,16,636.26,656.85,0.00,17.25,11.33,-5.01,8.99,6.51,-21.73,4.70e-19,1.88e-22,Insoluble,-31.25,1.42e-28,5.68e-32,Insoluble,-7.98,2.64e-05,1.06e-08,Poorly soluble,Low,No,Yes,No,No,No,No,No,-9.31,3,4,2,2,7,0.17,0,1,3,10.00
Molecule 71,CCCCCCCCCC(=O)O[C@H]1[C@@H](O[C@H]([C@@H]([C@H]1O[C@@H]1O[C@@H](C)[C@@H]([C@H]([C@H]1O)O)OC(=O)CCCCCCCCC[C@@H](O[C@@H]1O[C@H](C)[C@@H]([C@@H]([C@H]1O[C@@H]1O[C@@H](C)[C@@H]([C@H]([C@H]1O)O)O[C@@H]1O[C@@H](C)[C@@H]([C@H]([C@H]1OC(=O)CCCCCCCCC)O[C@@H]1C[C@@H](C)[C@@H]([C@H]([C@H]1O)O)O)O[C@@H]1O[C@@H](C)[C@@H]([C@H]([C@H]1O)O)OC(=O)[C@@H](CC)C)O)O)CCCCC)O[C@@H]1O[C@@H](C)[C@H]([C@H]([C@H]1O)O)OC(=O)[C@@H](CC)C)C)O[C@H]1[C@H](C)O[C@@H]2[C@@H]([C@@H]1OC(=O)CCCCCCCCC[C@@H](O[C@H]1[C@H](O2)[C@@H](O)[C@H]([C@H](O1)C)O)CCCCC)O,C123H214O47,2444.99,170,0,0.95,64,47,16,617.03,656.85,0.00,15.08,9.76,-5.44,7.24,5.33,-20.28,1.30e-17,5.30e-21,Insoluble,-28.99,2.48e-26,1.01e-29,Insoluble,-6.49,7.86e-04,3.21e-07,Poorly soluble,Low,No,Yes,No,No,No,No,No,-10.51,3,4,2,2,7,0.17,0,1,3,10.00
Molecule 72,O=C(C(C)C)O[C@@H]1c2c(ccc3c2oc(=O)cc3)OC([C@@H]1O)(C)C,C18H20O6,332.35,24,10,0.44,3,6,1,87.96,85.97,3.02,2.42,2.24,1.67,2.94,2.46,-3.54,9.69e-02,2.91e-04,Soluble,-3.87,4.51e-02,1.36e-04,Soluble,-4.39,1.34e-02,4.05e-05,Moderately soluble,High,No,No,No,No,No,No,No,-6.61,0,0,0,0,0,0.55,0,1,0,4.21
Molecule 73,C/C=C(\C(=O)O[C@@H]1c2c(ccc3c2oc(=O)cc3)OC([C@@H]1O)(C)C)/C,C19H20O6,344.36,25,10,0.37,3,6,1,92.29,85.97,3.18,2.57,2.55,1.83,3.17,2.66,-3.69,7.00e-02,2.03e-04,Soluble,-4.02,3.26e-02,9.47e-05,Moderately soluble,-4.43,1.29e-02,3.74e-05,Moderately soluble,High,No,No,No,No,No,No,No,-6.58,0,0,0,0,0,0.55,0,2,0,4.30
Molecule 74,OC[C@@]1(C)CCC[C@]2([C@H]1C[C@@H](OC(=O)C)C1=C2C(=O)C(=C(C1=O)C(C)C)O)C,C22H30O6,390.47,28,0,0.68,4,6,2,104.48,100.90,2.87,2.93,3.04,1.43,3.51,2.75,-3.84,5.61e-02,1.44e-04,Soluble,-4.71,7.60e-03,1.95e-05,Moderately soluble,-3.86,5.41e-02,1.39e-04,Soluble,High,No,Yes,No,No,No,No,No,-6.60,0,0,0,0,0,0.56,1,1,1,5.21
Molecule 75,CC(=O)O[C@@H]1C[C@@H]2[C@@]3(CC4=C1C(=O)C(=C(C4=O)O)C(C)C)CCC[C@]2(C)C(=O)O3,C22H26O7,402.44,29,0,0.64,3,7,1,102.78,106.97,2.71,2.13,2.73,1.36,3.27,2.44,-3.48,1.34e-01,3.32e-04,Soluble,-4.01,3.95e-02,9.82e-05,Moderately soluble,-3.81,6.20e-02,1.54e-04,Soluble,High,No,Yes,No,No,No,No,No,-7.24,0,0,0,0,0,0.56,1,2,1,5.71
Molecule 76,COC(=O)C1(O)C[C@@H](OC(=O)/C=C/c2ccc(c(c2)O)O)C([C@@H](C1)OC(=O)/C=C/c1ccc(c(c1)O)O)O,C26H26O12,530.48,38,12,0.27,10,12,6,131.22,200.28,1.99,1.85,0.90,-0.15,1.25,1.17,-3.87,7.19e-02,1.35e-04,Soluble,-5.68,1.12e-03,2.10e-06,Moderately soluble,-1.85,7.49e+00,1.41e-02,Soluble,Low,No,Yes,No,No,No,No,No,-8.22,3,2,1,1,3,0.17,1,3,2,4.93
Molecule 77,O=C(O[C@@H]1CC(O)(C[C@H](C1O)OC(=O)/C=C/c1ccc(c(c1)O)O)C(=O)O)/C=C/c1ccc(c(c1)O)O,C25H24O12,516.45,37,12,0.24,9,12,7,126.90,211.28,1.29,1.52,0.81,-0.35,0.69,0.79,-3.65,1.17e-01,2.26e-04,Soluble,-5.57,1.40e-03,2.72e-06,Moderately soluble,-1.16,3.54e+01,6.85e-02,Soluble,Low,No,Yes,No,No,No,No,No,-8.37,3,1,1,1,3,0.11,1,3,2,4.81
Molecule 78,COC(=O)C[C@H]1C(C)(C)[C@H](OC(=O)C(C)C)[C@]2(C(=O)[C@]1(C)C1CC[C@@]3(C([C@]41[C@@H]2O4)CC(=O)O[C@H]3c1ccoc1)C)OC(=O)C,C33H42O11,614.68,44,5,0.73,9,11,0,153.42,147.94,4.05,3.38,3.79,1.96,4.82,3.60,-5.27,3.30e-03,5.36e-06,Moderately soluble,-6.17,4.20e-04,6.83e-07,Poorly soluble,-6.16,4.29e-04,6.98e-07,Poorly soluble,Low,No,Yes,No,No,No,No,No,-7.65,2,3,1,1,2,0.17,0,2,2,7.23
Molecule 79,COC(=O)C[C@H]1C(C)(C)[C@H](OC(=O)C(C)C)[C@]2(C(=O)[C@]1(C)C1CC[C@@]3(C(C1=C2)CC(=O)O[C@H]3c1ccoc1)C)OC(=O)C,C33H42O10,598.68,43,5,0.67,9,10,0,153.94,135.41,4.18,3.96,4.58,2.64,4.98,4.07,-5.54,1.73e-03,2.89e-06,Moderately soluble,-6.50,1.88e-04,3.13e-07,Poorly soluble,-6.44,2.19e-04,3.66e-07,Poorly soluble,Low,No,Yes,No,No,No,No,No,-7.14,1,3,0,1,0,0.55,0,2,3,7.29
Molecule 80,COC(=O)C[C@H]1C(C)(C)[C@H](OC(=O)/C(=C/C)/C)[C@]2(C(=O)[C@]1(C)C1CC[C@@]3(C(C1=C2)CC(=O)O[C@H]3c1ccoc1)C)OC(=O)C,C34H42O10,610.69,44,5,0.62,9,10,0,158.27,135.41,4.19,4.11,4.89,2.75,5.23,4.23,-5.71,1.20e-03,1.97e-06,Moderately soluble,-6.66,1.34e-04,2.19e-07,Poorly soluble,-6.46,2.11e-04,3.45e-07,Poorly soluble,Low,No,Yes,No,No,No,No,No,-7.11,1,3,0,1,1,0.55,0,3,3,7.35
Molecule 81,COC(=O)C[C@H]1C(C)(C)[C@H](OC(=O)C(C)C)[C@]2(C(=O)[C@]1(C)C1CC[C@@]3(C([C@]41[C@@H]2O4)CC(=O)O[C@H]3c1ccoc1)C)O,C31H40O10,572.64,41,5,0.74,7,10,1,143.68,141.87,3.54,2.81,3.22,1.61,4.28,3.09,-4.79,9.31e-03,1.63e-05,Moderately soluble,-5.45,2.05e-03,3.58e-06,Moderately soluble,-5.56,1.58e-03,2.75e-06,Moderately soluble,Low,No,Yes,No,No,No,No,Yes,-7.80,1,3,1,1,0,0.55,0,2,1,7.03
Molecule 82,COC(=O)C[C@H]1C(C)(C)[C@H](OC(=O)C(C)C)[C@]2(C(=O)[C@]1(C)C1CC[C@@]3(C(C1=C2)CC(=O)O[C@H]3c1ccoc1)C)O,C31H40O9,556.64,40,5,0.68,7,9,1,144.20,129.34,3.68,3.38,4.01,2.30,4.44,3.56,-5.05,4.95e-03,8.89e-06,Moderately soluble,-5.77,9.35e-04,1.68e-06,Moderately soluble,-5.84,8.05e-04,1.45e-06,Moderately soluble,Low,No,Yes,No,No,No,No,Yes,-7.30,1,3,0,0,0,0.55,0,2,1,7.05
Molecule 83,COC(=O)C[C@H]1C(C)(C)[C@H](OC(=O)/C(=C/C)/C)[C@]2(C(=O)[C@]1(C)C1CC[C@@]3(C(C1=C2)CC(=O)O[C@H]3c1ccoc1)C)O,C32H40O9,568.65,41,5,0.62,7,9,1,148.53,129.34,3.93,3.54,4.32,2.41,4.69,3.78,-5.22,3.39e-03,5.97e-06,Moderately soluble,-5.94,6.52e-04,1.15e-06,Moderately soluble,-5.87,7.74e-04,1.36e-06,Moderately soluble,Low,No,Yes,No,No,No,No,No,-7.26,1,3,0,0,0,0.55,0,3,2,7.14
Molecule 84,O=C(C(C)C)O[C@@H]1Cc2c(OC1(C)C)ccc1c2oc(=O)cc1,C18H20O5,316.35,23,10,0.44,3,5,0,86.80,65.74,3.14,3.53,3.07,2.49,3.83,3.21,-4.15,2.24e-02,7.10e-05,Moderately soluble,-4.59,8.04e-03,2.54e-05,Moderately soluble,-5.21,1.96e-03,6.19e-06,Moderately soluble,High,Yes,No,No,Yes,Yes,No,No,-5.72,0,0,0,0,0,0.55,0,1,1,3.99
Molecule 85,C/C=C(\C(=O)O[C@@H]1Cc2c(OC1(C)C)ccc1c2oc(=O)cc1)/C,C19H20O5,328.36,24,10,0.37,3,5,0,91.13,65.74,3.32,3.69,3.38,2.64,4.06,3.42,-4.31,1.61e-02,4.89e-05,Moderately soluble,-4.76,5.70e-03,1.73e-05,Moderately soluble,-5.24,1.88e-03,5.73e-06,Moderately soluble,High,Yes,No,No,Yes,Yes,No,Yes,-5.68,0,0,0,0,0,0.55,0,2,1,4.08
Molecule 86,COc1c2C[C@@H](OC(=O)C(C)C)C(Oc2cc2c1c(=O)cc(o2)C)(C)C,C20H24O6,360.40,26,10,0.50,4,6,0,98.26,74.97,3.66,3.51,3.39,1.59,4.42,3.31,-4.31,1.78e-02,4.94e-05,Moderately soluble,-4.77,6.15e-03,1.71e-05,Moderately soluble,-5.70,7.27e-04,2.02e-06,Moderately soluble,High,Yes,No,No,Yes,Yes,No,Yes,-6.01,0,0,0,0,0,0.55,0,0,2,4.19
Molecule 87,C/C=C(\C(=O)O[C@@H]1Cc2c(OC1(C)C)cc1c(c2OC)c(=O)cc(o1)C)/C,C21H24O6,372.41,27,10,0.43,4,6,0,102.59,74.97,3.69,3.67,3.70,1.74,4.66,3.49,-4.47,1.26e-02,3.38e-05,Moderately soluble,-4.93,4.34e-03,1.16e-05,Moderately soluble,-5.73,6.98e-04,1.87e-06,Moderately soluble,High,Yes,No,No,Yes,Yes,No,Yes,-5.97,0,0,0,0,0,0.55,0,1,2,4.28
Molecule 88,C=CC([C@@]12Nc3c([C@@]2(OC(=O)C)C[C@@H]2N1C(=O)[C@@H](OC2=O)Cc1ccccc1)cccc3)(C)C,C27H28N2O5,460.52,34,12,0.37,6,5,1,133.05,84.94,3.11,4.57,2.49,2.77,3.81,3.35,-5.44,1.67e-03,3.63e-06,Moderately soluble,-6.08,3.85e-04,8.37e-07,Poorly soluble,-6.88,6.03e-05,1.31e-07,Poorly soluble,High,No,Yes,No,Yes,Yes,No,Yes,-5.86,0,1,0,0,0,0.55,0,2,2,4.88
Molecule 89,C=CC([C@@]12Nc3c([C@@]2(OC(=O)C)C[C@@H]2N1C(=O)[C@@H](OC2=O)Cc1ccccc1)cccc3O)(C)C,C27H28N2O6,476.52,35,12,0.37,6,6,2,135.08,105.17,2.94,4.21,2.19,2.25,3.33,2.98,-5.30,2.36e-03,4.96e-06,Moderately soluble,-6.13,3.54e-04,7.44e-07,Poorly soluble,-6.29,2.43e-04,5.11e-07,Poorly soluble,High,No,Yes,No,No,Yes,No,Yes,-6.22,0,1,0,0,0,0.55,0,3,2,4.96
Molecule 90,O=Cc1cc2oc1C[C@H](C[C@H](OC(=O)C)[C@]13[C@@H]([C@@H](C[C@]4([C@H]2O4)C)OC3=O)O1)C(=C)C,C22H24O8,416.42,30,5,0.59,4,8,0,102.02,107.87,2.58,1.77,2.12,0.53,3.47,2.09,-3.40,1.67e-01,4.02e-04,Soluble,-3.65,9.25e-02,2.22e-04,Soluble,-3.74,7.58e-02,1.82e-04,Soluble,High,No,No,No,No,No,No,No,-7.58,0,0,0,0,0,0.55,0,4,1,6.75
Molecule 91,CC[C@@H](C(=O)O[C@H]1c2c(C)coc2C(=O)C2=CCC[C@@H]([C@@]12C)C)C,C20H26O4,330.42,24,5,0.60,4,4,0,92.84,56.51,3.51,4.86,4.45,2.59,4.49,3.98,-4.84,4.77e-03,1.44e-05,Moderately soluble,-5.78,5.47e-04,1.66e-06,Moderately soluble,-5.05,2.96e-03,8.95e-06,Moderately soluble,High,Yes,No,No,Yes,Yes,No,Yes,-4.86,0,0,0,0,0,0.55,0,0,1,5.14
Molecule 92,C/C=C(\C(=O)O[C@H]1c2c(C)coc2C(=O)C2=CCC[C@@H]([C@@]12C)C)/C,C20H24O4,328.40,24,5,0.50,3,4,0,92.37,56.51,3.02,4.66,4.37,2.51,4.33,3.78,-4.77,5.60e-03,1.71e-05,Moderately soluble,-5.57,8.77e-04,2.67e-06,Moderately soluble,-4.69,6.77e-03,2.06e-05,Moderately soluble,High,Yes,No,No,Yes,Yes,No,Yes,-4.99,0,0,0,0,0,0.55,0,1,1,4.93
Molecule 93,CC(=O)O[C@@H]1c2c(ccc3c2oc(=O)cc3)OC([C@@H]1OC(=O)C)(C)C,C18H18O7,346.33,25,10,0.39,4,7,0,88.09,92.04,2.91,1.95,2.18,1.61,2.81,2.29,-3.25,1.96e-01,5.65e-04,Soluble,-3.51,1.08e-01,3.11e-04,Soluble,-4.60,8.70e-03,2.51e-05,Moderately soluble,High,No,No,No,Yes,No,No,No,-7.03,0,0,0,0,0,0.55,0,2,0,4.26
Molecule 94,C/C=C(\C(=O)O[C@@H]1[C@H](O)c2c(OC1(C)C)ccc1c2oc(=O)cc1)/C,C19H20O6,344.36,25,10,0.37,3,6,1,92.29,85.97,3.12,2.57,2.55,1.83,3.17,2.65,-3.69,7.00e-02,2.03e-04,Soluble,-4.02,3.26e-02,9.47e-05,Moderately soluble,-4.43,1.29e-02,3.74e-05,Moderately soluble,High,No,No,No,No,No,No,No,-6.58,0,0,0,0,0,0.55,0,2,0,4.36
Molecule 95,COC(=O)[C@@]12CC[C@@]3([C@@H]([C@@]1(C)CC[C@@]1([C@@]2(O)CC(=CC1)C)C)[C@H](OC(=O)C)[C@@H]([C@@]1([C@H]3C=CC(=O)OC1)[C@H](O)C)O)C,C32H46O9,574.70,41,0,0.78,5,9,3,150.50,139.59,3.61,4.06,3.24,2.69,3.43,3.41,-5.63,1.34e-03,2.34e-06,Moderately soluble,-6.70,1.16e-04,2.02e-07,Poorly soluble,-4.05,5.13e-02,8.93e-05,Moderately soluble,Low,No,Yes,No,No,No,No,Yes,-6.92,1,3,0,1,0,0.55,0,2,2,7.21
Molecule 96,COC(=O)[C@@]12CC[C@@]3([C@@H]([C@@]1(C)CC[C@@]1([C@@]2(O)CC(=C)CC1)C)[C@H](OC(=O)C)[C@@H]([C@@]1([C@H]3C=CC(=O)OC1)[C@H](O)C)O)C,C32H46O9,574.70,41,0,0.78,5,9,3,150.50,139.59,4.00,4.11,3.24,2.69,3.71,3.55,-5.66,1.25e-03,2.18e-06,Moderately soluble,-6.75,1.03e-04,1.79e-07,Poorly soluble,-4.30,2.90e-02,5.05e-05,Moderately soluble,Low,No,Yes,No,No,No,No,Yes,-6.89,1,3,0,1,0,0.55,0,2,2,7.15
Molecule 97,COc1c(OC)cc(cc1OC)[C@H]1[C@H]2C(=O)OC[C@@H]2[C@H](c2c1cc1OCOc1c2)OC(=O)C,C24H24O9,456.44,33,12,0.42,6,9,0,113.58,98.75,3.34,2.58,2.66,1.81,3.39,2.75,-4.17,3.10e-02,6.79e-05,Moderately soluble,-4.30,2.28e-02,4.99e-05,Moderately soluble,-5.36,1.98e-03,4.34e-06,Moderately soluble,High,No,No,No,No,Yes,Yes,Yes,-7.25,0,0,0,0,0,0.55,0,1,1,4.91
Molecule 98,CCCCCCCCCC(=O)O[C@H]1[C@@H](O[C@H]([C@@H]([C@H]1O[C@@H]1O[C@H](CO)[C@H]([C@@H]([C@H]1O)O)O)O[C@@H]1O[C@@H](C)[C@@H]([C@H]([C@H]1O)OC(=O)/C=C/c1ccccc1)OC(=O)CCCCC)C)O[C@H]1[C@H](C)O[C@@H]2[C@@H]([C@@H]1O)OC(=O)CCCCCCCCC[C@@H](O[C@H]1[C@H](O2)[C@@H](O)[C@H]([C@H](O1)C)O)CCCCC,C71H114O26,1383.65,97,6,0.83,31,26,8,351.97,359.34,10.02,9.83,6.21,-0.97,4.52,5.92,-12.61,3.39e-10,2.45e-13,Insoluble,-17.30,6.97e-15,5.04e-18,Insoluble,-5.90,1.74e-03,1.26e-06,Moderately soluble,Low,No,Yes,No,No,No,No,No,-7.76,3,4,2,2,6,0.17,0,2,3,10.00
Molecule 99,CC=C(C(=O)O[C@H]1[C@@H]2[C@@H](C[C@@H](C)C=CC(=O)[C@]([C@@H]1OC(=O)C)(C)O)OC(=O)C2=C)C,C22H28O8,420.45,30,0,0.55,5,8,1,107.47,116.20,2.59,2.35,1.81,1.30,2.09,2.03,-3.60,1.06e-01,2.53e-04,Soluble,-4.43,1.56e-02,3.72e-05,Moderately soluble,-2.22,2.53e+00,6.03e-03,Soluble,High,No,No,No,No,No,No,No,-7.20,0,0,0,0,0,0.55,0,2,1,5.79
Molecule 100,C[C@H]1C=CC(=O)[C@](C)(O)[C@@H]([C@H]([C@@H]2[C@@H](C1)OC(=O)C2=C)OC(=O)C(=C)C)OC(=O)C,C21H26O8,406.43,29,0,0.52,5,8,1,102.67,116.20,2.56,2.12,1.42,1.09,1.85,1.81,-3.37,1.75e-01,4.31e-04,Soluble,-4.19,2.62e-02,6.44e-05,Moderately soluble,-2.20,2.55e+00,6.28e-03,Soluble,High,No,No,No,No,No,No,No,-7.27,0,0,0,0,0,0.55,0,2,1,5.62
Molecule 101,C/C=C(\C(=O)O[C@H]1[C@@H]2[C@@H](C[C@@H](C)C=CC(=O)[C@]([C@@H]1OC(=O)C)(C)O)OC(=O)C2=C)/C,C22H28O8,420.45,30,0,0.55,5,8,1,107.47,116.20,2.82,2.35,1.81,1.30,2.09,2.07,-3.60,1.06e-01,2.53e-04,Soluble,-4.43,1.56e-02,3.72e-05,Moderately soluble,-2.22,2.53e+00,6.03e-03,Soluble,High,No,No,No,No,No,No,No,-7.20,0,0,0,0,0,0.55,0,2,1,5.79
Molecule 102,C/C=C(/C(=O)O[C@H]1[C@@H]2[C@@H](C[C@@H](C)C=CC(=O)[C@]([C@@H]1OC(=O)C)(C)O)OC(=O)C2=C)\C,C22H28O8,420.45,30,0,0.55,5,8,1,107.47,116.20,2.59,2.35,1.81,1.30,2.09,2.03,-3.60,1.06e-01,2.53e-04,Soluble,-4.43,1.56e-02,3.72e-05,Moderately soluble,-2.22,2.53e+00,6.03e-03,Soluble,High,No,No,No,No,No,No,No,-7.20,0,0,0,0,0,0.55,0,2,1,5.79
Molecule 103,CCCCC[C@H](O[C@@H]1O[C@H](C)[C@@H]([C@@H]([C@H]1O[C@@H]1O[C@@H](C)[C@@H]([C@H]([C@H]1O)O)O[C@@H]1O[C@@H](C)[C@@H]([C@H]([C@H]1O)O[C@@H]1C[C@@H](C)[C@@H]([C@H]([C@H]1O)O)O)O[C@@H]1O[C@@H](C)[C@@H]([C@H]([C@H]1O)OC(=O)/C=C/c1ccccc1)OC(=O)C(CC)C)O)O)CCCCCCCCCC(=O)O[C@H]1[C@@H](O[C@H]([C@@H]([C@H]1O)O)C)O[C@@H]1[C@@H](O[C@@H]2O[C@@H](C)[C@H]([C@H]([C@H]2O)O)OC(=O)C(CC)C)[C@H](C)O[C@H]([C@@H]1OC(=O)CCCCCCCCCCC)O[C@H]1[C@H](C)O[C@@H]2[C@@H]([C@@H]1O)OC(=O)CCCCCCCCC[C@@H](O[C@H]1[C@H](O2)[C@@H](O)[C@H]([C@H](O1)C)O)CCCCC,C124H206O47,2448.93,171,6,0.89,60,47,16,617.80,656.85,0.00,14.17,9.01,-5.64,6.29,4.77,-20.02,2.36e-17,9.63e-21,Insoluble,-28.05,2.19e-25,8.93e-29,Insoluble,-6.27,1.30e-03,5.32e-07,Poorly soluble,Low,No,Yes,No,No,No,No,No,-11.18,3,4,2,2,7,0.17,0,2,3,10.00
Molecule 104,CCCCCCCCCCCC(=O)O[C@H]1[C@@H](O[C@H]([C@@H]([C@H]1O[C@@H]1O[C@H](CO)[C@H]([C@@H]([C@H]1O)O)OC(=O)CCCCCCCCC[C@@H](O[C@@H]1O[C@H](C)[C@@H]([C@@H]([C@H]1O[C@@H]1O[C@@H](C)[C@@H]([C@H]([C@H]1O)O)O[C@@H]1O[C@@H](C)[C@@H]([C@H]([C@H]1OC(=O)CCCCCCCCCCC)O[C@@H]1O[C@H](CO)[C@H]([C@@H]([C@H]1O)O)O)O[C@@H]1O[C@@H](C)[C@@H]([C@H]([C@H]1O)OC(=O)/C=C/c1ccccc1)OC(=O)[C@H](CC)C)O)O)CCCCC)O[C@@H]1O[C@@H](C)[C@@H]([C@H]([C@H]1OC(=O)/C=C/c1ccccc1)O)OC(=O)[C@H](CC)C)C)O[C@H]1[C@H](C)O[C@@H]2[C@@H]([C@@H]1O)OC(=O)CCCCCCCCC[C@@H](O[C@H]1[C@H](O2)[C@@H](O)[C@H]([C@H](O1)C)O)CCCCC,C144H232O52,2795.35,196,12,0.83,78,52,16,713.56,718.68,0.00,20.24,12.92,-5.19,11.66,7.93,-24.82,4.23e-22,1.51e-25,Insoluble,-35.65,6.31e-33,2.26e-36,Insoluble,-11.35,1.26e-08,4.51e-12,Insoluble,Low,No,Yes,No,No,No,No,No,-8.98,3,4,2,2,7,0.17,0,2,3,10.00
Molecule 105,CCCCCCCCCCCC(=O)O[C@@H]1[C@@H](O)[C@H](O[C@H]2[C@H](C)O[C@H]([C@@H]([C@@H]2O[C@@H]2O[C@H](CO)[C@H]([C@@H]([C@H]2O[C@@H]2O[C@H](C)[C@H]([C@@H]([C@H]2O)OC(=O)[C@H](CC)C)O)O)O)OC(=O)[C@H](CC)C)O[C@H]2[C@H]3O[C@@H]([C@H]([C@@H]2OC(=O)C[C@H](CCCCCCC[C@@H](O[C@H]2[C@H](O3)[C@@H](O)[C@@H]([C@H](O2)C)O)CCC)O[C@H]2O[C@@H](C)[C@@H]([C@H]([C@@H]2O)O)O)O)COC(=O)C)O[C@@H]([C@@H]1O)C,C80H136O37,1689.91,117,0,0.94,36,37,13,406.48,523.71,6.82,4.62,1.34,-5.43,-0.46,1.38,-10.85,2.38e-08,1.41e-11,Insoluble,-15.34,7.67e-13,4.54e-16,Insoluble,-0.29,8.69e+02,5.14e-01,Soluble,Low,No,Yes,No,No,No,No,No,-13.33,3,3,2,1,6,0.17,0,1,3,10.00
Molecule 106,CCCCCCCCCC(=O)O[C@H]1[C@@H](O[C@H]([C@@H]([C@H]1O[C@@H]1O[C@H](CO)[C@H]([C@@H]([C@H]1O)O)O)O[C@@H]1O[C@@H](C)[C@@H]([C@H]([C@H]1OC(=O)/C=C/c1ccccc1)O)OC(=O)[C@H](CC)C)C)O[C@H]1[C@H](C)O[C@@H]2[C@@H]([C@@H]1O)OC(=O)CCCCCCCCC[C@@H](O[C@H]1[C@H](O2)[C@@H](O)[C@H]([C@H](O1)C)O)CCCCC,C70H112O26,1369.62,96,6,0.83,29,26,8,347.17,359.34,8.61,9.31,5.68,-1.11,3.92,5.28,-12.33,6.42e-10,4.69e-13,Insoluble,-16.76,2.39e-14,1.74e-17,Insoluble,-5.15,9.67e-03,7.06e-06,Moderately soluble,Low,No,Yes,No,No,No,No,No,-8.04,3,4,2,1,6,0.17,0,2,3,10.00
Molecule 107,CCCCCCCCCC(=O)O[C@H]1[C@H](O[C@H]2[C@H](C)O[C@@H]3[C@@H]([C@@H]2OC(=O)CCCCCCCCC[C@@H](O[C@H]2[C@H](O3)[C@@H](O)[C@H]([C@H](O2)C)O)CCCCC)O)O[C@H]([C@@H]([C@H]1O[C@@H]1O[C@@H](C)[C@@H]([C@H]([C@H]1O)O)O)O[C@@H]1O[C@@H](C)[C@@H]([C@H]([C@H]1O)O)OC(=O)[C@H](CC)C)C,C61H106O24,1223.48,85,0,0.95,24,24,8,306.66,333.04,7.74,7.16,4.55,-1.37,2.27,4.07,-10.35,5.44e-08,4.44e-11,Insoluble,-13.97,1.30e-11,1.06e-14,Insoluble,-3.13,9.05e-01,7.40e-04,Soluble,Low,No,Yes,No,No,No,No,No,-8.68,3,3,2,1,6,0.17,0,1,3,10.00
Molecule 108,OCC1=C[C@@H]2[C@]([C@H]3[C@@H](C1)C(=O)C(=C3)C)(O)[C@H](C)[C@H]([C@@]1([C@@]2(C)C1(C)C)OC(=O)C)OC(=O)C(N(C)C)C(C)C,C30H45NO7,531.68,38,0,0.77,8,8,2,144.47,113.37,4.57,2.90,2.91,2.28,3.42,3.22,-4.44,1.95e-02,3.67e-05,Moderately soluble,-4.94,6.09e-03,1.14e-05,Moderately soluble,-3.95,5.91e-02,1.11e-04,Soluble,High,No,No,No,No,No,No,Yes,-7.48,1,3,0,0,0,0.55,0,2,2,6.58
Molecule 109,CC(=O)O[C@H]1CC[C@]2([C@H](C1(C)C)CC[C@@]1([C@@H]2CC[C@H]2[C@@]1(C)CC[C@@]1([C@@H]2[C@H](C)C(=C)CC1)C)C)C,C32H52O2,468.75,34,0,0.91,2,2,0,144.88,26.30,4.85,9.70,8.60,7.08,7.31,7.51,-8.73,8.82e-07,1.88e-09,Poorly soluble,-10.17,3.18e-08,6.77e-11,Insoluble,-7.57,1.26e-05,2.68e-08,Poorly soluble,Low,No,No,No,No,No,No,No,-2.27,1,3,0,1,1,0.55,0,1,2,5.61
Molecule 110,CC(=O)O[C@H]1CC[C@]2([C@H](C1(C)C)CC[C@@]1([C@@H]2CC[C@@]2(C1=CC[C@@]1([C@H]2CC(C)(C)CC1)C(=O)O)C)C)C,C32H50O4,498.74,36,0,0.88,3,4,1,146.39,63.60,4.40,8.40,7.80,6.06,6.36,6.61,-8.03,4.70e-06,9.42e-09,Poorly soluble,-9.60,1.24e-07,2.49e-10,Poorly soluble,-6.73,9.33e-05,1.87e-07,Poorly soluble,Low,No,No,No,No,Yes,No,No,-3.38,1,4,0,1,1,0.56,0,1,2,6.24
Molecule 111,CC(=O)O[C@H]1CC[C@]23C(C1(C)C)CCC1[C@@]3(C2)CC[C@]2([C@@]1(C)CC[C@@H]2[C@@H](CC[C@@H](C(=C)C)C)C)C,C33H54O2,482.78,35,0,0.91,7,2,0,149.69,26.30,5.46,10.99,8.99,7.27,8.46,8.23,-9.29,2.45e-07,5.07e-10,Poorly soluble,-11.51,1.50e-09,3.11e-12,Insoluble,-7.87,6.54e-06,1.36e-08,Poorly soluble,Low,No,No,No,No,No,No,No,-1.44,1,4,0,1,1,0.55,0,1,2,6.56
Molecule 112,CC(CC(=O)O[C@H]1C[C@@H]2[C@H](C1=C)[C@H]1OC(=O)C(=C)C1CCC2=C)C,C20H26O4,330.42,24,0,0.60,4,4,0,93.06,52.60,3.05,3.16,3.58,3.44,3.94,3.44,-3.62,8.01e-02,2.42e-04,Soluble,-3.93,3.84e-02,1.16e-04,Soluble,-3.73,6.11e-02,1.85e-04,Soluble,High,Yes,No,No,No,Yes,No,Yes,-6.07,0,0,0,0,0,0.55,0,3,0,4.66
Molecule 113,O=C(C(C)C)O[C@H]1C[C@@H]2[C@H](C1=C)[C@H]1OC(=O)C(=C)C1CCC2=C,C19H24O4,316.39,23,0,0.58,3,4,0,88.25,52.60,3.25,2.94,3.19,3.22,3.55,3.23,-3.46,1.11e-01,3.50e-04,Soluble,-3.71,6.22e-02,1.96e-04,Soluble,-3.34,1.46e-01,4.61e-04,Soluble,High,Yes,No,No,No,Yes,No,Yes,-6.14,0,0,0,0,0,0.55,0,3,0,4.55
Molecule 114,COc1cccc(c1C(=O)OCc1ccccc1)OC,C16H16O4,272.30,20,12,0.19,6,4,0,75.19,44.76,2.85,3.21,2.91,2.72,3.35,3.01,-3.60,6.86e-02,2.52e-04,Soluble,-3.82,4.10e-02,1.51e-04,Soluble,-5.26,1.48e-03,5.45e-06,Moderately soluble,High,Yes,No,Yes,Yes,No,Yes,No,-5.68,0,0,0,0,0,0.55,0,0,0,2.11
Molecule 115,COc1cccc(c1C(=O)OCc1ccccc1)O,C15H14O4,258.27,19,12,0.13,5,4,1,70.72,55.76,2.85,3.44,2.61,2.47,2.82,2.84,-3.75,4.64e-02,1.80e-04,Soluble,-4.29,1.32e-02,5.11e-05,Moderately soluble,-4.57,7.03e-03,2.72e-05,Moderately soluble,High,Yes,No,Yes,Yes,No,No,No,-5.43,0,0,0,0,0,0.55,0,0,0,1.99
Molecule 116,COc1ccc(c(c1C(=O)OCc1ccccc1)OC)OC,C17H18O5,302.32,22,12,0.24,7,5,0,81.68,53.99,3.07,3.18,2.92,2.41,3.41,3.00,-3.66,6.62e-02,2.19e-04,Soluble,-3.98,3.13e-02,1.04e-04,Soluble,-5.38,1.26e-03,4.17e-06,Moderately soluble,High,Yes,No,Yes,Yes,No,Yes,No,-5.89,0,0,0,0,0,0.55,0,0,0,2.58
Molecule 117,COc1ccc(c(c1OC)C(=O)OCc1ccccc1)O,C16H16O5,288.30,21,12,0.19,6,5,1,77.22,64.99,2.88,3.41,2.61,2.16,2.87,2.79,-3.80,4.54e-02,1.58e-04,Soluble,-4.45,1.01e-02,3.51e-05,Moderately soluble,-4.68,5.98e-03,2.07e-05,Moderately soluble,High,Yes,No,Yes,Yes,Yes,Yes,No,-5.64,0,0,0,0,0,0.55,0,0,0,2.47
Molecule 118,COc1cccc(c1)COC(=O)c1c(OC)cccc1OC,C17H18O5,302.32,22,12,0.24,7,5,0,81.68,53.99,3.02,3.62,2.92,2.41,3.41,3.07,-3.94,3.50e-02,1.16e-04,Soluble,-4.44,1.09e-02,3.62e-05,Moderately soluble,-5.38,1.26e-03,4.17e-06,Moderately soluble,High,Yes,No,Yes,Yes,Yes,Yes,No,-5.57,0,0,0,0,0,0.55,0,0,1,2.43
Molecule 119,COc1cccc(c1)COC(=O)c1c(O)cccc1OC,C16H16O5,288.30,21,12,0.19,6,5,1,77.22,64.99,2.70,3.41,2.61,2.16,2.87,2.75,-3.80,4.54e-02,1.58e-04,Soluble,-4.45,1.01e-02,3.51e-05,Moderately soluble,-4.68,5.98e-03,2.07e-05,Moderately soluble,High,Yes,No,Yes,Yes,Yes,Yes,No,-5.64,0,0,0,0,0,0.55,0,0,0,2.32
Molecule 120,COc1cccc(c1C(=O)OCc1cccc(c1)O)OC,C16H16O5,288.30,21,12,0.19,6,5,1,77.22,64.99,2.68,2.86,2.61,2.16,2.87,2.64,-3.46,1.01e-01,3.50e-04,Soluble,-3.88,3.77e-02,1.31e-04,Soluble,-4.68,5.98e-03,2.07e-05,Moderately soluble,High,Yes,No,Yes,Yes,No,Yes,No,-6.03,0,0,0,0,0,0.55,0,0,0,2.25
Molecule 121,COc1ccccc1COC(=O)c1ccccc1O,C15H14O4,258.27,19,12,0.13,5,4,1,70.72,55.76,2.92,3.44,2.61,2.47,2.82,2.85,-3.75,4.64e-02,1.80e-04,Soluble,-4.29,1.32e-02,5.11e-05,Moderately soluble,-4.57,7.03e-03,2.72e-05,Moderately soluble,High,Yes,No,Yes,Yes,Yes,No,No,-5.43,0,0,0,0,0,0.55,0,0,0,1.81
Molecule 122,CC(=O)OC[C@]1(C)CCC[C@]2([C@H]1CC(=O)c1c2c(O)c(c(c1)C(C)C)O)C,C22H30O5,374.47,27,6,0.64,4,5,2,104.98,83.83,3.28,4.43,4.43,2.78,4.60,3.91,-4.85,5.25e-03,1.40e-05,Moderately soluble,-5.91,4.62e-04,1.23e-06,Moderately soluble,-5.12,2.82e-03,7.53e-06,Moderately soluble,High,No,Yes,No,No,Yes,No,Yes,-5.44,0,0,0,0,0,0.55,1,1,2,4.13
Molecule 123,Oc1cc(O)c2c(c1)oc(c(c2=O)O[C@@H]1O[C@H](COC(=O)c2ccccc2)[C@@H]([C@@H]([C@H]1O)O)O)c1ccc(c(c1)O)O,C28H24O13,568.48,41,22,0.21,7,13,7,139.80,216.58,2.48,2.04,1.33,-1.36,0.92,1.08,-4.58,1.48e-02,2.60e-05,Moderately soluble,-6.22,3.45e-04,6.08e-07,Poorly soluble,-4.17,3.83e-02,6.75e-05,Moderately soluble,Low,No,No,No,No,No,No,No,-8.32,3,2,1,1,3,0.17,1,1,1,5.75
Molecule 124,CCCCCCCCCCCCCCCCCCCCCCCC(=O)OC[C@H](CO)O,C27H54O4,442.72,31,0,0.96,26,4,2,135.51,66.76,6.08,10.66,7.48,4.88,8.93,7.61,-7.58,1.15e-05,2.60e-08,Poorly soluble,-12.02,4.28e-10,9.66e-13,Insoluble,-8.45,1.56e-06,3.53e-09,Poorly soluble,Low,No,No,No,No,No,No,No,-1.43,1,3,1,1,2,0.55,0,0,3,4.84
Molecule 125,O=C([C@@H](NC(=O)c1ccccc1)Cc1ccccc1)OC[C@@H](NC(=O)c1ccccc1)Cc1ccccc1,C32H30N2O4,506.59,38,24,0.16,14,4,2,146.25,84.50,4.10,6.11,4.61,4.43,5.80,5.01,-6.37,2.14e-04,4.23e-07,Poorly soluble,-7.67,1.09e-05,2.16e-08,Poorly soluble,-10.76,8.74e-09,1.73e-11,Insoluble,High,No,Yes,No,Yes,Yes,Yes,Yes,-5.05,2,2,1,0,1,0.17,0,0,3,3.93
Molecule 126,CCCCCCCCCCCCCCCCCCCCCCCCCCCCCCOC(=O)/C=C/c1ccc(cc1)O,C39H68O3,584.96,42,6,0.77,32,3,1,188.86,46.53,8.77,17.18,12.78,7.84,13.90,12.10,-12.28,3.04e-10,5.20e-13,Insoluble,-18.36,2.58e-16,4.41e-19,Insoluble,-13.44,2.10e-11,3.60e-14,Insoluble,Low,No,Yes,No,No,No,No,No,2.33,2,4,1,1,2,0.17,0,1,3,5.44
Molecule 127,CCCCCCCCCCCCCCCCCCCCCCCCCCCCOC(=O)/C=C/c1ccc(cc1)O,C37H64O3,556.90,40,6,0.76,30,3,1,179.24,46.53,8.33,16.09,12.00,7.49,13.03,11.39,-11.56,1.53e-09,2.75e-12,Insoluble,-17.22,3.32e-15,5.96e-18,Insoluble,-12.67,1.19e-10,2.14e-13,Insoluble,Low,No,Yes,No,No,No,No,No,1.73,2,4,1,1,2,0.17,0,1,3,5.18
Molecule 128,CCCCCCCCCCCCCCCCCCCCCCCCCCOC(=O)/C=C/c1ccc(cc1)O,C35H60O3,528.85,38,6,0.74,28,3,1,169.63,46.53,7.79,15.01,11.22,7.14,12.16,10.66,-10.84,7.57e-09,1.43e-11,Insoluble,-16.10,4.16e-14,7.87e-17,Insoluble,-11.89,6.73e-10,1.27e-12,Insoluble,Low,No,Yes,No,No,No,No,No,1.13,2,4,1,1,2,0.17,0,1,3,4.92
Molecule 129,CCCCCc1cc2OC(C)(C)[C@@H]3[C@@H](c2c(c1C(=O)O)O)C=C(CC3)COC(=O)C,C24H32O6,416.51,30,6,0.58,8,6,2,115.77,93.06,3.40,5.98,4.98,3.39,4.79,4.51,-5.81,6.45e-04,1.55e-06,Moderately soluble,-7.71,8.10e-06,1.95e-08,Poorly soluble,-5.32,1.98e-03,4.74e-06,Moderately soluble,High,No,No,No,No,Yes,No,Yes,-4.59,0,0,0,0,1,0.56,0,1,3,4.76
Molecule 130,C/C=C(\C(=O)OCC(c1ccc(cc1O)C)(COC(=O)C)O)/C,C17H22O6,322.35,23,6,0.41,8,6,2,84.80,93.06,2.32,2.43,1.85,1.68,2.69,2.19,-3.03,2.98e-01,9.24e-04,Soluble,-4.03,3.03e-02,9.40e-05,Moderately soluble,-3.10,2.55e-01,7.93e-04,Soluble,High,No,No,No,No,No,No,No,-6.54,0,0,0,0,0,0.55,0,2,1,3.34
Molecule 131,C/C=C(\C(=O)OCC(c1ccc(cc1O)C)(COC(=O)/C(=C\C)/C)O)/C,C20H26O6,362.42,26,6,0.40,9,6,2,98.75,93.06,3.45,3.63,2.80,2.30,3.60,3.16,-3.95,4.06e-02,1.12e-04,Soluble,-5.27,1.94e-03,5.34e-06,Moderately soluble,-3.55,1.02e-01,2.81e-04,Soluble,High,No,No,No,Yes,No,No,No,-5.93,0,0,0,0,0,0.55,0,2,3,3.60
Molecule 132,C/C=C(\C(=O)OCC(c1ccc(cc1O)C)(CO)O)/C,C15H20O5,280.32,20,6,0.40,6,5,3,75.06,86.99,2.57,1.86,1.28,1.27,2.15,1.83,-2.58,7.45e-01,2.66e-03,Soluble,-3.31,1.38e-01,4.92e-04,Soluble,-2.47,9.52e-01,3.40e-03,Soluble,High,No,No,No,No,No,No,No,-6.69,0,0,0,0,0,0.55,0,1,0,3.18
