Molecule,Canonical SMILES,Formula,MW,#Heavy atoms,#Aromatic heavy atoms,Fraction Csp3,#Rotatable bonds,#H-bond acceptors,#H-bond donors,MR,TPSA,iLOGP,XLOGP3,WLOGP,MLOGP,Silicos-IT Log P,Consensus Log P,ESOL Log S,ESOL Solubility (mg/ml),ESOL Solubility (mol/l),ESOL Class,Ali Log S,Ali Solubility (mg/ml),Ali Solubility (mol/l),Ali Class,Silicos-IT LogSw,Silicos-IT Solubility (mg/ml),Silicos-IT Solubility (mol/l),Silicos-IT class,GI absorption,BBB permeant,Pgp substrate,CYP1A2 inhibitor,CYP2C19 inhibitor,CYP2C9 inhibitor,CYP2D6 inhibitor,CYP3A4 inhibitor,log Kp (cm/s),Lipinski #violations,Ghose #violations,Veber #violations,Egan #violations,Muegge #violations,Bioavailability Score,PAINS #alerts,Brenk #alerts,Leadlikeness #violations,Synthetic Accessibility
Molecule 1,C=CC[C@]12C[C@@H](OC)C(=O)C=C1O[C@H]([C@H]2C)c1ccc2c(c1)OCO2,C20H22O5,342.39,25,6,0.45,4,5,0,92.09,53.99,3.06,3.39,3.23,1.85,3.77,3.06,-4.01,3.33e-02,9.73e-05,Moderately soluble,-4.20,2.15e-02,6.27e-05,Moderately soluble,-4.38,1.44e-02,4.20e-05,Moderately soluble,High,Yes,No,No,No,Yes,No,Yes,-5.98,0,0,0,0,0,0.56,0,1,0,4.73
Molecule 2,C=CC[C@]12CC(=O)[C@@H]([C@H]([C@@H]1O)[C@@H]([C@H]2C)c1ccc2c(c1)OCO2)OC,C20H24O5,344.40,25,6,0.55,4,5,1,92.64,64.99,3.19,2.65,2.68,1.93,3.28,2.74,-3.56,9.52e-02,2.76e-04,Soluble,-3.67,7.43e-02,2.16e-04,Soluble,-3.85,4.89e-02,1.42e-04,Soluble,High,Yes,No,No,No,No,Yes,Yes,-6.52,0,0,0,0,0,0.55,0,1,0,5.11
Molecule 3,C=CC[C@]12C[C@@H](OC)C(=O)[C@H](C2=O)[C@H]([C@@H]1C)c1ccc(c(c1)OC)O,C20H24O5,344.40,25,6,0.50,5,5,1,94.13,72.83,2.02,2.90,2.87,1.44,3.56,2.56,-3.65,7.71e-02,2.24e-04,Soluble,-4.09,2.80e-02,8.13e-05,Moderately soluble,-4.34,1.56e-02,4.54e-05,Moderately soluble,High,Yes,Yes,No,No,No,No,Yes,-6.34,0,0,0,0,0,0.55,0,2,0,4.66
Molecule 4,CO[C@H]1C=CC2=CCN3[C@]2(C1)c1cc(OC)c(cc1[C@H](C3)O)OC,C19H23NO4,329.39,24,6,0.47,3,5,1,94.27,51.16,3.22,1.03,1.35,1.30,1.80,1.74,-2.52,9.99e-01,3.03e-03,Soluble,-1.69,6.66e+00,2.02e-02,Very soluble,-3.10,2.65e-01,8.04e-04,Soluble,High,Yes,Yes,No,No,No,Yes,No,-7.58,0,0,0,0,0,0.55,0,0,0,5.03
Molecule 5,CO[C@H]1C=CC2=CC[N@+]3([C@]2(C1)c1cc(OC)c(cc1[C@H](C3)O)OC)[O-],C19H23NO5,345.39,25,6,0.47,3,5,1,97.64,77.35,1.91,0.56,1.36,-0.55,0.86,0.83,-2.31,1.68e+00,4.85e-03,Soluble,-1.76,6.05e+00,1.75e-02,Very soluble,-3.23,2.04e-01,5.90e-04,Soluble,High,No,Yes,No,No,No,No,No,-8.01,0,0,0,0,0,0.55,0,1,0,5.18
Molecule 6,CO[C@H]1C=CC2=CC[N@+]3([C@]2(C1)c1cc(OC)c(cc1CC3)OC)[O-],C19H23NO4,329.39,24,6,0.47,3,4,0,96.48,57.12,2.28,1.67,2.20,0.27,1.76,1.63,-2.92,3.95e-01,1.20e-03,Soluble,-2.48,1.08e+00,3.28e-03,Soluble,-4.04,2.98e-02,9.04e-05,Moderately soluble,High,Yes,Yes,No,No,No,No,No,-7.12,0,0,0,0,0,0.55,0,1,0,4.99
Molecule 7,CO[C@H]1C=CC2=CCN3[C@@]2(C1)c1cc(OC)c(cc1CC3)OC,C19H23NO3,313.39,23,6,0.47,3,4,0,93.11,30.93,3.24,2.14,2.18,2.13,2.70,2.48,-3.13,2.34e-01,7.48e-04,Soluble,-2.42,1.19e+00,3.79e-03,Soluble,-3.91,3.86e-02,1.23e-04,Soluble,High,Yes,No,No,No,No,Yes,Yes,-6.69,0,0,0,0,0,0.55,0,0,0,4.84
Molecule 8,CO[C@H]1C=CC2=CCN3[C@@]2(C1)c1cc(OC)c(cc1[C@H](C3)O)OC,C19H23NO4,329.39,24,6,0.47,3,5,1,94.27,51.16,3.09,1.03,1.35,1.30,1.80,1.71,-2.52,9.99e-01,3.03e-03,Soluble,-1.69,6.66e+00,2.02e-02,Very soluble,-3.10,2.65e-01,8.04e-04,Soluble,High,Yes,Yes,No,No,No,Yes,No,-7.58,0,0,0,0,0,0.55,0,0,0,5.03
Molecule 9,CO[C@H]1[C@@H]2OCc3c([C@@H]2Oc2c1ccc(c2)O)ccc1c3OCO1,C18H16O6,328.32,24,12,0.33,1,6,1,83.00,66.38,2.82,1.83,2.04,1.11,2.42,2.04,-3.33,1.53e-01,4.65e-04,Soluble,-2.84,4.70e-01,1.43e-03,Soluble,-4.09,2.69e-02,8.20e-05,Moderately soluble,High,Yes,Yes,Yes,Yes,No,Yes,Yes,-7.00,0,0,0,0,0,0.55,0,0,0,4.30
Molecule 10,C=CC[C@]12C[C@@H](OC)[C@@H]([C@@]([C@@H]2O)([C@H]([C@@H]1C)c1ccc2c(c1)OCO2)OC)O,C21H28O6,376.44,27,6,0.62,5,6,2,99.53,77.38,3.21,2.13,2.24,1.43,2.73,2.35,-3.35,1.68e-01,4.46e-04,Soluble,-3.39,1.55e-01,4.11e-04,Soluble,-3.48,1.25e-01,3.33e-04,Soluble,High,No,Yes,No,No,No,Yes,No,-7.08,0,0,0,0,0,0.55,0,1,1,5.55
Molecule 11,C=CC[C@]1(OC)C=C2C(=CC1=O)O[C@H]([C@@H]2C)Cc1ccc2c(c1)OCO2,C21H22O5,354.40,26,6,0.38,5,5,0,96.72,53.99,3.57,3.38,3.35,1.99,4.14,3.29,-4.01,3.48e-02,9.83e-05,Moderately soluble,-4.19,2.28e-02,6.42e-05,Moderately soluble,-4.75,6.23e-03,1.76e-05,Moderately soluble,High,Yes,No,Yes,Yes,Yes,No,Yes,-6.06,0,0,0,0,0,0.56,0,1,1,4.92
Molecule 12,C=CC[C@]1(OC)C=C2C(=CC1=O)O[C@@H]([C@H]2C)c1ccc2c(c1)OCO2,C20H20O5,340.37,25,6,0.35,4,5,0,91.91,53.99,3.27,2.89,3.15,1.77,3.76,2.97,-3.68,7.04e-02,2.07e-04,Soluble,-3.68,7.05e-02,2.07e-04,Soluble,-4.36,1.49e-02,4.37e-05,Moderately soluble,High,Yes,No,Yes,Yes,Yes,No,Yes,-6.32,0,0,0,0,0,0.56,0,1,0,4.79
Molecule 13,C=CCC1=C[C@](OC)(C(=CC1=O)OC)[C@@H](Cc1ccc2c(c1)OCO2)C,C21H24O5,356.41,26,6,0.38,7,5,0,98.83,53.99,3.82,3.68,3.59,1.99,4.61,3.54,-4.08,2.99e-02,8.38e-05,Moderately soluble,-4.50,1.12e-02,3.14e-05,Moderately soluble,-5.10,2.83e-03,7.94e-06,Moderately soluble,High,Yes,No,Yes,Yes,Yes,Yes,Yes,-5.86,0,0,0,0,0,0.56,0,1,2,4.38
Molecule 14,C=CC[C@@]12CC(=O)[C@H]([C@]([C@H]2O)([C@@H]([C@H]1C)c1ccc2c(c1)OCO2)OC)O,C20H24O6,360.40,26,6,0.55,4,6,2,93.84,85.22,2.56,1.60,1.79,1.12,2.78,1.97,-2.99,3.69e-01,1.03e-03,Soluble,-3.00,3.59e-01,9.97e-04,Soluble,-3.48,1.19e-01,3.30e-04,Soluble,High,No,Yes,No,No,No,Yes,No,-7.36,0,0,0,0,0,0.55,0,1,1,5.27
Molecule 15,C=CC[C@@]12C=C(O)C(=O)[C@]([C@@H]2O)([C@@H]([C@H]1C)c1ccc2c(c1)OCO2)OC,C20H22O6,358.39,26,6,0.45,4,6,2,93.78,85.22,2.57,2.62,2.48,1.04,2.77,2.30,-3.62,8.61e-02,2.40e-04,Soluble,-4.06,3.12e-02,8.72e-05,Moderately soluble,-3.46,1.23e-01,3.43e-04,Soluble,High,No,Yes,No,No,No,No,Yes,-6.63,0,0,0,0,0,0.55,0,1,1,5.46
Molecule 16,CO[C@@]12CC[C@@]3(CO1)[C@@H]1[C@]2(C)C(=O)O[C@@H]1C[C@H]1[C@H]3CCC[C@@H]1O,C18H26O5,322.40,23,0,0.94,1,5,1,82.20,64.99,2.28,1.66,1.87,2.13,2.07,2.00,-2.82,4.89e-01,1.52e-03,Soluble,-2.64,7.41e-01,2.30e-03,Soluble,-2.41,1.25e+00,3.89e-03,Soluble,High,Yes,Yes,No,No,No,No,No,-7.09,0,0,0,0,0,0.55,0,0,0,5.40
Molecule 17,COc1cc2c(c(c1/C=C/C(C)C)O)C(=O)c1c(C2=O)cc(cc1O)C,C21H20O5,352.38,26,12,0.24,3,5,2,99.77,83.83,2.96,4.81,3.75,1.70,4.81,3.60,-5.20,2.23e-03,6.33e-06,Moderately soluble,-6.30,1.75e-04,4.98e-07,Poorly soluble,-5.48,1.17e-03,3.31e-06,Moderately soluble,High,No,No,Yes,Yes,Yes,No,Yes,-5.03,0,0,0,0,0,0.55,1,0,2,3.49
Molecule 18,COc1cc2oc(=O)ccc2cc1/C=C/C(O)(C)C,C15H16O4,260.29,19,10,0.27,3,4,1,74.69,59.67,2.96,2.23,2.48,1.78,3.25,2.54,-3.05,2.32e-01,8.91e-04,Soluble,-3.12,1.98e-01,7.61e-04,Soluble,-4.08,2.16e-02,8.32e-05,Moderately soluble,High,Yes,No,Yes,No,No,No,No,-6.30,0,0,0,0,0,0.55,0,1,0,3.05
Molecule 19,COc1cc2oc(=O)ccc2cc1/C=C\C(O)(C)C,C15H16O4,260.29,19,10,0.27,3,4,1,74.69,59.67,2.96,2.23,2.48,1.78,3.25,2.54,-3.05,2.32e-01,8.91e-04,Soluble,-3.12,1.98e-01,7.61e-04,Soluble,-4.08,2.16e-02,8.32e-05,Moderately soluble,High,Yes,No,Yes,No,No,No,No,-6.30,0,0,0,0,0,0.55,0,1,0,3.05
Molecule 20,COc1cc(C)ccc1C(C)C,C11H16O,164.24,12,6,0.45,2,1,0,52.48,9.23,2.77,3.75,3.13,3.05,3.29,3.20,-3.46,5.71e-02,3.48e-04,Soluble,-3.64,3.79e-02,2.31e-04,Soluble,-3.73,3.09e-02,1.88e-04,Soluble,High,Yes,No,Yes,No,No,Yes,No,-4.64,0,0,0,0,2,0.55,0,0,2,1.09
Molecule 21,COc1cc2oc(C)cc(=O)c2c(c1C)O,C12H12O4,220.22,16,10,0.25,1,4,1,60.93,59.67,2.61,2.45,2.12,0.52,2.89,2.12,-3.15,1.58e-01,7.16e-04,Soluble,-3.35,9.91e-02,4.50e-04,Soluble,-3.95,2.49e-02,1.13e-04,Soluble,High,Yes,No,Yes,No,No,No,No,-5.90,0,0,0,0,0,0.55,0,0,1,2.72
Molecule 22,COc1cc2oc(CO)cc(=O)c2c(c1C)O,C12H12O5,236.22,17,10,0.25,2,5,2,62.09,79.90,2.18,1.20,1.16,-0.31,2.28,1.30,-2.36,1.02e+00,4.33e-03,Soluble,-2.47,7.92e-01,3.35e-03,Soluble,-3.39,9.67e-02,4.09e-04,Soluble,High,No,No,Yes,No,No,No,No,-6.89,0,0,0,0,0,0.55,0,0,1,2.81
Molecule 23,COc1ccc(cc1)c1cc(=O)c2c(o1)c(C)c(c(c2O)C)OC,C19H18O5,326.34,24,16,0.21,3,5,1,92.86,68.90,3.07,4.05,3.80,1.48,4.58,3.40,-4.71,6.36e-03,1.95e-05,Moderately soluble,-5.20,2.06e-03,6.30e-06,Moderately soluble,-6.56,9.01e-05,2.76e-07,Poorly soluble,High,Yes,No,Yes,Yes,Yes,No,Yes,-5.42,0,0,0,0,0,0.55,0,0,1,3.42
Molecule 24,COc1cc(ccc1OC)[C@H]1CC(=O)c2c(O1)c(C)c(c(c2O)C)OC,C20H22O6,358.39,26,12,0.35,4,6,1,96.93,74.22,3.49,3.74,3.42,1.35,4.18,3.24,-4.50,1.14e-02,3.19e-05,Moderately soluble,-4.99,3.66e-03,1.02e-05,Moderately soluble,-5.68,7.47e-04,2.08e-06,Moderately soluble,High,Yes,No,No,Yes,Yes,Yes,Yes,-5.83,0,0,0,0,0,0.55,0,0,2,3.74
Molecule 25,COc1ccc(cc1)[C@H]1CC(=O)c2c(O1)cc(c(c2O)C)OC,C18H18O5,314.33,23,12,0.28,3,5,1,85.47,64.99,3.16,3.54,3.10,1.44,3.60,2.97,-4.21,1.95e-02,6.21e-05,Moderately soluble,-4.59,8.09e-03,2.57e-05,Moderately soluble,-5.19,2.02e-03,6.41e-06,Moderately soluble,High,Yes,No,Yes,Yes,Yes,Yes,Yes,-5.70,0,0,0,0,0,0.55,0,0,1,3.34
Molecule 26,COc1c(C)c2O[C@@H](CCc2c(c1C)O)c1cc2OCOc2cc1O,C19H20O6,344.36,25,12,0.37,2,6,2,91.61,77.38,3.14,3.62,3.19,1.88,3.77,3.12,-4.48,1.14e-02,3.32e-05,Moderately soluble,-4.93,4.02e-03,1.17e-05,Moderately soluble,-4.72,6.50e-03,1.89e-05,Moderately soluble,High,Yes,Yes,Yes,No,Yes,Yes,Yes,-5.83,0,0,0,0,0,0.55,0,0,1,3.80
Molecule 27,COc1c2c(O[C@H]([C@@H](C2=O)O)c2ccc(cc2)O)cc(c1C)O,C17H16O6,316.31,23,12,0.24,2,6,3,82.17,96.22,1.98,1.98,1.77,0.39,2.17,1.66,-3.30,1.58e-01,4.98e-04,Soluble,-3.63,7.48e-02,2.36e-04,Soluble,-3.68,6.55e-02,2.07e-04,Soluble,High,No,Yes,No,No,No,No,No,-6.82,0,0,0,0,0,0.55,0,0,0,3.65
Molecule 28,COc1ccc(cc1)[C@H]1CC(=O)c2c(O1)c(C)c(cc2O)OC,C18H18O5,314.33,23,12,0.28,3,5,1,85.47,64.99,3.20,3.41,3.10,1.44,3.60,2.95,-4.13,2.36e-02,7.49e-05,Moderately soluble,-4.45,1.10e-02,3.51e-05,Moderately soluble,-5.19,2.02e-03,6.41e-06,Moderately soluble,High,Yes,No,Yes,Yes,Yes,Yes,Yes,-5.80,0,0,0,0,0,0.55,0,0,0,3.37
Molecule 29,COc1cc(O)c2c(c1C)C[C@H](OC2=O)C,C12H14O4,222.24,16,6,0.42,1,4,1,58.86,55.76,2.46,2.77,1.81,1.54,2.43,2.20,-3.17,1.49e-01,6.69e-04,Soluble,-3.60,5.63e-02,2.53e-04,Soluble,-2.96,2.43e-01,1.09e-03,Soluble,High,Yes,No,Yes,No,No,No,No,-5.69,0,0,0,0,0,0.55,0,0,1,2.96
Molecule 30,COc1cc(O)c(cc1C)CCCc1cc2OCOc2cc1O,C18H20O5,316.35,23,12,0.33,5,5,2,87.08,68.15,3.10,4.12,3.32,2.19,4.07,3.36,-4.45,1.11e-02,3.52e-05,Moderately soluble,-5.26,1.75e-03,5.52e-06,Moderately soluble,-5.23,1.87e-03,5.92e-06,Moderately soluble,High,Yes,No,Yes,No,No,Yes,No,-5.30,0,0,0,0,0,0.55,0,0,1,2.88
Molecule 31,COC1=Cc2c3cc(OC)c(cc3c(cc2C(C1=O)(C)C)OC)C,C20H22O4,326.39,24,10,0.35,3,4,0,95.24,44.76,3.48,4.54,3.90,2.15,4.80,3.77,-4.83,4.78e-03,1.47e-05,Moderately soluble,-5.20,2.05e-03,6.28e-06,Moderately soluble,-6.33,1.52e-04,4.67e-07,Poorly soluble,High,Yes,No,Yes,Yes,Yes,Yes,Yes,-5.07,0,0,0,0,0,0.55,0,0,1,3.34
Molecule 32,COc1cc(OC)ccc1c1coc2c(c1=O)c(O)cc(c2)O,C17H14O6,314.29,23,16,0.12,3,6,2,84.95,89.13,2.81,2.96,2.89,0.47,3.07,2.44,-3.97,3.37e-02,1.07e-04,Soluble,-4.49,1.01e-02,3.20e-05,Moderately soluble,-5.22,1.91e-03,6.08e-06,Moderately soluble,High,No,No,Yes,No,Yes,Yes,Yes,-6.12,0,0,0,0,0,0.55,0,0,0,3.14
Molecule 33,COc1ccc(c(c1)OC)c1coc2c(c1=O)c(O)cc(c2)OC,C18H16O6,328.32,24,16,0.17,4,6,1,89.42,78.13,3.44,3.29,3.19,0.70,3.60,2.84,-4.18,2.18e-02,6.64e-05,Moderately soluble,-4.61,8.13e-03,2.48e-05,Moderately soluble,-5.91,4.03e-04,1.23e-06,Moderately soluble,High,Yes,No,Yes,No,Yes,Yes,Yes,-5.97,0,0,0,0,0,0.55,0,0,0,3.28
Molecule 34,COc1c(CC=C(C)C)c(CC=C(C)C)c2c(c1O)oc(=O)cc2,C20H24O4,328.40,24,10,0.35,5,4,1,98.44,59.67,3.35,5.38,4.52,3.16,5.34,4.35,-5.24,1.87e-03,5.70e-06,Moderately soluble,-6.39,1.35e-04,4.10e-07,Poorly soluble,-5.68,6.91e-04,2.10e-06,Moderately soluble,High,Yes,No,No,Yes,Yes,No,No,-4.48,0,0,0,0,1,0.55,0,2,1,3.65
Molecule 35,COc1cc2O[C@@H](CC(=O)c2c(c1CC=C(C)C)O)c1ccc(cc1)O,C21H22O5,354.40,26,12,0.29,4,5,2,99.76,75.99,3.25,4.77,4.00,2.04,4.29,3.67,-5.12,2.69e-03,7.59e-06,Moderately soluble,-6.10,2.84e-04,8.00e-07,Poorly soluble,-5.35,1.59e-03,4.49e-06,Moderately soluble,High,Yes,No,Yes,Yes,Yes,No,Yes,-5.08,0,0,0,0,0,0.55,0,1,2,3.76
Molecule 36,COc1cc2O[C@@](C)(CC(=O)c2c(c1CC=C(C)C)O)c1ccccc1,C22H24O4,352.42,26,12,0.32,4,4,1,102.43,55.76,3.79,5.19,4.68,2.82,5.27,4.35,-5.37,1.50e-03,4.24e-06,Moderately soluble,-6.11,2.75e-04,7.80e-07,Poorly soluble,-6.53,1.04e-04,2.95e-07,Poorly soluble,High,Yes,No,No,Yes,Yes,No,Yes,-4.76,0,0,0,0,1,0.55,0,1,2,3.83
Molecule 37,COc1cc(/C=C/c2ccc(cc2)OC)cc(c1CC=C(C)C)OC,C22H26O3,338.44,25,12,0.27,7,3,0,105.01,27.69,4.49,6.03,5.17,4.07,5.92,5.14,-5.63,7.93e-04,2.34e-06,Moderately soluble,-6.39,1.38e-04,4.07e-07,Poorly soluble,-6.62,8.03e-05,2.37e-07,Poorly soluble,High,Yes,No,Yes,Yes,No,Yes,Yes,-4.08,0,0,0,0,1,0.55,0,2,1,3.11
Molecule 38,COc1cc(/C=C/c2ccccc2)cc(c1CC=C(C)C)OC,C21H24O2,308.41,23,12,0.24,6,2,0,98.52,18.46,4.28,6.06,5.17,4.46,5.84,5.16,-5.56,8.49e-04,2.75e-06,Moderately soluble,-6.23,1.83e-04,5.92e-07,Poorly soluble,-6.51,9.44e-05,3.06e-07,Poorly soluble,High,Yes,No,Yes,Yes,No,Yes,Yes,-3.88,1,0,0,0,1,0.55,0,2,1,2.96
Molecule 39,COc1ccc2c(c1CC=C(C)C)oc(=O)cc2,C15H16O3,244.29,18,10,0.27,3,3,0,72.70,39.44,2.93,3.81,3.31,2.63,4.03,3.34,-3.97,2.63e-02,1.08e-04,Soluble,-4.33,1.13e-02,4.64e-05,Moderately soluble,-5.01,2.37e-03,9.68e-06,Moderately soluble,High,Yes,No,Yes,Yes,Yes,No,No,-5.09,0,0,0,0,0,0.55,0,2,2,3.13
Molecule 40,COc1cc2oc(=O)ccc2cc1CC=C(C)C,C15H16O3,244.29,18,10,0.27,3,3,0,72.70,39.44,3.10,3.81,3.31,2.63,4.03,3.37,-3.97,2.63e-02,1.08e-04,Soluble,-4.33,1.13e-02,4.64e-05,Moderately soluble,-5.01,2.37e-03,9.68e-06,Moderately soluble,High,Yes,No,Yes,Yes,Yes,No,No,-5.09,0,0,0,0,0,0.55,0,2,2,2.89
Molecule 41,COc1cc2OCOc2cc1CCCc1ccc(c(c1O)C)O,C18H20O5,316.35,23,12,0.33,5,5,2,87.08,68.15,3.10,4.12,3.32,2.19,4.07,3.36,-4.45,1.11e-02,3.52e-05,Moderately soluble,-5.26,1.75e-03,5.52e-06,Moderately soluble,-5.23,1.87e-03,5.92e-06,Moderately soluble,High,Yes,No,Yes,No,No,Yes,No,-5.30,0,0,0,0,0,0.55,0,0,1,2.88
Molecule 42,COc1cc2OCOc2cc1CCCc1ccc(cc1O)O,C17H18O5,302.32,22,12,0.29,5,5,2,82.11,68.15,2.76,3.75,3.01,1.96,3.55,3.01,-4.15,2.14e-02,7.07e-05,Moderately soluble,-4.87,4.04e-03,1.34e-05,Moderately soluble,-4.85,4.29e-03,1.42e-05,Moderately soluble,High,Yes,No,Yes,No,No,Yes,Yes,-5.48,0,0,0,0,0,0.55,0,0,1,2.80
Molecule 43,COc1ccc(c(c1)O)CCCc1cc2OCOc2cc1OC,C18H20O5,316.35,23,12,0.33,6,5,1,86.58,57.15,3.36,4.08,3.31,2.19,4.08,3.41,-4.36,1.38e-02,4.35e-05,Moderately soluble,-4.99,3.27e-03,1.03e-05,Moderately soluble,-5.54,9.06e-04,2.86e-06,Moderately soluble,High,Yes,No,Yes,Yes,Yes,Yes,Yes,-5.33,0,0,0,0,0,0.55,0,0,1,2.91
Molecule 44,COc1cc(O)c(cc1CCCc1cc2OCOc2cc1O)C,C18H20O5,316.35,23,12,0.33,5,5,2,87.08,68.15,3.09,4.12,3.32,2.19,4.07,3.36,-4.45,1.11e-02,3.52e-05,Moderately soluble,-5.26,1.75e-03,5.52e-06,Moderately soluble,-5.23,1.87e-03,5.92e-06,Moderately soluble,High,Yes,No,Yes,No,No,Yes,No,-5.30,0,0,0,0,0,0.55,0,0,1,2.88
Molecule 45,COc1cc2oc(=O)ccc2cc1C[C@H](C(=C)C)O,C15H16O4,260.29,19,10,0.27,4,4,1,73.86,59.67,2.77,2.76,2.28,1.78,3.42,2.60,-3.32,1.25e-01,4.81e-04,Soluble,-3.67,5.59e-02,2.15e-04,Soluble,-4.45,9.15e-03,3.52e-05,Moderately soluble,High,Yes,No,Yes,Yes,No,No,No,-5.93,0,0,0,0,0,0.55,0,2,0,3.24
Molecule 46,COc1ccc2c(c1C[C@@H](C(O)(C)C)O)oc(=O)cc2,C15H18O5,278.30,20,10,0.40,4,5,2,75.53,79.90,2.43,1.46,1.48,1.02,2.65,1.81,-2.59,7.13e-01,2.56e-03,Soluble,-2.74,5.02e-01,1.80e-03,Soluble,-3.86,3.82e-02,1.37e-04,Soluble,High,No,No,No,No,No,No,No,-6.96,0,0,0,0,0,0.55,0,1,0,3.64
Molecule 47,COc1cc2[C@H](C)[C@H](Oc2c(c1O)C=C)c1ccc2c(c1)OCO2,C19H18O5,326.34,24,12,0.26,3,5,1,89.75,57.15,3.46,3.99,3.58,2.35,3.98,3.47,-4.55,9.22e-03,2.82e-05,Moderately soluble,-4.89,4.19e-03,1.28e-05,Moderately soluble,-4.86,4.52e-03,1.38e-05,Moderately soluble,High,Yes,No,Yes,Yes,Yes,Yes,Yes,-5.46,0,0,0,0,0,0.55,0,0,1,4.07
Molecule 48,COc1c(O)c(CC=C(C)C)c(c2c1n(C)c1c(c2=O)cccc1O)O,C20H21NO5,355.38,26,14,0.25,3,5,3,103.26,91.92,3.02,4.50,3.33,1.39,3.32,3.11,-5.08,2.96e-03,8.34e-06,Moderately soluble,-6.15,2.51e-04,7.06e-07,Poorly soluble,-4.47,1.19e-02,3.35e-05,Moderately soluble,High,No,No,Yes,No,Yes,Yes,No,-5.27,0,0,0,0,0,0.55,0,2,2,2.98
Molecule 49,C=CCc1c2O[C@@H]([C@H](c2cc(c1O)OC)C)c1cc(OC)c2c(c1)OCO2,C21H22O6,370.40,27,12,0.33,5,6,1,100.26,66.38,3.78,4.26,3.78,2.25,4.42,3.70,-4.82,5.62e-03,1.52e-05,Moderately soluble,-5.37,1.60e-03,4.31e-06,Moderately soluble,-5.36,1.61e-03,4.35e-06,Moderately soluble,High,Yes,No,Yes,Yes,Yes,Yes,Yes,-5.53,0,0,0,0,0,0.55,0,1,2,4.29
Molecule 50,C=CCc1c2O[C@@H]([C@H](c2cc(c1O)OC)C)c1ccc2c(c1)OCO2,C20H20O5,340.37,25,12,0.30,4,5,1,93.76,57.15,3.66,4.29,3.77,2.57,4.36,3.73,-4.74,6.13e-03,1.80e-05,Moderately soluble,-5.20,2.13e-03,6.26e-06,Moderately soluble,-5.26,1.89e-03,5.55e-06,Moderately soluble,High,Yes,No,Yes,Yes,Yes,Yes,Yes,-5.33,0,0,0,0,0,0.55,0,1,1,4.12
Molecule 51,C=CCc1c2O[C@H]([C@H](c2cc(c1O)OC)C)c1cc(OC)c2c(c1)OCO2,C21H22O6,370.40,27,12,0.33,5,6,1,100.26,66.38,3.92,4.26,3.78,2.25,4.42,3.73,-4.82,5.62e-03,1.52e-05,Moderately soluble,-5.37,1.60e-03,4.31e-06,Moderately soluble,-5.36,1.61e-03,4.35e-06,Moderately soluble,High,Yes,No,Yes,Yes,Yes,Yes,Yes,-5.53,0,0,0,0,0,0.55,0,1,2,4.29
Molecule 52,C=CCc1c2O[C@H]([C@H](c2cc(c1O)OC)C)c1ccc2c(c1)OCO2,C20H20O5,340.37,25,12,0.30,4,5,1,93.76,57.15,3.68,4.29,3.77,2.57,4.36,3.73,-4.74,6.13e-03,1.80e-05,Moderately soluble,-5.20,2.13e-03,6.26e-06,Moderately soluble,-5.26,1.89e-03,5.55e-06,Moderately soluble,High,Yes,No,Yes,Yes,Yes,Yes,Yes,-5.33,0,0,0,0,0,0.55,0,1,1,4.12
Molecule 53,C=CCc1c(O)c(OC)cc2c1oc(c2C)c1cc(OC)c2c(c1)OCO2,C21H20O6,368.38,27,15,0.24,5,6,1,101.79,70.29,3.84,4.82,4.59,2.10,5.16,4.10,-5.24,2.11e-03,5.73e-06,Moderately soluble,-6.03,3.45e-04,9.35e-07,Poorly soluble,-6.42,1.39e-04,3.78e-07,Poorly soluble,High,Yes,No,Yes,Yes,Yes,Yes,No,-5.12,0,0,0,0,0,0.55,0,1,2,3.80
Molecule 54,C=CCc1c(O)c(OC)cc2c1oc(c2C)c1ccc2c(c1)OCO2,C20H18O5,338.35,25,15,0.20,4,5,1,95.30,61.06,3.70,4.85,4.58,2.42,5.10,4.13,-5.17,2.27e-03,6.71e-06,Moderately soluble,-5.87,4.60e-04,1.36e-06,Moderately soluble,-6.32,1.63e-04,4.83e-07,Poorly soluble,High,Yes,No,Yes,Yes,Yes,Yes,Yes,-4.92,0,0,0,0,0,0.55,0,1,1,3.62
Molecule 55,C=CC(c1cc([C@@H]2COc3c(C2)ccc(c3)O)c(c(c1O)O)OC)(C)C,C21H24O5,356.41,26,12,0.33,4,5,3,101.24,79.15,3.08,4.53,3.99,2.39,4.12,3.62,-4.98,3.72e-03,1.04e-05,Moderately soluble,-5.91,4.34e-04,1.22e-06,Moderately soluble,-4.88,4.67e-03,1.31e-05,Moderately soluble,High,No,No,Yes,No,Yes,Yes,No,-5.26,0,0,0,0,0,0.55,1,2,2,3.84
Molecule 56,COc1cc(O)c2c(c1)oc(c(c2=O)OC)c1ccc(c(c1O)O)OC,C18H16O8,360.31,26,16,0.17,4,8,3,93.47,118.59,3.20,2.79,2.60,-0.35,2.65,2.18,-4.02,3.42e-02,9.48e-05,Moderately soluble,-4.94,4.17e-03,1.16e-05,Moderately soluble,-4.74,6.56e-03,1.82e-05,Moderately soluble,High,No,No,Yes,No,Yes,Yes,Yes,-6.52,0,0,0,0,0,0.55,1,1,1,3.67
Molecule 57,COc1ccc(cc1O)c1oc2cc(OC)c(c(c2c(=O)c1OC)O)O,C18H16O8,360.31,26,16,0.17,4,8,3,93.47,118.59,3.07,2.79,2.60,-0.35,2.65,2.15,-4.02,3.42e-02,9.48e-05,Moderately soluble,-4.94,4.17e-03,1.16e-05,Moderately soluble,-4.74,6.56e-03,1.82e-05,Moderately soluble,High,No,No,Yes,No,Yes,Yes,Yes,-6.52,0,0,0,0,0,0.55,1,1,1,3.58
Molecule 58,COc1cc2oc(cc(=O)c2c(c1O)O)c1ccc(c(c1)O)O,C16H12O7,316.26,23,16,0.06,2,7,4,82.50,120.36,1.25,2.50,2.29,-0.31,2.06,1.56,-3.76,5.51e-02,1.74e-04,Soluble,-4.67,6.71e-03,2.12e-05,Moderately soluble,-3.94,3.65e-02,1.15e-04,Soluble,High,No,No,Yes,No,No,Yes,Yes,-6.45,0,0,0,0,0,0.55,1,1,0,3.18
Molecule 59,COc1cc2oc(cc(=O)c2c(c1O)O)c1ccc(cc1)O,C16H12O6,300.26,22,16,0.06,2,6,3,80.48,100.13,2.18,2.99,2.59,0.22,2.55,2.11,-3.99,3.06e-02,1.02e-04,Soluble,-4.76,5.26e-03,1.75e-05,Moderately soluble,-4.52,9.07e-03,3.02e-05,Moderately soluble,High,No,No,Yes,No,No,Yes,Yes,-6.01,0,0,0,0,0,0.55,1,1,0,3.12
Molecule 60,COc1cc2ccc(=O)oc2c(c1O)O,C10H8O5,208.17,15,10,0.10,1,5,2,53.02,79.90,1.52,1.17,1.21,0.20,1.45,1.11,-2.30,1.06e+00,5.07e-03,Soluble,-2.44,7.50e-01,3.60e-03,Soluble,-2.60,5.28e-01,2.54e-03,Soluble,High,No,No,No,No,No,No,No,-6.74,0,0,0,0,0,0.55,1,2,1,2.87
Molecule 61,COc1c(O)c(O)cc2c1c(=O)c1c(o2)ccc(c1O)OC,C15H12O7,304.25,22,14,0.13,2,7,3,79.04,109.36,2.32,2.39,2.08,-0.25,2.04,1.72,-3.57,8.17e-02,2.69e-04,Soluble,-4.33,1.43e-02,4.70e-05,Moderately soluble,-3.81,4.77e-02,1.57e-04,Soluble,High,No,No,Yes,No,Yes,No,Yes,-6.46,0,0,0,0,0,0.55,1,2,0,3.21
Molecule 62,COC1=C[C@@]2(CCCc3c2cc(O)c(c3OC)O)C=CC1=O,C17H18O5,302.32,22,6,0.35,2,5,2,81.36,75.99,2.41,3.12,2.35,1.01,2.41,2.26,-3.75,5.38e-02,1.78e-04,Soluble,-4.38,1.25e-02,4.12e-05,Moderately soluble,-3.15,2.15e-01,7.10e-04,Soluble,High,Yes,No,Yes,No,Yes,No,Yes,-5.93,0,0,0,0,0,0.55,1,1,0,4.08
Molecule 63,COc1cc(cc(c1O)OC)c1cc(=O)c2c(o1)cc(cc2O)O,C17H14O7,330.29,24,16,0.12,3,7,3,86.97,109.36,2.58,3.07,2.59,-0.07,2.59,2.15,-4.12,2.52e-02,7.63e-05,Moderately soluble,-5.03,3.06e-03,9.26e-06,Moderately soluble,-4.63,7.71e-03,2.33e-05,Moderately soluble,High,No,No,Yes,No,Yes,Yes,Yes,-6.14,0,0,0,0,0,0.55,0,0,0,3.21
Molecule 64,COc1c(O)c(OC)cc2c1oc1ccccc1c2=O,C15H12O5,272.25,20,14,0.13,2,5,1,75.00,68.90,2.58,2.55,2.67,0.82,3.00,2.32,-3.52,8.21e-02,3.02e-04,Soluble,-3.64,6.18e-02,2.27e-04,Soluble,-4.97,2.94e-03,1.08e-05,Moderately soluble,High,Yes,No,Yes,No,Yes,Yes,Yes,-6.15,0,0,0,0,0,0.55,0,1,0,3.11
Molecule 65,COc1c(O)c(OC)cc2c1oc(=O)cc2,C11H10O5,222.19,16,10,0.18,2,5,1,57.49,68.90,1.96,1.50,1.52,0.49,1.94,1.48,-2.49,7.14e-01,3.21e-03,Soluble,-2.55,6.20e-01,2.79e-03,Soluble,-3.30,1.12e-01,5.02e-04,Soluble,High,Yes,No,Yes,No,No,No,No,-6.59,0,0,0,0,0,0.55,0,1,1,3.02
Molecule 66,CCCc1cc([C@@H](Cc2ccc3c(c2)OCO3)C)c(c(c1)OC)O,C20H24O4,328.40,24,12,0.40,6,4,1,94.67,47.92,3.81,5.24,4.43,3.21,5.15,4.37,-5.15,2.32e-03,7.06e-06,Moderately soluble,-6.00,3.32e-04,1.01e-06,Moderately soluble,-6.23,1.92e-04,5.86e-07,Poorly soluble,High,Yes,No,Yes,No,Yes,Yes,Yes,-4.58,0,0,0,0,1,0.55,0,0,1,3.46
Molecule 67,COc1ccc(cc1)c1oc2cc(OC)c(c(c2c(=O)c1OC)O)OC,C19H18O7,358.34,26,16,0.21,5,7,1,95.91,87.36,3.41,3.47,3.20,0.40,3.66,2.83,-4.37,1.52e-02,4.23e-05,Moderately soluble,-4.99,3.70e-03,1.03e-05,Moderately soluble,-6.02,3.43e-04,9.57e-07,Poorly soluble,High,No,No,Yes,No,Yes,Yes,Yes,-6.02,0,0,0,0,0,0.55,0,0,1,3.62
Molecule 68,COc1cc(OC)c(cc1c1coc2c(c1=O)c(O)c(c(c2)O)OC)OC,C19H18O8,374.34,27,16,0.21,5,8,2,97.93,107.59,3.42,2.91,2.91,-0.12,3.19,2.46,-4.10,2.95e-02,7.89e-05,Moderately soluble,-4.83,5.53e-03,1.48e-05,Moderately soluble,-5.43,1.38e-03,3.69e-06,Moderately soluble,High,No,No,Yes,No,Yes,No,Yes,-6.52,0,0,0,0,0,0.55,0,0,1,3.58
Molecule 69,COc1ccc(cc1O)c1coc2c(c1=O)c(O)c(c(c2)O)OC,C17H14O7,330.29,24,16,0.12,3,7,3,86.97,109.36,2.81,2.61,2.59,-0.07,2.59,2.11,-3.83,4.91e-02,1.49e-04,Soluble,-4.56,9.18e-03,2.78e-05,Moderately soluble,-4.63,7.71e-03,2.33e-05,Moderately soluble,High,No,No,Yes,No,Yes,Yes,Yes,-6.46,0,0,0,0,0,0.55,0,0,0,3.26
Molecule 70,COc1c(O)cc2c(c1O)c(=O)c(co2)c1ccc(cc1)O,C16H12O6,300.26,22,16,0.06,2,6,3,80.48,100.13,2.32,2.64,2.59,0.22,2.55,2.06,-3.77,5.09e-02,1.69e-04,Soluble,-4.39,1.21e-02,4.04e-05,Moderately soluble,-4.52,9.07e-03,3.02e-05,Moderately soluble,High,No,No,Yes,No,No,Yes,Yes,-6.26,0,0,0,0,0,0.55,0,0,0,3.03
Molecule 71,COc1cc2oc(C)cc(=O)c2c(c1OC)O,C12H12O5,236.22,17,10,0.25,2,5,1,62.46,68.90,2.50,2.06,1.82,-0.04,2.43,1.75,-2.91,2.94e-01,1.24e-03,Soluble,-3.14,1.73e-01,7.32e-04,Soluble,-3.69,4.87e-02,2.06e-04,Soluble,High,Yes,No,Yes,No,No,No,No,-6.28,0,0,0,0,0,0.55,0,0,1,2.89
Molecule 72,COc1ccc(cc1OC)c1cc(=O)c2c(o1)cc(c(c2O)OC)OC,C19H18O7,358.34,26,16,0.21,5,7,1,95.91,87.36,3.45,3.72,3.20,0.40,3.66,2.89,-4.53,1.06e-02,2.95e-05,Moderately soluble,-5.25,2.03e-03,5.68e-06,Moderately soluble,-6.02,3.43e-04,9.57e-07,Poorly soluble,High,No,No,Yes,No,Yes,Yes,Yes,-5.84,0,0,0,0,0,0.55,0,0,2,3.54
Molecule 73,COc1cc2oc(cc(=O)c2c(c1OC)O)c1ccc2c(c1)OCO2,C18H14O7,342.30,25,16,0.17,3,7,1,88.99,87.36,3.23,3.13,2.91,0.58,3.43,2.66,-4.21,2.11e-02,6.17e-05,Moderately soluble,-4.63,7.96e-03,2.32e-05,Moderately soluble,-5.53,1.01e-03,2.96e-06,Moderately soluble,High,No,No,Yes,No,Yes,Yes,Yes,-6.17,0,0,0,0,0,0.55,0,0,0,3.47
Molecule 74,COc1cc2c(c(c1OC)O)c(=O)c1c(n2C)cccc1,C16H15NO4,285.29,21,14,0.19,2,4,1,81.98,60.69,2.68,3.25,2.41,1.07,2.59,2.40,-4.02,2.74e-02,9.60e-05,Moderately soluble,-4.20,1.81e-02,6.34e-05,Moderately soluble,-4.52,8.60e-03,3.01e-05,Moderately soluble,High,Yes,No,Yes,No,Yes,Yes,Yes,-5.73,0,0,0,0,0,0.55,0,1,0,2.37
Molecule 75,COc1cc2[nH]c3ccccc3c(=O)c2c(c1OC)O,C15H13NO4,271.27,20,14,0.13,2,4,2,77.08,71.55,2.37,3.11,2.40,0.82,3.13,2.37,-3.87,3.68e-02,1.36e-04,Soluble,-4.28,1.42e-02,5.24e-05,Moderately soluble,-4.96,2.95e-03,1.09e-05,Moderately soluble,High,Yes,No,Yes,No,Yes,Yes,Yes,-5.75,0,0,0,0,0,0.55,0,1,0,2.25
Molecule 76,COc1cc2[nH]c3c(OC)c(OC)ccc3c(=O)c2c(c1OC)O,C17H17NO6,331.32,24,14,0.24,4,6,2,90.07,90.01,2.84,3.06,2.42,0.24,3.23,2.36,-3.99,3.39e-02,1.02e-04,Soluble,-4.62,8.01e-03,2.42e-05,Moderately soluble,-5.19,2.13e-03,6.43e-06,Moderately soluble,High,No,No,Yes,No,Yes,Yes,Yes,-6.15,0,0,0,0,0,0.55,0,1,0,2.69
Molecule 77,COc1c(CC=C(C)C)cc2c(c1O)oc(=O)cc2,C15H16O4,260.29,19,10,0.27,3,4,1,74.72,59.67,2.78,3.45,3.02,2.04,3.55,2.97,-3.82,3.95e-02,1.52e-04,Soluble,-4.38,1.07e-02,4.13e-05,Moderately soluble,-4.44,9.54e-03,3.66e-05,Moderately soluble,High,Yes,No,Yes,Yes,No,No,No,-5.44,0,0,0,0,0,0.55,0,2,0,3.05
Molecule 78,COc1cc2c(c(c1OC)O)oc1c(c2=O)cccc1,C15H12O5,272.25,20,14,0.13,2,5,1,75.00,68.90,2.58,2.55,2.67,0.82,3.00,2.32,-3.52,8.21e-02,3.02e-04,Soluble,-3.64,6.18e-02,2.27e-04,Soluble,-4.97,2.94e-03,1.08e-05,Moderately soluble,High,Yes,No,Yes,No,Yes,Yes,Yes,-6.15,0,0,0,0,0,0.55,0,1,0,3.13
Molecule 79,COc1cc2c(c(c1OC)O)oc1c(c2=O)c(O)ccc1,C15H12O6,288.25,21,14,0.13,2,6,2,77.02,89.13,2.52,2.75,2.37,0.28,2.52,2.09,-3.72,5.48e-02,1.90e-04,Soluble,-4.28,1.52e-02,5.29e-05,Moderately soluble,-4.39,1.18e-02,4.10e-05,Moderately soluble,High,No,No,Yes,No,Yes,Yes,Yes,-6.11,0,0,0,0,0,0.55,0,1,0,3.19
Molecule 80,COc1c(O)c2C[C@H](O)C(Oc2c2c1n(C)c1c(c2=O)cccc1O)(C)C,C20H21NO6,371.38,27,14,0.35,1,6,3,102.48,101.15,2.52,2.38,2.19,0.67,2.52,2.05,-3.96,4.08e-02,1.10e-04,Soluble,-4.15,2.66e-02,7.16e-05,Moderately soluble,-4.30,1.87e-02,5.05e-05,Moderately soluble,High,No,Yes,Yes,No,Yes,No,No,-6.88,0,0,0,0,0,0.55,0,1,1,3.73
Molecule 81,COc1c(O)cc(c2c1oc(C)cc2=O)C,C12H12O4,220.22,16,10,0.25,1,4,1,60.93,59.67,2.35,1.90,2.12,0.52,2.89,1.96,-2.80,3.50e-01,1.59e-03,Soluble,-2.78,3.69e-01,1.68e-03,Soluble,-3.95,2.49e-02,1.13e-04,Soluble,High,Yes,No,Yes,No,No,No,No,-6.29,0,0,0,0,0,0.55,0,0,1,2.86
Molecule 82,COc1c(O)cc(c2c1oc(=O)cc2OC)C,C12H12O5,236.22,17,10,0.25,2,5,1,62.46,68.90,2.29,1.58,1.82,0.77,2.43,1.78,-2.60,5.89e-01,2.49e-03,Soluble,-2.64,5.44e-01,2.30e-03,Soluble,-3.69,4.87e-02,2.06e-04,Soluble,High,Yes,No,Yes,No,No,No,No,-6.62,0,0,0,0,0,0.55,0,1,1,2.97
Molecule 83,COc1cc(O)c2c(c1)oc(c(c2=O)OC)c1ccc(c(c1)O)OC,C18H16O7,344.32,25,16,0.17,4,7,2,91.44,98.36,3.25,3.61,2.90,0.17,3.12,2.61,-4.46,1.20e-02,3.48e-05,Moderately soluble,-5.36,1.49e-03,4.34e-06,Moderately soluble,-5.33,1.63e-03,4.72e-06,Moderately soluble,High,No,No,Yes,No,Yes,Yes,Yes,-5.84,0,0,0,0,0,0.55,0,0,1,3.54
Molecule 84,COc1ccc(cc1O)c1coc2c(c1=O)c(O)cc(c2)O,C16H12O6,300.26,22,16,0.06,2,6,3,80.48,100.13,2.38,3.10,2.59,0.22,2.55,2.17,-4.06,2.61e-02,8.69e-05,Moderately soluble,-4.87,4.04e-03,1.35e-05,Moderately soluble,-4.52,9.07e-03,3.02e-05,Moderately soluble,High,No,No,Yes,No,Yes,Yes,Yes,-5.93,0,0,0,0,0,0.55,0,0,0,3.02
Molecule 85,COc1ccc(cc1O)c1coc2c(c1=O)ccc(c2)O,C16H12O5,284.26,21,16,0.06,2,5,2,78.46,79.90,2.40,2.44,2.88,0.77,3.03,2.30,-3.57,7.63e-02,2.68e-04,Soluble,-3.76,4.93e-02,1.73e-04,Soluble,-5.10,2.25e-03,7.91e-06,Moderately soluble,High,No,No,Yes,No,No,Yes,Yes,-6.30,0,0,0,0,0,0.55,0,0,0,2.95
Molecule 86,COc1ccc(cc1O)c1cc(=O)c2c(o1)cc(cc2)O,C16H12O5,284.26,21,16,0.06,2,5,2,78.46,79.90,2.33,3.24,2.88,0.77,3.03,2.45,-4.08,2.39e-02,8.41e-05,Moderately soluble,-4.59,7.29e-03,2.56e-05,Moderately soluble,-5.10,2.25e-03,7.91e-06,Moderately soluble,High,No,No,Yes,No,No,Yes,Yes,-5.73,0,0,0,0,0,0.55,0,0,0,2.97
Molecule 87,COc1ccc2c(c1)oc(cc2=O)c1ccc(c(c1)O)OC,C17H14O5,298.29,22,16,0.12,3,5,1,82.93,68.90,2.64,3.23,3.18,1.01,3.55,2.72,-4.06,2.57e-02,8.62e-05,Moderately soluble,-4.35,1.33e-02,4.47e-05,Moderately soluble,-5.80,4.74e-04,1.59e-06,Moderately soluble,High,Yes,No,Yes,Yes,Yes,Yes,Yes,-5.83,0,0,0,0,0,0.55,0,0,0,3.11
Molecule 88,COc1cc(CCCc2ccc(c(c2)O)OC)cc(c1)O,C17H20O4,288.34,21,12,0.29,6,4,2,82.54,58.92,2.50,3.57,3.29,2.50,3.69,3.11,-3.90,3.60e-02,1.25e-04,Soluble,-4.49,9.26e-03,3.21e-05,Moderately soluble,-5.23,1.71e-03,5.92e-06,Moderately soluble,High,Yes,No,Yes,No,No,Yes,No,-5.52,0,0,0,0,0,0.55,0,0,1,2.17
Molecule 89,COc1ccc(cc1O)c1coc2c(c1=O)c(O)cc(c2OC)O,C17H14O7,330.29,24,16,0.12,3,7,3,86.97,109.36,2.85,2.61,2.59,-0.07,2.59,2.12,-3.83,4.91e-02,1.49e-04,Soluble,-4.56,9.18e-03,2.78e-05,Moderately soluble,-4.63,7.71e-03,2.33e-05,Moderately soluble,High,No,No,Yes,No,Yes,Yes,Yes,-6.46,0,0,0,0,0,0.55,0,0,0,3.31
Molecule 90,COc1cc(ccc1OC)c1coc2c(c1=O)c(O)cc(c2OC)O,C18H16O7,344.32,25,16,0.17,4,7,2,91.44,98.36,3.06,2.93,2.90,0.17,3.12,2.44,-4.03,3.21e-02,9.33e-05,Moderately soluble,-4.66,7.58e-03,2.20e-05,Moderately soluble,-5.33,1.63e-03,4.72e-06,Moderately soluble,High,No,No,Yes,No,Yes,Yes,Yes,-6.32,0,0,0,0,0,0.55,0,0,0,3.42
Molecule 91,COc1c(O)cc(c2c1n(C)c1c(c2=O)cccc1O)O,C15H13NO5,287.27,21,14,0.13,1,5,3,79.54,91.92,2.15,2.57,1.82,0.28,1.58,1.68,-3.67,6.18e-02,2.15e-04,Soluble,-4.15,2.04e-02,7.11e-05,Moderately soluble,-3.24,1.64e-01,5.71e-04,Soluble,High,No,No,Yes,No,No,Yes,Yes,-6.23,0,0,0,0,0,0.55,0,1,0,2.41
Molecule 92,COc1c(O)cc(c2c1[nH]c1c(O)cccc1c2=O)O,C14H11NO5,273.24,20,14,0.07,1,5,4,74.64,102.78,1.84,2.43,1.81,0.02,2.13,1.65,-3.52,8.31e-02,3.04e-04,Soluble,-4.23,1.60e-02,5.87e-05,Moderately soluble,-3.69,5.63e-02,2.06e-04,Soluble,High,No,No,Yes,No,No,Yes,Yes,-6.24,0,0,0,0,0,0.55,0,1,0,2.37
Molecule 93,COc1c(O)cc(cc1O)[C@H]1Oc2cc(O)cc(c2C[C@H]1O)O,C16H16O7,320.29,23,12,0.25,2,7,5,80.83,119.61,1.85,0.33,1.23,-0.04,1.01,0.88,-2.29,1.65e+00,5.15e-03,Soluble,-2.41,1.26e+00,3.93e-03,Soluble,-2.26,1.78e+00,5.55e-03,Soluble,High,No,Yes,No,No,No,No,No,-8.02,0,0,0,0,0,0.55,0,0,0,3.65
Molecule 94,COc1cc(O)c2c(c1)oc(c(c2=O)OC)c1cc(O)c(cc1O)OC,C18H16O8,360.31,26,16,0.17,4,8,3,93.46,118.59,2.95,2.16,2.60,-0.35,2.65,2.00,-3.63,8.52e-02,2.37e-04,Soluble,-4.28,1.88e-02,5.21e-05,Moderately soluble,-4.74,6.56e-03,1.82e-05,Moderately soluble,High,No,Yes,Yes,No,Yes,Yes,Yes,-6.96,0,0,0,0,0,0.55,0,1,1,3.67
Molecule 95,COc1cc(OC)c2c(c1)oc(c(c2=O)OC)c1cc(O)c(cc1O)OC,C19H18O8,374.34,27,16,0.21,5,8,2,97.93,107.59,3.12,2.56,2.91,-0.12,3.19,2.33,-3.88,4.91e-02,1.31e-04,Soluble,-4.47,1.28e-02,3.41e-05,Moderately soluble,-5.43,1.38e-03,3.69e-06,Moderately soluble,High,No,No,Yes,No,Yes,No,Yes,-6.77,0,0,0,0,0,0.55,0,1,1,3.80
Molecule 96,COc1cc2oc(=O)cc(c2cc1O)c1ccccc1,C16H12O4,268.26,20,16,0.06,2,4,1,76.44,59.67,2.63,2.70,3.17,2.14,3.52,2.83,-3.66,5.81e-02,2.17e-04,Soluble,-3.61,6.65e-02,2.48e-04,Soluble,-5.68,5.58e-04,2.08e-06,Moderately soluble,High,Yes,No,Yes,No,No,Yes,No,-6.02,0,0,0,0,0,0.55,0,1,0,2.96
Molecule 97,COc1cc2cc(c(=O)oc2cc1O)C(C=C)(C)C,C15H16O4,260.29,19,10,0.27,3,4,1,74.60,59.67,2.72,3.48,2.97,2.04,3.55,2.95,-3.84,3.78e-02,1.45e-04,Soluble,-4.42,1.00e-02,3.84e-05,Moderately soluble,-4.44,9.54e-03,3.66e-05,Moderately soluble,High,Yes,No,Yes,Yes,No,No,No,-5.42,0,0,0,0,0,0.55,0,2,0,3.13
Molecule 98,COc1cc2ccc(=O)oc2cc1O,C10H8O4,192.17,14,10,0.10,1,4,1,51.00,59.67,1.86,1.53,1.51,0.76,1.94,1.52,-2.46,6.70e-01,3.48e-03,Soluble,-2.39,7.79e-01,4.06e-03,Soluble,-3.17,1.31e-01,6.81e-04,Soluble,High,Yes,No,Yes,No,No,No,No,-6.39,0,0,0,0,1,0.55,0,1,1,2.62
Molecule 99,COc1ccc(cc1O)c1coc2c(c1=O)cc(c(c2)O)OC,C17H14O6,314.29,23,16,0.12,3,6,2,84.95,89.13,2.88,2.41,2.89,0.47,3.07,2.34,-3.62,7.48e-02,2.38e-04,Soluble,-3.92,3.75e-02,1.19e-04,Soluble,-5.22,1.91e-03,6.08e-06,Moderately soluble,High,No,No,Yes,No,Yes,Yes,Yes,-6.51,0,0,0,0,0,0.55,0,0,0,3.19
Molecule 100,COc1cc2c(cc1O)occ(c2=O)c1ccc2c(c1)OCO2,C17H12O6,312.27,23,16,0.12,2,6,1,82.50,78.13,2.98,2.61,2.90,0.87,3.39,2.55,-3.80,4.91e-02,1.57e-04,Soluble,-3.90,3.93e-02,1.26e-04,Soluble,-5.42,1.20e-03,3.83e-06,Moderately soluble,High,Yes,No,Yes,No,Yes,Yes,Yes,-6.35,0,0,0,0,0,0.55,0,0,0,3.27
