Molecule,Canonical SMILES,Formula,MW,#Heavy atoms,#Aromatic heavy atoms,Fraction Csp3,#Rotatable bonds,#H-bond acceptors,#H-bond donors,MR,TPSA,iLOGP,XLOGP3,WLOGP,MLOGP,Silicos-IT Log P,Consensus Log P,ESOL Log S,ESOL Solubility (mg/ml),ESOL Solubility (mol/l),ESOL Class,Ali Log S,Ali Solubility (mg/ml),Ali Solubility (mol/l),Ali Class,Silicos-IT LogSw,Silicos-IT Solubility (mg/ml),Silicos-IT Solubility (mol/l),Silicos-IT class,GI absorption,BBB permeant,Pgp substrate,CYP1A2 inhibitor,CYP2C19 inhibitor,CYP2C9 inhibitor,CYP2D6 inhibitor,CYP3A4 inhibitor,log Kp (cm/s),Lipinski #violations,Ghose #violations,Veber #violations,Egan #violations,Muegge #violations,Bioavailability Score,PAINS #alerts,Brenk #alerts,Leadlikeness #violations,Synthetic Accessibility
Molecule 1,C[C@H]1OC(=O)c2c(C1)c(O)ccc2O,C10H10O4,194.18,14,6,0.30,0,4,2,49.43,66.76,1.56,2.08,1.20,0.97,1.45,1.45,-2.67,4.14e-01,2.13e-03,Soluble,-3.11,1.50e-01,7.73e-04,Soluble,-1.87,2.64e+00,1.36e-02,Soluble,High,Yes,No,No,No,No,No,No,-6.01,0,0,0,0,1,0.55,0,1,1,2.84
Molecule 2,C[C@H]1OC(=O)c2c(C1)ccc(c2O)O,C10H10O4,194.18,14,6,0.30,0,4,2,49.43,66.76,1.82,2.08,1.20,0.97,1.45,1.50,-2.67,4.14e-01,2.13e-03,Soluble,-3.11,1.50e-01,7.73e-04,Soluble,-1.87,2.64e+00,1.36e-02,Soluble,High,Yes,No,No,No,No,No,No,-6.01,0,0,0,0,1,0.55,1,1,1,2.75
Molecule 3,C[C@H]1OC(=O)c2c([C@H]1O)ccc(c2O)O,C10H10O5,210.18,15,6,0.30,0,5,3,50.59,86.99,1.56,0.97,0.37,0.14,0.55,0.72,-2.05,1.87e+00,8.91e-03,Soluble,-2.38,8.67e-01,4.13e-03,Soluble,-1.06,1.81e+01,8.61e-02,Soluble,High,No,No,No,No,No,No,No,-6.89,0,0,0,0,0,0.55,1,1,1,3.16
Molecule 4,C[C@H]1OC(=O)c2c([C@H]1O)cccc2O,C10H10O4,194.18,14,6,0.30,0,4,2,48.57,66.76,1.71,1.33,0.66,0.70,1.04,1.09,-2.20,1.23e+00,6.32e-03,Soluble,-2.33,9.01e-01,4.64e-03,Soluble,-1.64,4.49e+00,2.31e-02,Soluble,High,No,No,No,No,No,No,No,-6.54,0,0,0,0,1,0.55,0,0,1,3.06
Molecule 5,O[C@@H]1[C@@H]2OC(=O)[C@]3([C@@H]1C(C)(C)CCC3)c1c2cc(C(C)C)c(c1O)O,C20H26O5,346.42,25,6,0.65,1,5,3,93.99,86.99,2.51,3.41,2.93,2.42,3.16,2.89,-4.25,1.96e-02,5.65e-05,Moderately soluble,-4.92,4.20e-03,1.21e-05,Moderately soluble,-3.64,7.97e-02,2.30e-04,Soluble,High,No,Yes,No,No,No,Yes,No,-5.99,0,0,0,0,0,0.55,1,1,0,5.17
Molecule 6,C=CC(c1c2OC(C)(C)C=Cc2c(c2c1oc(=O)cc2)O)(C)C,C19H20O4,312.36,23,10,0.32,2,4,1,92.23,59.67,3.01,4.42,4.04,2.93,4.50,3.78,-4.75,5.54e-03,1.77e-05,Moderately soluble,-5.39,1.27e-03,4.07e-06,Moderately soluble,-5.15,2.19e-03,7.01e-06,Moderately soluble,High,Yes,No,Yes,Yes,Yes,No,No,-5.07,0,0,0,0,0,0.55,0,2,1,3.87
Molecule 7,Oc1cc2c(=O)oc3c4c2c(c1O)oc(=O)c4cc(c3O)O,C14H6O8,302.19,22,16,0.00,0,8,4,75.31,141.34,0.79,1.10,1.31,0.14,1.67,1.00,-2.94,3.43e-01,1.14e-03,Soluble,-3.66,6.60e-02,2.18e-04,Soluble,-3.35,1.36e-01,4.49e-04,Soluble,High,No,No,Yes,No,No,No,No,-7.36,0,0,1,1,0,0.55,1,3,0,3.17
Molecule 8,C=C[C@]1(C)CC(=O)Oc2c(C1)c(C)c1c(c2O)C(C)(C)CCC1,C20H26O3,314.42,23,6,0.55,1,3,1,93.21,46.53,3.38,5.35,4.36,4.02,5.51,4.52,-5.29,1.62e-03,5.16e-06,Moderately soluble,-6.08,2.62e-04,8.32e-07,Poorly soluble,-5.62,7.47e-04,2.38e-06,Moderately soluble,High,Yes,No,No,Yes,Yes,No,Yes,-4.42,0,0,0,0,1,0.55,0,2,1,3.76
Molecule 9,CC(=C)[C@H]1Cc2c(O1)cc(c1c2oc(=O)cc1)O,C14H12O4,244.24,18,10,0.21,1,4,1,67.80,59.67,2.37,2.86,2.38,1.79,3.08,2.49,-3.50,7.70e-02,3.15e-04,Soluble,-3.77,4.13e-02,1.69e-04,Soluble,-3.94,2.82e-02,1.16e-04,Soluble,High,Yes,No,Yes,No,No,No,No,-5.76,0,0,0,0,0,0.55,0,2,1,3.49
Molecule 10,CC(=C)[C@@H]1Cc2c(O1)cc(c1c2oc(=O)cc1)O,C14H12O4,244.24,18,10,0.21,1,4,1,67.80,59.67,2.37,2.86,2.38,1.79,3.08,2.49,-3.50,7.70e-02,3.15e-04,Soluble,-3.77,4.13e-02,1.69e-04,Soluble,-3.94,2.82e-02,1.16e-04,Soluble,High,Yes,No,Yes,No,No,No,No,-5.76,0,0,0,0,0,0.55,0,2,1,3.49
Molecule 11,O=c1ccc2c(o1)cc1c3c2OC(C)(C)[C@H]2[C@@H]3C[C@](O1)(C)CC2,C19H20O4,312.36,23,10,0.53,0,4,0,87.82,48.67,3.17,3.42,4.00,3.08,4.36,3.61,-4.25,1.74e-02,5.59e-05,Moderately soluble,-4.12,2.36e-02,7.55e-05,Moderately soluble,-5.68,6.45e-04,2.07e-06,Moderately soluble,High,Yes,Yes,No,Yes,No,Yes,Yes,-5.78,0,0,0,0,0,0.55,0,1,0,4.74
Molecule 12,CC(=CCc1cc2ccc(=O)oc2cc1O)C,C14H14O3,230.26,17,10,0.21,2,3,1,68.23,50.44,2.59,3.48,3.01,2.37,3.50,2.99,-3.76,3.97e-02,1.72e-04,Soluble,-4.22,1.38e-02,6.00e-05,Moderately soluble,-4.31,1.12e-02,4.86e-05,Moderately soluble,High,Yes,No,Yes,No,No,No,No,-5.23,0,0,0,0,0,0.55,0,2,1,2.84
Molecule 13,O=c1ccc2c(o1)cc1c(c2)[C@@H](O)[C@@H](C(O1)(C)C)O,C14H14O5,262.26,19,10,0.36,0,5,2,68.61,79.90,1.75,0.80,1.03,0.77,1.91,1.25,-2.36,1.15e+00,4.37e-03,Soluble,-2.06,2.29e+00,8.72e-03,Soluble,-3.34,1.21e-01,4.60e-04,Soluble,High,No,No,No,No,No,No,No,-7.33,0,0,0,0,0,0.55,0,1,0,3.68
Molecule 14,O=c1ccc2c(o1)cc1c(c2)[C@@H]([C@H](O1)C(O)(C)C)O,C14H14O5,262.26,19,10,0.36,1,5,2,68.61,79.90,2.10,1.35,1.03,0.77,1.88,1.43,-2.64,6.01e-01,2.29e-03,Soluble,-2.63,6.15e-01,2.34e-03,Soluble,-3.12,2.00e-01,7.62e-04,Soluble,High,No,No,No,No,No,No,No,-6.94,0,0,0,0,0,0.55,0,1,0,3.68
Molecule 15,CC1(C)C=Cc2c(O1)cc1c(c2)ccc(=O)o1,C14H12O3,228.24,17,10,0.21,0,3,0,66.61,39.44,2.62,2.83,2.87,2.37,3.32,2.80,-3.47,7.68e-02,3.36e-04,Soluble,-3.32,1.10e-01,4.83e-04,Soluble,-4.48,7.49e-03,3.28e-05,Moderately soluble,High,Yes,No,Yes,Yes,No,No,No,-5.68,0,0,0,0,0,0.55,0,1,1,3.24
Molecule 16,CC(=C)[C@@H]1Cc2c(O1)cc1c(c2)ccc(=O)o1,C14H12O3,228.24,17,10,0.21,1,3,0,65.77,39.44,2.65,3.22,2.67,2.37,3.57,2.90,-3.65,5.07e-02,2.22e-04,Soluble,-3.72,4.34e-02,1.90e-04,Soluble,-4.51,7.00e-03,3.07e-05,Moderately soluble,High,Yes,No,Yes,Yes,No,No,No,-5.41,0,0,0,0,0,0.55,0,2,1,3.21
Molecule 17,O=c1ccc2c(o1)cc1c(c2)C[C@H](O1)C(O)(C)C,C14H14O4,246.26,18,10,0.36,1,4,1,67.45,59.67,2.55,1.91,1.87,1.60,2.78,2.14,-2.92,2.99e-01,1.22e-03,Soluble,-2.79,4.03e-01,1.64e-03,Soluble,-3.93,2.92e-02,1.19e-04,Soluble,High,Yes,No,Yes,No,No,No,No,-6.45,0,0,0,0,0,0.55,0,1,1,3.35
Molecule 18,O=c1ccc2c(o1)cc1c(c2)cco1,C11H6O3,186.16,14,13,0.00,0,3,0,52.26,43.35,2.01,1.67,2.54,1.48,2.91,2.12,-2.73,3.44e-01,1.85e-03,Soluble,-2.19,1.19e+00,6.39e-03,Soluble,-4.50,5.87e-03,3.16e-05,Moderately soluble,High,Yes,No,Yes,No,No,No,No,-6.25,0,0,0,0,1,0.55,0,1,1,3.06
Molecule 19,Oc1ccc2c(c1)oc(=O)cc2,C9H6O3,162.14,12,10,0.00,0,3,1,44.51,50.44,1.44,1.58,1.50,1.04,1.97,1.51,-2.46,5.66e-01,3.49e-03,Soluble,-2.25,9.12e-01,5.62e-03,Soluble,-3.03,1.53e-01,9.42e-04,Soluble,High,Yes,No,Yes,No,No,No,No,-6.17,0,1,0,0,1,0.55,0,1,1,2.56
Molecule 20,O=c1ccc2c(o1)cccc2,C9H6O2,146.14,11,10,0.00,0,2,0,42.48,30.21,1.75,1.39,1.79,1.65,2.50,1.82,-2.29,7.42e-01,5.08e-03,Soluble,-1.63,3.44e+00,2.35e-02,Very soluble,-3.59,3.77e-02,2.58e-04,Soluble,High,Yes,No,Yes,No,No,No,No,-6.20,0,2,0,0,1,0.55,0,1,1,2.74
Molecule 21,O=c1ccc2c(o1)c1c(cc2)OC([C@@H]([C@H]1O)O)(C)C,C14H14O5,262.26,19,10,0.36,0,5,2,68.61,79.90,1.97,0.80,1.03,0.77,1.91,1.30,-2.36,1.15e+00,4.37e-03,Soluble,-2.06,2.29e+00,8.72e-03,Soluble,-3.34,1.21e-01,4.60e-04,Soluble,High,No,No,No,No,No,No,No,-7.33,0,0,0,0,0,0.55,0,1,0,3.83
Molecule 22,CC1(C)C=Cc2c(O1)ccc1c2oc(=O)cc1,C14H12O3,228.24,17,10,0.21,0,3,0,66.61,39.44,2.66,2.83,2.87,2.37,3.32,2.81,-3.47,7.68e-02,3.36e-04,Soluble,-3.32,1.10e-01,4.83e-04,Soluble,-4.48,7.49e-03,3.28e-05,Moderately soluble,High,Yes,No,Yes,Yes,No,No,No,-5.68,0,0,0,0,0,0.55,0,1,1,3.39
Molecule 23,O=c1ccc2c(o1)c1ccoc1cc2,C11H6O3,186.16,14,13,0.00,0,3,0,52.26,43.35,2.03,2.08,2.54,1.48,2.91,2.21,-2.99,1.90e-01,1.02e-03,Soluble,-2.62,4.47e-01,2.40e-03,Soluble,-4.50,5.87e-03,3.16e-05,Moderately soluble,High,Yes,No,Yes,No,No,No,No,-5.96,0,0,0,0,1,0.55,0,1,1,3.07
Molecule 24,O=C1CC[C@@]2(CO1)[C@H]1CCC[C@@H]([C@H]1C[C@H]1[C@@H]2[C@H](C)C(=O)O1)O,C17H24O5,308.37,22,0,0.88,0,5,1,78.85,72.83,1.94,1.85,1.67,2.19,1.75,1.88,-2.92,3.73e-01,1.21e-03,Soluble,-3.00,3.08e-01,9.99e-04,Soluble,-1.98,3.24e+00,1.05e-02,Soluble,High,Yes,Yes,No,No,No,No,No,-6.87,0,0,0,0,0,0.55,0,1,0,4.77
Molecule 25,C[C@@H]1C(=O)c2ccc3c(c2[C@@H]([C@H]1C)c1ccc2c(c1)OCO2)OCO3,C20H18O5,338.35,25,12,0.35,1,5,0,90.52,53.99,3.26,4.11,3.74,2.71,4.05,3.58,-4.82,5.17e-03,1.53e-05,Moderately soluble,-4.95,3.80e-03,1.12e-05,Moderately soluble,-5.47,1.15e-03,3.40e-06,Moderately soluble,High,Yes,No,No,Yes,Yes,Yes,Yes,-5.45,0,0,0,0,0,0.55,0,0,1,4.08
Molecule 26,O=C1[C@@H](C)[C@H](C)[C@@](c2c1ccc1c2OCO1)(O)c1ccc2c(c1)OCO2,C20H18O6,354.35,26,12,0.35,1,6,1,91.57,74.22,2.92,3.03,2.74,1.90,3.54,2.82,-4.22,2.13e-02,6.01e-05,Moderately soluble,-4.25,1.97e-02,5.57e-05,Moderately soluble,-5.10,2.80e-03,7.89e-06,Moderately soluble,High,Yes,No,No,Yes,Yes,Yes,Yes,-6.31,0,0,0,0,0,0.55,0,0,1,4.16
Molecule 27,CC[C@@H]1C(=O)OC[C@@H]1/C=C/1\C(=O)NC(=O)N1C,C11H14N2O4,238.24,17,0,0.55,2,4,1,65.89,75.71,1.57,0.22,-0.51,0.44,0.59,0.46,-1.32,1.13e+01,4.75e-02,Very soluble,-1.37,1.02e+01,4.27e-02,Very soluble,-1.37,1.02e+01,4.27e-02,Soluble,High,No,No,No,No,No,No,No,-7.60,0,1,0,0,0,0.55,0,2,1,3.89
Molecule 28,CCCCCCCCCC[C@H]1C[C@@H](C(=O)O1)CCO,C16H30O3,270.41,19,0,0.94,11,3,1,79.36,46.53,3.51,5.00,3.83,2.92,4.43,3.94,-3.94,3.10e-02,1.15e-04,Soluble,-5.72,5.19e-04,1.92e-06,Moderately soluble,-4.42,1.02e-02,3.78e-05,Moderately soluble,High,Yes,No,No,No,Yes,Yes,No,-4.40,0,0,1,0,0,0.55,0,0,2,3.69
Molecule 29,C#CCCCCCCCC[C@H]1OC(=O)[C@H](C1)C[C@H](CO)O,C17H28O4,296.40,21,0,0.82,11,4,2,83.49,66.76,3.34,3.34,2.50,2.21,3.92,3.06,-3.06,2.61e-01,8.79e-04,Soluble,-4.42,1.13e-02,3.81e-05,Moderately soluble,-3.18,1.97e-01,6.64e-04,Soluble,High,Yes,No,No,No,No,No,No,-5.74,0,0,1,0,0,0.55,0,1,1,4.38
Molecule 30,C=CCCCCCCCC[C@H]1OC(=O)[C@H](C1)C[C@H](CO)O,C17H30O4,298.42,21,0,0.82,12,4,2,84.85,66.76,3.47,3.86,2.97,2.21,4.08,3.32,-3.33,1.40e-01,4.68e-04,Soluble,-4.96,3.28e-03,1.10e-05,Moderately soluble,-3.54,8.61e-02,2.88e-04,Soluble,High,Yes,No,No,No,No,Yes,No,-5.38,0,0,1,0,0,0.55,0,1,2,4.02
Molecule 31,CCCCCCCCCC[C@@H]1OC(=O)[C@H](C1)C[C@@H](CO)O,C17H32O4,300.43,21,0,0.94,12,4,2,85.33,66.76,3.42,4.38,3.19,2.31,4.09,3.48,-3.67,6.42e-02,2.14e-04,Soluble,-5.50,9.54e-04,3.17e-06,Moderately soluble,-3.88,3.92e-02,1.30e-04,Soluble,High,Yes,No,No,No,No,Yes,No,-5.02,0,0,1,0,0,0.55,0,0,2,4.10
Molecule 32,C=CC[C@]12CC(=O)[C@H]([C@@H]([C@H]2O)[C@@H]([C@H]1C)c1ccc2c(c1)OCO2)O,C19H22O5,330.37,24,6,0.53,3,5,2,87.91,75.99,2.38,2.12,2.02,1.70,2.74,2.19,-3.21,2.03e-01,6.15e-04,Soluble,-3.35,1.49e-01,4.50e-04,Soluble,-3.15,2.32e-01,7.01e-04,Soluble,High,Yes,Yes,No,No,No,Yes,No,-6.81,0,0,0,0,0,0.55,0,1,0,4.94
Molecule 33,C=C[C@]1(C)CC2=C(C(=O)[C@H]1O)[C@@]1([C@@H](CC2=O)C(C)(C)CCC1)C,C20H28O3,316.43,23,0,0.70,1,3,1,91.75,54.37,2.69,4.08,3.61,2.76,4.39,3.51,-4.31,1.56e-02,4.94e-05,Moderately soluble,-4.93,3.75e-03,1.18e-05,Moderately soluble,-4.42,1.21e-02,3.81e-05,Moderately soluble,High,Yes,No,No,Yes,Yes,No,No,-5.33,0,0,0,0,0,0.55,0,1,1,4.79
Molecule 34,Oc1ccc2c(c1)O[C@H]([C@@H](C2=O)O)c1ccccc1,C15H12O4,256.25,19,12,0.13,1,4,2,68.69,66.76,1.79,1.58,1.75,1.00,2.14,1.65,-2.83,3.83e-01,1.49e-03,Soluble,-2.59,6.55e-01,2.55e-03,Soluble,-3.77,4.38e-02,1.71e-04,Soluble,High,Yes,No,No,No,No,No,No,-6.74,0,0,0,0,0,0.55,0,0,0,3.32
Molecule 35,Oc1ccc2c(c1)O[C@@H]1[C@H](C2=O)OCc2c1ccc(c2O)O,C16H12O6,300.26,22,12,0.19,0,6,3,75.51,96.22,1.22,1.40,1.54,0.15,1.66,1.19,-2.99,3.09e-01,1.03e-03,Soluble,-3.02,2.84e-01,9.45e-04,Soluble,-3.19,1.94e-01,6.46e-04,Soluble,High,No,Yes,Yes,No,No,No,Yes,-7.14,0,0,0,0,0,0.55,1,1,0,3.76
Molecule 36,O=C1C[C@@H]2C[C@]3([C@H]1[C@@]1(C)CCCC([C@H]1CC3)(C)C)CC2=C,C20H30O,286.45,21,0,0.85,0,1,0,88.74,17.07,3.28,5.28,5.15,4.75,5.11,4.71,-4.94,3.27e-03,1.14e-05,Moderately soluble,-5.39,1.17e-03,4.09e-06,Moderately soluble,-5.02,2.72e-03,9.51e-06,Moderately soluble,High,Yes,No,No,Yes,Yes,No,No,-4.30,1,0,0,0,2,0.55,0,1,1,5.19
Molecule 37,OCC(=C)[C@@]12O[C@@H]2[C@]2(C(=CC1=O)CC[C@H]([C@@H]2C)O)C,C15H20O4,264.32,19,0,0.67,2,4,2,70.32,70.06,2.18,0.82,0.98,0.80,2.17,1.39,-1.86,3.62e+00,1.37e-02,Very soluble,-1.87,3.54e+00,1.34e-02,Very soluble,-1.79,4.26e+00,1.61e-02,Soluble,High,No,No,No,No,No,No,No,-7.33,0,0,0,0,0,0.55,0,2,0,4.86
Molecule 38,O=C1C[C@@H]2C([C@@]1(C)CC2)(C)C,C10H16O,152.23,11,0,0.90,0,1,0,45.64,17.07,2.12,2.19,2.40,2.30,2.85,2.37,-2.16,1.04e+00,6.86e-03,Soluble,-2.18,1.00e+00,6.57e-03,Soluble,-2.60,3.83e-01,2.52e-03,Soluble,High,Yes,No,No,No,No,No,No,-5.67,0,1,0,0,2,0.55,0,0,1,3.22
Molecule 39,O=C1CCC[C@H]2[C@H]1C[C@@H]1OC(=O)[C@@]3([C@@H]1[C@@]12CC[C@@]3(OC1)O)C,C17H22O5,306.35,22,0,0.88,0,5,1,76.51,72.83,1.59,0.84,1.42,1.78,2.14,1.55,-2.27,1.65e+00,5.39e-03,Soluble,-1.95,3.42e+00,1.12e-02,Very soluble,-2.41,1.19e+00,3.89e-03,Soluble,High,No,Yes,No,No,No,No,No,-7.57,0,0,0,0,0,0.55,0,0,0,5.05
Molecule 40,O=C1O[C@@H]2C[C@@](C1)(C/C=C(/CC/C=C(/CCC=C(C)C)\C)\C)C(=O)C[C@@H]2O,C23H34O4,374.51,27,0,0.65,8,4,1,109.41,63.60,3.69,4.62,4.82,3.29,5.48,4.38,-4.54,1.07e-02,2.85e-05,Moderately soluble,-5.68,7.81e-04,2.08e-06,Moderately soluble,-4.35,1.66e-02,4.43e-05,Moderately soluble,High,Yes,Yes,No,Yes,Yes,Yes,Yes,-5.30,0,0,0,0,0,0.55,0,1,3,5.57
Molecule 41,C=CC[C@]12CC=CC(=O)[C@]2(O)O[C@H]([C@H]1C)c1ccc2c(c1)OCO2,C19H20O5,328.36,24,6,0.42,3,5,1,87.40,64.99,2.89,2.89,2.58,2.03,3.24,2.72,-3.68,6.80e-02,2.07e-04,Soluble,-3.91,3.99e-02,1.22e-04,Soluble,-3.68,6.81e-02,2.07e-04,Soluble,High,Yes,No,No,No,Yes,No,Yes,-6.25,0,0,0,0,0,0.55,0,1,0,4.30
Molecule 42,C=C1C[C@@]23C[C@H]1CC(=O)[C@@]3(O)[C@@]1([C@H](CC2)C(C)(C)CCC1)C,C20H30O2,302.45,22,0,0.85,0,2,1,89.94,37.30,3.08,3.96,4.27,3.82,4.60,3.95,-4.21,1.86e-02,6.17e-05,Moderately soluble,-4.44,1.09e-02,3.60e-05,Moderately soluble,-4.66,6.63e-03,2.19e-05,Moderately soluble,High,Yes,No,No,No,Yes,No,No,-5.33,0,0,0,0,0,0.55,0,1,1,5.24
Molecule 43,CC1=C[C@@]2([C@H](C1=O)C[C@@](C)(O)CC[C@H]1[C@H](C[C@H](C2=O)C)C1(C)C)O,C20H30O4,334.45,24,0,0.80,0,4,2,93.98,74.60,2.60,2.42,2.67,1.99,2.97,2.53,-3.44,1.22e-01,3.65e-04,Soluble,-3.63,7.86e-02,2.35e-04,Soluble,-3.37,1.41e-01,4.23e-04,Soluble,High,Yes,Yes,No,No,No,No,No,-6.62,0,0,0,0,0,0.55,0,0,0,5.86
Molecule 44,C[C@@H]1C[C@@H]2[C@H](C2(C)C)CC[C@]2([C@@H]([C@@H]3[C@@](C1=O)(O)C=C(C3=O)C)O2)C,C20H28O4,332.43,24,0,0.80,0,4,1,91.79,66.90,2.96,2.44,2.68,1.99,3.32,2.68,-3.44,1.21e-01,3.65e-04,Soluble,-3.49,1.08e-01,3.25e-04,Soluble,-3.45,1.17e-01,3.52e-04,Soluble,High,Yes,Yes,No,No,No,No,No,-6.60,0,0,0,0,0,0.55,0,1,0,5.85
Molecule 45,CC1=C[C@@]2(C(=C[C@@](C)(O)CC[C@H]3[C@@H](C[C@H](C2=O)C)C3(C)C)C1=O)O,C20H28O4,332.43,24,0,0.70,0,4,2,93.50,74.60,2.62,2.37,2.59,1.90,2.96,2.49,-3.39,1.34e-01,4.03e-04,Soluble,-3.58,8.80e-02,2.65e-04,Soluble,-3.36,1.46e-01,4.40e-04,Soluble,High,Yes,Yes,No,No,No,No,No,-6.65,0,0,0,0,0,0.55,0,0,0,5.69
Molecule 46,CC1=C[C@@]2(C(=C[C@@](C)(O)CC[C@H]3[C@@H](C[C@H](C2=O)C)C3(C)C)C1=O)O,C20H28O4,332.43,24,0,0.70,0,4,2,93.50,74.60,2.62,2.37,2.59,1.90,2.96,2.49,-3.39,1.34e-01,4.03e-04,Soluble,-3.58,8.80e-02,2.65e-04,Soluble,-3.36,1.46e-01,4.40e-04,Soluble,High,Yes,Yes,No,No,No,No,No,-6.65,0,0,0,0,0,0.55,0,0,0,5.69
Molecule 47,CC1=C[C@@]2(C(=C[C@@](C)(O)CC[C@H]3[C@@H](C[C@H](C2=O)C)C3(C)C)C1=O)O,C20H28O4,332.43,24,0,0.70,0,4,2,93.50,74.60,2.62,2.37,2.59,1.90,2.96,2.49,-3.39,1.34e-01,4.03e-04,Soluble,-3.58,8.80e-02,2.65e-04,Soluble,-3.36,1.46e-01,4.40e-04,Soluble,High,Yes,Yes,No,No,No,No,No,-6.65,0,0,0,0,0,0.55,0,0,0,5.69
Molecule 48,CC1=C[C@@]2(C(=C[C@@](C)(O)CC[C@H]3[C@@H](C[C@H](C2=O)C)C3(C)C)C1=O)O,C20H28O4,332.43,24,0,0.70,0,4,2,93.50,74.60,2.62,2.37,2.59,1.90,2.96,2.49,-3.39,1.34e-01,4.03e-04,Soluble,-3.58,8.80e-02,2.65e-04,Soluble,-3.36,1.46e-01,4.40e-04,Soluble,High,Yes,Yes,No,No,No,No,No,-6.65,0,0,0,0,0,0.55,0,0,0,5.69
Molecule 49,C[C@@H]1C[C@@H]2[C@@H](C2(C)C)CC[C@]2([C@@H](C3=C(C1=O)C[C@@](C3=O)(C)O)O2)C,C20H28O4,332.43,24,0,0.80,0,4,1,91.79,66.90,2.89,2.22,2.83,1.99,3.71,2.73,-3.30,1.67e-01,5.02e-04,Soluble,-3.26,1.83e-01,5.50e-04,Soluble,-3.90,4.17e-02,1.25e-04,Soluble,High,Yes,Yes,No,No,No,No,No,-6.75,0,0,0,0,0,0.55,0,1,0,5.72
Molecule 50,C[C@@H]1C[C@@H]2[C@@H](C2(C)C)CC[C@]2([C@@H](C3=C(C1=O)C[C@](C3=O)(C)O)O2)C,C20H28O4,332.43,24,0,0.80,0,4,1,91.79,66.90,2.43,2.22,2.83,1.99,3.71,2.64,-3.30,1.67e-01,5.02e-04,Soluble,-3.26,1.83e-01,5.50e-04,Soluble,-3.90,4.17e-02,1.25e-04,Soluble,High,Yes,Yes,No,No,No,No,No,-6.75,0,0,0,0,0,0.55,0,1,0,5.72
Molecule 51,O=C1CC[C@@]2(CO1)[C@H]1CCC[C@@H]([C@H]1C[C@H]1[C@@H]2[C@@H](C)C(=O)O1)O,C17H24O5,308.37,22,0,0.88,0,5,1,78.85,72.83,1.90,1.85,1.67,2.19,1.75,1.87,-2.92,3.73e-01,1.21e-03,Soluble,-3.00,3.08e-01,9.99e-04,Soluble,-1.98,3.24e+00,1.05e-02,Soluble,High,Yes,Yes,No,No,No,No,No,-6.87,0,0,0,0,0,0.55,0,1,0,4.77
Molecule 52,O=C1[C@H](C)[C@H](C)[C@@](c2c1ccc1c2OCO1)(O)c1ccc2c(c1)OCO2,C20H18O6,354.35,26,12,0.35,1,6,1,91.57,74.22,2.38,3.03,2.74,1.90,3.54,2.72,-4.22,2.13e-02,6.01e-05,Moderately soluble,-4.25,1.97e-02,5.57e-05,Moderately soluble,-5.10,2.80e-03,7.89e-06,Moderately soluble,High,Yes,Yes,No,Yes,Yes,Yes,Yes,-6.31,0,0,0,0,0,0.55,0,0,1,4.16
Molecule 53,CC[C@H]1C(=O)C[C@H]2[C@@]1(C)CC[C@@H]1[C@H]2CC[C@H]2[C@]1(C)C[C@H](O)[C@@H](C2)O,C21H34O3,334.49,24,0,0.95,1,3,2,96.61,57.53,3.03,3.91,3.57,3.27,3.16,3.39,-4.31,1.63e-02,4.88e-05,Moderately soluble,-4.82,5.10e-03,1.52e-05,Moderately soluble,-3.23,1.95e-01,5.82e-04,Soluble,High,Yes,Yes,No,No,No,No,No,-5.56,0,0,0,0,0,0.55,0,0,1,4.41
Molecule 54,CC[C@H]1C(=O)C[C@@H]2[C@@]1(C)CC[C@@H]1[C@@H]2CC[C@H]2[C@]31CO[C@](C3)(O)[C@@H](C2)O,C21H32O4,348.48,25,0,0.95,1,4,2,95.62,66.76,2.02,2.91,2.90,2.83,2.89,2.71,-3.77,5.95e-02,1.71e-04,Soluble,-3.97,3.71e-02,1.06e-04,Soluble,-3.07,2.97e-01,8.51e-04,Soluble,High,Yes,Yes,No,No,No,No,No,-6.36,0,0,0,0,0,0.55,0,0,0,6.12
Molecule 55,CC[C@H]1C(=O)C[C@H]2[C@]1(C)CC[C@H]1[C@@H]2CC[C@H]2[C@]1(C)C[C@@H](O)[C@@H](C2)O,C21H34O3,334.49,24,0,0.95,1,3,2,96.61,57.53,2.88,3.91,3.57,3.27,3.16,3.36,-4.31,1.63e-02,4.88e-05,Moderately soluble,-4.82,5.10e-03,1.52e-05,Moderately soluble,-3.23,1.95e-01,5.82e-04,Soluble,High,Yes,Yes,No,No,No,No,No,-5.56,0,0,0,0,0,0.55,0,0,1,4.41
Molecule 56,CC[C@H]1C(=O)C[C@H]2[C@]1(C)CC[C@H]1[C@@H]2CC[C@@H]2[C@]1(C)C[C@H](O)[C@@H]([C@@H]2O)O,C21H34O4,350.49,25,0,0.95,1,4,3,97.77,77.76,2.27,2.75,2.54,2.42,2.26,2.45,-3.68,7.33e-02,2.09e-04,Soluble,-4.04,3.21e-02,9.17e-05,Moderately soluble,-2.42,1.34e+00,3.81e-03,Soluble,High,Yes,Yes,No,No,No,No,No,-6.49,0,0,0,0,0,0.55,0,0,1,4.81
Molecule 57,CC[C@H]1C(=O)C[C@H]2[C@]1(C)CC[C@H]1[C@@H]2CC[C@@H]2[C@]1(C)C[C@@H](O)[C@H]([C@@H]2O)O,C21H34O4,350.49,25,0,0.95,1,4,3,97.77,77.76,2.72,2.75,2.54,2.42,2.26,2.54,-3.68,7.33e-02,2.09e-04,Soluble,-4.04,3.21e-02,9.17e-05,Moderately soluble,-2.42,1.34e+00,3.81e-03,Soluble,High,Yes,Yes,No,No,No,No,No,-6.49,0,0,0,0,0,0.55,0,0,1,4.81
Molecule 58,CC[C@H]1C(=O)C[C@H]2[C@]1(C)CC[C@@H]1[C@H]2CC[C@H]2[C@]1(C)C[C@H](O)[C@@H]([C@@H]2O)O,C21H34O4,350.49,25,0,0.95,1,4,3,97.77,77.76,2.29,2.75,2.54,2.42,2.26,2.45,-3.68,7.33e-02,2.09e-04,Soluble,-4.04,3.21e-02,9.17e-05,Moderately soluble,-2.42,1.34e+00,3.81e-03,Soluble,High,Yes,Yes,No,No,No,No,No,-6.49,0,0,0,0,0,0.55,0,0,1,4.81
Molecule 59,CC[C@H]1C(=O)C[C@H]2[C@]1(C)CC[C@@H]1[C@H]2CC[C@H]2[C@]1(C)C[C@@H](O)[C@H]([C@@H]2O)O,C21H34O4,350.49,25,0,0.95,1,4,3,97.77,77.76,2.42,2.75,2.54,2.42,2.26,2.48,-3.68,7.33e-02,2.09e-04,Soluble,-4.04,3.21e-02,9.17e-05,Moderately soluble,-2.42,1.34e+00,3.81e-03,Soluble,High,Yes,Yes,No,No,No,No,No,-6.49,0,0,0,0,0,0.55,0,0,1,4.81
Molecule 60,CC[C@H]1C(=O)C[C@H]2[C@]1(C)CC[C@@H]1[C@H]2CC[C@@H]2[C@@]31CO[C@@](C3)(O)[C@@H](C2)O,C21H32O4,348.48,25,0,0.95,1,4,2,95.62,66.76,2.50,2.91,2.90,2.83,2.89,2.81,-3.77,5.95e-02,1.71e-04,Soluble,-3.97,3.71e-02,1.06e-04,Soluble,-3.07,2.97e-01,8.51e-04,Soluble,High,Yes,Yes,No,No,No,No,No,-6.36,0,0,0,0,0,0.55,0,0,0,6.12
Molecule 61,O[C@H]1C(=O)c2c(C)ccc(c2C[C@@H]1C(O)(C)C)C,C15H20O3,248.32,18,6,0.53,1,3,2,71.01,57.53,1.46,2.58,1.79,1.57,2.90,2.06,-3.19,1.62e-01,6.52e-04,Soluble,-3.44,9.09e-02,3.66e-04,Soluble,-3.39,1.02e-01,4.10e-04,Soluble,High,Yes,No,No,No,No,Yes,No,-5.98,0,0,0,0,0,0.55,0,0,1,3.12
Molecule 62,Oc1cc2O[C@H](c3ccc(c(c3)O)O)[C@H](C(=O)c2c(c1)O)O,C15H12O7,304.25,22,12,0.13,1,7,5,74.76,127.45,0.71,0.95,0.86,-0.64,0.66,0.51,-2.66,6.62e-01,2.18e-03,Soluble,-3.21,1.86e-01,6.12e-04,Soluble,-2.03,2.87e+00,9.42e-03,Soluble,High,No,No,No,No,No,No,No,-7.48,0,0,0,0,0,0.55,1,1,0,3.51
Molecule 63,C=C1C[C@@]23C[C@H]1C(=O)C=C3[C@@]1([C@H](CC2)C(C)(C)CCC1)C,C20H28O,284.44,21,0,0.75,0,1,0,88.27,17.07,3.16,5.05,5.07,4.65,5.10,4.61,-4.79,4.67e-03,1.64e-05,Moderately soluble,-5.15,2.01e-03,7.08e-06,Moderately soluble,-5.00,2.82e-03,9.91e-06,Moderately soluble,High,Yes,No,No,Yes,Yes,No,No,-4.45,1,0,0,0,2,0.55,0,1,1,5.85
Molecule 64,Oc1ccc2c(c1)O[C@H]1[C@@H](C2=O)OCc2c1cc(O)c(c2)O,C16H12O6,300.26,22,12,0.19,0,6,3,75.51,96.22,1.58,1.40,1.54,0.15,1.66,1.26,-2.99,3.09e-01,1.03e-03,Soluble,-3.02,2.84e-01,9.45e-04,Soluble,-3.19,1.94e-01,6.46e-04,Soluble,High,No,Yes,Yes,No,No,No,Yes,-7.14,0,0,0,0,0,0.55,1,1,0,3.75
Molecule 65,O[C@@H]1CC[C@H]2[C@@H](C1)C(=O)c1c([C@H]2O)c(O)cc(c1)C,C15H18O4,262.30,19,6,0.53,0,4,3,70.72,77.76,1.94,1.08,1.38,0.98,1.72,1.42,-2.38,1.09e+00,4.17e-03,Soluble,-2.30,1.30e+00,4.96e-03,Soluble,-2.25,1.49e+00,5.66e-03,Soluble,High,No,Yes,No,No,No,No,No,-7.13,0,0,0,0,0,0.55,0,0,0,3.52
Molecule 66,C=C[C@@]1(C)CC(=O)[C@@H]2[C@H](C1)C(=O)C[C@H]1[C@@]2(C)CCCC1(C)C,C20H30O2,302.45,22,0,0.80,1,2,0,91.06,34.14,3.01,4.50,4.58,3.73,4.90,4.14,-4.48,9.92e-03,3.28e-05,Moderately soluble,-4.94,3.49e-03,1.15e-05,Moderately soluble,-4.80,4.79e-03,1.58e-05,Moderately soluble,High,Yes,No,No,Yes,Yes,No,No,-4.95,0,0,0,0,0,0.55,0,1,1,4.29
Molecule 67,Cc1cc(O)c2c(c1)C(=O)[C@H]1[C@@H]([C@@H]2O)[C@@H](O)[C@@H](CC1)O,C15H18O5,278.30,20,6,0.53,0,5,4,71.88,97.99,1.88,0.11,0.35,0.15,0.82,0.66,-1.86,3.87e+00,1.39e-02,Very soluble,-1.72,5.26e+00,1.89e-02,Very soluble,-1.44,1.02e+01,3.66e-02,Soluble,High,No,No,No,No,No,No,No,-7.92,0,0,0,0,0,0.55,0,0,0,3.81
Molecule 68,C[C@H]1C[C@H]2OC(=O)[C@]3([C@H]2[C@H](C[C@@]2(OC1=CC2=O)C)O[C@]3(O)[C@]1(C)OC1)C,C19H24O7,364.39,26,0,0.79,1,7,1,88.16,94.59,2.48,0.55,1.08,0.54,2.27,1.38,-2.38,1.52e+00,4.17e-03,Soluble,-2.11,2.84e+00,7.79e-03,Soluble,-2.48,1.21e+00,3.33e-03,Soluble,High,No,Yes,No,No,No,No,No,-8.13,0,0,0,0,0,0.56,0,1,1,6.75
Molecule 69,O=C1CC[C@@H]2C(=C1O)C[C@@H]1[C@@H]3[C@@]42CC[C@](OC4)([C@]3(C(=O)O1)C)O,C17H20O6,320.34,23,0,0.76,0,6,2,77.61,93.06,1.46,-0.03,1.23,0.87,1.61,1.03,-1.81,4.99e+00,1.56e-02,Very soluble,-1.47,1.07e+01,3.35e-02,Very soluble,-2.03,3.00e+00,9.35e-03,Soluble,High,No,Yes,No,No,No,No,No,-8.28,0,0,0,0,0,0.55,0,0,0,5.36
Molecule 70,O=C1CCC[C@@H]2[C@@H]1C[C@H]1OC(=O)[C@]3([C@H]1[C@@]12CC[C@@]3(OC1)O)C,C17H22O5,306.35,22,0,0.88,0,5,1,76.51,72.83,1.45,0.84,1.42,1.78,2.14,1.53,-2.27,1.65e+00,5.39e-03,Soluble,-1.95,3.42e+00,1.12e-02,Very soluble,-2.41,1.19e+00,3.89e-03,Soluble,High,No,Yes,No,No,No,No,No,-7.57,0,0,0,0,0,0.55,0,0,0,5.05
Molecule 71,O[C@H]1CCC[C@@H]2[C@@H]1C[C@H]1OC(=O)[C@]3([C@H]1[C@@]12CC[C@@]3(OC1)O)C,C17H24O5,308.37,22,0,0.94,0,5,2,77.47,75.99,1.74,1.13,1.21,1.89,1.55,1.51,-2.46,1.06e+00,3.44e-03,Soluble,-2.32,1.48e+00,4.79e-03,Soluble,-1.72,5.94e+00,1.93e-02,Soluble,High,No,Yes,No,No,No,No,No,-7.38,0,0,0,0,0,0.55,0,0,0,5.18
Molecule 72,O[C@@H]1CCC[C@H]2[C@H]1C[C@H]1OC(=O)[C@]3([C@H]1[C@@]12CC[C@]3(OC1)O)C,C17H24O5,308.37,22,0,0.94,0,5,2,77.47,75.99,1.94,1.13,1.21,1.89,1.55,1.54,-2.46,1.06e+00,3.44e-03,Soluble,-2.32,1.48e+00,4.79e-03,Soluble,-1.72,5.94e+00,1.93e-02,Soluble,High,No,Yes,No,No,No,No,No,-7.38,0,0,0,0,0,0.55,0,0,0,5.18
Molecule 73,O=C1COC2=C1CC[C@@H]1[C@H]2C[C@H]2[C@@H]3[C@]41CC[C@@](OC4)([C@]3(C(=O)O2)C)O,C19H22O6,346.37,25,0,0.79,0,6,1,84.62,82.06,2.21,0.93,1.32,1.34,2.17,1.59,-2.57,9.25e-01,2.67e-03,Soluble,-2.24,2.00e+00,5.76e-03,Soluble,-2.65,7.77e-01,2.24e-03,Soluble,High,No,Yes,No,No,No,No,No,-7.75,0,0,0,0,0,0.56,0,0,0,5.63
Molecule 74,O=C1O[C@@H]2C=CC(=O)[C@](C1)(C2)C/C=C(/CC/C=C(/CCC=C(C)C)\C)\C,C23H32O3,356.50,26,0,0.57,8,3,0,107.78,43.37,4.08,5.60,5.63,4.06,5.95,5.06,-5.05,3.18e-03,8.91e-06,Moderately soluble,-6.27,1.90e-04,5.33e-07,Poorly soluble,-4.71,7.03e-03,1.97e-05,Moderately soluble,High,Yes,No,Yes,Yes,Yes,Yes,Yes,-4.50,0,1,0,0,1,0.55,0,1,3,5.43
Molecule 75,C=C1C[C@@]2(C[C@H]1CCC2=O)CC[C@@H]1C(C)(C)CCC[C@@]1(C)O,C20H32O2,304.47,22,0,0.85,3,2,1,92.32,37.30,3.21,3.56,4.66,3.82,5.13,4.08,-3.77,5.14e-02,1.69e-04,Soluble,-4.03,2.85e-02,9.36e-05,Moderately soluble,-4.93,3.59e-03,1.18e-05,Moderately soluble,High,Yes,No,No,Yes,No,No,No,-5.63,0,0,0,0,0,0.55,0,1,1,4.82
Molecule 76,CC(=C)[C@@H]1CC[C@]2([C@H]1CC1=C(O2)[C@@H]2OC[C@@](C1=O)(C2)O)C,C17H22O4,290.35,21,0,0.71,1,4,1,78.04,55.76,2.62,1.61,2.12,1.30,2.80,2.09,-2.59,7.49e-01,2.58e-03,Soluble,-2.39,1.18e+00,4.05e-03,Soluble,-2.74,5.24e-01,1.80e-03,Soluble,High,Yes,Yes,No,No,No,No,No,-6.93,0,0,0,0,0,0.56,0,1,0,5.81
Molecule 77,C=C[C@@]1(C)CC[C@H]2[C@@](C1)(O)C(=O)C[C@@H]1[C@]2(C)CCCC1(C)C,C20H32O2,304.47,22,0,0.85,1,2,1,92.06,37.30,3.34,5.18,4.52,3.82,4.71,4.31,-4.93,3.62e-03,1.19e-05,Moderately soluble,-5.71,5.94e-04,1.95e-06,Moderately soluble,-4.55,8.48e-03,2.79e-05,Moderately soluble,High,Yes,No,No,Yes,Yes,No,No,-4.48,0,0,0,0,1,0.55,0,1,1,4.13
Molecule 78,C=CC[C@@]12CC=CC(=O)[C@@]2(O)O[C@@H]([C@H]1C)c1ccc2c(c1)OCO2,C19H20O5,328.36,24,6,0.42,3,5,1,87.40,64.99,2.80,2.89,2.58,2.03,3.24,2.71,-3.68,6.80e-02,2.07e-04,Soluble,-3.91,3.99e-02,1.22e-04,Soluble,-3.68,6.81e-02,2.07e-04,Soluble,High,Yes,No,No,No,Yes,No,Yes,-6.25,0,0,0,0,0,0.55,0,1,0,4.30
Molecule 79,C=CC[C@@]12CC=CC(=O)[C@@]2(O)O[C@@H]([C@H]1C)c1ccc2c(c1)OCO2,C19H20O5,328.36,24,6,0.42,3,5,1,87.40,64.99,2.80,2.89,2.58,2.03,3.24,2.71,-3.68,6.80e-02,2.07e-04,Soluble,-3.91,3.99e-02,1.22e-04,Soluble,-3.68,6.81e-02,2.07e-04,Soluble,High,Yes,No,No,No,Yes,No,Yes,-6.25,0,0,0,0,0,0.55,0,1,0,4.30
Molecule 80,C=CC[C@]12CCCC(=O)[C@@]2(O)O[C@@H]([C@H]1C)c1ccc2c(c1)OCO2,C19H22O5,330.37,24,6,0.53,3,5,1,87.87,64.99,2.89,2.74,2.80,2.11,3.64,2.84,-3.60,8.27e-02,2.50e-04,Soluble,-3.76,5.75e-02,1.74e-04,Soluble,-4.15,2.34e-02,7.08e-05,Moderately soluble,High,Yes,Yes,No,No,No,Yes,Yes,-6.37,0,0,0,0,0,0.55,0,1,0,4.19
Molecule 81,OC[C@@]1(CO1)[C@]12O[C@H]2[C@]2(C(=CC1=O)CC[C@H]([C@@H]2C)O)C,C15H20O5,280.32,20,0,0.80,2,5,2,69.80,82.59,2.07,-0.53,0.19,0.07,2.20,0.80,-1.11,2.17e+01,7.73e-02,Very soluble,-0.74,5.15e+01,1.84e-01,Very soluble,-1.62,6.69e+00,2.39e-02,Soluble,High,No,Yes,No,No,No,No,No,-8.39,0,0,0,0,0,0.55,0,1,0,4.99
Molecule 82,Oc1cc(O)c2c(c1)OC[C@@]1(C2=O)Cc2c1cc1c(c2)OCO1,C17H12O6,312.27,23,12,0.24,0,6,2,78.35,85.22,2.45,1.57,1.90,1.06,2.80,1.96,-3.15,2.20e-01,7.06e-04,Soluble,-2.97,3.35e-01,1.07e-03,Soluble,-4.22,1.88e-02,6.01e-05,Moderately soluble,High,No,Yes,Yes,No,Yes,Yes,Yes,-7.09,0,0,0,0,0,0.55,1,0,0,4.01
Molecule 83,C/C=C/1\CN(C)[C@@H]2[C@@H]([C@H]1CC(=O)c1c(C2)c2c([nH]1)cccc2)CO,C20H24N2O2,324.42,24,9,0.45,1,3,2,99.99,56.33,2.59,2.13,2.40,1.92,3.33,2.47,-3.40,1.28e-01,3.94e-04,Soluble,-2.94,3.69e-01,1.14e-03,Soluble,-4.65,7.33e-03,2.26e-05,Moderately soluble,High,Yes,Yes,No,No,No,Yes,No,-6.77,0,0,0,0,0,0.55,0,1,0,4.59
Molecule 84,Oc1cc(C)c2c(c1)oc(cc2=O)C,C11H10O3,190.20,14,10,0.18,0,3,1,54.44,50.44,1.91,1.93,2.12,0.82,2.88,1.93,-2.76,3.28e-01,1.72e-03,Soluble,-2.61,4.63e-01,2.44e-03,Soluble,-3.81,2.93e-02,1.54e-04,Soluble,High,Yes,No,Yes,No,No,No,No,-6.09,0,0,0,0,1,0.55,0,0,1,2.64
Molecule 85,Cc1ccc(c2c1C[C@@H](CC2=O)C(O)(C)C)C,C15H20O2,232.32,17,6,0.53,1,2,1,69.85,37.30,2.57,2.58,2.82,2.45,3.80,2.84,-3.10,1.84e-01,7.93e-04,Soluble,-3.01,2.26e-01,9.73e-04,Soluble,-4.19,1.49e-02,6.40e-05,Moderately soluble,High,Yes,No,No,No,No,Yes,No,-5.89,0,0,0,0,0,0.55,0,0,1,2.63
Molecule 86,CC1=C2C(=O)c3c(C[C@]2(C=CC1)C)occ3C,C15H16O2,228.29,17,5,0.40,0,2,0,67.05,30.21,2.83,3.07,3.61,2.32,3.95,3.16,-3.41,8.94e-02,3.92e-04,Soluble,-3.37,9.71e-02,4.25e-04,Soluble,-4.38,9.56e-03,4.19e-05,Moderately soluble,High,Yes,No,Yes,Yes,No,No,Yes,-5.51,0,0,0,0,0,0.55,0,1,1,3.91
Molecule 87,CC1=C2C(=O)c3c(C[C@]2(CCC1)C)occ3C,C15H18O2,230.30,17,5,0.53,0,2,0,67.52,30.21,2.89,3.37,3.83,2.40,4.36,3.37,-3.61,5.67e-02,2.46e-04,Soluble,-3.68,4.78e-02,2.08e-04,Soluble,-4.85,3.28e-03,1.43e-05,Moderately soluble,High,Yes,Yes,Yes,Yes,No,No,Yes,-5.31,0,0,0,0,0,0.55,0,0,1,3.87
Molecule 88,CCc1c(C)ccc2c1C(=O)C[C@H]1[C@]2(C)CCCC1(C)C,C20H28O,284.44,21,6,0.65,1,1,0,90.19,17.07,3.26,6.01,5.23,4.56,5.98,5.01,-5.54,8.29e-04,2.92e-06,Moderately soluble,-6.15,2.03e-04,7.14e-07,Poorly soluble,-6.59,7.36e-05,2.59e-07,Poorly soluble,High,Yes,No,No,Yes,Yes,No,No,-3.77,1,0,0,0,2,0.55,0,0,1,3.31
Molecule 89,CCCc1cc(=O)c2c(n1C)cccc2,C13H15NO,201.26,15,10,0.31,2,1,0,64.05,22.00,2.50,2.86,2.49,1.99,3.17,2.60,-3.25,1.13e-01,5.61e-04,Soluble,-2.98,2.10e-01,1.04e-03,Soluble,-4.37,8.57e-03,4.26e-05,Moderately soluble,High,Yes,No,Yes,Yes,No,No,No,-5.50,0,0,0,0,0,0.55,0,0,1,1.93
Molecule 90,CCCCCCCCCc1cc(=O)c2c(n1C)cccc2,C19H27NO,285.42,21,10,0.53,8,1,0,92.89,22.00,3.82,6.11,4.83,3.47,5.47,4.74,-5.28,1.49e-03,5.21e-06,Moderately soluble,-6.35,1.26e-04,4.43e-07,Poorly soluble,-6.79,4.63e-05,1.62e-07,Poorly soluble,High,Yes,No,Yes,Yes,No,Yes,No,-3.70,0,0,0,0,1,0.55,0,0,2,2.69
Molecule 91,O=c1cc(c2ccccc2)n(c2c1cccc2)C,C16H13NO,235.28,18,16,0.06,1,1,0,74.91,22.00,2.61,3.33,3.21,2.52,3.60,3.05,-3.99,2.42e-02,1.03e-04,Soluble,-3.47,8.00e-02,3.40e-04,Soluble,-5.69,4.77e-04,2.03e-06,Moderately soluble,High,Yes,No,Yes,Yes,No,Yes,No,-5.37,0,0,0,0,0,0.55,0,0,1,2.01
Molecule 92,Cn1c2c3C=CC(Oc3ccc2c(=O)c2c1occ2)(C)C,C17H15NO3,281.31,21,13,0.24,0,3,0,83.36,44.37,3.02,3.44,3.36,2.25,3.32,3.08,-4.21,1.74e-02,6.17e-05,Moderately soluble,-4.05,2.49e-02,8.86e-05,Moderately soluble,-4.92,3.37e-03,1.20e-05,Moderately soluble,High,Yes,No,Yes,Yes,Yes,No,Yes,-5.57,0,0,0,0,0,0.55,0,0,0,3.35
Molecule 93,Cn1c2c3OC(C)(C)C=Cc3ccc2c(=O)c2c1occ2,C17H15NO3,281.31,21,13,0.24,0,3,0,83.36,44.37,2.99,3.44,3.36,2.25,3.32,3.07,-4.21,1.74e-02,6.17e-05,Moderately soluble,-4.05,2.49e-02,8.86e-05,Moderately soluble,-4.92,3.37e-03,1.20e-05,Moderately soluble,High,Yes,No,Yes,Yes,Yes,No,Yes,-5.57,0,0,0,0,0,0.55,0,0,0,3.39
Molecule 94,Cn1c2c3OCOc3ccc2c(=O)c2c1occ2,C13H9NO4,243.21,18,13,0.15,0,4,0,65.31,53.60,2.46,2.33,2.01,1.15,2.33,2.06,-3.35,1.09e-01,4.46e-04,Soluble,-3.09,1.96e-01,8.04e-04,Soluble,-3.82,3.69e-02,1.52e-04,Soluble,High,Yes,No,Yes,No,No,No,Yes,-6.13,0,0,0,0,0,0.55,0,0,1,2.95
Molecule 95,Oc1ccc2c(c1)[nH]c(cc2=O)CCC(O)(C)C,C14H17NO3,247.29,18,10,0.36,3,3,3,71.99,73.32,2.01,1.76,1.94,0.79,3.03,1.90,-2.70,4.99e-01,2.02e-03,Soluble,-2.92,2.99e-01,1.21e-03,Soluble,-4.10,1.98e-02,8.02e-05,Moderately soluble,High,Yes,No,No,No,No,No,No,-6.56,0,0,0,0,0,0.55,0,0,1,2.20
Molecule 96,Oc1ccc2c(c1)c(=O)cc([nH]2)CCC(O)(C)C,C14H17NO3,247.29,18,10,0.36,3,3,3,71.99,73.32,2.04,1.76,1.94,0.79,3.03,1.91,-2.70,4.99e-01,2.02e-03,Soluble,-2.92,2.99e-01,1.21e-03,Soluble,-4.10,1.98e-02,8.02e-05,Moderately soluble,High,Yes,No,No,No,No,No,No,-6.56,0,0,0,0,0,0.55,0,0,1,2.10
Molecule 97,CCCCCCCCCc1cc(=O)c2c([nH]1)cccc2,C18H25NO,271.40,20,10,0.50,8,1,1,87.99,32.86,3.70,5.97,4.82,3.23,5.99,4.74,-5.13,2.03e-03,7.49e-06,Moderately soluble,-6.44,9.94e-05,3.66e-07,Poorly soluble,-7.23,1.59e-05,5.85e-08,Poorly soluble,High,Yes,No,Yes,Yes,No,Yes,Yes,-3.72,0,0,0,0,1,0.55,0,0,2,2.55
Molecule 98,O=c1cc(CCCCCCCCCCCC(O)(C)C)[nH]c2c1cccc2,C23H35NO2,357.53,26,10,0.61,12,2,2,113.23,53.09,4.53,6.62,5.74,3.47,7.09,5.49,-5.72,6.81e-04,1.91e-06,Moderately soluble,-7.54,1.04e-05,2.91e-08,Poorly soluble,-8.26,1.95e-06,5.46e-09,Poorly soluble,High,No,No,Yes,Yes,No,Yes,Yes,-3.78,0,1,1,0,1,0.55,0,0,3,3.11
Molecule 99,Oc1ccc(cc1)[C@H]1CC(=O)c2c(O1)cc(c(c2O)C)O,C16H14O5,286.28,21,12,0.19,1,5,3,76.54,86.99,2.08,2.88,2.49,0.96,2.55,2.19,-3.79,4.68e-02,1.64e-04,Soluble,-4.37,1.23e-02,4.30e-05,Moderately soluble,-3.80,4.53e-02,1.58e-04,Soluble,High,No,Yes,Yes,No,No,No,Yes,-6.00,0,0,0,0,0,0.55,0,0,0,3.13
Molecule 100,CC(=CCc1c(O)cc2c(c1O)C(=O)C[C@H](O2)c1ccccc1)C,C20H20O4,324.37,24,12,0.25,3,4,2,93.27,66.76,3.23,4.80,3.99,2.38,4.22,3.73,-5.05,2.91e-03,8.97e-06,Moderately soluble,-5.93,3.78e-04,1.16e-06,Moderately soluble,-5.24,1.87e-03,5.77e-06,Moderately soluble,High,Yes,No,Yes,Yes,Yes,Yes,Yes,-4.87,0,0,0,0,0,0.55,0,1,1,3.60
