Molecule,Canonical SMILES,Formula,MW,#Heavy atoms,#Aromatic heavy atoms,Fraction Csp3,#Rotatable bonds,#H-bond acceptors,#H-bond donors,MR,TPSA,iLOGP,XLOGP3,WLOGP,MLOGP,Silicos-IT Log P,Consensus Log P,ESOL Log S,ESOL Solubility (mg/ml),ESOL Solubility (mol/l),ESOL Class,Ali Log S,Ali Solubility (mg/ml),Ali Solubility (mol/l),Ali Class,Silicos-IT LogSw,Silicos-IT Solubility (mg/ml),Silicos-IT Solubility (mol/l),Silicos-IT class,GI absorption,BBB permeant,Pgp substrate,CYP1A2 inhibitor,CYP2C19 inhibitor,CYP2C9 inhibitor,CYP2D6 inhibitor,CYP3A4 inhibitor,log Kp (cm/s),Lipinski #violations,Ghose #violations,Veber #violations,Egan #violations,Muegge #violations,Bioavailability Score,PAINS #alerts,Brenk #alerts,Leadlikeness #violations,Synthetic Accessibility
Molecule 1,CC(=CCc1c(O)cc2c(c1O)C(=O)C[C@@](O2)(C)c1ccccc1)C,C21H22O4,338.40,25,12,0.29,3,4,2,97.96,66.76,3.24,4.86,4.38,2.61,4.73,3.96,-5.16,2.36e-03,6.97e-06,Moderately soluble,-6.00,3.41e-04,1.01e-06,Moderately soluble,-5.84,4.93e-04,1.46e-06,Moderately soluble,High,Yes,No,No,Yes,Yes,No,Yes,-4.91,0,0,0,0,0,0.55,0,1,1,3.71
Molecule 2,Cc1cc(O)c2c(c1)C(=O)c1c(C2=O)cc(cc1)O,C15H10O4,254.24,19,12,0.07,0,4,2,68.76,74.60,1.92,3.07,2.18,0.92,3.04,2.23,-3.82,3.87e-02,1.52e-04,Soluble,-4.30,1.26e-02,4.97e-05,Moderately soluble,-4.49,8.32e-03,3.27e-05,Moderately soluble,High,Yes,No,Yes,No,No,No,Yes,-5.67,0,0,0,0,0,0.55,1,0,0,2.48
Molecule 3,Oc1ccc2c(c1)C(=O)c1c(C2=O)c(O)cc(c1)C,C15H10O4,254.24,19,12,0.07,0,4,2,68.76,74.60,1.86,3.07,2.18,0.92,3.04,2.22,-3.82,3.87e-02,1.52e-04,Soluble,-4.30,1.26e-02,4.97e-05,Moderately soluble,-4.49,8.32e-03,3.27e-05,Moderately soluble,High,Yes,No,Yes,No,No,No,Yes,-5.67,0,0,0,0,0,0.55,1,0,0,2.48
Molecule 4,Cc1cc(O)c2c(c1)C(=O)c1c(C2=O)cccc1,C15H10O3,238.24,18,12,0.07,0,3,1,66.74,54.37,2.25,3.88,2.48,1.51,3.53,2.73,-4.25,1.32e-02,5.56e-05,Moderately soluble,-4.72,4.55e-03,1.91e-05,Moderately soluble,-5.06,2.07e-03,8.67e-06,Moderately soluble,High,Yes,No,Yes,Yes,No,No,Yes,-5.00,0,0,0,0,0,0.55,1,0,2,2.42
Molecule 5,OCc1cc(O)c2c(c1)C(=O)c1c(C2=O)cc(cc1)O,C15H10O5,270.24,20,12,0.07,1,5,3,69.92,94.83,1.65,1.82,1.21,0.10,2.42,1.44,-3.04,2.46e-01,9.12e-04,Soluble,-3.43,1.00e-01,3.70e-04,Soluble,-3.92,3.22e-02,1.19e-04,Soluble,High,No,No,Yes,No,No,No,Yes,-6.66,0,0,0,0,0,0.55,1,0,0,2.60
Molecule 6,Oc1ccc(cc1)[C@H]1CC(=O)c2c(O1)c(C)c(cc2O)O,C16H14O5,286.28,21,12,0.19,1,5,3,76.54,86.99,1.93,2.88,2.49,0.96,2.55,2.16,-3.79,4.68e-02,1.64e-04,Soluble,-4.37,1.23e-02,4.30e-05,Moderately soluble,-3.80,4.53e-02,1.58e-04,Soluble,High,No,Yes,Yes,No,No,No,Yes,-6.00,0,0,0,0,0,0.55,0,0,0,3.15
Molecule 7,CC(=CCc1c(O)cc(c2c1n(C)c1c(O)cccc1c2=O)O)C,C19H19NO4,325.36,24,14,0.21,2,4,3,96.76,82.69,2.59,4.53,3.32,1.71,3.25,3.08,-5.01,3.17e-03,9.75e-06,Moderately soluble,-5.99,3.34e-04,1.03e-06,Moderately soluble,-4.37,1.40e-02,4.31e-05,Moderately soluble,High,No,No,Yes,No,Yes,Yes,No,-5.07,0,0,0,0,0,0.55,0,2,1,2.72
Molecule 8,Oc1cc(O)c2c(c1)oc(cc2=O)c1ccc(c(c1)O)O,C15H10O6,286.24,21,16,0.00,1,6,4,76.01,111.13,1.86,2.53,2.28,-0.03,2.03,1.73,-3.71,5.63e-02,1.97e-04,Soluble,-4.51,8.84e-03,3.09e-05,Moderately soluble,-3.82,4.29e-02,1.50e-04,Soluble,High,No,No,Yes,No,No,Yes,Yes,-6.25,0,0,0,0,0,0.55,1,1,0,3.02
Molecule 9,Oc1ccc(cc1)c1cc(=O)c2c(o1)cc(cc2O)O,C15H10O5,270.24,20,16,0.00,1,5,3,73.99,90.90,1.89,3.02,2.58,0.52,2.52,2.11,-3.94,3.07e-02,1.14e-04,Soluble,-4.59,6.88e-03,2.55e-05,Moderately soluble,-4.40,1.07e-02,3.94e-05,Moderately soluble,High,No,No,Yes,No,No,Yes,Yes,-5.80,0,0,0,0,0,0.55,0,0,0,2.96
Molecule 10,Oc1cc(O)c2c(c1)oc(cc2=O)c1ccccc1,C15H10O4,254.24,19,16,0.00,1,4,2,71.97,70.67,2.27,3.52,2.87,1.08,3.02,2.55,-4.19,1.64e-02,6.44e-05,Moderately soluble,-4.69,5.22e-03,2.05e-05,Moderately soluble,-4.98,2.64e-03,1.04e-05,Moderately soluble,High,Yes,No,Yes,No,No,Yes,Yes,-5.35,0,0,0,0,0,0.55,0,0,1,2.93
Molecule 11,Oc1cc2O[C@H](CC(=O)c2c(c1)O)c1ccc(c(c1)O)O,C15H12O6,288.25,21,12,0.13,1,6,4,73.59,107.22,1.71,2.02,1.89,0.16,1.56,1.47,-3.26,1.60e-01,5.54e-04,Soluble,-3.90,3.64e-02,1.26e-04,Soluble,-2.84,4.19e-01,1.45e-03,Soluble,High,No,Yes,No,No,No,No,Yes,-6.62,0,0,0,0,0,0.55,1,1,0,3.11
Molecule 12,Oc1ccc(cc1)[C@@H]1CC(=O)c2c(O1)cc(cc2O)O,C15H12O5,272.25,20,12,0.13,1,5,3,71.57,86.99,1.75,2.52,2.19,0.71,2.05,1.84,-3.49,8.74e-02,3.21e-04,Soluble,-3.99,2.77e-02,1.02e-04,Soluble,-3.42,1.04e-01,3.82e-04,Soluble,High,No,Yes,Yes,No,No,No,Yes,-6.17,0,0,0,0,0,0.55,0,0,0,3.01
Molecule 13,Oc1cc2O[C@@H](CC(=O)c2c(c1)O)c1ccccc1,C15H12O4,256.25,19,12,0.13,1,4,2,69.55,66.76,2.11,2.88,2.48,1.27,2.55,2.26,-3.64,5.81e-02,2.27e-04,Soluble,-3.94,2.93e-02,1.14e-04,Soluble,-4.00,2.58e-02,1.01e-04,Soluble,High,Yes,No,Yes,Yes,No,No,No,-5.82,0,0,0,0,0,0.55,0,0,0,2.96
Molecule 14,Oc1cc2OC(C)(C)C=Cc2c2c1c(=O)c1c(n2C)c(O)ccc1,C19H17NO4,323.34,24,14,0.21,0,4,2,95.14,71.69,2.82,3.54,3.18,1.71,2.96,2.84,-4.51,1.01e-02,3.11e-05,Moderately soluble,-4.73,6.02e-03,1.86e-05,Moderately soluble,-4.54,9.37e-03,2.90e-05,Moderately soluble,High,Yes,No,Yes,No,Yes,Yes,No,-5.76,0,0,0,0,0,0.55,0,1,1,3.31
Molecule 15,Oc1cc2OC(C)(C)C=Cc2c2c1c(=O)c1c(n2C)cccc1,C19H17NO3,307.34,23,14,0.21,0,3,1,93.12,51.46,3.17,3.89,3.47,2.27,3.44,3.25,-4.65,6.93e-03,2.26e-05,Moderately soluble,-4.67,6.59e-03,2.15e-05,Moderately soluble,-5.12,2.32e-03,7.55e-06,Moderately soluble,High,Yes,No,Yes,Yes,Yes,Yes,Yes,-5.41,0,0,0,0,0,0.55,0,1,1,3.26
Molecule 16,Oc1ccc(cc1)c1cc(=O)c2c(o1)c1C=CC(Oc1cc2O)(C)C,C20H16O5,336.34,25,16,0.15,1,5,2,96.09,79.90,3.02,4.30,3.95,1.64,3.90,3.36,-5.04,3.05e-03,9.08e-06,Moderately soluble,-5.69,6.85e-04,2.04e-06,Moderately soluble,-5.81,5.17e-04,1.54e-06,Moderately soluble,High,No,No,Yes,No,Yes,No,Yes,-5.30,0,0,0,0,0,0.55,0,0,1,3.81
Molecule 17,C[C@H](Cc1cc(=O)c2c(o1)cccc2O)O,C12H12O4,220.22,16,10,0.25,2,4,2,60.25,70.67,2.20,2.68,1.42,0.25,2.31,1.77,-3.22,1.31e-01,5.97e-04,Soluble,-3.82,3.36e-02,1.53e-04,Soluble,-3.31,1.08e-01,4.91e-04,Soluble,High,Yes,No,No,No,No,No,No,-5.74,0,0,0,0,0,0.55,0,0,1,3.15
Molecule 18,Oc1cccc2c1c(=O)cc(o2)c1ccccc1,C15H10O3,238.24,18,16,0.00,1,3,1,69.94,50.44,2.61,4.30,3.17,1.66,3.52,3.05,-4.62,5.74e-03,2.41e-05,Moderately soluble,-5.07,2.02e-03,8.46e-06,Moderately soluble,-5.56,6.56e-04,2.75e-06,Moderately soluble,High,Yes,No,Yes,Yes,No,Yes,No,-4.70,0,0,0,0,0,0.55,0,0,2,2.87
Molecule 19,Oc1cccc2c1oc1cccc(c1c2=O)O,C13H8O4,228.20,17,14,0.00,0,4,2,64.04,70.67,2.07,2.80,2.36,0.87,2.48,2.11,-3.63,5.37e-02,2.35e-04,Soluble,-3.94,2.62e-02,1.15e-04,Soluble,-4.14,1.64e-02,7.18e-05,Moderately soluble,High,Yes,No,Yes,No,No,Yes,Yes,-5.70,0,0,0,0,0,0.55,0,1,1,2.86
Molecule 20,Oc1ccc2c(c1)c(=O)c1c(o2)cccc1O,C13H8O4,228.20,17,14,0.00,0,4,2,64.04,70.67,2.00,2.80,2.36,0.87,2.48,2.10,-3.63,5.37e-02,2.35e-04,Soluble,-3.94,2.62e-02,1.15e-04,Soluble,-4.14,1.64e-02,7.18e-05,Moderately soluble,High,Yes,No,Yes,No,No,Yes,Yes,-5.70,0,0,0,0,0,0.55,0,1,1,2.74
Molecule 21,Oc1ccc2c(c1)oc1c(c2=O)c(O)ccc1,C13H8O4,228.20,17,14,0.00,0,4,2,64.04,70.67,1.98,2.80,2.36,0.87,2.48,2.10,-3.63,5.37e-02,2.35e-04,Soluble,-3.94,2.62e-02,1.15e-04,Soluble,-4.14,1.64e-02,7.18e-05,Moderately soluble,High,Yes,No,Yes,No,No,Yes,Yes,-5.70,0,0,0,0,0,0.55,0,1,1,2.72
Molecule 22,O[C@H]1CCC(=O)c2c1cccc2O,C10H10O3,178.18,13,6,0.30,0,3,2,47.48,57.53,1.53,1.11,1.08,0.47,1.59,1.16,-1.99,1.84e+00,1.03e-02,Very soluble,-1.91,2.19e+00,1.23e-02,Very soluble,-2.01,1.73e+00,9.71e-03,Soluble,High,Yes,No,No,No,No,No,No,-6.60,0,0,0,0,1,0.55,0,0,1,2.30
Molecule 23,O[C@@H]1CCC(=O)c2c1cccc2O,C10H10O3,178.18,13,6,0.30,0,3,2,47.48,57.53,1.60,1.11,1.08,0.47,1.59,1.17,-1.99,1.84e+00,1.03e-02,Very soluble,-1.91,2.19e+00,1.23e-02,Very soluble,-2.01,1.73e+00,9.71e-03,Soluble,High,Yes,No,No,No,No,No,No,-6.60,0,0,0,0,1,0.55,0,0,1,2.30
Molecule 24,O[C@@H]1CC(=O)c2c([C@@H]1O)cccc2O,C10H10O4,194.18,14,6,0.30,0,4,3,48.64,77.76,1.15,0.13,0.05,-0.38,0.67,0.32,-1.44,7.00e+00,3.61e-02,Very soluble,-1.32,9.31e+00,4.80e-02,Very soluble,-1.21,1.19e+01,6.12e-02,Soluble,High,No,No,No,No,No,No,No,-7.39,0,0,0,0,1,0.55,0,0,1,2.84
Molecule 25,Oc1ccc2c(c1)C(=O)CC(O2)(C)C,C11H12O3,192.21,14,6,0.36,0,3,1,52.69,46.53,1.88,1.64,2.14,1.03,2.40,1.82,-2.38,7.97e-01,4.15e-03,Soluble,-2.23,1.13e+00,5.89e-03,Soluble,-3.05,1.72e-01,8.95e-04,Soluble,High,Yes,No,Yes,No,No,No,No,-6.31,0,0,0,0,1,0.55,0,0,1,2.16
Molecule 26,Oc1ccc2c(c1)oc(cc2=O)c1ccc(c(c1)O)O,C15H10O5,270.24,20,16,0.00,1,5,3,73.99,90.90,1.70,2.91,2.58,0.52,2.52,2.04,-3.87,3.61e-02,1.33e-04,Soluble,-4.48,8.95e-03,3.31e-05,Moderately soluble,-4.40,1.07e-02,3.94e-05,Moderately soluble,High,No,No,Yes,No,No,Yes,Yes,-5.88,0,0,0,0,0,0.55,1,1,0,2.94
Molecule 27,O=c1cc(oc2c1ccc1c2C=CC(O1)(C)C)c1ccc2c(c1)OCO2,C21H16O5,348.35,26,16,0.19,1,5,0,98.10,57.90,3.65,3.92,4.26,2.26,4.73,3.77,-4.86,4.82e-03,1.38e-05,Moderately soluble,-4.83,5.09e-03,1.46e-05,Moderately soluble,-6.71,6.82e-05,1.96e-07,Poorly soluble,High,Yes,No,Yes,Yes,Yes,No,Yes,-5.64,0,0,0,0,0,0.55,0,0,1,3.85
Molecule 28,Oc1ccc(cc1)c1cc(=O)c2c(o1)cc(cc2)O,C15H10O4,254.24,19,16,0.00,1,4,2,71.97,70.67,1.78,3.26,2.87,1.08,3.02,2.40,-4.03,2.39e-02,9.39e-05,Moderately soluble,-4.42,9.71e-03,3.82e-05,Moderately soluble,-4.98,2.64e-03,1.04e-05,Moderately soluble,High,Yes,No,Yes,No,No,Yes,Yes,-5.54,0,0,0,0,0,0.55,0,0,0,2.90
Molecule 29,O=c1cc(oc2c1ccc1c2C=CC(O1)(C)C)c1ccccc1,C20H16O3,304.34,23,16,0.15,1,3,0,92.04,39.44,3.43,4.10,4.54,2.78,4.89,3.95,-4.76,5.30e-03,1.74e-05,Moderately soluble,-4.63,7.07e-03,2.32e-05,Moderately soluble,-6.98,3.18e-05,1.04e-07,Poorly soluble,High,Yes,No,Yes,Yes,Yes,No,Yes,-5.25,0,0,0,0,0,0.55,0,0,1,3.73
Molecule 30,O=c1cc(oc2c1ccc1c2cco1)c1ccccc1,C17H10O3,262.26,20,19,0.00,1,3,0,77.69,43.35,2.85,3.58,4.21,2.01,4.42,3.41,-4.36,1.15e-02,4.38e-05,Moderately soluble,-4.18,1.75e-02,6.66e-05,Moderately soluble,-7.02,2.50e-05,9.55e-08,Poorly soluble,High,Yes,No,Yes,Yes,No,Yes,Yes,-5.36,0,0,0,0,0,0.55,0,0,1,3.12
Molecule 31,O=c1cc(oc2c1cccc2)c1ccccc1,C15H10O2,222.24,17,16,0.00,1,2,0,67.92,30.21,2.55,3.56,3.46,2.27,4.04,3.18,-4.09,1.80e-02,8.11e-05,Moderately soluble,-3.88,2.93e-02,1.32e-04,Soluble,-6.13,1.63e-04,7.33e-07,Poorly soluble,High,Yes,No,Yes,Yes,No,No,No,-5.13,0,0,0,0,0,0.55,0,0,2,2.88
Molecule 32,Oc1ccc2c(c1)O[C@H](CC2=O)c1ccccc1,C15H12O3,240.25,18,12,0.13,1,3,1,67.52,46.53,2.19,2.78,2.77,1.85,3.06,2.53,-3.51,7.45e-02,3.10e-04,Soluble,-3.41,9.28e-02,3.86e-04,Soluble,-4.58,6.39e-03,2.66e-05,Moderately soluble,High,Yes,No,Yes,No,No,No,No,-5.79,0,0,0,0,0,0.55,0,0,1,2.91
Molecule 33,Oc1ccc2c(c1)O[C@@H](CC2=O)c1ccc(c(c1)O)O,C15H12O5,272.25,20,12,0.13,1,5,3,71.57,86.99,1.42,1.94,2.19,0.71,2.05,1.66,-3.13,2.03e-01,7.44e-04,Soluble,-3.39,1.11e-01,4.06e-04,Soluble,-3.42,1.04e-01,3.82e-04,Soluble,High,No,Yes,No,No,No,No,No,-6.58,0,0,0,0,0,0.55,1,1,0,3.05
Molecule 34,Oc1ccc(cc1)[C@@H]1CC(=O)c2c(O1)cc(cc2)O,C15H12O4,256.25,19,12,0.13,1,4,2,69.55,66.76,1.73,2.30,2.48,1.27,2.55,2.07,-3.28,1.35e-01,5.26e-04,Soluble,-3.34,1.17e-01,4.57e-04,Soluble,-4.00,2.58e-02,1.01e-04,Soluble,High,Yes,Yes,Yes,No,No,No,No,-6.23,0,0,0,0,0,0.55,0,0,0,2.95
Molecule 35,O=C1C[C@H](Oc2c1ccc1c2C=CC(O1)(C)C)c1ccccc1,C20H18O3,306.36,23,12,0.25,1,3,0,89.62,35.53,3.24,3.83,4.14,2.97,4.43,3.72,-4.47,1.03e-02,3.37e-05,Moderately soluble,-4.27,1.64e-02,5.35e-05,Moderately soluble,-5.99,3.11e-04,1.01e-06,Moderately soluble,High,Yes,Yes,Yes,Yes,Yes,Yes,Yes,-5.45,0,0,0,0,0,0.55,0,0,1,3.89
Molecule 36,Oc1ccc2c(c1)c(=O)c1c(o2)cccc1,C13H8O3,212.20,16,14,0.00,0,3,1,62.01,50.44,1.95,3.24,2.65,1.45,2.98,2.46,-3.84,3.04e-02,1.43e-04,Soluble,-3.97,2.26e-02,1.07e-04,Soluble,-4.72,4.06e-03,1.91e-05,Moderately soluble,High,Yes,No,Yes,No,No,No,Yes,-5.29,0,0,0,0,0,0.55,0,1,1,2.55
Molecule 37,O=C1C[C@H]2C(C)(C)CCC[C@]2(c2c1cc(C(C)C)c(c2)O)C,C20H28O2,300.44,22,6,0.65,1,2,1,92.06,37.30,3.34,5.62,5.19,3.90,5.19,4.65,-5.38,1.25e-03,4.18e-06,Moderately soluble,-6.17,2.05e-04,6.82e-07,Poorly soluble,-5.65,6.74e-04,2.24e-06,Moderately soluble,High,Yes,No,No,Yes,Yes,No,No,-4.14,0,0,0,0,1,0.55,0,0,1,3.45
Molecule 38,Oc1c2OCOc2cc2c1oc1ccccc1c2=O,C14H8O5,256.21,19,14,0.07,0,5,1,68.08,68.90,2.23,2.42,2.38,0.97,2.85,2.17,-3.50,8.13e-02,3.17e-04,Soluble,-3.51,7.93e-02,3.10e-04,Soluble,-4.47,8.70e-03,3.40e-05,Moderately soluble,High,Yes,No,Yes,No,No,Yes,Yes,-6.14,0,0,0,0,0,0.55,0,1,0,3.20
Molecule 39,O=c1c2c(ccc3c2OCO3)oc2c1cccc2,C14H8O4,240.21,18,14,0.07,0,4,0,66.05,48.67,2.36,2.78,2.67,1.53,3.36,2.54,-3.66,5.30e-02,2.21e-04,Soluble,-3.46,8.37e-02,3.48e-04,Soluble,-5.05,2.16e-03,8.99e-06,Moderately soluble,High,Yes,No,Yes,No,No,No,Yes,-5.79,0,0,0,0,0,0.55,0,1,1,3.14
Molecule 40,Oc1cccc2c1c1c3OCOc3cc3c1c(C2=O)ncc3,C17H9NO4,291.26,22,16,0.06,0,5,1,78.70,68.65,1.93,3.03,2.88,1.15,3.46,2.49,-4.09,2.35e-02,8.07e-05,Moderately soluble,-4.14,2.12e-02,7.29e-05,Moderately soluble,-5.55,8.23e-04,2.82e-06,Moderately soluble,High,Yes,Yes,Yes,No,No,Yes,Yes,-5.93,0,0,0,0,0,0.55,0,0,0,2.95
Molecule 41,O=C1c2ccccc2c2c3c1nccc3cc1c2OCO1,C17H9NO3,275.26,21,16,0.06,0,4,0,76.67,48.42,2.14,3.39,3.17,1.71,3.96,2.88,-4.25,1.56e-02,5.67e-05,Moderately soluble,-4.09,2.26e-02,8.21e-05,Moderately soluble,-6.13,2.04e-04,7.41e-07,Poorly soluble,High,Yes,Yes,Yes,No,No,No,Yes,-5.57,0,0,0,0,0,0.55,0,0,0,2.77
Molecule 42,O=CC(=C(C)C)c1c(OC)ccc2c1oc(=O)cc2,C15H14O4,258.27,19,10,0.20,3,4,0,73.69,56.51,2.45,2.77,2.79,1.70,3.57,2.66,-3.38,1.08e-01,4.19e-04,Soluble,-3.61,6.31e-02,2.44e-04,Soluble,-4.56,7.18e-03,2.78e-05,Moderately soluble,High,Yes,No,Yes,Yes,No,No,No,-5.91,0,0,0,0,0,0.55,0,3,0,3.20
Molecule 43,O=CC1=C2C=C(C)OC=C2[C@@H]([C@@](C1=O)(C)O)O,C12H12O5,236.22,17,0,0.33,1,5,2,57.99,83.83,1.26,-1.18,-0.01,-0.99,0.88,-0.01,-0.50,7.55e+01,3.20e-01,Very soluble,-0.09,1.93e+02,8.18e-01,Very soluble,-0.82,3.59e+01,1.52e-01,Soluble,High,No,No,No,No,No,No,No,-8.58,0,0,0,0,0,0.55,0,2,1,4.19
Molecule 44,OC[C@H](C1=C2CC=C(C=O)[C@H]3[C@@H](C[C@@]2(CC1)C)[C@H](C)[C@@H](C3=O)O)C,C20H28O4,332.43,24,0,0.70,3,4,2,93.43,74.60,2.06,1.80,2.44,1.90,3.11,2.26,-2.84,4.84e-01,1.46e-03,Soluble,-2.99,3.44e-01,1.03e-03,Soluble,-2.83,4.95e-01,1.49e-03,Soluble,High,Yes,Yes,No,No,No,No,No,-7.05,0,0,0,0,0,0.55,0,2,0,5.20
Molecule 45,CCCCCC=O,C6H12O,100.16,7,0,0.83,4,1,0,31.16,17.07,1.77,1.78,1.77,1.39,1.58,1.66,-1.32,4.81e+00,4.80e-02,Very soluble,-1.76,1.75e+00,1.75e-02,Very soluble,-1.76,1.76e+00,1.75e-02,Soluble,High,Yes,No,No,No,No,No,No,-5.65,0,3,0,0,2,0.55,0,1,1,1.06
Molecule 46,CCCCCCC=O,C7H14O,114.19,8,0,0.86,5,1,0,35.96,17.07,2.01,2.32,2.16,1.74,2.02,2.05,-1.68,2.39e+00,2.09e-02,Very soluble,-2.32,5.50e-01,4.82e-03,Soluble,-2.18,7.51e-01,6.58e-03,Soluble,High,Yes,No,No,No,No,No,No,-5.35,0,2,0,0,2,0.55,0,1,1,1.33
Molecule 47,CCCCCCCC=O,C8H16O,128.21,9,0,0.88,6,1,0,40.77,17.07,2.29,2.72,2.55,2.07,2.45,2.42,-1.95,1.43e+00,1.12e-02,Very soluble,-2.73,2.38e-01,1.85e-03,Soluble,-2.60,3.18e-01,2.48e-03,Soluble,High,Yes,No,No,No,No,No,No,-5.15,0,1,0,0,2,0.55,0,1,1,1.43
Molecule 48,CCCCCCCCC=O,C9H18O,142.24,10,0,0.89,7,1,0,45.58,17.07,2.44,3.26,2.94,2.39,2.88,2.78,-2.31,6.91e-01,4.86e-03,Soluble,-3.29,7.25e-02,5.10e-04,Soluble,-3.02,1.35e-01,9.46e-04,Soluble,High,Yes,No,No,No,No,No,No,-4.85,0,1,0,0,2,0.55,0,1,1,1.52
Molecule 49,CCCCCCCCCC[C@H]1C[C@@H](C(=O)O1)CC=O,C16H28O3,268.39,19,0,0.88,11,3,0,78.40,43.37,3.23,4.76,4.04,2.81,4.73,3.92,-3.78,4.49e-02,1.67e-04,Soluble,-5.40,1.06e-03,3.97e-06,Moderately soluble,-4.54,7.70e-03,2.87e-05,Moderately soluble,High,Yes,No,Yes,No,Yes,Yes,No,-4.56,0,0,1,0,0,0.55,0,1,2,3.44
Molecule 50,O=C[C@@H]([C@H]([C@H]([C@@H](O)C)O)O)O,C6H12O5,164.16,11,0,0.83,4,5,4,35.80,97.99,-0.08,-2.38,-2.35,-2.10,-1.10,-1.60,0.91,1.32e+03,8.05e+00,Highly soluble,0.86,1.19e+03,7.26e+00,Highly soluble,1.90,1.30e+04,7.93e+01,Soluble,Low,No,No,No,No,No,No,No,-8.99,0,2,0,0,2,0.55,0,1,1,3.11
Molecule 51,O=Cc1c2[C@H](C)C(=C)OC(=O)c2c(c(c1O)C)O,C13H12O5,248.23,18,6,0.23,1,5,2,64.11,83.83,2.01,2.82,2.01,0.81,2.46,2.02,-3.34,1.14e-01,4.61e-04,Soluble,-4.24,1.44e-02,5.78e-05,Moderately soluble,-2.59,6.35e-01,2.56e-03,Soluble,High,No,No,No,No,No,No,No,-5.81,0,0,0,0,0,0.55,0,1,1,3.28
Molecule 52,C/C=C/C=C/c1cc(O)cc(c1C=O)O,C12H12O3,204.22,15,6,0.08,3,3,2,59.91,57.53,1.64,2.88,2.39,1.53,2.57,2.20,-3.02,1.96e-01,9.58e-04,Soluble,-3.75,3.65e-02,1.79e-04,Soluble,-1.77,3.48e+00,1.70e-02,Soluble,High,Yes,No,No,No,No,No,No,-5.50,0,0,0,0,0,0.55,0,2,1,2.64
Molecule 53,O=Cc1c(O)c2C(=O)OCc2c(c1OC)C,C11H10O5,222.19,16,6,0.27,2,5,1,54.63,72.83,1.52,1.34,1.04,0.34,2.29,1.31,-2.21,1.38e+00,6.20e-03,Soluble,-2.47,7.51e-01,3.38e-03,Soluble,-2.47,7.46e-01,3.36e-03,Soluble,High,No,No,Yes,No,No,No,No,-6.70,0,0,0,0,0,0.55,0,1,1,2.28
Molecule 54,COc1cc(OC)cc(c1C=O)OC,C10H12O4,196.20,14,6,0.30,4,4,0,51.31,44.76,2.13,1.30,1.52,0.55,2.03,1.51,-1.93,2.31e+00,1.18e-02,Very soluble,-1.84,2.83e+00,1.44e-02,Very soluble,-2.73,3.63e-01,1.85e-03,Soluble,High,Yes,No,No,No,No,No,No,-6.57,0,0,0,0,1,0.55,0,1,1,1.47
Molecule 55,COc1cc2oc(=O)ccc2cc1C=O,C11H8O4,204.18,15,10,0.09,2,4,0,54.36,56.51,1.93,1.34,1.61,0.70,2.58,1.63,-2.31,9.97e-01,4.88e-03,Soluble,-2.13,1.52e+00,7.44e-03,Soluble,-3.69,4.14e-02,2.03e-04,Soluble,High,Yes,No,Yes,No,No,No,No,-6.59,0,0,0,0,0,0.55,0,2,1,2.38
Molecule 56,O=Cc1ccc(c2c1c(O)c(O)c(c2)C(C)C)C,C15H16O3,244.29,18,10,0.27,2,3,2,72.93,57.53,2.32,3.41,3.50,2.28,3.68,3.04,-3.78,4.04e-02,1.65e-04,Soluble,-4.30,1.23e-02,5.04e-05,Moderately soluble,-4.09,1.99e-02,8.17e-05,Moderately soluble,High,Yes,No,Yes,No,No,No,Yes,-5.37,0,0,0,0,0,0.55,1,2,1,1.65
Molecule 57,O=Cc1ccc(c2c1c(O)c(O)c(c2)C(O)(C)C)C,C15H16O4,260.29,19,10,0.27,2,4,3,73.97,77.76,2.15,2.54,2.49,1.43,2.92,2.31,-3.31,1.27e-01,4.88e-04,Soluble,-3.82,3.94e-02,1.51e-04,Soluble,-3.51,8.04e-02,3.09e-04,Soluble,High,Yes,No,Yes,No,No,No,Yes,-6.08,0,0,0,0,0,0.55,1,2,0,1.87
Molecule 58,O=Cc1ccc(c2c1C[C@@H](C)OC2=O)O,C11H10O4,206.19,15,6,0.27,1,4,1,52.79,63.60,1.61,1.90,1.31,0.90,2.10,1.57,-2.55,5.87e-01,2.85e-03,Soluble,-2.86,2.86e-01,1.39e-03,Soluble,-2.39,8.34e-01,4.05e-03,Soluble,High,Yes,No,No,No,No,No,No,-6.21,0,0,0,0,0,0.55,0,1,1,2.78
Molecule 59,COc1cc(C=O)cc(c1O)OC,C9H10O4,182.17,13,6,0.22,3,4,1,46.84,55.76,1.66,-0.01,1.22,0.24,1.51,0.93,-1.11,1.42e+01,7.82e-02,Very soluble,-0.71,3.54e+01,1.94e-01,Very soluble,-2.03,1.72e+00,9.42e-03,Soluble,High,Yes,No,No,No,No,No,No,-7.42,0,0,0,0,1,0.55,0,1,1,1.49
Molecule 60,O=Cc1ccccc1,C7H6O,106.12,8,6,0.00,1,1,0,31.83,17.07,1.36,1.48,1.50,1.45,2.05,1.57,-1.92,1.28e+00,1.20e-02,Very soluble,-1.45,3.80e+00,3.59e-02,Very soluble,-2.28,5.62e-01,5.30e-03,Soluble,High,Yes,No,Yes,No,No,No,No,-5.90,0,3,0,0,2,0.55,0,1,1,1.00
Molecule 61,OCc1ccc(o1)C=O,C6H6O3,126.11,9,5,0.17,2,3,1,30.22,50.44,0.91,-0.58,0.43,-1.06,1.24,0.19,-0.54,3.67e+01,2.91e-01,Very soluble,-0.01,1.24e+02,9.80e-01,Very soluble,-1.35,5.67e+00,4.50e-02,Soluble,High,No,No,No,No,No,No,No,-7.48,0,3,0,0,1,0.55,0,1,1,2.25
Molecule 62,OC[C@H]1CCCC(=C)[C@H](C[C@H](CC1)C(O)(C)C)O,C15H28O3,256.38,18,0,0.87,2,3,3,75.15,60.69,2.46,1.61,2.25,1.86,2.13,2.06,-2.31,1.25e+00,4.88e-03,Soluble,-2.50,8.18e-01,3.19e-03,Soluble,-1.86,3.50e+00,1.36e-02,Soluble,High,Yes,No,No,No,No,No,No,-6.72,0,0,0,0,0,0.55,0,1,0,4.12
Molecule 63,O[C@H]1Cc2c(C)ccc(c2C[C@@H]1C(O)(C)C)C,C15H22O2,234.33,17,6,0.60,1,2,2,70.59,40.46,2.29,3.07,2.15,2.54,3.21,2.65,-3.42,8.87e-02,3.78e-04,Soluble,-3.59,6.07e-02,2.59e-04,Soluble,-3.50,7.41e-02,3.16e-04,Soluble,High,Yes,No,No,No,No,Yes,No,-5.55,0,0,0,0,0,0.55,0,0,1,3.02
Molecule 64,CC1=C2C[C@@H](CC[C@]2(CCC1)C)C(O)(C)C,C15H26O,222.37,16,0,0.87,1,1,1,70.46,20.23,3.16,3.39,4.06,3.67,3.75,3.60,-3.29,1.14e-01,5.15e-04,Soluble,-3.49,7.13e-02,3.21e-04,Soluble,-3.41,8.57e-02,3.85e-04,Soluble,High,Yes,No,No,No,No,No,No,-5.25,0,0,0,0,1,0.55,0,1,1,3.88
Molecule 65,CC([C@@H]1CCC2=C(C1)CC[C@@H]1[C@]2(C)CCCC1(C)C)(O)C,C20H34O,290.48,21,0,0.90,1,1,1,92.12,20.23,3.76,5.05,5.48,4.86,4.87,4.80,-4.76,5.09e-03,1.75e-05,Moderately soluble,-5.22,1.76e-03,6.08e-06,Moderately soluble,-4.65,6.44e-03,2.22e-05,Moderately soluble,High,Yes,No,No,Yes,Yes,No,No,-4.49,1,0,0,0,2,0.55,0,1,1,4.62
Molecule 66,C[C@H]1CC[C@H](CC2=C1CC[C@@H]2C)C(O)(C)C,C15H26O,222.37,16,0,0.87,1,1,1,70.72,20.23,3.08,3.07,3.92,3.67,3.35,3.42,-3.09,1.82e-01,8.19e-04,Soluble,-3.16,1.53e-01,6.89e-04,Soluble,-2.96,2.41e-01,1.08e-03,Soluble,High,Yes,No,No,No,No,No,No,-5.48,0,0,0,0,1,0.55,0,1,1,4.48
Molecule 67,CC1=CC[C@@H](CC1)C(O)(C)C,C10H18O,154.25,11,0,0.80,1,1,1,48.80,20.23,2.51,3.39,2.50,2.30,2.17,2.58,-2.87,2.10e-01,1.36e-03,Soluble,-3.49,4.95e-02,3.21e-04,Soluble,-1.69,3.17e+00,2.06e-02,Soluble,High,Yes,No,No,No,No,No,No,-4.83,0,1,0,0,2,0.55,0,1,1,3.24
Molecule 68,C=C[C@]1(C)CC[C@H](C[C@H]1C(=C)C)C(O)(C)C,C15H26O,222.37,16,0,0.73,3,1,1,72.10,20.23,3.20,4.41,3.94,3.56,3.74,3.77,-3.80,3.53e-02,1.59e-04,Soluble,-4.55,6.23e-03,2.80e-05,Moderately soluble,-3.00,2.24e-01,1.01e-03,Soluble,High,Yes,No,No,No,Yes,No,No,-4.53,0,0,0,0,1,0.55,0,1,2,3.54
Molecule 69,OC[C@@]1(C=C)CC[C@H](C[C@H]1C(=C)C)C(O)(C)C,C15H26O2,238.37,17,0,0.73,4,2,2,73.26,40.46,2.96,3.01,2.91,2.63,3.15,2.93,-2.95,2.67e-01,1.12e-03,Soluble,-3.52,7.13e-02,2.99e-04,Soluble,-2.44,8.67e-01,3.64e-03,Soluble,High,Yes,No,No,No,No,No,No,-5.62,0,0,0,0,0,0.55,0,1,1,3.84
Molecule 70,C=C1CCC[C@]2([C@H]1C[C@@H](CC2)C(O)(C)C)C,C15H26O,222.37,16,0,0.87,1,1,1,70.46,20.23,3.07,3.74,3.92,3.67,3.64,3.61,-3.51,6.89e-02,3.10e-04,Soluble,-3.86,3.09e-02,1.39e-04,Soluble,-3.21,1.36e-01,6.12e-04,Soluble,High,Yes,No,No,No,Yes,No,No,-5.00,0,0,0,0,1,0.55,0,1,2,3.38
Molecule 71,CC1=CCC[C@]2([C@H]1C[C@@H](CC2)C(O)(C)C)C,C15H26O,222.37,16,0,0.87,1,1,1,70.46,20.23,3.19,3.50,3.92,3.67,3.35,3.53,-3.36,9.76e-02,4.39e-04,Soluble,-3.61,5.48e-02,2.47e-04,Soluble,-2.96,2.41e-01,1.08e-03,Soluble,High,Yes,No,No,No,No,No,No,-5.17,0,0,0,0,1,0.55,0,1,1,4.08
Molecule 72,CC([C@@H]1CC[C@@]2([C@@H](C1)[C@](C)(O)CCC2)C)(O)C,C15H28O2,240.38,17,0,1.00,1,2,2,72.13,40.46,2.89,2.95,3.11,2.88,2.85,2.94,-3.12,1.81e-01,7.54e-04,Soluble,-3.46,8.30e-02,3.45e-04,Soluble,-2.63,5.67e-01,2.36e-03,Soluble,High,Yes,No,No,No,No,No,No,-5.67,0,0,0,0,0,0.55,0,0,1,3.55
Molecule 73,C[C@H]1CCC=C([C@@]21CC[C@H](C2)C(O)(C)C)C,C15H26O,222.37,16,0,0.87,1,1,1,70.46,20.23,3.23,3.65,3.92,3.67,3.35,3.56,-3.45,7.85e-02,3.53e-04,Soluble,-3.76,3.83e-02,1.72e-04,Soluble,-2.96,2.41e-01,1.08e-03,Soluble,High,Yes,No,No,No,Yes,No,No,-5.06,0,0,0,0,1,0.55,0,1,2,4.56
Molecule 74,Cc1ccc(c2c1C[C@@H](CC2)C(O)(C)C)C,C15H22O,218.33,16,6,0.60,1,1,1,69.43,20.23,2.92,3.49,3.18,3.46,4.12,3.43,-3.60,5.44e-02,2.49e-04,Soluble,-3.60,5.51e-02,2.53e-04,Soluble,-4.30,1.08e-02,4.95e-05,Moderately soluble,High,Yes,No,No,No,No,Yes,No,-5.15,0,0,0,0,1,0.55,0,0,1,2.46
Molecule 75,CC1=CC[C@]2(CC1)[C@H](C)CC[C@H]2C(O)(C)C,C15H26O,222.37,16,0,0.87,1,1,1,70.46,20.23,3.13,3.61,3.92,3.67,3.35,3.54,-3.43,8.32e-02,3.74e-04,Soluble,-3.72,4.22e-02,1.90e-04,Soluble,-2.96,2.41e-01,1.08e-03,Soluble,High,Yes,No,No,No,Yes,No,No,-5.09,0,0,0,0,1,0.55,0,1,2,4.56
Molecule 76,Oc1cc2c(C)ccc(c2cc1C(O)(C)C)C,C15H18O2,230.30,17,10,0.33,1,2,2,71.53,40.46,2.57,3.80,3.28,2.98,3.70,3.26,-4.03,2.14e-02,9.31e-05,Moderately soluble,-4.34,1.04e-02,4.53e-05,Moderately soluble,-4.53,6.83e-03,2.96e-05,Moderately soluble,High,Yes,No,Yes,No,No,Yes,No,-5.01,0,0,0,0,0,0.55,0,0,2,1.51
Molecule 77,Cc1ccc(c2c1c1nc3ccccc3nc1c(c2)C(O)(C)C)C,C21H20N2O,316.40,24,18,0.24,1,3,1,100.11,46.01,3.41,4.32,4.67,3.54,5.23,4.23,-5.01,3.08e-03,9.72e-06,Moderately soluble,-5.00,3.16e-03,9.99e-06,Moderately soluble,-7.68,6.56e-06,2.07e-08,Poorly soluble,High,Yes,Yes,Yes,Yes,No,Yes,Yes,-5.16,0,0,0,0,0,0.55,1,2,1,2.31
Molecule 78,OC/C=C(/CCC[C@@H](CCC[C@@H](CCCC(C)C)C)C)\C,C20H40O,296.53,21,0,0.90,13,1,1,98.94,20.23,4.77,8.19,6.36,5.25,6.57,6.23,-5.98,3.10e-04,1.05e-06,Moderately soluble,-8.47,9.94e-07,3.35e-09,Poorly soluble,-5.51,9.06e-04,3.05e-06,Moderately soluble,Low,No,Yes,No,No,Yes,No,No,-2.29,1,1,1,1,2,0.55,0,1,2,4.30
Molecule 79,OC/C=C/c1ccc2c(c1)OCO2,C10H10O3,178.18,13,6,0.20,2,3,1,48.56,38.69,2.15,2.40,1.31,1.14,2.20,1.84,-2.67,3.84e-01,2.16e-03,Soluble,-2.85,2.49e-01,1.40e-03,Soluble,-2.07,1.52e+00,8.55e-03,Soluble,High,Yes,No,Yes,No,No,No,No,-5.68,0,0,0,0,1,0.55,0,0,1,2.31
Molecule 80,CCC1CCC(CC1)O,C8H16O,128.21,9,0,1.00,1,1,1,39.62,20.23,2.18,2.33,1.95,1.83,1.85,2.03,-2.04,1.18e+00,9.19e-03,Soluble,-2.39,5.18e-01,4.04e-03,Soluble,-1.26,7.00e+00,5.46e-02,Soluble,High,Yes,No,No,No,No,No,No,-5.43,0,2,0,0,2,0.55,0,0,1,2.25
Molecule 81,CCC1CCC(CC1)O,C8H16O,128.21,9,0,1.00,1,1,1,39.62,20.23,2.18,2.33,1.95,1.83,1.85,2.03,-2.04,1.18e+00,9.19e-03,Soluble,-2.39,5.18e-01,4.04e-03,Soluble,-1.26,7.00e+00,5.46e-02,Soluble,High,Yes,No,No,No,No,No,No,-5.43,0,2,0,0,2,0.55,0,0,1,2.25
Molecule 82,OCC1=C[C@]23C[C@@H]1CC[C@@H]3[C@]1([C@H](CC2)C(C)(C)CCC1)C,C20H32O,288.47,21,0,0.90,1,1,1,89.71,20.23,3.29,5.65,4.95,4.86,4.52,4.65,-5.12,2.18e-03,7.55e-06,Moderately soluble,-5.84,4.18e-04,1.45e-06,Moderately soluble,-4.33,1.36e-02,4.71e-05,Moderately soluble,High,Yes,No,No,Yes,Yes,No,No,-4.05,1,0,0,0,2,0.55,0,1,1,6.05
Molecule 83,CCCCCCCO,C7H16O,116.20,8,0,1.00,5,1,1,36.92,20.23,2.26,2.62,1.95,1.89,1.71,2.08,-1.88,1.53e+00,1.32e-02,Very soluble,-2.69,2.35e-01,2.02e-03,Soluble,-2.07,9.98e-01,8.59e-03,Soluble,High,Yes,No,No,No,No,No,No,-5.15,0,2,0,0,2,0.55,0,0,1,1.35
Molecule 84,OCC[C@@H](CCC=C(C)C)C,C10H20O,156.27,11,0,0.80,5,1,1,50.87,20.23,2.72,3.91,2.75,2.70,2.51,2.92,-2.94,1.79e-01,1.14e-03,Soluble,-4.03,1.45e-02,9.26e-05,Moderately soluble,-2.21,9.64e-01,6.17e-03,Soluble,High,Yes,No,No,No,No,No,No,-4.48,0,1,0,0,2,0.55,0,1,2,2.61
Molecule 85,OCCc1ccc(cc1)O,C8H10O2,138.16,10,6,0.25,2,2,2,39.40,40.46,1.40,0.43,0.93,1.21,1.52,1.10,-1.28,7.26e+00,5.25e-02,Very soluble,-0.85,1.96e+01,1.42e-01,Very soluble,-2.03,1.30e+00,9.40e-03,Soluble,High,Yes,No,No,No,No,No,No,-6.84,0,2,0,0,1,0.55,0,0,1,1.00
Molecule 86,OC[C@H]([C@@H]1C[C@H](O)[C@@H](c2c1cc(C)c(c2)O)C)C,C15H22O3,250.33,18,6,0.60,2,3,3,72.41,60.69,2.31,2.20,2.28,1.92,2.47,2.24,-2.89,3.20e-01,1.28e-03,Soluble,-3.11,1.95e-01,7.79e-04,Soluble,-2.71,4.88e-01,1.95e-03,Soluble,High,Yes,No,No,No,No,Yes,No,-6.27,0,0,0,0,0,0.55,0,0,0,3.44
Molecule 87,OC[C@H]([C@@H]1C[C@@H](O)[C@@H](c2c1cc(C)c(c2)O)C)C,C15H22O3,250.33,18,6,0.60,2,3,3,72.41,60.69,2.38,2.20,2.28,1.92,2.47,2.25,-2.89,3.20e-01,1.28e-03,Soluble,-3.11,1.95e-01,7.79e-04,Soluble,-2.71,4.88e-01,1.95e-03,Soluble,High,Yes,No,No,No,No,Yes,No,-6.27,0,0,0,0,0,0.55,0,0,0,3.44
Molecule 88,OC[C@H](c1ccc(c2c1cc(C)c(c2)O)C)C,C15H18O2,230.30,17,10,0.33,2,2,2,71.64,40.46,2.39,3.45,3.26,2.98,3.85,3.18,-3.74,4.15e-02,1.80e-04,Soluble,-3.98,2.41e-02,1.04e-04,Soluble,-4.54,6.57e-03,2.85e-05,Moderately soluble,High,Yes,No,No,No,No,Yes,No,-5.26,0,0,0,0,0,0.55,0,0,1,1.87
Molecule 89,OC[C@@H]([C@@H](Cc1ccc2c(c1)OCO2)CO)Cc1ccc2c(c1)OCO2,C20H22O6,358.39,26,12,0.40,7,6,2,94.38,77.38,3.23,2.91,2.15,1.98,3.94,2.84,-3.77,6.02e-02,1.68e-04,Soluble,-4.20,2.28e-02,6.37e-05,Moderately soluble,-4.94,4.11e-03,1.15e-05,Moderately soluble,High,No,No,Yes,No,Yes,Yes,Yes,-6.42,0,0,0,0,0,0.55,0,0,1,3.59
Molecule 90,C/C=C/1\CN2[C@H]3[C@@H]([C@H]1C[C@@H]2c1c(C3)c2c(n1C)cccc2)CO,C20H24N2O,308.42,23,9,0.50,1,2,1,97.55,28.40,2.98,2.04,2.33,2.85,2.61,2.56,-3.26,1.69e-01,5.48e-04,Soluble,-2.26,1.68e+00,5.44e-03,Soluble,-3.70,6.11e-02,1.98e-04,Soluble,High,Yes,Yes,No,No,No,Yes,No,-6.73,0,0,0,0,0,0.55,1,1,0,4.69
Molecule 91,OC[C@@H]1[C@@H]2CCN([C@H]([C@H]2CC)c2c1[nH]c1c2cccc1)C,C18H24N2O,284.40,21,9,0.56,2,2,2,90.43,39.26,2.47,2.64,2.57,2.48,3.06,2.64,-3.45,1.01e-01,3.54e-04,Soluble,-3.12,2.18e-01,7.67e-04,Soluble,-4.36,1.24e-02,4.35e-05,Moderately soluble,High,Yes,Yes,No,No,No,Yes,No,-6.16,0,0,0,0,0,0.55,0,0,0,4.20
Molecule 92,C=C[C@@]1(C)CC[C@H]2[C@](C1)(O)[C@@H](O)C[C@H]1[C@@]2(C)CCC[C@@]1(C)CO,C20H34O3,322.48,23,0,0.90,2,3,3,94.18,60.69,2.90,3.76,3.28,3.05,3.51,3.30,-4.08,2.71e-02,8.39e-05,Moderately soluble,-4.73,6.04e-03,1.87e-05,Moderately soluble,-3.29,1.64e-01,5.08e-04,Soluble,High,Yes,Yes,No,No,No,No,No,-5.60,0,0,0,0,0,0.55,0,1,1,4.74
Molecule 93,OC[C@@]1(C)[C@H]2C[C@@]3([C@@H]1CC[C@H]3C)CC[C@]2(C)O,C15H26O2,238.37,17,0,1.00,1,2,2,69.72,40.46,2.80,2.66,2.58,2.88,2.77,2.74,-2.93,2.82e-01,1.18e-03,Soluble,-3.16,1.64e-01,6.90e-04,Soluble,-2.63,5.64e-01,2.37e-03,Soluble,High,Yes,No,No,No,No,No,No,-5.87,0,0,0,0,0,0.55,0,0,1,4.78
Molecule 94,OC[C@@H]([C@@H]1CC[C@@H](c2c1cc(C)c(c2)O)C)C,C15H22O2,234.33,17,6,0.60,2,2,2,71.25,40.46,2.62,3.54,3.31,2.80,3.37,3.13,-3.65,5.22e-02,2.23e-04,Soluble,-4.07,1.97e-02,8.43e-05,Moderately soluble,-3.52,7.13e-02,3.04e-04,Soluble,High,Yes,No,No,No,No,Yes,No,-5.22,0,0,0,0,0,0.55,0,0,2,3.06
Molecule 95,OC[C@@]1(O)CC[C@@]23C[C@@H]1C[C@@H]2CC[C@@H]1[C@]3(C)CC[C@H]([C@@]1(C)CO)O,C20H34O4,338.48,24,0,1.00,2,4,4,93.70,80.92,2.73,2.50,2.09,2.34,2.50,2.43,-3.38,1.41e-01,4.15e-04,Soluble,-3.84,4.84e-02,1.43e-04,Soluble,-2.60,8.48e-01,2.51e-03,Soluble,High,No,Yes,No,No,No,No,No,-6.59,0,0,0,0,0,0.55,0,0,0,5.58
Molecule 96,CCc1c(CO)ccc2c1CC[C@@H]1[C@@]2(C)CCCC1(C)C,C20H30O,286.45,21,6,0.70,2,1,1,90.93,20.23,3.55,5.85,4.62,4.65,5.67,4.87,-5.38,1.19e-03,4.16e-06,Moderately soluble,-6.05,2.57e-04,8.98e-07,Poorly soluble,-6.14,2.08e-04,7.24e-07,Poorly soluble,High,Yes,No,No,Yes,No,Yes,No,-3.89,1,0,0,0,2,0.55,0,0,1,3.42
Molecule 97,O[C-](c1nc(C)c2c(c1)c1ccccc1[nH]2)O,C13H11N2O2,227.24,17,13,0.15,1,3,3,64.78,69.14,1.43,1.31,2.61,1.12,2.54,1.80,-2.57,6.06e-01,2.67e-03,Soluble,-2.36,9.86e-01,4.34e-03,Soluble,-3.88,3.00e-02,1.32e-04,Soluble,High,Yes,Yes,Yes,No,No,Yes,No,-6.76,0,0,0,0,0,0.56,0,1,1,2.00
Molecule 98,OCC(=C)[C@@H](CO)O,C5H10O3,118.13,8,0,0.60,3,3,3,29.16,60.69,1.10,-1.09,-1.11,-0.80,-0.45,-0.47,0.31,2.42e+02,2.05e+00,Highly soluble,0.31,2.39e+02,2.02e+00,Highly soluble,0.59,4.62e+02,3.91e+00,Soluble,High,No,No,No,No,No,No,No,-7.79,0,4,0,0,1,0.55,0,1,1,2.64
Molecule 99,CCCC[C@H](CC(C)C)O,C9H20O,144.25,10,0,1.00,5,1,1,46.54,20.23,2.91,3.09,2.58,2.54,2.24,2.67,-2.35,6.43e-01,4.46e-03,Soluble,-3.18,9.48e-02,6.57e-04,Soluble,-2.16,1.00e+00,6.93e-03,Soluble,High,Yes,No,No,No,No,No,No,-4.99,0,1,0,0,2,0.55,0,0,1,1.85
Molecule 100,CCC[C@@H](CC)O,C6H14O,102.17,7,0,1.00,3,1,1,32.12,20.23,2.04,1.65,1.56,1.53,1.11,1.58,-1.31,4.95e+00,4.84e-02,Very soluble,-1.69,2.09e+00,2.05e-02,Very soluble,-1.27,5.53e+00,5.41e-02,Soluble,High,Yes,No,No,No,No,No,No,-5.75,0,2,0,0,2,0.55,0,0,1,1.25
