,BD,ID,SMILES
0,QUIPRONAB,LPNV00002_Rutaceae,o1c2c(c3[nH]c4c(c3cc2)cccc4)cc1
1,QUIPRONAB,LPNV00680_N/A,c12c3c(ccc1cccc2)cccc3
2,QUIPRONAB,LPNV00687_N/A,c12c(cc3c(c1)cccc3)cccc2
3,QUIPRONAB,LPNV00034_Rutaceae,c1(C2OCC3C(c4cc5OCOc5cc4)OCC23)cc2OCOc2cc1
4,QUIPRONAB,LPNV00700_Piperaceae,[C@H]1(c2cc3OCOc3cc2)OC[C@H]2[C@@H](c3cc4OCOc4cc3)OC[C@@H]12
5,QUIPRONAB,LPNV00683_N/A,[C@H]1(c2cc3OCOc3cc2)OC[C@@H]2[C@@H](c3cc4OCOc4cc3)OC[C@H]12
6,QUIPRONAB,LPNV00179_Rutaceae,[C@@H]1(c2cc3OCOc3cc2)OCC2[C@@H](c3cc4OCOc4cc3)OCC12
7,QUIPRONAB,LPNV00692_N/A,S(=O)(=O)(O)CN(C)C=1C(=O)N(N(C)C=1C)c1ccccc1
8,QUIPRONAB,LPNV00329_Piperaceae,Oc1ccc(CC/C=C/CCCCCC)cc1
9,QUIPRONAB,LPNV00199_Lauraceae,Oc1ccc(-c2c(C)c3c(o2)ccc(/C=C/C)c3)cc1
10,QUIPRONAB,LPNV00344_Piperaceae,Oc1c(O)ccc(O)c1
11,QUIPRONAB,LPNV00334_Piperaceae,Oc1c(O)ccc(CC/C=C/CCCCCC)c1
12,QUIPRONAB,LPNV00702_Piperaceae,Oc1c(O)ccc(C(CCCC(CCCC(C)C)C)(CC)C)c1
13,QUIPRONAB,LPNV00699_Piperaceae,Oc1c(O)ccc(C(C=C)(CC/C=C(/CC/C=C(\C)/C)\C)C)c1
14,QUIPRONAB,LPNV00318_Piperaceae,Oc1c(CCCc2cc3OCOc3cc2)ccc(O)c1
15,QUIPRONAB,LPNV00715_N/A,Oc1c(CCC)cccc1
16,QUIPRONAB,LPNV00607_N/A,Oc1c(C)ccc(C(C)C)c1
17,QUIPRONAB,LPNV00714_N/A,Oc1c(C(C)C)ccc(C)c1
18,QUIPRONAB,LPNV00501_Myristicaceae,O[C@]1(C)[C@H]2C(C)(CCC(C(=C)C)C2)CCC1
19,QUIPRONAB,LPNV00272_Lauraceae,O[C@]1(C)C2[C@@H]3C(C)(C)[C@@H]3CCC(=C)C2CC1
20,QUIPRONAB,LPNV00206_Lauraceae,O[C@@]12OCC(C)=C1CC1C(=C)CC=C[C@]1(O)C2
21,QUIPRONAB,LPNV00429_Magnoliaceae,O[C@@]1(C)[C@@H]2[C@H]([C@H](C(C)C)CC1)C=C(C)CC2
22,QUIPRONAB,LPNV00624_N/A,O[C@@]1(C(C)C)CC=C(C)CC1
23,QUIPRONAB,LPNV00186_Lauraceae,O[C@@H]1[C@@H]2[C@H](C(C)CCCC3C(C)(C)C23)CC1
24,QUIPRONAB,LPNV00518_Myristicaceae,O[C@@H]1[C@@H](c2cc(O)c(O)cc2)Oc2c(ccc(O)c2)C1
25,QUIPRONAB,LPNV00533_Lauraceae,O[C@@H]1CC=2[C@@](C)([C@@H]3[C@H]([C@H]4[C@@](C)([C@@H]([C@@H](CC[C@H](C(C)C)CC)C)CC4)CC3)CC=2)CC1
26,QUIPRONAB,LPNV00531_Lauraceae,O[C@@H]1CC=2[C@@](C)([C@@H]3[C@H]([C@H]4[C@@](C)([C@@H]([C@@H](CC[C@H](C(C)C)C)C)CC4)CC3)CC=2)CC1
27,QUIPRONAB,LPNV00532_Lauraceae,O[C@@H]1CC=2[C@@](C)([C@@H]3[C@H]([C@H]4[C@@](C)([C@@H]([C@@H](/C=C/[C@H](C(C)C)CC)C)CC4)CC3)CC=2)CC1
28,QUIPRONAB,LPNV00570_Lauraceae,O[C@@H]1CC=2[C@@](C)([C@@H]3[C@H]([C@H]4[C@@](C)(C([C@@H](CC[C@@H](C(C)C)C)C)CC4)CC3)CC=2)CC1
29,QUIPRONAB,LPNV00466_Myristicaceae,O[C@@H]1CC=2[C@@](C)([C@@H]3[C@H]([C@H]4[C@@](C)(C([C@@H](CCCC(C)C)C)CC4)CC3)CC=2)CC1
30,QUIPRONAB,LPNV00038_Rutaceae,O[C@@H]1C(C)(C)[C@H]2[C@@](C)([C@@H]3[C@](C)([C@@]4(C)[C@@H]([C@H]5[C@H](C(=C)C)CC[C@]5(C)CC4)CC3)CC2)CC1
31,QUIPRONAB,LPNV00677_N/A,O[C@@H](c1c2c(ncc1)cccc2)[C@]1(C)N2CCC(C=C)(C1)CC2
32,QUIPRONAB,LPNV00400_Solanaceae,OCCc1ccc(O)cc1
33,QUIPRONAB,LPNV00541_Lauraceae,OCCCCCCCCCCCCCCCCCCCCCCCCCCCCCC
34,QUIPRONAB,LPNV00353_Leguminosae,OCCCCCCCCCCCCCCCC
35,QUIPRONAB,LPNV00275_Lauraceae,OCCC(CCC=C(C)C)C
36,QUIPRONAB,LPNV00170_Rutaceae,OCC12C(C(C(=C)C)CC1)C1C(C3(C)C(C4(C)C(C(C)(C)C(O)CC4)=CC3)CC1)C(C)C2
37,QUIPRONAB,LPNV00109_Rutaceae,OCC12C(C(C(=C)C)CC1)C1C(C)(C3(C)C(C4(C)C(C(C)(C)[C@H](O)CC4)CC3)CC1)CC2
38,QUIPRONAB,LPNV00088_Rutaceae,OC1[C@@H](Cc2cc3OCOc3cc2)[C@H](Cc2cc3OCOc3cc2)CO1
39,QUIPRONAB,LPNV00409_Cannaceae,OC1CC=2[C@@](C)([C@@H]3C([C@H]4[C@@](C)([C@@H]([C@H](CC[C@H](C(C)C)CC)C)CC4)CC3)CC=2)CC1
40,QUIPRONAB,LPNV00364_Solanaceae,OC1CC=2[C@@](C)(C3C(C4[C@@](C)(C5C(C)C6N(C5C4)CC(C)C4C6OC(C)C4)CC3)CC=2)CC1
41,QUIPRONAB,LPNV00012_Rutaceae,OC1CC=2C(C)(C3C(C4C(C)(C(C(CCC(C(C)C)CC)C)CC4)CC3)CC=2)CC1
42,QUIPRONAB,LPNV00035_Rutaceae,OC1CC=2C(C)(C3C(C4C(C)(C(C(CCC(C(C)C)C)C)CC4)CC3)CC=2)CC1
43,QUIPRONAB,LPNV00011_Rutaceae,OC1CC=2C(C)(C3C(C4C(C)(C(C(/C=C/C(C(C)C)CC)C)CC4)CC3)CC=2)CC1
44,QUIPRONAB,LPNV00205_Lauraceae,OC1C(C)=C2[C@@](C3[C@@]4(C)C=CCC(=C)C4CC4=C(C)C(O)OC34)(O1)C[C@@]1(C)C=CCC(=C)C1C2
45,QUIPRONAB,LPNV00169_Rutaceae,OC1C(C)(C)C=2C(C)(C3C(C)(C4(C)C(C5C(C)(CC4)CCC5C(=C)C)CC3)CC=2)CC1
46,QUIPRONAB,LPNV00535_Lauraceae,OC1C(C(C)C)CCC2(C)C(O)CCC(=C)C12
47,QUIPRONAB,LPNV00473_Myristicaceae,OC1(c2cc3OCOc3cc2)C(C)C(C)Cc2c1c1OCOc1cc2
48,QUIPRONAB,LPNV00498_Myristicaceae,OC1(C)C2C(C(C(C)C)CC1)C=C(C)CC2
49,QUIPRONAB,LPNV00229_Lauraceae,OC/C=C/c1cc2OCOc2cc1
50,QUIPRONAB,LPNV00694_N/A,OC/C=C(\CC/C=C(\C)/C)/C
51,QUIPRONAB,LPNV00277_Lauraceae,OC/C=C(/CCC=C(C)C)\C
52,QUIPRONAB,LPNV00603_N/A,OC/C=C(/CC/C=C(/CC/C=C(\C)/C)\C)\C
53,QUIPRONAB,LPNV00602_N/A,OC/C=C(/CC/C(=C(/C)\C)/C)\C
54,QUIPRONAB,LPNV00208_Lauraceae,OC(CO)CC(O)CCCCCCCCCCCCCCC
55,QUIPRONAB,LPNV00209_Lauraceae,OC(CO)CC(O)CCCCCCCCCCCC=C
56,QUIPRONAB,LPNV00210_Lauraceae,OC(CO)CC(O)CCCCCCCCCCCC#C
57,QUIPRONAB,LPNV00265_Lauraceae,OC(CO)(C)C1CC2C(=C)CCCC2(C)CC1
58,QUIPRONAB,LPNV00623_N/A,OC(C=C)(CC/C=C(\C)/C)C
59,QUIPRONAB,LPNV00064_Rutaceae,OC(C=C)(CC/C=C(/CCC=C(C)C)\C)C
60,QUIPRONAB,LPNV00065_Rutaceae,OC(C=C)(CC/C=C(/CCC1C(C)(C)O1)\C)C
61,QUIPRONAB,LPNV00639_N/A,OC(C=C)(CC/C=C(/CC/C=C(\C)/C)\C)C
62,QUIPRONAB,LPNV00616_N/A,OC(C)(C)C1CC=C(C)CC1
63,QUIPRONAB,LPNV00200_Lauraceae,OC(C(O)c1cc2c(C)c(-c3ccc(O)cc3)oc2cc1)C
64,QUIPRONAB,LPNV00399_lobariaceae,OC(C(O)CO)C(O)CO
65,QUIPRONAB,LPNV00475_Myristicaceae,OC(C(C(Cc1cc2OCOc2cc1)C)C)c1cc2OCOc2cc1
66,QUIPRONAB,LPNV00563_Lauraceae,OC(=C)CCCCCCC/C=C\C/C=C\CCCCC
67,QUIPRONAB,LPNV00306_Piperaceae,O=[N+]([O-])c1cc(/C=C/C(=O)c2ccc(N)cc2)ccc1
68,QUIPRONAB,LPNV00128_Rutaceae,O=Cc1ccc(O)cc1
69,QUIPRONAB,LPNV00712_N/A,O=Cc1cc(OC)c2OCOc2c1
70,QUIPRONAB,LPNV00497_Myristicaceae,O=Cc1cc(OC)c(OC(C(O)c2cc(OC)c(O)cc2)C)cc1
71,QUIPRONAB,LPNV00706_N/A,O=Cc1cc(OC)c(O)cc1
72,QUIPRONAB,LPNV00014_Rutaceae,O=Cc1cc(OC)c(O)c(OC)c1
73,QUIPRONAB,LPNV00508_Myristicaceae,O=Cc1cc(O)c(O)cc1
74,QUIPRONAB,LPNV00126_Rutaceae,O=Cc1c(OC)cc(OC)cc1O
75,QUIPRONAB,LPNV00394_Stereocaulaceae,O=Cc1c(OC)cc(C)c(C)c1
76,QUIPRONAB,LPNV00143_Rutaceae,O=CNc1c(-c2c(O)c(OC)c(O)c(OC)c2)ccc2c1cc1OCOc1c2
77,QUIPRONAB,LPNV00600_Fabaceae,O=CN1CC2C=3N(C(=O)C=CC=3)CC(C1)C2
78,QUIPRONAB,LPNV00433_Magnoliaceae,O=CN1C2c3c(c4OCOc4cc3CC1)-c1c(cc(OC)c(OC)c1)C2
79,QUIPRONAB,LPNV00705_N/A,O=CCCCCCCCCC
80,QUIPRONAB,LPNV00606_N/A,O=CCCCCCCCC
81,QUIPRONAB,LPNV00610_N/A,O=CCC(CC/C=C(\C)/C)C
82,QUIPRONAB,LPNV00045_Rutaceae,O=C1c2c3c(oc2N(C)c2c1cccc2)cccc3
83,QUIPRONAB,LPNV00440_Anonnaceae,O=C1c2c(OC(c3cc4OCOc4cc3)=C1)cc(O)cc2
84,QUIPRONAB,LPNV00177_Rutaceae,O=C1c2c(O)cccc2OC(C)C1
85,QUIPRONAB,LPNV00337_Piperaceae,O=C1c2c(O)cc(O)cc2O[C@H](c2ccccc2)C1
86,QUIPRONAB,LPNV00155_Rutaceae,O=C1c2c(O)cc(O)cc2O[C@H](c2ccc(O)cc2)C1
87,QUIPRONAB,LPNV00156_Rutaceae,O=C1c2c(O)cc(O)cc2O[C@@H](c2ccc(O)cc2)C1
88,QUIPRONAB,LPNV00672_Piperaceae,O=C1c2c(O)cc(O)cc2OC(c2ccccc2)C1
89,QUIPRONAB,LPNV00294_Piperaceae,O=C1c2c(O)cc(O)cc2OC(c2ccccc2)=C1
90,QUIPRONAB,LPNV00340_Piperaceae,O=C1c2c(O)cc(O)cc2OC(c2ccc(O)cc2)C1
91,QUIPRONAB,LPNV00547_Lauraceae,O=C1c2c(O)cc(O)cc2OC(c2cc(O)c(O)cc2)=C1
92,QUIPRONAB,LPNV00666_Clusiaceae,O=C1c2c(O)c(C/C=C(\C)/C)c(O)cc2Oc2c(C/C=C(\C)/C)cccc12
93,QUIPRONAB,LPNV00668_Clusiaceae,O=C1c2c(O)c(C/C=C(\C)/C)c(O)c(C/C=C(\C)/C)c2Oc2c1c(O)c(C/C=C(\C)/C)cc2
94,QUIPRONAB,LPNV00716_N/A,O=C1[C@]2(C)C(C)(C)[C@H](C1)CC2
95,QUIPRONAB,LPNV00480_Myristicaceae,O=C1[C@H](Cc2cc3OCOc3cc2)[C@@H](Cc2cc3OCOc3cc2)CO1
96,QUIPRONAB,LPNV00089_Rutaceae,O=C1[C@H](Cc2cc3OCOc3cc2)C(Cc2cc3OCOc3cc2)CO1
97,QUIPRONAB,LPNV00255_Lauraceae,O=C1[C@@H](O)[C@@H]2[C@H]([C@H](C)[C@@](CC=C)(C2O)C1)c1cc2OCOc2cc1
98,QUIPRONAB,LPNV00120_Rutaceae,O=C1[C@@H](Cc2cc3OCOc3cc2)[C@H](Cc2cc3OCOc3cc2)CO1
99,QUIPRONAB,LPNV00322_Piperaceae,O=C1Oc2c3c(occ3)cc(C)c2C=C1
