,BD,ID,SMILES
400,QUIPRONAB,LPNV00664_Piperaceae,O(C)c1c2OCOc2cc(CC=C)c1
401,QUIPRONAB,LPNV00259_Lauraceae,O(C)c1c2OCOc2cc(C2[C@@H](C)[C@@]3(OC)C(O2)=CC(=O)C(CC=C)=C3)c1
402,QUIPRONAB,LPNV00185_Lauraceae,O(C)c1c2OCOc2cc(C2C3(CC=C)C(O)CC4(OCOC4)C(C2C)C3)c1
403,QUIPRONAB,LPNV00220_Lauraceae,O(C)c1c2OCOc2cc(C2C3(CC=C)C(=O)CC4OCOC4(C2C)C3)c1
404,QUIPRONAB,LPNV00222_Lauraceae,O(C)c1c2OCOc2cc(C2C3(CC=C)C(=O)C=C4OCOC4(C2C)C3)c1
405,QUIPRONAB,LPNV00441_Myristicaceae,O(C)c1c2OCOc2c2[C@](O)([C@H](C)[C@H](C)Cc2c1)c1cc2OCOc2cc1
406,QUIPRONAB,LPNV00443_Myristicaceae,O(C)c1c2OCOc2c2C(c3cc4OCOc4cc3)=C(C)[C@H](C)Cc2c1
407,QUIPRONAB,LPNV00244_Lauraceae,O(C)c1c2OCOc2c-2c3[C@@H](N(C)CCc13)Cc1c-2cc(OC)c(OC)c1
408,QUIPRONAB,LPNV00690_N/A,O(C)c1c2OC(c3c4OCOc4ccc3)C(CO)Cc2cc(CC=C)c1
409,QUIPRONAB,LPNV00451_Myristicaceae,O(C)c1c2OC([C@@H](CO)c2cc(CC=C)c1)c1cc2OCOc2cc1
410,QUIPRONAB,LPNV00042_Rutaceae,O(C)c1c2N(C)C(=O)C3=C(OC(C)(C)C=C3)c2ccc1
411,QUIPRONAB,LPNV00116_Rutaceae,O(C)c1c(OC)ccc2c1cnc1c3c(cc4OCOc4c3)ccc21
412,QUIPRONAB,LPNV00707_N/A,O(C)c1c(OC)ccc2c1c[n+]1c(-c3c(cc4OCOc4c3)CC1)c2
413,QUIPRONAB,LPNV00133_Rutaceae,O(C)c1c(OC)ccc2c1[CH-][NH+]1C(c3c(cc4OCOc4c3)CC1)=C2
414,QUIPRONAB,LPNV00137_Rutaceae,O(C)c1c(OC)ccc2c1[CH-][NH+]1C(c3c(cc(O)c(OC)c3)CC1)=C2
415,QUIPRONAB,LPNV00115_Rutaceae,O(C)c1c(OC)ccc2c1C[N+]1(C)CCc3c(cc(OC)c(OC)c3)[C-]1C2
416,QUIPRONAB,LPNV00114_Rutaceae,O(C)c1c(OC)ccc2c1C[N+]1(C)CCc3c(cc(O)c(OC)c3)[C-]1C2
417,QUIPRONAB,LPNV00013_Rutaceae,O(C)c1c(OC)ccc2c(OC)c3c(occ3)nc12
418,QUIPRONAB,LPNV00083_Rutaceae,O(C)c1c(OC)ccc([C@H]2[C@H](CO)[C@H](Cc3cc4OCOc4cc3)CO2)c1
419,QUIPRONAB,LPNV00085_Rutaceae,O(C)c1c(OC)ccc([C@H]2OCC3[C@@H](c4cc5OCOc5cc4)OCC23)c1
420,QUIPRONAB,LPNV00685_N/A,O(C)c1c(OC)ccc([C@H]2OCC3[C@@H](c4cc(OC)c(OC)cc4)OCC23)c1
421,QUIPRONAB,LPNV00449_Myristicaceae,O(C)c1c(OC)ccc([C@@H]2[C@@H](CO)c3c(c(OC)cc(CC=C)c3)O2)c1
422,QUIPRONAB,LPNV00086_Rutaceae,O(C)c1c(OC)ccc([C@@H]2OCC3[C@H](c4cc(OC)c(OC)cc4)OCC23)c1
423,QUIPRONAB,LPNV00087_Rutaceae,O(C)c1c(OC)ccc([C@@H]2OCC3[C@@H](c4cc5OCOc5cc4)OCC23)c1
424,QUIPRONAB,LPNV00161_Rutaceae,O(C)c1c(OC)ccc(C[C@@H]2[C@H](Cc3cc4OCOc4cc3)C(=O)OC2)c1
425,QUIPRONAB,LPNV00656_Piperaceae,O(C)c1c(OC)ccc(CCC)c1
426,QUIPRONAB,LPNV00227_Lauraceae,O(C)c1c(OC)ccc(CC=C)c1
427,QUIPRONAB,LPNV00163_Rutaceae,O(C)c1c(OC)ccc(CC2C(=O)OCC2Cc2cc(OC)c(OC)cc2)c1
428,QUIPRONAB,LPNV00412_Euphorbiaceae,O(C)c1c(OC)ccc(C2=C(OC)C(=O)c3c(O)cc(OC)cc3O2)c1
429,QUIPRONAB,LPNV00230_Lauraceae,O(C)c1c(OC)ccc(/C=C/CO)c1
430,QUIPRONAB,LPNV00636_N/A,O(C)c1c(OC)ccc(/C=C/C)c1
431,QUIPRONAB,LPNV00118_Rutaceae,O(C)c1c(OC)cc2c(c3c(nc2)c2c(cc4OCOc4c2)cc3)c1
432,QUIPRONAB,LPNV00063_Rutaceae,O(C)c1c(OC)cc2c(OC(=O)C=C2)c1
433,QUIPRONAB,LPNV00175_Rutaceae,O(C)c1c(OC)cc2c(OC(=O)C(C(C=C)(C)C)=C2)c1
434,QUIPRONAB,LPNV00243_Lauraceae,O(C)c1c(OC)cc2c(-c3c4OCOc4cc4c3[C@@H](N(C)CC4)C2)c1
435,QUIPRONAB,LPNV00435_Magnoliaceae,O(C)c1c(OC)cc2c(-c3c4OCOc4cc4c3C(NCC4)C2)c1
436,QUIPRONAB,LPNV00434_Magnoliaceae,O(C)c1c(OC)cc2c(-c3c4OCOc4cc4c3C(N(C)CC4)C2)c1
437,QUIPRONAB,LPNV00151_Rutaceae,O(C)c1c(OC)cc2N=C3OC=CC3C(OC)c2c1
438,QUIPRONAB,LPNV00436_Magnoliaceae,O(C)c1c(OC)cc2-c3c4c(cc5OCOc35)ccnc4C(=O)c2c1
439,QUIPRONAB,LPNV00223_Lauraceae,O(C)c1c(OC)cc([C@H]2OCC3C(c4cc(OC)c(OC)c(OC)c4)OCC23)cc1OC
440,QUIPRONAB,LPNV00678_N/A,O(C)c1c(OC)cc([C@@H]2c3c([C@H](O)[C@@H]4C2C(=O)OC4)cc2OCOc2c3)cc1OC
441,QUIPRONAB,LPNV00257_Lauraceae,O(C)c1c(OC)cc([C@@H]2[C@@H](C)[C@@]3(OC)C(=C(O)C(=O)[C@H](CC=C)C3)O2)cc1OC
442,QUIPRONAB,LPNV00225_Lauraceae,O(C)c1c(OC)cc([C@@H]2OCC3C(c4cc(OC)c5OCOc5c4)OCC23)cc1OC
443,QUIPRONAB,LPNV00224_Lauraceae,O(C)c1c(OC)cc([C@@H]2OCC3C(c4cc(OC)c(OC)c(OC)c4)OCC23)cc1OC
444,QUIPRONAB,LPNV00591_Lauraceae,O(C)c1c(OC)cc(O[C@@H]2C(O)C(O)[C@H](O)C(CO)O2)cc1OC
445,QUIPRONAB,LPNV00218_Lauraceae,O(C)c1c(OC)cc(OC2C(O)C(O)C(O)C(COC3C(O)C(O)C(O)C(C)O3)O2)cc1OC
446,QUIPRONAB,LPNV00551_Lauraceae,O(C)c1c(OC)cc(CCN(C)C)c2c1c1c(cc3OCOc3c1)cc2
447,QUIPRONAB,LPNV00713_N/A,O(C)c1c(OC)cc(/C=C/C)c(OC)c1
448,QUIPRONAB,LPNV00437_Anonnaceae,O(C)c1c(OC)c2c3c(c1OC)C(=O)Nc3cc1c2cc(O)cc1
449,QUIPRONAB,LPNV00283_Lauraceae,O(C)c1c(OC)c2c3c(c1O)-c1c(cc4OCOc4c1)CC3NCC2
450,QUIPRONAB,LPNV00556_Lauraceae,O(C)c1c(OC)c2c3c(c1O)-c1c(cc(O)c(OC)c1)CC3NCC2
451,QUIPRONAB,LPNV00537_Lauraceae,O(C)c1c(OC)c2c3c(C(=O)c4c(-c3c1OC)cccc4)ncc2
452,QUIPRONAB,LPNV00278_Lauraceae,O(C)c1c(OC)c2c3[C@@H](NCC2)Cc2c(-c3c1O)cc1OCOc1c2
453,QUIPRONAB,LPNV00280_Lauraceae,O(C)c1c(OC)c2c3[C@@H](/[N+](=C/O)/CC2)Cc2c(-c3c1O)cc1OCOc1c2
454,QUIPRONAB,LPNV00661_Piperaceae,O(C)c1c(OC)c2OCOc2cc1CCC
455,QUIPRONAB,LPNV00665_Piperaceae,O(C)c1c(OC)c2OCOc2cc1CC=C
456,QUIPRONAB,LPNV00553_Lauraceae,O(C)c1c(OC)c2-c3c(cccc3)CC3NCCc(c1O)c23
457,QUIPRONAB,LPNV00215_Lauraceae,O(C)c1c(OC)c(OC)c(/C=C/Cc2ccccc2)c(O)c1OC
458,QUIPRONAB,LPNV00021_Rutaceae,O(C)c1c(OC)c(O)c2C(=O)C=C(c3ccc(OC)cc3)Oc2c1OC
459,QUIPRONAB,LPNV00117_Rutaceae,O(C)c1c(O)ccc2c1cnc1c3c(cc4OCOc4c3)ccc21
460,QUIPRONAB,LPNV00519_Myristicaceae,O(C)c1c(O)ccc([C@@H]2[C@@H](O)Cc3c(O2)cc(O)cc3)c1
461,QUIPRONAB,LPNV00253_Lauraceae,O(C)c1c(O)ccc([C@@H]2[C@@H](C)[C@]3(CC=C)C(=O)[C@H]2C(=O)C(OC)=C3)c1
462,QUIPRONAB,LPNV00484_Myristicaceae,O(C)c1c(O)ccc([C@@H]2[C@@H](C)[C@H](C)[C@H](c3cc(OC)c(O)cc3)O2)c1
463,QUIPRONAB,LPNV00444_Myristicaceae,O(C)c1c(O)ccc(C[C@H]([C@@H](Cc2cc(OC)c(O)cc2)C)C)c1
464,QUIPRONAB,LPNV00423_Magnoliaceae,O(C)c1c(O)ccc(C[C@@H]([C@H](Cc2cc3OCOc3cc2)C)C)c1
465,QUIPRONAB,LPNV00425_Magnoliaceae,O(C)c1c(O)ccc(C[C@@H]([C@H](Cc2cc(OC)c(O)cc2)C)C)c1
466,QUIPRONAB,LPNV00424_Magnoliaceae,O(C)c1c(O)ccc(C[C@@H]([C@@H](Cc2cc3OCOc3cc2)C)C)c1
467,QUIPRONAB,LPNV00426_Magnoliaceae,O(C)c1c(O)ccc(C[C@@H]([C@@H](Cc2cc(OC)c(O)cc2)C)C)c1
468,QUIPRONAB,LPNV00457_Myristicaceae,O(C)c1c(O)ccc(CCCc2c(OC)cc(O)cc2)c1
469,QUIPRONAB,LPNV00447_Myristicaceae,O(C)c1c(O)ccc(CCCc2c(O)cc(OC)cc2)c1
470,QUIPRONAB,LPNV00659_Piperaceae,O(C)c1c(O)ccc(CCC)c1
471,QUIPRONAB,LPNV00635_N/A,O(C)c1c(O)ccc(CC=C)c1
472,QUIPRONAB,LPNV00033_Rutaceae,O(C)c1c(O)ccc(CC(C(Cc2cc(OC)c(O)cc2)C)C)c1
473,QUIPRONAB,LPNV00450_Myristicaceae,O(C)c1c(O)ccc(C2[C@@H](CO)c3c(c(OC)cc(CC=C)c3)O2)c1
474,QUIPRONAB,LPNV00445_Myristicaceae,O(C)c1c(O)ccc(C2Oc3c(ccc(OC)c3)CC2)c1
475,QUIPRONAB,LPNV00523_Myristicaceae,O(C)c1c(O)ccc(C2CC(=O)c3c(cc(OC)cc3)C2)c1
476,QUIPRONAB,LPNV00593_Lauraceae,O(C)c1c(O)ccc(C2C(O)Cc3c(OC)cc(OC)cc3O2)c1
477,QUIPRONAB,LPNV00420_Euphorbiaceae,O(C)c1c(O)ccc(C2=C(OC)C(=O)c3c(O)cc(OC)cc3O2)c1
478,QUIPRONAB,LPNV00228_Lauraceae,O(C)c1c(O)ccc(/C=C/CO)c1
479,QUIPRONAB,LPNV00632_N/A,O(C)c1c(O)ccc(/C=C/C)c1
480,QUIPRONAB,LPNV00201_Lauraceae,O(C)c1c(O)ccc(-c2c(C)c3c(o2)ccc(C(O)C(O)C)c3)c1
481,QUIPRONAB,LPNV00198_Lauraceae,O(C)c1c(O)ccc(-c2c(C)c3c(o2)ccc(/C=C/C)c3)c1
482,QUIPRONAB,LPNV00006_Rutaceae,O(C)c1c(O)cc2n(C)c3c(c2c1)cccc3
483,QUIPRONAB,LPNV00558_Lauraceae,O(C)c1c(O)cc2c3c1-c1c(cc(O)c(OC)c1)CC3N(C)CC2
484,QUIPRONAB,LPNV00147_Rutaceae,O(C)c1c(O)cc2c(c3c(nc2)c2c(cc4OCOc4c2)cc3)c1
485,QUIPRONAB,LPNV00194_Lauraceae,O(C)c1c(O)cc2c(c1)C1=C3OCOC3CC3=C1C(NCC3)C2
486,QUIPRONAB,LPNV00195_Lauraceae,O(C)c1c(O)cc2c(c1)C1=C3OCOC3C(OC)C3=C1C(NCC3)C2
487,QUIPRONAB,LPNV00560_Lauraceae,O(C)c1c(O)cc2c(c1)C13C(=CC(=O)C(OC)=C1)C(N(C)CC3)C2
488,QUIPRONAB,LPNV00682_N/A,O(C)c1c(O)cc2c(c(C)c(C)cc2c1)-c1cc2OCOc2cc1
489,QUIPRONAB,LPNV00134_Rutaceae,O(C)c1c(O)cc2c([C@@H](Cc3cc(O)c(OC)cc3)[N+](C)([CH2-])CC2)c1
490,QUIPRONAB,LPNV00402_Solanaceae,O(C)c1c(O)cc2c(OC(=O)C=C2)c1
491,QUIPRONAB,LPNV00023_Rutaceae,O(C)c1c(O)cc2OC(=O)C=Cc2c1
492,QUIPRONAB,LPNV00476_Myristicaceae,O(C)c1c(O)cc2C(c3cc4OCOc4cc3)C(C)C(C)C(O)c2c1
493,QUIPRONAB,LPNV00559_Lauraceae,O(C)c1c(O)cc2C(Cc3cc(O)c(OC)cc3)N(C)CCc2c1
494,QUIPRONAB,LPNV00350_Piperaceae,O(C)c1c(O)cc2C(=O)Nc3c2c1c1c(c3)cccc1
495,QUIPRONAB,LPNV00119_Rutaceae,O(C)c1c(O)cc2C(=O)NCCc2c1
496,QUIPRONAB,LPNV00569_Lauraceae,O(C)c1c(O)cc(CCN(CC=C(C)C)C)c2c1c1c(cc(O)c(OC)c1)cc2
497,QUIPRONAB,LPNV00566_Lauraceae,O(C)c1c(O)cc(CCN(CC#C)C)c2c1c1c(cc(O)c(OC)c1)cc2
498,QUIPRONAB,LPNV00567_Lauraceae,O(C)c1c(O)cc(CCN(C/C=C/c2ccccc2)C)c2c1c1c(cc(O)c(OC)c1)cc2
499,QUIPRONAB,LPNV00552_Lauraceae,O(C)c1c(O)cc(CCN(C)C)c2c1c1c(cc3OCOc3c1)cc2
