,SMILES
0,O=C(OC[C@@]1(O)[C@@H](OC(=O)CC(C)C)C=C2C(COC(=O)C)=CO[C@@H](OC(=O)CC(C)C)C12)CC(C)C
1,O=C(OC[C@@]1(O)[C@@H](O)C=C2C(COC(=O)C)=CO[C@@H](OC(=O)CC(C)C)C12)CC(C)C
2,O=C(OCCCCCCCCCCCCCC)/C=C/c1cc(OC)c(O)cc1
3,O=C(OCCCC)CCCCC
4,O=C(OCCCC)CCCC
5,O=C(OCCCC)CCC
6,O=C(OCC1=CO[C@@H](OC(=O)CC(C)C)C2[C@@](O)(COC(=O)C)[C@H](O)CC12)CC(C)C
7,O=C(OCC1=CO[C@@H](OC(=O)CC(C)C)C2[C@@](O)(COC(=O)C)[C@@H](O)CC12)CC(C)C
8,O=C(OCC1=CO[C@@H](O)C2[C@@](O)(CO)[C@@H](OC(=O)C)CC12)CC(C)C
9,O=C(OCC)c1cc(C/C=C(\C)/C)c(OC)c(C/C=C(\C)/C)c1
10,O=C(OCC)N1[C@@H]2c3c(c(O)c(OC)c(OC)c3CC1)-c1c(cc3OCOc3c1)C2
11,O=C(OCC)Cc1ccc(O)cc1
12,O=C(OCC)CCc1ccc(O)cc1
13,O=C(OCC)CCCCCCCCCCCCCCC
14,O=C(OCC)CCCCCCC/C=C/CCCCCCCC
15,O=C(OCC)CCCCCCC/C=C/C/C=C/CCCCC
16,O=C(OCC)CCC1C(C)C=2N=C1C=1C(C(=O)OC)C(=O)c3c(C)[cH0]([nH][cH0]=13)=CC=1C(CC)=C(C)C(N=1)=Cc1c(C=C)c(C)c([nH]1)C=2
17,O=C(OCC)/C=C/c1cc(O)c(O)cc1
18,O=C(OCC(O)CO)CCCCCCCCCCCCCCC
19,O=C(OC1[C@@]2(C)C34OC3C(=O)O[C@@H](c3cocc3)C4C[C@@H](O)C2C2([C@H](O)OC(=O)CC2O)C(C(O)(C)C)C1)C
20,O=C(OC1OC(=O)C2=COC(OC3C(O)C(O)C(O)C(CO)O3)C(C=C)C2C1)C(CC)C
21,O=C(OC1OC(=O)C2=COC(OC3C(O)C(O)C(O)C(CO)O3)C(C=C)C2C1)C(C)C
22,O=C(OC1C[C@@H]2N(C)[C@H](C1)CC2)C(CO)c1ccccc1
23,O=C(OC1C2=C(C)C(O)OC2(O)C[C@]2(C)C1C(=C)C1C2C1)C
24,O=C(OC1C(O)C(OC(=O)/C=C/c2ccc(O)cc2)C(C)OC1OC1=C(c2ccc(O)cc2)Oc2c(c(O)cc(O)c2)C1=O)/C=C/c1ccc(O)cc1
25,O=C(OC1C(O)C(O)C(CO)OC1OC1=C(c2ccc(O)cc2)Oc2c(c(O)cc(O)c2)C1=O)/C=C/c1ccc(O)cc1
26,O=C(OC1=C(c2ccccc2)Oc2c(c(O)cc(O)c2)C1=O)C
27,O=C(OC/C=C/c1cc2OCOc2cc1)C
28,O=C(OC/C=C(/CC/C=C(\C)/C)\C)C
29,O=C(OC)c1ccc(O)cc1
30,O=C(OC)c1cc(C/C=C(\C)/C)c(OC)c(C/C=C(\C)/C)c1
31,O=C(OC)c1c(O)cc(O)cc1C
32,O=C(OC)c1c(O)c(C)c(OC(=O)c2c(O)c(C=O)c(O)cc2C)cc1C
33,O=C(OC)c1c(O)c(C)c(O)cc1C
34,O=C(OC)c1c(O)c(C(=O)C)c(O)cc1C
35,O=C(OC)c1c(O)c(C(=O)C)c(O)c(C)c1C
36,O=C(OC)[NH+]1[C@@H]2c3c(c(O)c(OC)c(OC)c3CC1)-c1c(cc3OCOc3c1)C2
37,O=C(OC)N1C2c3c(c4OCOc4cc3CC1)-c1c(cc(O)c(OC)c1)C2
38,O=C(OC)N1C2C=3C(c4c(cc(O)c(OC)c4)C2)=C2OCOC2C(OC)C=3CC1
39,O=C(OC)CCc1c(OC)cc2occc2c1
40,O=C(OC)CCc1c(OC)c2c(OC(C)(C)C=C2)cc1OC
41,O=C(OC)CCc1c(OC)c2c(OC(C)(C)C=C2)cc1
42,O=C(OC)CCc1c(OC)c2OC(C)(C)C=Cc2c(OC)c1
43,O=C(OC)CCCCCCCCCCCCCCC
44,O=C(OC)CC1C(C)(C)C(=O)C=C2C1(C)C1C(C)(O2)C=2C(C)(C(c3cocc3)OC(=O)C=2)CC1
45,O=C(OC)CC1C(C)(C)C(=O)C2OC32C1(C)C=1C(C)(O3)C=2C(C)(C(c3cocc3)OC(=O)C=2)CC=1
46,O=C(OC)C(=C)C1CC2C(=C)CCCC2(C)CC1
47,O=C(OC)/C=C\c1c(C(=O)CC)nc2occc2c1
48,O=C(OC)/C=C(\C=C\C1(O)C2(C)OCC1(C)CC(O)C2)/C
49,O=C(OC)/C(/C(O)C(=O)C)=C\CCCCCCCCCCCCC
50,O=C(OC(C=C)(CC/C=C(\C)/C)C)C
51,O=C(O)c1cc(OC)c(O)cc1
52,O=C(O)c1cc(O)c(O)cc1
53,O=C(O)c1cc(CCC(C)C)c(OC)c(CCC(C)C)c1
54,O=C(O)c1cc(C/C=C(\C)/C)c(OC)c(C/C=C(\C)/C)c1
55,O=C(O)c1cc(C/C=C(\C)/C)c(O)c(C/C=C(\C)/C)c1
56,O=C(O)c1cc(C/C=C(/CCC=C(C)C)\C)c2OC(C)(C)C=Cc2c1
57,O=C(O)c1cc(C/C=C(/CC/C=C(\C)/C)\C)c(OC)cc1
58,O=C(O)c1cc(C(=O)/C=C(\C)/C)c(O)c(C/C=C(\C)/C)c1
59,O=C(O)c1cc(C(=O)/C=C(/CCC=C(C)C)\C)c(O)c(CC=C(C)C)c1
60,O=C(O)c1c(C)cc(O)c2c1oc1c2c2c(c(O)c1)C(=O)OC2
61,O=C(O)[C@@]12[C@@H]([C@@](O)(C)C(C)CC1)C=1C(C)([C@@]3(C)C([C@]4(C)C(C(C)(C)[C@@H](O)C(O)C4)CC3)CC=1)CC2
62,O=C(O)[C@@H]1N(Cc2c(O)c(C(=O)C)c(OC)cc2OC)CCC1
63,O=C(O)Cc1ccccc1
64,O=C(O)Cc1ccc(O)cc1
65,O=C(O)C[C@H]1N(C)c2c3c(cc4OCOc4c3)ccc2-c2c1c(OC)c(OC)cc2
66,O=C(O)CCc1ccc(O)cc1
67,O=C(O)CCc1c(OC)c2c(OC(C)(C)C=C2)cc1OC
68,O=C(O)CCc1c(OC)c2c(OC(C)(C)C=C2)cc1
69,O=C(O)CCc1c(OC)c2OC(C)(C)C=Cc2c(OC)c1
70,O=C(O)CCCCCCCCCCCCCCCCCCCCCCCCC
71,O=C(O)CCCCCCCCCCCCCCCC
72,O=C(O)CCCCCCCCCCCCCCC
73,O=C(O)CCCCCCCCCCCCCC
74,O=C(O)CCCCCCCCCCCCC
75,O=C(O)CCC/C=C\CCCCCCCCCCOC(=O)C
76,O=C(O)C1N(C)CC(O)C1
77,O=C(O)C1C2C(C(C)C)CCC(O)(C)[C@@H]2CC1
78,O=C(O)C1=C[C@@H](O)[C@@H](O)[C@H](O)C1
79,O=C(O)C12C(C(C(=C)C)CC1)C1C(C)(C3(C)C(C4(C)C(C(C)(C)C(O)CC4)=CC3)CC1)CC2
80,O=C(O)C(C)C1CC2C(=C)CCCC2(C)CC1
81,O=C(O)C(=C)C1C[C@H]2C(=C)CCCC2(C)CC1
82,O=C(O)/C=C/c1ccccc1
83,O=C(O)/C=C/c1ccc(O)cc1
84,O=C(O)/C=C/c1cc(O)c(OC2[C@H](O)CC(O)(C(=O)O)C[C@@H]2O)cc1
85,O=C(NCCc1ccccc1)/C=C/c1cc2OCOc2cc1
86,O=C(NCCc1ccc(OCC=C(C)C)cc1)/C(=C/C)/C
87,O=C(NCCc1ccc(OCC(O)C(O)(C)C)cc1)/C(=C/C)/C
88,O=C(NCCc1ccc(O)cc1)CCCCCCCC=CCCCCCCCC
89,O=C(NCCc1ccc(O)cc1)/C=C/c1ccc(O)cc1
90,O=C(NCCc1ccc(O)cc1)/C(=C/C)/C
91,O=C(NCC(C)C)/C=C/C=C/CCCCC
92,O=C(NCC(C)C)/C=C/C=C/CCC
93,O=C(N)c1ccccc1
94,O=C(N)CCOc1c2OC=CC(=O)c2ccc1
95,O=C(N)CC(C)C
96,O=C(C[C@H]1N(C)c2c3c(cc4OCOc4c3)ccc2-c2c1c(OC)c(OC)cc2)C
97,O=C(C[C@@H](O)COC(=O)C)CCCCC/C=C\C/C=C\CCCCC
98,O=C(CCc1ccccc1)c1c(OC)cc(OC)cc1OC
99,O=C(CCc1ccccc1)c1c(OC)cc(O)cc1OC
