,SMILES
0,O=C1Oc2c(cccc2)C=C1
1,O=C1Oc2c(ccc3O[C@H](C(O)(C)C)Cc23)C=C1
2,O=C1Oc2c(ccc3OC(C(O)(C)C)Cc23)C=C1
3,O=C1Oc2c(ccc(O)c2)C=C1
4,O=C1Oc2c(cc3c(occ3)c2)C=C1
5,O=C1Oc2c(cc3c(O[C@H](C(O)(C)C)C3)c2)C=C1
6,O=C1Oc2c(cc3c(OC(C)(C)C=C3)c2)C=C1
7,O=C1Oc2c(cc3c(OC(C(=C)C)C3)c2)C=C1
8,O=C1Oc2c(cc(O)c(O)c2)C=C1
9,O=C1Oc2c(c(O)cc3OC(c4cc(O)c(O)cc4)C(O)Cc23)C(c2cc(O)c(O)cc2)C1
10,O=C1Oc2c(c(O)c3c(OC(C(=C)C)C3)c2)C=C1
11,O=C1Oc2c([C@H](c3cc(O)c(O)cc3)C1)c(O)cc1OC(c3cc(O)c(O)cc3)C(O)Cc21
12,O=C1Oc2c([C@@H](c3cc(O)c(O)cc3)C1)c(O)cc1OC(c3cc(O)c(O)cc3)C(O)Cc21
13,O=C1Oc2c(CC=C(C)C)c(O)ccc2C=C1
14,O=C1Oc2c(C/C=C(\CO)/C)c(O)ccc2C=C1
15,O=C1OCCC2C(C=C)C(OC3C(O)C(O)C(O)C(CO)O3)OC=C12
16,O=C1OC2(C)C(C(C)(C)CC(O)C2)=C1
17,O=C1OC(c2cocc2)C2(C)C3(C4(C)C(=O)CC(C(O)(C)C)C5(C(O)CC(=O)OC5)C4CC2)OC13
18,O=C1OC(OC)CC2C(C=C)C(OC3C(O)C(O)C(O)C(CO)O3)OC=C12
19,O=C1Nc2c(cccc2)C=2OC(C)(C)C=CC1=2
20,O=C1N2C([C@H]3CN4C([C@H]1C3)CCCC4)CCCC2
21,O=C1N2C(C=CC1)C1C3N(CCC1)CCCC3C2
22,O=C1N2C(=Nc3c1cccc3)c1[nH]c3c(c1CC2)cccc3
23,O=C1N2C(=CC=C1)C1CNCC(C2)C1
24,O=C1N2C(=CC=C1)C1CN3C(C(C2)C1)CCCC3
25,O=C1N2C(=CC=C1)C1CN(C)CC(C2)C1
26,O=C1N(C)c2c(cccc2)C=2OC(C)(C)C=CC1=2
27,O=C1C=CC(O)(CC/C=C\CCCCCC)C=C1
28,O=C1C=2C(C)(C3C(C4C(C)(C(C(CCC(C(C)C)CC)C)CC4)CC3)C1)CCC(=O)C=2
29,O=C1C=2C(C)(C3C(C4C(C)(C(C(/C=C/C(C(C)C)CC)C)CC4)CC3)C1)CCC(=O)C=2
30,O=C1C(OC2[C@H](O)C(O)C(O)[C@H](C)O2)C(c2ccc(O)cc2)Oc2c1c(O)cc(O)c2
31,O=C1C(OC2C(O)C(O)C(O)C(CO)O2)=C(c2ccc(O)cc2)Oc2c1c(O)cc(O)c2
32,O=C1C(OC2C(O)C(O)C(O)C(CO)O2)=C(c2cc(O)c(O)cc2)Oc2c1c(O)cc(O)c2
33,O=C1C(OC2C(O)C(O)C(O)C(C)O2)=C(c2ccc(O)cc2)Oc2c1c(O)cc(O)c2
34,O=C1C(OC2C(O)C(O)C(O)C(C)O2)=C(c2cc(O)c(O)cc2)Oc2c1c(O)cc(O)c2
35,O=C1C(O)=C(c2ccccc2)Oc2c1c(O)cc(O)c2
36,O=C1C(O)=C(c2cc(O)c(O)cc2)Oc2c1c(O)cc(O)c2
37,O=C1C(O)(C)C(O)CO1
38,O=C1C(Cc2cc3OCOc3cc2)=C(Cc2cc3OCOc3cc2)CO1
39,O=C1C(CCCCCCCCCCCCCCCC/C=C/CCCCCC)C(O)C(C)O1
40,O=C1C(CCCC)=CC(C)O1
41,O=C1C(C)[C@@H]2[C@](C(C)C)(C1)C2
42,O=C1C(C)=C2C(O)C3C(=C)CCCC3(C)C=C2O1
43,O=C1C(C)=C2C(O)(O1)CC1(C)C(C(=C)CCC1)C2C
44,O=C1C(C)=C2C(C)(O1)CC1(C)C(C(=C)CCC1)C2
45,O=C1C(C)(C)C=2C(C)(C3C(C)(C4C(C)CC5C(C(C(=C)C)CC5)C4CC3)CC=2)CC1
46,O=C1C(C)(C)C2CC1(C)CC2
47,O=C1C(C(O)CCCCCCCCC)=C(C)C(O)(C)O1
48,O=C1C(C(C=C)(C)C)=Cc2c(O1)cc1OC(C(=C)C)Cc1c2
49,O=C1C(C(=C)C)C=CC(C)=C1
50,O=C1C(=C)[C@@H]2[C@@H](O1)[C@@H]1[C@](C)(O1)CC/C=C(/C)\CC2
51,O=C1C(/C=C/CCCCCCCCCCCC)=CC(C)O1
52,O=C1C(/C=C/CCCCCCCCC#C)=CC(C)O1
53,O=C1C(/C=C/CCCCCCCC/C=C/C=C)=CC(C)O1
54,O=C1/C(=C\c2cc3OCOc3cc2)/C(Cc2cc3OCOc3cc2)CO1
55,O=C1/C(=C\CCCCCCCCCCCCC)/[C@H](O)CO1
56,O=C1/C(=C\CCCCCCCCCCC)/[C@@H](O)C(=C)O1
57,O=C1/C(=C\CCCCCCCCCC)/[C@@H](O)[C@@H](C)O1
58,O=C1/C(=C\CCCCCCCCC)/C(O)C(C)O1
59,O=C1/C(=C/CCCCCCCCCCCCC)/[C@H](O)CO1
60,O=C1/C(=C/CCCCCCCCCC)/[C@H](O)[C@H](C)O1
61,O=C1/C(=C/CCCCCCCCCC#C)/[C@H](O)CO1
62,O=C1/C(=C/CCCCCCCCC/C=C/C=C)/[C@H](O)CO1
63,O=C1/C(=C(/C)\C)/CC[C@@H](C)C1
64,O=C/C=C/c1ccc(OC)cc1
65,O=C/C=C/c1cc2c(C)c(-c3cc4OCOc4cc3)oc2cc1
66,O=C/C=C/c1cc2OCOc2cc1
67,O=C/C=C/c1cc(OC)c2OCOc2c1
68,O=C/C=C/c1cc(OC)c(OC)cc1
69,O=C/C=C/c1c(OC)c(OC)c2OCOc2c1
70,O=C/C=C/CCCCCCCCC/C=C/1\[C@H](O)COC\1=O
71,O=C/C=C(/CC/C=C(\C)/C)\C
72,O=C(c1ccccc1)C1C(=O)OCCC1
73,O=C(Oc1ccc(C2Oc3c(c(O)cc(O)c3)C(=O)C2)cc1)C
74,O=C(Oc1cc(OC)c(C(=O)CCc2ccccc2)c(O)c1)C
75,O=C(Oc1cc(O)c2C(=O)CC(c3ccc(OC(=O)C)cc3)Oc2c1)C
76,O=C(Oc1cc(O)c2C(=O)CC(c3ccc(O)cc3)Oc2c1)C
77,O=C(Oc1cc(O)c2C(=O)C(OC(=O)C)=C(c3ccccc3)Oc2c1)C
78,O=C(Oc1c2C(=O)CC(c3ccccc3)Oc2cc(OC)c1)C
79,O=C(Oc1c2C(=O)CC(c3ccc(OC)cc3)Oc2cc(OC)c1)C
80,O=C(Oc1c2C(=O)C(OC(=O)C)=C(c3ccccc3)Oc2cc(OC(=O)C)c1)C
81,O=C(Oc1c(OC)ccc(C2=C(OC)C(=O)c3c(O)cc(OC)cc3O2)c1)C
82,O=C(Oc1c(OC)cc(CCC)cc1)C
83,O=C(Oc1c(OC)cc(CC=C)cc1)C
84,O=C(Oc1c(OC)cc(/C=C/C=O)cc1)C
85,O=C(Oc1c(OC)cc(/C=C/C)cc1)C
86,O=C(Oc1c(OC(=O)C)ccc(C2=C(OC)C(=O)c3c(OC(=O)C)cc(OC)cc3O2)c1)C
87,O=C(Oc1c(OC(=O)C)ccc(C2=C(OC)C(=O)c3c(O)cc(OC)cc3O2)c1)C
88,O=C(Oc1c(C(=O)CCc2ccccc2)c(OC)cc(OC(=O)C)c1)C
89,O=C(O[C@H]1[C@H](C(C)C)CCCC1)C
90,O=C(O[C@@H]1[C@]2(OC)[C@@H]([C@@H](C)[C@@]1(OC)C=C(CC=C)C2=O)c1cc(OC)c2OCOc2c1)C
91,O=C(O[C@@H]1[C@](O)(COCC)C2[C@H](OC(=O)CC(C)C)OC=C(COC(=O)C)C2=C1)CC(C)C
92,O=C(O[C@@H]1[C@](O)(COC)C2[C@H](OC(=O)CC(C)C)OC=C(COC(=O)C)C2=C1)CC(C)C
93,O=C(O[C@@H]1[C@](O)(COC(=O)C)C2[C@H](OC(=O)CC(C)C)OC=C(COC(=O)C)C2=C1)CC(C)C
94,O=C(O[C@@H]1C(OC(=O)C)C(OC(=O)C)[C@H](C)OC1OC1C(=O)c2c(O)cc(OC(=O)C)cc2OC1c1cc(OC(=O)C)c(OC(=O)C)cc1)C
95,O=C(O[C@@H]1C(OC(=O)/C=C/c2ccc(O)cc2)C(O)[C@H](OC2=C(c3ccc(OC)cc3)Oc3c(c(O)cc(O)c3)C2=O)CC1C)/C=C\c1ccc(O)cc1
96,O=C(O[C@@H]1C(OC(=O)/C=C/c2ccc(O)cc2)C(O)[C@H](OC2=C(c3ccc(OC)cc3)Oc3c(c(O)cc(O)c3)C2=O)CC1C)/C=C/c1ccc(O)cc1
97,O=C(O[C@@H]1C(O)C(OC(=O)/C=C\c2ccc(O)cc2)[C@H](OC2=C(c3ccc(OC)cc3)Oc3c(c(O)cc(O)c3)C2=O)CC1C)/C=C\c1ccc(O)cc1
98,O=C(O[C@@H]1C(O)C(OC(=O)/C=C\c2ccc(O)cc2)[C@H](OC2=C(c3ccc(OC)cc3)Oc3c(c(O)cc(O)c3)C2=O)CC1C)/C=C/c1ccc(O)cc1
99,O=C(O[C@@H]1C(O)C(OC(=O)/C=C/c2ccc(O)cc2)[C@H](OC2=C(c3ccc(OC)cc3)Oc3c(c(O)cc(O)c3)C2=O)CC1C)/C=C\c1ccc(O)cc1
