SMILES	MOL_WEIGHT	LOGP	#ROTATABLE_BONDS	#ACCEPTORS	#DONORS	SURFACE_AREA	Water solubility	Caco2 permeability	Intestinal absorption (human)	Skin Permeability	P-glycoprotein substrate	P-glycoprotein I inhibitor	P-glycoprotein II inhibitor	VDss (human)	Fraction unbound (human)	BBB permeability	CNS permeability	CYP2D6 substrate	CYP3A4 substrate	CYP1A2 inhibitior	CYP2C19 inhibitior	CYP2C9 inhibitior	CYP2D6 inhibitior	CYP3A4 inhibitior	Total Clearance	Renal OCT2 substrate	AMES toxicity	Max. tolerated dose (human)	hERG I inhibitor	hERG II inhibitor	Oral Rat Acute Toxicity (LD50)	Oral Rat Chronic Toxicity (LOAEL)	Hepatotoxicity	Skin Sensitisation	<i>T.Pyriformis</i> toxicity	Minnow toxicity
O=C1CCC2(C(=C1)C(C)CC1C2C(O)CC2(C1CCC2C(=O)C)C)C	344.495	3.9403	1	3	1	150.807	-4.951	1.297	98.013	-3.484	No	Yes	No	0.118	0.055	-0.194	-1.76	No	Yes	No	No	No	No	No	0.587	No	No	-1.062	No	No	2.128	1.696	No	No	0.908	0.283
OC(=O)c1ccccc1Nc1cccc(c1C)C	241.29	3.74524	3	2	2	106.089	-3.82	1.282	90.122	-2.07	No	No	No	-0.275	0.085	0.089	-1.916	No	No	Yes	No	Yes	No	No	0.407	No	No	0.383	No	No	2.425	1.73	No	No	1.128	0.699
OC(c1cc(nc2c1cccc2C(F)(F)F)C(F)(F)F)C1CCCCN1	378.316	4.4479	2	3	2	144.584	-4.266	1.464	85.432	-2.794	Yes	Yes	Yes	0.901	0.251	0.359	-3.201	No	Yes	Yes	No	No	No	No	0.397	Yes	No	-0.301	No	Yes	3.055	1.082	Yes	No	0.738	0.622
O=C1CCC2(C(=C1)C(=CC1C2CCC2(C1CCC2(OC(=O)C)C(=O)C)C)C)C	384.516	4.5753	2	4	0	167.329	-5.385	1.14	97.899	-3.446	No	Yes	Yes	0.294	0.078	0.452	-1.757	No	Yes	No	No	No	No	No	0.547	No	No	-0.558	No	No	1.906	1.477	No	No	0.726	-0.125
COc1ccc2c(c1)c(CCNC(=O)C)c[nH]2	232.283	1.8551	4	2	2	99.972	-2.75	1.222	92.605	-2.852	Yes	No	No	0.342	0.204	0.147	-2.509	No	No	Yes	No	No	No	No	0.751	No	No	0.768	No	No	2.15	0.934	No	No	0.754	1.842
Cc1cnc(s1)NC(=O)C1=C(O)c2ccccc2S(=O)(=O)N1C	351.409	1.95092	2	6	2	136.504	-3.197	0.896	73.728	-3.283	Yes	No	No	-0.266	0.232	-0.651	-2.934	No	No	No	No	No	No	No	0.07	No	No	-0.071	No	No	2.122	1.724	Yes	No	0.45	1.649
ClCCN(c1ccc(cc1)CC(C(=O)O)N)CCCl	305.205	1.925	8	3	2	122.648	-2.89	0.762	92.289	-2.735	Yes	No	No	-0.268	0.45	-0.074	-2.951	No	No	No	No	No	No	No	0.647	No	Yes	0.754	No	No	2.488	2.106	Yes	No	0.284	1.032
CC12CC3CC(C1)(C)CC(C2)(C3)N	179.307	2.6941	0	1	1	81.076	-2.317	1.329	91.234	-2.436	No	No	No	0.988	0.601	0.603	-2.478	No	Yes	No	No	No	No	No	0.548	No	No	0.322	No	No	2.673	1.25	No	Yes	0.463	1.426
O=C1C=C(C)C(=O)c2c1cccc2	172.183	2.0119	0	2	0	75.884	-2.403	1.317	97.9	-2.319	No	No	No	0.09	0.311	0.307	-2.009	No	No	Yes	Yes	No	Yes	No	0.219	No	Yes	0.746	No	No	1.726	2.576	Yes	Yes	0.724	1.394
CC1CCC(C(C1)OC(=O)c1ccccc1O)C(C)C	276.376	4.0098	3	3	1	120.509	-3.938	1.392	92.72	-3.049	No	Yes	No	0.383	0.181	0.277	-1.906	No	No	Yes	Yes	No	No	No	1.025	No	No	0.316	No	No	1.906	2.029	No	No	1.717	0.307
CCOC(=O)C1(CCN(CC1)C)c1ccccc1	247.338	2.2131	3	3	0	108.745	-2.017	1.671	95.134	-2.575	No	No	No	0.666	0.399	0.31	-2.119	No	No	No	No	No	No	No	0.911	No	No	0.071	No	No	2.737	1.559	Yes	Yes	0.424	0.993
OCC(COc1ccccc1C)O	182.219	0.72702	4	3	2	77.593	-1.119	1.171	80.679	-3.113	No	No	No	0.007	0.468	-0.189	-2.754	No	No	No	No	No	No	No	0.307	No	No	1.106	No	No	1.743	1.769	No	No	-0.356	2.189
CNC(Cc1ccccc1)(C)C	163.264	2.2271	3	1	1	74.806	-1.979	1.516	94.171	-1.695	No	No	No	0.916	0.393	0.57	-1.54	No	No	No	No	No	Yes	No	1.019	Yes	No	0.479	No	No	2.438	1.749	Yes	Yes	0.5	1.195
CCC1(NC(=O)N(C1=O)C)c1ccccc1	218.256	1.4735	2	2	1	94.248	-2.284	1.284	93.898	-3.415	Yes	No	No	-0.09	0.31	-0.112	-2.871	No	No	No	No	No	No	No	0.517	No	No	0.621	No	No	2.24	2.585	No	No	0.392	1.804
CN1CCCCC1C(=O)Nc1c(C)cccc1C	246.354	2.72624	2	2	1	109.181	-2.871	1.46	93.35	-2.888	Yes	No	No	0.859	0.374	0.363	-1.932	No	No	No	No	No	No	No	0.852	No	No	0.211	No	No	2.474	1.154	No	No	1.151	1.904
OCC(=O)C1(O)C(C)CC2C1(C)CC(=O)C1C2CCC2=CC(=O)C=CC12C	372.461	2.0118	2	5	2	159.074	-3.147	1.063	85.381	-3.566	Yes	No	Yes	-0.153	0.185	0.038	-2.263	No	Yes	No	No	No	No	No	0.654	Yes	No	-0.816	No	No	2.406	1.927	No	No	0.327	2.086
CCCC(COC(=O)N)(COC(=O)N)C	218.253	0.9834	6	4	2	88.889	-1.399	-0.357	63.662	-3.451	No	No	No	-0.298	0.661	-0.246	-3.101	No	No	No	No	No	No	No	0.487	No	Yes	1.107	No	No	2.538	1.691	No	No	0.063	2
COc1ccc(cc1)CN(c1ccccn1)CCN(C)C	285.391	2.6584	7	4	0	126.531	-2.393	1.67	96.114	-2.611	Yes	No	No	0.832	0.439	0.845	-2.157	No	Yes	Yes	No	No	Yes	No	0.773	Yes	No	-0.161	No	Yes	2.802	0.49	Yes	No	0.402	1.809
COc1ccc(cc1)O	124.139	1.4008	1	2	1	53.704	-1.264	1.595	93.374	-2.477	No	No	No	0.174	0.497	-0.226	-2.043	No	No	No	No	No	No	No	0.594	No	No	0.662	No	No	2.117	2.3	No	Yes	-0.128	1.952
CC1CCC(C(C1)OC(=O)c1ccccc1N)C(C)C	275.392	3.8864	3	3	1	121.055	-4.029	1.384	92.886	-2.918	No	Yes	No	0.48	0.159	0.18	-1.83	No	No	Yes	Yes	No	No	No	0.972	No	No	0.286	No	No	2.025	1.805	No	No	1.094	0.418
S=c1nc[nH]c2c1[nH]cn2	152.182	1.01549	0	3	2	61.340	-2.624	1.23	95.605	-2.735	Yes	No	No	-0.237	0.568	-0.552	-4.161	No	No	No	No	No	No	No	0.723	No	Yes	0.996	No	No	2.511	1.472	No	No	0.285	2.313
CC(C1C(=O)N2C1C(C)C(=C2C(=O)O)SC1CNC(C1)C(=O)N(C)C)O	383.47	-0.308	5	6	3	156.137	-2.818	0.051	32.101	-2.735	Yes	No	No	-0.841	0.644	-0.769	-3.326	No	No	No	No	No	No	No	0.35	No	No	1.438	No	No	1.853	1.248	Yes	No	0.285	3.425
Nc1ccc(c(c1)C(=O)O)O	153.137	0.6726	1	3	3	62.886	-1.672	0.622	73.844	-2.733	No	No	No	-1.757	0.573	-0.607	-2.611	No	No	No	No	No	No	No	0.496	No	No	0.637	No	No	1.566	2.128	Yes	No	0.274	1.981
CN1CCCCC1CCN1c2ccccc2Sc2c1cc(cc2)S(=O)C	386.586	4.9011	4	4	0	162.778	-5.167	1.001	93.54	-2.616	Yes	Yes	Yes	1.633	0.043	0.368	-1.504	Yes	Yes	No	No	No	No	No	0.721	No	Yes	-0.03	No	Yes	2.896	1.143	Yes	No	1.466	1.039
C#CC1(O)CCC2C1(C)CCC1C2CCc2c1ccc(c2)OC	310.437	3.9156	1	2	1	138.795	-4.177	1.409	99.396	-2.839	Yes	No	No	0.199	0	0.373	-0.809	No	Yes	No	Yes	No	No	No	1.01	No	No	-0.702	No	No	2.932	1.917	No	No	0.7	-0.088
CN(C1C(=C(C(=O)N)C(=O)C2(C1C(O)C1C(=C)c3cccc(c3C(=O)C1=C2O)O)O)O)C	442.424	-0.4379	2	9	6	181.740	-2.467	0.223	31.107	-2.735	Yes	No	No	0.534	0.49	-0.966	-3.697	No	No	No	No	No	No	No	0.183	No	No	0.48	No	Yes	2.637	3.751	No	No	0.285	5.921
CNC(Cc1ccccc1)C	149.237	1.837	3	1	1	68.441	-1.611	1.513	94.56	-1.719	No	No	No	0.877	0.421	0.579	-1.495	No	No	No	No	No	Yes	No	1.043	Yes	No	0.535	No	No	2.43	1.672	Yes	Yes	0.183	1.312
CN(c1c(C)n(n(c1=O)c1ccccc1)C)CS(=O)(=O)O	311.363	0.76592	4	6	1	122.315	-2.744	0.505	83.23	-2.735	Yes	No	No	-1.135	0.477	-0.838	-2.963	No	No	No	No	No	No	No	0.257	No	No	0.495	No	No	2.598	2.417	Yes	No	0.268	1.631
CC(C(c1cccc(c1)O)O)N	167.208	0.7728	2	3	3	71.455	-1.811	0.652	81.907	-2.736	No	No	No	1.09	0.858	-0.383	-2.608	No	No	No	No	No	No	No	0.742	No	No	-0.486	No	No	2.796	1.648	No	Yes	0.189	2.185
O=C1NCC(O1)COc1cc(C)cc(c1)C	221.256	1.79064	3	3	1	94.554	-2.265	1.26	94.917	-3.047	No	No	No	-0.007	0.356	0.26	-2.242	No	No	Yes	No	No	No	No	0.457	No	No	0.864	No	No	2.646	2.387	Yes	No	0.728	1.816
CN(C(=N)NC(=N)N)C	129.167	-1.03416	0	2	4	53.854	-2.801	0.282	57.273	-2.735	Yes	No	No	-0.168	0.636	-1.407	-4.633	No	No	No	No	No	No	No	0.332	No	Yes	0.919	No	No	2.75	2.421	No	Yes	0.28	4.157
CCC(=O)C(c1ccccc1)(c1ccccc1)CC(N(C)C)C	309.453	4.292	7	2	0	139.694	-3.701	1.253	92.755	-2.699	Yes	Yes	Yes	1.415	0.084	1.102	-1.772	Yes	Yes	Yes	No	No	Yes	No	0.814	Yes	Yes	0.598	Yes	Yes	2.786	0.478	No	No	0.294	0.089
CC(=O)N=c1sc(nn1C)S(=O)(=O)N	236.278	-1.4238	1	6	1	83.942	-2.692	-0.013	68.643	-3.24	No	No	No	-0.667	0.687	-0.514	-3.181	No	No	No	No	No	No	No	-0.088	No	No	0.904	No	No	2.381	0.553	No	No	0.212	2.581
CN1CCC(C1)CN1c2ccccc2Sc2c1cccc2	296.439	4.241	2	3	0	130.309	-4.803	1.451	94.385	-2.403	Yes	No	Yes	1.672	0.07	0.761	-1.422	Yes	Yes	Yes	No	No	Yes	No	0.549	No	No	0.068	No	Yes	2.791	0.757	Yes	No	1.663	1.419
C1N2CN3CN1CN(C2)C3	140.19	-1.0198	0	4	0	60.586	-2.373	1.262	89.307	-2.735	Yes	No	No	-0.235	0.692	-0.027	-3.162	No	No	No	No	No	No	No	1.173	No	Yes	0.913	No	No	3.287	0.337	Yes	Yes	0.274	3.885
Cn1cc[nH]c1=S	114.173	1.08269	0	2	1	46.794	-2.012	1.465	97.365	-2.735	Yes	No	No	-0.261	0.699	-0.199	-2.41	No	No	No	No	No	No	No	0.696	No	No	-0.761	No	No	2.64	1.392	No	Yes	0.284	2.584
CSCCC(C(=O)O)N	149.215	0.1514	4	3	2	58.618	-2.888	0.641	81.604	-2.737	No	No	No	-0.56	0.454	-0.326	-3.421	No	No	No	No	No	No	No	0.547	No	No	1.129	No	No	2.009	2.603	No	No	0.152	2.321
COc1ccccc1OCC(COC(=O)N)O	241.243	0.5302	6	5	2	98.892	-1.286	0.508	65.531	-3.424	No	No	No	-0.666	0.454	-0.351	-3.204	No	No	Yes	No	No	No	No	0.346	No	Yes	1.403	No	No	2.069	2.413	No	No	0.299	2.52
CCC#CC(C1(CC=C)C(=O)NC(=O)N(C1=O)C)C	262.309	1.3066	3	3	1	112.582	-2.924	0.726	76.673	-3.254	No	No	No	-0.08	0.457	-0.023	-2.587	No	No	No	No	No	No	No	0.653	No	No	0.416	No	No	2.201	1.384	No	No	0.664	1.278
OC(=O)CCC(C(=O)O)NC(=O)c1ccc(cc1)N(Cc1cnc2c(n1)c(N)nc(n2)N)C	454.447	0.2684	9	10	5	187.031	-2.893	-0.434	11.012	-2.735	Yes	No	No	0.06	0.234	-1.863	-4.503	No	No	No	No	No	No	No	0.458	No	No	0.542	No	No	2.318	1.561	Yes	No	0.285	3.915
COc1ccc2c(c1)N(CC(CN(C)C)C)c1c(S2)cccc1	328.481	4.4956	5	4	0	142.794	-4.489	1.429	93.135	-2.504	Yes	Yes	Yes	1.746	0.095	0.931	-1.551	No	Yes	Yes	No	No	Yes	No	0.463	Yes	No	0.306	Yes	Yes	2.971	0.623	Yes	No	1.205	-0.455
COc1ccc(c(c1)C(C(N)C)O)OC	211.261	1.0844	4	4	2	89.617	-1.185	0.527	84.968	-3.003	No	No	No	0.287	0.692	-0.289	-2.774	No	No	No	No	No	No	No	0.716	No	No	0.821	No	No	2.674	1.436	No	No	-0.086	2.28
COc1c2oc(=O)ccc2cc2c1occ2	216.192	2.5478	1	4	0	90.034	-2.615	1.278	98.378	-2.401	No	No	No	-0.066	0.272	0.202	-2.837	No	No	Yes	Yes	No	Yes	Yes	0.769	No	Yes	-0.293	No	No	2.254	1.795	No	No	0.438	0.567
COC(C(Cl)Cl)(F)F	164.966	2.0293	2	1	0	55.520	-1.517	1.442	93.389	-1.947	Yes	No	No	-0.191	0.642	0.231	-2.593	No	No	No	No	No	No	No	0.508	No	No	0.828	No	No	2.734	0.379	No	Yes	1.632	1.735
CNC(Cc1ccccc1OC)C	179.263	1.8456	4	2	1	79.920	-1.404	1.632	94.556	-1.956	No	No	No	0.746	0.42	0.392	-1.678	No	No	Yes	No	No	Yes	No	0.977	Yes	No	0.439	No	No	2.408	1.469	No	Yes	0.52	1.265
CN1C(=O)CC(C1=O)(C)c1ccccc1	203.241	1.333	1	2	0	88.698	-2.091	1.446	96.148	-3.103	No	No	No	-0.001	0.335	-0.012	-1.818	No	No	No	No	No	No	No	0.23	No	No	0.767	No	No	2.564	2.29	Yes	Yes	0.733	1.647
ClCC1Nc2cc(Cl)c(cc2S(=O)(=O)N1C)S(=O)(=O)N	360.244	0.5983	2	5	2	126.298	-4.18	0.409	77.165	-2.848	No	No	No	-0.612	0.428	-1.099	-3.117	No	No	No	No	No	No	No	0.286	No	Yes	0.273	No	No	2.132	1.973	Yes	No	0.483	1.248
NCC(=O)CCC(=O)OC	145.158	-0.5326	4	4	1	59.340	0.912	0.754	88.409	-3.41	No	No	No	-0.053	0.839	-0.285	-3.02	No	No	No	No	No	No	No	0.992	No	No	0.958	No	No	2.021	2.639	No	No	-0.779	2.703
COC(=O)c1cccnc1	137.138	0.8682	1	3	0	58.656	-0.634	1.651	98.452	-2.4	No	No	No	-0.375	0.576	-0.263	-2.749	No	No	No	No	No	No	No	0.765	No	No	1.277	No	No	2.196	2.576	No	No	-0.193	1.839
COC(=O)c1ccccc1O	152.149	1.1788	1	3	1	64.231	-1.881	1.202	89.457	-2.716	No	No	No	-0.009	0.49	-0.222	-2.185	No	No	No	No	No	No	No	0.684	No	Yes	0.769	No	No	1.764	2.305	No	No	0.367	1.778
C=CCCCCCCCCC(=O)NC(C(=O)OC)CC(C)C	311.466	3.9971	13	3	1	135.240	-4.46	1.661	91.947	-2.648	No	Yes	No	-0.103	0.155	-0.153	-2.73	No	Yes	No	No	Yes	No	No	1.938	Yes	No	0.281	No	No	1.806	2.227	No	Yes	1.718	-0.004
Cn1sc(cc1=O)Cl	149.602	1.1002	0	3	0	55.472	-0.796	1.666	100	-2.469	Yes	No	No	-0.265	0.628	-0.07	-2.57	No	No	No	No	No	No	No	0.029	No	Yes	0.972	No	No	2.729	1.257	No	Yes	0.555	1.933
OC(=O)C(Cc1ccc(c(c1)O)O)(N)C	211.217	0.4423	3	4	4	86.775	-2.303	-0.199	47.766	-2.735	Yes	No	No	0.682	0.808	-0.939	-2.987	No	No	No	No	No	No	No	0.378	No	No	-0.318	No	No	2.598	1.523	No	No	0.27	2.675
CCC(NC(=O)C1CN(C)C2C(=C1)c1cccc3c1c(C2)c[nH]3)CO	339.439	1.9247	4	3	3	147.266	-3.176	0.898	95.178	-2.922	Yes	No	No	1.059	0.352	-0.409	-2.579	Yes	Yes	No	No	No	Yes	No	1.195	No	Yes	-0.344	No	Yes	2.913	1.314	Yes	No	0.335	2.452
COC(=O)c1ccc(cc1)O	152.149	1.1788	1	3	1	64.231	-1.881	1.202	89.457	-2.716	No	No	No	-0.009	0.49	-0.222	-2.185	No	No	No	No	No	No	No	0.709	No	Yes	0.769	No	No	1.764	2.305	No	No	0.367	1.778
COC(=O)C(c1ccccc1)C1CCCCN1	233.311	2.0853	3	3	1	102.170	-1.932	1.42	94.463	-2.523	No	No	No	0.783	0.472	0.427	-2.531	No	No	No	No	No	Yes	No	0.911	No	No	0.21	No	No	2.588	1.603	No	Yes	0.368	1.189
CCC1(C(=O)NC(=O)N(C1=O)C)c1ccccc1	246.266	1.0426	2	3	1	104.774	-2.556	-0.223	68.346	-3.381	Yes	No	No	-0.33	0.306	-0.069	-2.541	No	No	No	No	No	No	No	0.368	No	Yes	0.735	No	No	2.163	1.59	No	No	0.394	1.842
OCC(=O)C1(O)CCC2C1(C)CC(O)C1C2CC(C2=CC(=O)C=CC12C)C	374.477	1.8036	2	5	3	159.706	-3.292	1.07	79.947	-3.024	Yes	No	Yes	-0.013	0.21	-0.623	-2.339	No	Yes	No	No	No	No	No	0.708	No	No	-1.12	No	No	2.309	0.395	No	No	0.298	2.26
CCC(=O)OC1(CCC2C1(C)CC(O)C1C2CC(C2=CC(=O)C=CC12C)C)C(=O)COC(=O)C	472.578	3.3353	5	7	1	200.493	-4.859	0.979	92.994	-3.718	Yes	Yes	Yes	0.104	0.114	-0.631	-2.691	No	Yes	No	No	No	No	No	0.5	Yes	No	-1.101	No	No	2.96	1.858	No	No	0.31	1.526
OC(=O)CCC(=O)OCC(=O)C1(O)CCC2C1(C)CC(O)C1C2CC(C2=CC(=O)C=CC12C)C	474.55	2.2193	6	7	3	198.603	-3.794	0.323	51.331	-2.811	Yes	No	No	-0.192	0.174	-1.198	-2.849	No	Yes	No	No	No	No	No	0.488	No	No	-1.239	No	No	3.077	1.981	No	No	0.285	1.04
OCC(=O)C1(O)CCC2C1(C)CC(=O)C1C2CC(C2=CC(=O)C=CC12C)C	372.461	2.0118	2	5	2	159.074	-3.219	1.068	85.231	-3.934	Yes	No	Yes	-0.121	0.211	0.018	-2.277	No	Yes	No	No	No	No	No	0.644	Yes	No	-0.623	No	No	2.253	1.647	No	No	0.351	2.24
O=C1CCC2(C(=C1)CCC1C2CCC2(C1CCC2(C)O)C)C	302.458	4.2693	0	2	1	133.916	-4.954	1.609	95.139	-3.017	No	Yes	No	0.474	0.102	0.225	-2.362	No	Yes	No	Yes	No	No	No	0.625	No	No	-0.637	No	Yes	1.794	1.846	No	No	1.165	0.427
CCC1(CC)C(=O)NCC(C1=O)C	183.251	1.1278	2	2	1	78.891	-1.529	1.229	90.015	-3.115	No	No	No	-0.04	0.566	-0.15	-2.584	No	No	No	No	No	No	No	0.338	No	No	0.768	No	No	2.022	2.486	No	Yes	0.204	1.745
CCC(NC(=O)C1CN(C)C2C(=C1)c1cccc3c1c(C2)cn3C)CO	353.466	1.9351	4	4	2	153.841	-3.061	1.219	97.058	-2.862	Yes	Yes	No	0.856	0.292	0.153	-2.515	No	Yes	No	No	No	Yes	No	1.021	No	Yes	-0.667	No	Yes	3.168	1.4	Yes	No	0.37	2.186
COc1cccc(c1C(=O)NC1C(=O)N2C1SC(C2C(=O)O)(C)C)OC	380.422	0.9491	5	6	2	154.373	-2.733	0.633	43.799	-2.735	Yes	No	No	-1.09	0.404	-0.951	-3.37	No	No	No	No	No	No	No	0.379	No	No	1.51	No	No	2.022	2.331	Yes	No	0.285	2.989
Cc1cc2CCCS(=O)(=O)c2cc1S(=O)(=O)N	275.351	0.36232	1	4	1	100.611	-3.046	0.548	85.219	-3.224	No	No	No	-0.398	0.417	-0.529	-3.008	No	No	No	No	No	No	No	0.852	No	No	0.602	No	No	2.058	2.509	Yes	No	0.411	2.11
OC(COc1cc(C)c(c(c1C)C)OC(=O)C)CNC(C)C	309.406	2.27486	7	5	2	132.178	-2.651	1.064	91.603	-2.949	Yes	No	No	0.391	0.464	-0.333	-2.696	No	No	No	No	No	No	No	0.647	Yes	No	0.266	No	Yes	2.23	1.517	Yes	No	0.447	0.3
CN1CCCC(C1)CC1c2ccccc2Sc2c1cccc2	309.478	5.015	2	2	0	137.279	-5.369	1.445	94.576	-2.706	Yes	No	Yes	1.681	0.026	0.9	-1.146	No	Yes	No	No	No	Yes	No	0.513	No	Yes	0.199	No	Yes	2.786	0.884	Yes	No	0.873	1.287
CCN(CCNC(=O)c1cc(Cl)c(cc1OC)N)CC	299.802	2.0024	7	4	2	124.579	-2.985	1.006	91.939	-3.015	Yes	No	No	0.481	0.475	-0.872	-2.985	No	No	No	No	No	No	No	0.932	No	No	0.66	No	Yes	2.311	0.824	Yes	No	0.46	1.983
CC1Nc2cc(Cl)c(cc2C(=O)N1c1ccccc1C)S(=O)(=O)N	365.842	2.71412	2	4	2	144.818	-4.169	1.025	86.175	-3	Yes	Yes	No	-0.146	0.11	-0.398	-2.16	No	No	No	No	No	No	No	-0.114	No	No	-0.111	No	No	2.074	1.635	No	No	0.827	0.352
COCCc1ccc(cc1)OCC(CNC(C)C)O	267.369	1.6132	9	4	2	115.287	-1.888	1.414	93.747	-2.761	Yes	No	No	0.687	0.461	-0.19	-2.976	No	No	Yes	No	No	Yes	No	1.08	No	No	0.331	No	No	2.141	1.178	No	No	0.671	0.377
CC(=O)Nc1c(I)c(N(C(=O)C)C)c(c(c1I)C(=O)O)I	627.942	3.1397	3	3	2	161.995	-3.187	1.079	95.469	-2.731	No	No	No	-1.471	0.425	-0.843	-3.012	No	No	No	No	No	No	No	-0.386	No	No	1.54	No	No	2.022	1.732	No	No	0.275	0.11
CC1=NC=C(N1CCO)[N+]([O-])=O	171.156	0.09202	3	5	1	68.612	-2.126	0.511	92.759	-2.797	Yes	No	No	-0.55	0.658	-0.735	-3.002	No	No	No	No	No	No	No	0.48	No	Yes	-0.296	No	No	1.759	1.443	No	No	0.285	2.111
O=C(C(c1cccnc1)(C)C)c1cccnc1	226.279	2.6371	3	3	0	100.549	-2.278	2.021	99.323	-2.518	No	No	No	-0.266	0.379	0.363	-1.968	No	No	Yes	No	No	No	Yes	0.296	No	No	-0.059	No	No	2.147	1.729	No	No	0.313	1.982
Oc1ccc(cc1)CC(C(=O)O)(N)C	195.218	0.7367	3	3	3	81.981	-2.89	0.645	64.824	-2.734	No	No	No	-0.267	0.506	-0.55	-2.787	No	No	No	No	No	No	No	0.412	No	No	0.881	No	No	2.233	1.604	Yes	No	0.274	2.37
CC(COc1c(C)cccc1C)N	179.263	2.02944	3	2	1	79.710	-1.694	1.437	92.509	-2.445	No	No	No	0.784	0.694	0.29	-2.349	No	No	No	No	No	No	No	0.648	No	No	0.573	No	No	2.946	1.087	No	Yes	0.106	1.286
O=C(C(c1ccccc1)NC(=O)N1CCN(C1=O)S(=O)(=O)C)NC1C(=O)N2C1SC(C2C(=O)O)(C)C	539.592	-0.2338	6	8	3	210.753	-3.012	-0.479	26.765	-2.735	Yes	No	No	-0.901	0.585	-1.282	-3.93	No	Yes	No	No	No	No	No	0.395	No	No	0.854	No	No	2.075	2.144	Yes	No	0.285	3.43
CN1CCN2C(C1)c1ccccc1Cc1c2cccc1	264.372	3.0839	0	2	0	120.186	-3.927	1.437	97.654	-2.532	No	No	No	1.527	0.144	0.781	-1.297	No	Yes	Yes	No	No	Yes	No	0.805	Yes	No	-0.233	No	Yes	2.779	0.853	Yes	Yes	1.676	0.948
CCCCCOc1ccc(cc1)c1onc(c1)c1ccc(cc1)C(=O)NC1CC(O)C(O)NC(=O)C2C(O)C(CN2C(=O)C(NC(=O)C(NC(=O)C2N(C(=O)C(NC1=O)C(O)C)CC(C2)O)C(C(c1ccc(c(c1)OS(=O)(=O)O)O)O)O)C(CC(=O)N)O)C	1270.291	-3.902	18	23	16	507.437	-2.892	-1.238	0	-2.735	Yes	No	No	-0.673	0.235	-3.65	-7.001	No	No	No	No	No	No	No	-1.435	No	No	0.438	No	No	2.482	7.444	Yes	No	0.285	19.42
Clc1ccc(c(c1)Cl)COC(c1ccc(cc1Cl)Cl)Cn1cncc1	416.135	6.4548	6	3	0	165.606	-2.951	-0.209	85.278	-2.737	Yes	Yes	Yes	0.097	0.032	0.228	-1.465	No	Yes	Yes	Yes	Yes	Yes	Yes	0.73	Yes	Yes	0.274	No	Yes	2.71	0.292	No	No	0.285	-0.264
CNCC1CCC(C(O1)OC1C(N)CC(C(C1O)OC1OCC(C(C1O)NC)(C)O)N)N	463.576	-3.716	7	12	8	188.612	-2.726	0	11.832	-2.735	Yes	No	No	-1.38	0.871	-1.407	-4.8	No	No	No	No	No	No	No	0.663	No	No	0.343	No	No	2.366	3.465	No	No	0.285	6.359
Clc1ccc2c(c1)C(=NCc1n2c(C)nc1)c1ccccc1F	325.774	4.32422	1	3	0	137.637	-2.917	1.625	89.903	-2.737	Yes	Yes	Yes	0.003	0.088	0.275	-1.378	No	Yes	Yes	Yes	Yes	Yes	Yes	0.607	Yes	No	-0.115	No	No	2.667	0.938	No	No	0.285	0.626
COc1ccc(cc1C(CNC(=O)CN)O)OC	254.286	-0.1879	6	5	3	105.694	-1.437	0.03	67.667	-2.975	Yes	No	No	-0.002	0.56	-0.943	-3.375	No	No	No	No	No	No	No	0.812	No	No	1.128	No	No	1.999	2.302	Yes	No	0.125	2.794
COC1C(CC2OC1(C)n1c3ccccc3c3c1c1n2c2ccccc2c1c1c3CNC1=O)N(C(=O)c1ccccc1)C	570.649	5.9068	3	6	1	246.910	-3.165	1.343	96.882	-2.735	Yes	Yes	Yes	-1.481	0.298	-0.828	-1.769	No	Yes	No	Yes	Yes	No	No	-1.023	No	No	0.411	No	Yes	2.53	0.589	Yes	No	0.285	-2.803
CCCCCCCCCCCCCCCC(=O)OC(COP(=O)(OCCNC(=O)C(NC(=O)CCC(C(=O)N)NC(=O)C(NC(=O)C(OC(C(C(CO)O)O)C(NC(=O)C)C=O)C)C)C)O)COC(=O)CCCCCCCCCCCCCCC	1237.518	5.6049	56	18	10	504.743	-2.892	-2.075	12.458	-2.735	Yes	Yes	No	-1.687	0.335	-4.457	-5.988	No	Yes	No	No	No	No	No	1.205	No	No	0.45	No	Yes	2.576	4.295	Yes	No	0.285	0.167
CC#CC1(O)CCC2C1(C)CC(c1ccc(cc1)N(C)C)C1=C3CCC(=O)C=C3CCC21	429.604	5.4065	2	3	1	192.137	-5.183	1.316	98.216	-2.857	Yes	Yes	Yes	0.604	0	-0.084	-1.395	No	Yes	Yes	Yes	No	No	Yes	0.341	No	No	-0.311	No	Yes	3.192	1.583	No	No	0.498	-0.962
OCC1NCC(C(C1O)O)O	163.173	-2.9668	1	5	5	64.285	-0.146	-0.33	44.234	-3.465	No	No	No	-0.608	0.976	-1.153	-4.759	No	No	No	No	No	No	No	0.935	No	No	2.297	No	No	1.52	2.09	No	No	0.105	4.359
OCCN1CC(O)C(C(C1CO)O)O	207.226	-3.2621	3	6	5	82.019	-1.799	-0.341	34.718	-3.023	No	No	No	-0.327	0.969	-1.122	-3.772	No	No	No	No	No	No	No	0.815	No	No	1.914	No	No	1.495	3.58	No	No	0.266	5.14
CCCCN1CC(O)C(C(C1CO)O)O	219.281	-1.4543	4	5	4	89.955	-1.802	0.374	49.1	-3.088	No	No	No	-0.132	0.897	-1.043	-3.605	No	No	No	No	No	No	No	0.873	No	No	1.713	No	No	1.678	3.541	No	No	0.259	4.039
NCC1CC1(c1ccccc1)C(=O)N(CC)CC	246.354	1.7714	5	2	1	108.971	-2.132	1.245	93.208	-2.579	No	No	No	1.121	0.374	0.05	-2.482	No	Yes	No	No	No	No	No	0.929	No	No	0.183	No	No	2.311	0.687	Yes	No	1.539	1.334
N#Cc1cc(c2ccncc2)c([nH]c1=O)C	211.224	1.617	1	3	1	92.212	-3.34	0.733	98.453	-2.872	No	No	No	-0.138	0.449	-0.099	-2.804	No	No	Yes	No	No	No	No	0.693	No	Yes	0.059	No	No	2.178	0.841	Yes	No	0.157	2.004
Cc1cc(nnc1NCCN1CCOCC1)c1ccccc1	298.39	2.19612	5	5	1	130.868	-2.522	1.277	94.853	-2.945	Yes	No	No	1.344	0.366	0.409	-2.881	No	No	Yes	No	No	Yes	Yes	0.885	No	No	-0.184	No	Yes	2.507	0.587	Yes	No	0.384	1.513
CN(C1C(=C(C(=O)N)C(=O)C2(C1CC1Cc3c(C(=O)C1=C2O)c(O)ccc3N(C)C)O)O)C	457.483	0.1866	3	9	5	189.760	-2.96	0.887	51.019	-2.737	Yes	No	No	0.583	0.407	-0.757	-3.616	No	No	No	No	No	No	No	0.181	No	No	0.294	No	No	2.938	2.759	No	No	0.285	3.769
O=C(Cc1csc(n1)N)Nc1ccc(cc1)CCNCC(c1ccccc1)O	396.516	2.7722	9	6	4	167.991	-3.438	-0.262	74.89	-2.735	Yes	No	Yes	1.059	0.301	-0.828	-2.771	Yes	Yes	Yes	Yes	No	Yes	Yes	1.361	No	No	0.075	No	Yes	2.848	2.793	Yes	No	0.299	2.031
CN1CCN2C(C1)c1ccccc1Cc1c2nccc1	265.36	2.4789	0	3	0	119.406	-3.182	1.591	98.186	-2.507	Yes	No	No	1.094	0.325	0.33	-1.661	No	Yes	Yes	Yes	Yes	Yes	No	0.748	Yes	No	-0.885	No	Yes	2.804	0.816	Yes	No	1.183	1.923
CCCCC(CC=CC1C(O)CC(=O)C1CCCCCCC(=O)OC)(O)C	382.541	3.9536	13	5	2	163.733	-4.174	0.918	91.691	-2.933	Yes	Yes	Yes	-0.413	0.119	-0.294	-2.901	No	Yes	No	No	No	No	No	1.697	Yes	No	-0.378	No	No	2.162	0.489	No	No	0.758	0.291
COC12C3NC3CN2C2=C(C1COC(=O)N)C(=O)C(=C(C2=O)C)N	334.332	-1.6512	3	8	3	137.147	-3.226	0.59	69.834	-3.188	Yes	No	No	-0.132	0.754	-0.627	-3.707	No	No	No	No	No	No	No	0.862	No	Yes	0.22	No	No	3.82	1.657	Yes	No	0.278	4.521
ClC(C(c1ccccc1Cl)c1ccc(cc1)Cl)Cl	320.046	5.929	3	0	0	126.431	-6.789	1.539	92.733	-2.535	No	No	No	0.889	0	0.568	-1.296	No	Yes	Yes	Yes	Yes	No	No	0.093	No	No	0.72	No	No	2.514	0.897	Yes	Yes	1.007	-1.229
OCCNCCNc1ccc(c2c1C(=O)c1c(C2=O)c(O)ccc1O)NCCNCCO	444.488	-0.1392	12	10	8	184.832	-2.974	0.342	32.2	-2.735	Yes	No	No	2.133	0.381	-1.411	-4.156	No	No	No	No	No	No	No	1.386	No	Yes	0.928	No	No	2.534	2.152	Yes	No	0.285	4.992
O=C(c1ccc(cc1)Cl)NCCN1CCOCC1	268.744	1.402	4	3	1	111.868	-1.837	1.708	91.446	-2.742	No	No	No	0.939	0.638	-0.08	-2.791	No	Yes	Yes	No	No	No	No	0.994	No	No	-0.022	No	No	2.608	1.265	No	No	0.579	1.689
