SMILES	MOL_WEIGHT	LOGP	#ROTATABLE_BONDS	#ACCEPTORS	#DONORS	SURFACE_AREA	Water solubility	Caco2 permeability	Intestinal absorption (human)	Skin Permeability	P-glycoprotein substrate	P-glycoprotein I inhibitor	P-glycoprotein II inhibitor	VDss (human)	Fraction unbound (human)	BBB permeability	CNS permeability	CYP2D6 substrate	CYP3A4 substrate	CYP1A2 inhibitior	CYP2C19 inhibitior	CYP2C9 inhibitior	CYP2D6 inhibitior	CYP3A4 inhibitior	Total Clearance	Renal OCT2 substrate	AMES toxicity	Max. tolerated dose (human)	hERG I inhibitor	hERG II inhibitor	Oral Rat Acute Toxicity (LD50)	Oral Rat Chronic Toxicity (LOAEL)	Hepatotoxicity	Skin Sensitisation	<i>T.Pyriformis</i> toxicity	Minnow toxicity
CCC(N1CCCC1=O)C(=O)N	170.212	-0.1273	3	2	1	71.711	-0.781	0.674	84.222	-4.389	No	No	No	-0.265	0.736	-0.283	-3.427	No	No	No	No	No	No	No	0.447	No	No	1.029	No	No	2.031	2.45	Yes	No	-0.731	2.99
CNC(Cc1ccccc1)C	149.237	1.837	3	1	1	68.441	-1.611	1.513	94.56	-1.719	No	No	No	0.877	0.421	0.579	-1.495	No	No	No	No	No	Yes	No	1.043	Yes	No	0.535	No	No	2.43	1.672	Yes	Yes	0.183	1.312
OC(COc1ccc(cc1)CCOCC1CC1)CNC(C)C	307.434	2.3934	11	4	2	133.376	-2.99	1.486	89.702	-2.721	Yes	No	No	0.813	0.323	-0.257	-2.975	Yes	Yes	No	No	No	No	No	1.433	Yes	No	0.131	No	Yes	1.973	1.45	Yes	No	0.469	-0.285
OC(COc1cccc2c1CCCC2=O)CNC(C)(C)C	291.391	2.3334	5	4	2	126.059	-2.467	1.331	90.521	-2.952	No	No	No	0.593	0.384	-0.12	-2.428	No	Yes	No	No	No	No	No	1.024	Yes	No	-0.253	No	Yes	2.321	1.278	No	No	0.463	0.458
CCCCN1CCCCC1C(=O)Nc1c(C)cccc1C	288.435	3.89654	5	2	1	128.276	-3.619	1.46	91.108	-2.882	Yes	No	No	1.146	0.315	0.321	-1.885	No	Yes	Yes	No	No	Yes	Yes	0.985	No	No	0.069	No	Yes	2.692	1.015	No	No	1.511	1.204
N#CC1(CCC(CC1)N1CCC(C(C1)C)(C(=O)O)c1ccccc1)c1ccc(cc1)F	420.528	4.89408	4	3	1	182.860	-4.391	0.601	93.599	-2.733	Yes	No	Yes	0.053	0	0.249	-1.727	No	Yes	No	No	No	No	No	0.263	No	No	0.109	No	No	2.704	0.878	Yes	No	0.352	0.924
OC(=O)COCCN1CCN(CC1)C(c1ccc(cc1)Cl)c1ccccc1	388.895	3.1482	8	4	1	164.659	-2.92	1.328	90.344	-2.723	Yes	No	No	0.671	0.283	0.129	-2.536	No	Yes	No	No	No	No	No	0.443	No	No	-0.04	No	Yes	2.672	0.83	Yes	No	0.303	-0.335
OC(=O)C(Cc1ccc(c(c1)O)O)N	197.19	0.0522	3	4	4	80.410	-2.266	-0.205	46.934	-2.735	Yes	No	No	0.667	0.825	-0.916	-3.078	No	No	No	No	No	No	No	0.392	No	No	-0.287	No	No	2.574	1.653	No	No	0.269	2.792
CN1CCN(CC1)c1c(F)cc2c3c1OCC(n3cc(c2=O)C(=O)O)C	361.373	1.544	2	6	1	148.732	-3.047	0.497	95.816	-2.735	Yes	No	No	-0.249	0.634	-0.667	-2.984	No	No	No	No	No	No	No	0.49	No	No	1.299	No	No	2.363	2.001	Yes	No	0.284	3.161
O=CN1C(CNc2ccc(cc2)C(=O)NC(C(=O)O)CCC(=O)O)CNc2c1c(=O)nc([nH]2)N	473.446	-0.7311	10	9	7	191.717	-2.873	-0.894	2.53	-2.735	Yes	No	No	-0.477	0.482	-1.97	-4.403	No	No	No	No	No	No	No	0.193	No	No	-0.132	No	No	2.616	3.604	Yes	No	0.285	3.938
OC(=O)CCC(C(=O)O)NC(=O)c1ccc(cc1)NCC1CNc2c(N1C)c(=O)nc([nH]2)N	459.463	-0.2577	9	9	7	187.555	-2.747	-0.675	1.85	-2.735	Yes	No	No	0.048	0.412	-1.636	-4.449	No	No	No	No	No	No	No	0.222	No	No	0.378	No	No	2.445	2.679	Yes	No	0.285	4.251
CC(=CCCC(C1CCC(=CC1)C)(O)C)C	222.372	4.2302	4	1	1	100.258	-4.412	1.5	92.096	-1.718	No	No	No	0.417	0.32	0.601	-2.521	No	No	No	Yes	No	No	No	1.363	No	No	0.389	No	No	1.719	1.17	No	Yes	1.706	0.674
CC1CCC(C(C1)O)C(C)C	156.269	2.4395	1	1	1	69.812	-2.217	1.376	95.257	-1.919	No	No	No	0.137	0.453	0.584	-2.119	No	No	No	No	No	No	No	1.182	No	No	0.94	No	No	1.946	2.017	No	Yes	0.333	1.29
NCC1CC1(c1ccccc1)C(=O)N(CC)CC	246.354	1.7714	5	2	1	108.971	-2.132	1.245	93.208	-2.579	No	No	No	1.121	0.374	0.05	-2.482	No	Yes	No	No	No	No	No	0.929	No	No	0.183	No	No	2.311	0.687	Yes	No	1.539	1.334
CC(C(c1ccc(c(c1)O)O)O)N	183.207	0.4784	2	4	4	76.249	-2.48	0.627	75.207	-2.735	Yes	No	No	1.267	0.888	-0.881	-2.775	No	No	No	No	No	No	No	0.768	No	No	-0.144	No	No	2.596	1.647	No	No	0.277	2.726
C#CC1(O)CCC2C1(CC)CCC1C2CCC2=CC(=O)CCC12	312.453	3.8826	1	2	1	139.280	-3.994	1.02	98.592	-3.07	Yes	Yes	No	0.004	0.008	0.027	-1.458	No	Yes	No	Yes	No	No	No	1.09	No	No	-1.031	No	No	2.196	1.826	Yes	No	0.621	0.239
Oc1ccc2c(c1)C13CCCCC3C(C2)N(CC1)C	257.377	3.0804	0	2	1	114.982	-2.866	1.588	86.711	-2.524	No	Yes	No	1.623	0.391	0.463	-2.141	No	Yes	Yes	Yes	No	Yes	No	0.849	Yes	No	0.165	No	No	3.18	0.928	Yes	No	0.342	0.503
OCc1cc(ccc1O)C(CNC(C)(C)C)O	239.315	1.306	4	4	4	101.919	-1.982	0.803	64.402	-2.876	Yes	No	No	0.861	0.731	-0.635	-2.644	No	No	No	No	No	No	No	0.965	No	No	0.223	No	No	2.655	1.297	No	Yes	0.084	1.658
N#CC(=NNc1ccc(cc1)C1=NNC(=O)CC1C)C#N	280.291	1.36176	3	6	2	121.122	-3.74	0.09	79.282	-3.112	No	No	No	-0.195	0.343	-0.41	-2.516	No	Yes	Yes	No	No	No	No	0.689	No	Yes	-0.154	No	No	2.744	1.254	Yes	No	0.872	1.59
OC(=O)C(Cc1cc(I)c(c(c1)I)Oc1cc(I)c(c(c1)I)O)N	776.872	4.5573	5	4	3	192.834	-3.844	-0.431	61.695	-2.723	Yes	No	No	0.576	0.253	-1.566	-2.271	No	Yes	No	No	No	No	No	-0.513	No	No	0.421	No	No	3.015	2.127	No	No	0.344	-2.143
CCN(CC(=O)Nc1c(C)cccc1C)CC	234.343	2.58374	5	2	1	103.822	-2.474	1.452	93.134	-2.709	Yes	No	No	0.792	0.404	0.28	-1.929	No	No	No	No	No	No	No	0.868	No	No	0.541	No	No	2.435	1.106	No	No	0.888	1.781
OC(=O)C(NC(=O)c1c(Cl)cc2c(c1Cl)CCN(C2)C(=O)c1ccc2c(c1)occ2)Cc1cccc(c1)S(=O)(=O)C	615.491	4.7673	7	6	2	245.121	-5.139	0.722	70.479	-2.735	Yes	No	Yes	-0.658	0.016	-1.489	-3.06	No	Yes	No	No	Yes	No	No	0.033	No	No	0.623	No	Yes	2.367	1.794	Yes	No	0.286	-0.114
OC(=O)CCC1NC(=O)C2CSSCC3NC(=O)C(C)NC(=O)C4N(C(=O)C(NC(=O)C(NC(=O)C(NC(=O)C(NC1=O)Cc1ccc(cc1)O)CSSCC(NC(=O)CNC(=O)C(NC3=O)C(O)C)C(=O)NC(C(=O)O)Cc1ccc(cc1)O)CSSCC(C(=O)N2)N)CC(=O)N)CCC4	1526.767	-5.9392	13	26	19	600.149	-2.892	-1.095	0	-2.735	Yes	No	No	-0.975	0.261	-4.129	-6.978	No	No	No	No	No	No	No	-3.848	No	No	0.449	No	No	2.482	5.73	Yes	No	0.285	20.452
CC#CCn1c(nc2c1c(=O)n(Cc1nc(C)c3c(n1)cccc3)c(=O)n2C)N1CCCC(C1)N	472.553	1.14742	4	10	1	201.585	-2.958	0.351	84.054	-2.735	Yes	Yes	No	0.16	0.305	-1.417	-3.056	No	Yes	No	No	Yes	No	Yes	0.447	No	Yes	0.597	No	Yes	2.662	1.26	Yes	No	0.285	0.354
CCCC1CN(C(C1)C(=NC(C1OC(SC)C(C(C1O)O)O)C(O)C)O)C	406.545	-0.0167	7	8	5	164.795	-1.707	-0.112	32.67	-3.078	No	No	No	-0.056	0.755	-1.182	-4.417	No	No	No	No	No	No	No	0.459	No	No	1.056	No	No	2.536	3.446	Yes	No	0.285	2.969
ClC1C(Cl)C(Cl)C(C(C1Cl)Cl)Cl	290.832	3.6444	0	0	0	101.378	-4.918	1.472	93.313	-1.726	No	No	No	0.156	0.335	0.708	-1.927	No	No	Yes	Yes	No	No	No	1.053	No	No	0.376	No	No	2.478	0.533	No	Yes	2.587	-0.214
CC(=O)NCC1OC(=O)N(C1)c1ccc(c(c1)F)N1CCOCC1	337.351	1.1236	4	5	1	138.854	-3.116	0.262	90.232	-3.596	No	No	No	-0.387	0.311	-0.762	-3.056	No	Yes	No	No	No	No	No	0.235	No	No	0.245	No	No	2.792	1.094	Yes	No	0.574	3.177
CCCCCC=CCC=CCCCCCCCC(=O)O	280.452	5.8845	14	1	1	124.520	-5.862	1.57	92.329	-2.723	No	No	No	-0.587	0.054	-0.142	-1.6	No	Yes	Yes	No	No	No	No	1.936	No	No	-0.827	No	No	1.429	3.187	Yes	Yes	0.701	-1.31
OC(=O)C(Cc1cc(I)c(c(c1)I)Oc1ccc(c(c1)I)O)N	650.976	3.9527	5	4	3	173.572	-3.522	-0.353	62.587	-2.721	Yes	No	No	0.553	0.233	-1.377	-2.381	No	Yes	No	No	No	No	No	-0.163	No	No	0.318	No	No	3.019	2.241	No	No	0.327	-1.159
OC(=O)C(Cc1cc(I)c(c(c1)I)Oc1cc(I)c(c(c1)I)O)N	776.872	4.5573	5	4	3	192.834	-3.844	-0.431	61.695	-2.723	Yes	No	No	0.576	0.253	-1.566	-2.271	No	Yes	No	No	No	No	No	-0.513	No	No	0.421	No	No	3.015	2.127	No	No	0.344	-2.143
OC(=O)CCCCC1SSCC1	206.332	2.7851	5	3	1	80.890	-2.832	1.316	90.986	-2.539	No	No	No	-0.494	0.334	-0.015	-1.997	No	No	No	No	No	No	No	0.228	No	No	0.033	No	No	2.488	2.075	No	Yes	1.115	0.7
NCCCCC(C(=O)NC(Cc1ccccc1)C)N	263.385	1.1901	8	3	3	115.107	-1.532	0.767	58.075	-2.926	Yes	No	No	1.373	0.647	-0.176	-2.954	No	No	No	No	No	No	No	1.071	No	No	0.354	No	No	2.371	0.65	Yes	Yes	0.255	1.924
NCCCCC(C(=O)N1CCCC1C(=O)O)NC(C(=O)O)CCc1ccccc1	405.495	1.2352	12	5	4	170.622	-2.891	0.106	13.517	-2.735	Yes	No	No	-0.284	0.46	-0.882	-3.695	No	No	No	No	No	No	No	0.453	No	No	0.881	No	No	2.446	2.935	Yes	No	0.285	3.982
CCN(C(=O)NC1CN(C)C2C(=C1)c1cccc3c1c(C2)c[nH]3)CC	338.455	2.8414	3	2	2	148.231	-4.002	1.077	93.327	-2.825	Yes	No	No	1.389	0.31	0.161	-2.165	No	Yes	No	No	No	Yes	No	0.92	Yes	No	-0.6	No	Yes	2.44	0.66	Yes	No	0.434	3.588
OC(=O)O	62.024	0.2224	0	1	2	22.489	0.847	1.104	83.987	-2.778	No	No	No	-0.874	0.783	-0.462	-3.039	No	No	No	No	No	No	No	0.481	No	No	1.439	No	No	1.851	2.854	No	No	-0.751	3.027
OC(=O)C(CC(=O)O)(CC(=O)O)O	192.123	-1.2485	5	4	4	72.225	-1.716	-0.497	0	-2.735	Yes	No	No	-0.443	0.555	-1.118	-3.649	No	No	No	No	No	No	No	0.891	No	No	0.606	No	No	1.891	2.761	No	No	0.285	4.007
NCCCCC(C(=NC(C(=NCC(=NCC(=O)N1CCCC1C(=NC(C(=NC(C(=NCC(=NC(C(=O)N1CCCC1C(=O)N1CCCC1C(=NC(C(=NC(C(=NC(C(=NC(C(=NC(C(=NC(C(=NC(C(=N)O)CCCCN)O)CCCCN)O)CCCCN)O)CCCCN)O)CCCCN)O)CCCCN)O)CO)O)C)O)O)CO)O)CO)O)O)O)CC(=N)O)O)N=C(C(N=C(C(Cc1c[nH]c2c1cccc2)N=C(C(N=C(C(C(CC)C)N=C(C(N=C(C(N=C(C(N=C(C(C(C)C)N=C(C(N=C(C(N=C(C(N=C(C(N=C(C(N=C(C(N=C(C(N=C(C(N=C(C(N=C(C(N=C(C(N=C(C(C(O)C)N=C(C(N=C(C(C(O)C)N=C(CN=C(C(N=C(CN=C(C(Cc1[nH]cnc1)N)O)O)CCC(=O)O)O)O)O)Cc1ccccc1)O)O)CO)O)CC(=O)O)O)CC(C)C)O)CO)O)CCCCN)O)CCC(=N)O)O)CCSC)O)CCC(=O)O)O)CCC(=O)O)O)CCC(=O)O)O)C)O)O)CCCNC(=N)N)O)CC(C)C)O)Cc1ccccc1)O)O)CCC(=O)O)O)O)CC(C)C)O	4858.57	13.84938	169	71	73	1976.810	-2.892	-7.122	0	-2.735	No	No	Yes	0.011	0.381	-21.505	-18.692	No	Yes	No	No	No	No	No	-10.922	No	No	0.438	No	Yes	2.482	18.113	No	No	0.285	44.44
N#Cc1cc(NC(=O)C(=O)O)c(c(c1)NC(=O)C(=O)O)Cl	311.637	0.25788	2	5	4	121.286	-2.7	-0.779	13.218	-2.735	Yes	No	No	-1.077	0.699	-1.249	-3.215	No	No	No	No	No	No	No	0.15	No	No	0.944	No	No	1.972	2.98	No	No	0.285	2.682
CC(C1=NCCN1)Oc1c(Cl)cccc1Cl	259.136	2.7624	3	3	1	104.416	-3.444	1.433	92.253	-2.402	No	No	No	0.268	0.327	0.246	-2.164	No	No	Yes	Yes	No	No	No	0.422	No	No	0.442	No	No	3.027	1.307	Yes	Yes	2.029	1.495
CCn1cc(C(=O)O)c(=O)c2c1c(F)c(N1CCNC(C1)C)c(c2)F	351.353	1.7959	3	5	2	142.214	-3.468	1.299	95.737	-2.734	Yes	No	No	-0.083	0.465	-0.639	-2.974	No	No	No	No	No	No	No	0.191	No	Yes	0.648	No	No	1.941	1.818	Yes	No	0.28	1.64
O=C(c1ccccc1c1ccc(cc1)C(F)(F)F)NC1CCN(CC1)CCCCC1(C(=O)NCC(F)(F)F)c2ccccc2c2c1cccc2	693.732	8.3821	10	3	2	286.241	-4.367	1.087	85.358	-2.735	Yes	Yes	Yes	-0.469	0.192	-0.167	-1.578	Yes	Yes	No	Yes	Yes	No	No	0.212	No	No	0.329	No	Yes	2.155	3.005	No	No	0.285	-0.886
ClCCN(C(=O)NC1CCCCC1)N=O	233.699	2.2509	4	3	1	94.092	-3.068	1.294	91.811	-3.067	Yes	No	No	-0.065	0.57	-0.136	-3.009	No	No	No	No	No	No	No	0.517	No	Yes	0.463	No	No	3.606	0.631	No	No	1.068	1.843
Clc1ccc(cc1)C1(O)CCN(CC1)CCC(C(=O)N(C)C)(c1ccccc1)c1ccccc1	477.048	5.088	7	3	1	207.333	-4.789	1.3	93.059	-2.736	Yes	Yes	Yes	0.505	0	-0.13	-0.673	Yes	Yes	No	Yes	Yes	Yes	No	0.729	Yes	No	-0.067	Yes	Yes	2.631	1.306	No	No	0.288	1.387
O=C(NC(C(CC(Cc1ccccc1)NC(=O)C(N1CCCNC1=O)C(C)C)O)Cc1ccccc1)COc1c(C)cccc1C	628.814	4.32814	15	5	4	272.275	-4.47	0.567	62.721	-2.735	Yes	Yes	Yes	-0.165	0.015	-0.951	-2.931	Yes	Yes	No	Yes	Yes	No	Yes	0.683	No	No	-0.155	No	Yes	2.537	2.167	Yes	No	0.286	3.202
NC(c1ccccc1)C(=O)NC1C2CCC(=C(N2C1=O)C(=O)O)Cl	349.774	0.7108	4	4	3	142.611	-2.094	0.364	45.131	-2.735	Yes	No	No	-0.725	0.587	-0.852	-3.05	No	No	No	No	No	No	No	0.528	No	No	1.281	No	No	1.96	2.208	Yes	No	0.285	2.533
CCOC(=O)N1CCC(=C2c3ccc(cc3CCc3c2nccc3)Cl)CC1	382.891	4.8878	1	3	0	164.359	-5.6	1.24	95.729	-2.906	Yes	Yes	Yes	0.474	0.078	0.412	-1.763	No	Yes	No	Yes	Yes	No	No	-0.072	No	No	-0.889	No	Yes	2.935	1.002	Yes	No	0.999	-0.276
Clc1ccc2c(c1)C(=NC(C(=O)N2)O)c1ccccc1Cl	321.163	3.1013	1	3	2	130.585	-4.087	1.291	92.304	-3.028	Yes	No	No	-0.186	0.069	0.093	-1.988	No	Yes	Yes	Yes	Yes	No	No	0.079	No	No	0.139	No	Yes	1.981	1.704	No	No	1.086	1.552
Clc1ccc2c(c1)C(C)CNCC2	195.693	2.5892	0	1	1	84.103	-2.209	1.504	89.736	-1.674	No	No	No	1.235	0.517	0.606	-2.043	Yes	No	Yes	No	No	Yes	No	0.837	No	No	0.176	No	No	2.952	1.115	Yes	Yes	0.639	1.497
N#Cc1n(C)nc2c1c1cnc(c(c1)OC(C)c1c(C(=O)N(C2)C)ccc(c1)F)N	406.421	2.80068	0	7	1	171.854	-3.542	1.085	100	-2.765	Yes	No	No	-0.354	0.174	-0.753	-2.928	No	Yes	No	No	No	No	Yes	0.395	No	No	-0.185	No	No	2.866	1.617	Yes	No	0.3	1.791
Clc1ccc2c(c1)C(=NC(C(=O)N2C)O)c1ccccc1Cl	335.19	3.1256	1	3	1	137.160	-4.561	1.334	94.11	-2.726	No	No	No	0.068	0.045	0.202	-1.881	No	Yes	Yes	Yes	Yes	No	No	0.153	No	Yes	0.057	No	No	2.45	1.359	No	No	1.761	1.003
Clc1sc2c(c1)S(=O)(=O)N(C(=C2O)C(=O)Nc1ccccn1)C	371.827	2.2959	2	6	2	140.442	-4.31	0.435	73.858	-2.94	No	No	No	-0.438	0.275	-0.622	-3.143	No	No	No	No	No	No	No	0.101	No	No	0.347	No	No	2.735	1.737	Yes	No	0.339	1.813
FC(c1cccc(c1)N1CCN(CC1)CCc1nnc2n1CC1C2CCC1)(F)F	405.468	3.5589	4	5	0	168.058	-4.105	0.939	89.906	-2.924	No	Yes	Yes	1.118	0.12	0.447	-1.669	Yes	Yes	No	No	No	No	Yes	0.734	Yes	No	-0.156	No	Yes	2.946	1.591	Yes	No	0.541	0.543
CCCCc1nc(c(n1Cc1ccc(cc1)c1ccccc1c1n[nH]nn1)CO)Cl	422.92	4.2668	8	6	2	179.302	-2.915	-0.195	79.338	-2.735	Yes	No	Yes	0.082	0.056	-1.737	-2.792	Yes	Yes	Yes	Yes	Yes	No	Yes	0.674	No	No	0.454	No	Yes	2.538	2.359	Yes	No	0.285	0.532
ClCOC(=O)C1(O)CCC2C1(C)CC(O)C1C2CCC2=CC(=O)C=CC12C	394.895	2.7357	2	5	2	163.964	-3.575	1.247	96.186	-2.777	Yes	No	No	0.128	0.169	0.07	-2.048	No	Yes	No	No	No	No	No	-0.199	No	No	-1.053	No	No	2.446	1.683	No	No	0.289	1.411
ClCOC(=O)C1(CCC2C1(C)CC(O)C1C2CCC2=CC(=O)C=CC12C)OC(=O)OCC	466.958	3.9165	4	7	1	192.653	-4.908	0.956	98.771	-3.084	Yes	Yes	No	-0.029	0.127	-0.804	-2.632	No	Yes	No	No	No	No	No	-0.116	Yes	No	-1.142	No	No	2.473	1.536	No	No	0.302	1.868
CCC(C(=O)OC1CC(C)C=C2C1C(CCC1CC(O)CC(=O)O1)C(C=C2)C)C	404.547	4.1955	6	5	1	174.081	-4.669	0.924	94.656	-3.367	Yes	Yes	Yes	0.149	0.128	-0.366	-2.163	No	Yes	No	No	No	No	Yes	0.928	Yes	No	-0.254	No	Yes	2.041	0.311	No	No	0.553	0.771
CN1CCN(CC1)C1=Nc2ccccc2Oc2c1cc(Cl)cc2	327.815	3.7714	0	4	0	140.498	-4.218	1.192	93.041	-2.716	Yes	Yes	Yes	1.205	0.105	0.178	-1.242	Yes	Yes	Yes	Yes	No	Yes	No	0.375	No	No	-0.422	No	No	2.913	0.96	Yes	No	1.159	2.417
CCCCC(C1(O)CCC2C(O1)CC(=O)C2CCCCCCC(=O)O)(F)F	390.467	4.3099	11	4	2	159.018	-3.208	0.709	91.071	-2.732	No	No	Yes	-0.802	0.199	-0.741	-2.652	No	Yes	No	No	No	No	No	1.322	No	No	-0.53	No	No	2.89	0.172	No	No	0.355	1.188
N#CC(=C1SCC(S1)c1ccc(cc1Cl)Cl)n1cncc1	354.287	5.06088	2	5	0	140.502	-3.127	1.741	83.419	-2.75	Yes	No	No	-0.187	0.076	0.21	-1.494	No	Yes	Yes	Yes	Yes	Yes	No	0.183	Yes	No	0.44	No	Yes	2.925	0.842	No	No	0.285	-0.134
O=C(C1(CC1)c1ccc2c(c1)OC(O2)(F)F)Nc1ccc(c(n1)c1cccc(c1)C(=O)O)C	452.413	4.74702	5	5	2	186.533	-3.176	0.495	79.614	-2.735	Yes	No	No	-1.907	0.011	-1.039	-2.976	No	No	No	No	Yes	No	No	-0.153	No	No	0.863	No	No	2.727	0.925	Yes	No	0.285	0.32
CCCCN(CC(c1cc(Cl)cc2c1c1ccc(cc1C2=Cc1ccc(cc1)Cl)Cl)O)CCCC	528.951	9.1517	10	2	1	223.693	-5.741	0.829	87.087	-2.736	Yes	Yes	Yes	0.161	0.131	1.272	-1.087	Yes	Yes	No	No	No	No	No	0.859	No	Yes	0.391	Yes	Yes	2.429	1.132	Yes	No	0.286	-0.272
OC(=O)Cc1cc(C)ccc1Nc1c(F)cccc1Cl	293.725	4.15822	4	2	2	120.558	-4.036	1.286	90.22	-2.251	No	No	No	-0.206	0.098	-0.083	-2.048	No	No	Yes	No	Yes	No	No	0.152	No	No	0.453	No	No	2.895	2.129	Yes	No	1.057	0.049
O=C1N(CC2CCCCC2CN2CCN(CC2)c2nsc3c2cccc3)C(=O)C2C1C1CCC2C1	492.689	4.2558	5	6	0	211.351	-3.786	1.414	91.035	-2.762	Yes	Yes	Yes	0.991	0.103	-0.117	-2.029	Yes	Yes	No	No	No	Yes	Yes	0.449	Yes	No	-0.561	No	Yes	3.704	1.212	No	No	0.29	1.394
CCCCCCOC(c1cccc(c1OC)c1csc(n1)NC(=O)c1cc(Cl)c(c(c1)Cl)C=C(C(=O)O)C)C	591.557	8.5236	13	6	2	242.326	-4.535	0.316	75.572	-2.735	Yes	No	Yes	-0.385	0	-0.616	-2.781	No	Yes	No	No	Yes	No	No	0.453	No	No	0.531	No	No	3.421	1.53	Yes	No	0.286	-2.186
CC(=CC=CC=C(C=CC=C(C=CC1=C(C)CC(CC1(C)C)O)C)C)C=CC=C(C=CC1C(=CC(CC1(C)C)O)C)C	568.886	10.4033	10	2	2	256.963	-6.655	1.191	88.394	-2.753	No	No	Yes	-0.247	0	-0.278	-1.641	No	Yes	No	No	No	No	No	0.924	No	No	-1.056	No	Yes	2.63	2.596	No	No	0.318	-2.538
NCCCCC1N=C(O)C(N=C(O)C(Cc2ccc(cc2)O)N=C(O)C(CSSCC(N=C(C(N=C1O)C(O)C)O)C(=NC(C(=O)O)C(O)C)O)N=C(C(Cc1ccccc1)N=C(CN1CCN(CCN(CCN(CC1)CC(=O)O)CC(=O)O)CC(=O)O)O)O)Cc1c[nH]c2c1cccc2	1435.648	3.3478	26	22	17	583.595	-2.892	-1.632	0	-2.735	Yes	No	No	-0.462	0.291	-5.097	-6.308	No	Yes	No	No	No	No	No	-4.365	No	No	0.438	No	Yes	2.482	9.567	Yes	No	0.285	11.088
CC(=CC=CC=C(C=CC=C(C=CC=C(CCC=C(C)C)C)C)C)C=CC=C(C=CC=C(CCC=C(C)C)C)C	536.888	12.938	16	0	0	248.007	-5.881	1.238	89.599	-2.736	No	No	Yes	-0.261	0.052	1.031	-0.264	No	Yes	No	No	No	No	No	1.949	No	No	-0.545	No	Yes	2.266	0.711	No	No	0.287	-4.45
NC(C(=O)O)CCCCNCNC(=O)C1=C(O)C(N(C)C)C2C(C1=O)(O)C(=C1C(C2)C(C)(O)c2c(C1=O)c(O)ccc2)O	602.641	-0.4542	10	12	9	247.039	-2.88	-0.362	1.445	-2.735	Yes	No	No	0.844	0.484	-1.657	-4.279	No	No	No	No	No	No	No	0.088	No	No	1.104	No	No	2.494	3.637	No	No	0.285	7.897
C#CC1(O)CCC2C1(C)CCC1C2CCC2=CCCCC12	284.443	4.3135	0	1	1	128.754	-4.306	1.115	97.74	-2.883	Yes	Yes	No	0.325	0	0.688	-1.477	No	Yes	No	No	No	No	No	1	No	No	-0.309	No	No	1.925	2.218	No	No	0.742	0.057
NCCCCC(C(=O)NCC(=O)N)NC(=O)C1CCCN1C(=O)C1CSSCC(N)C(=O)NC(Cc2ccc(cc2)O)C(=O)NC(C(=O)NC(C(=O)NC(C(=O)N1)CC(=O)N)CCC(=O)N)Cc1ccccc1	1056.239	-4.3291	19	16	13	428.410	-2.888	0.867	0	-2.735	Yes	Yes	No	-0.473	0.363	-1.504	-5.592	No	Yes	No	No	No	No	No	-0.812	No	No	0.508	No	Yes	2.555	5.012	Yes	No	0.285	15.804
O=CNC(Cc1c[nH]c2c1cccc2)NC(=O)C(NC(=O)C(N)(C)C)Cc1c[nH]c2c1cccc2	474.565	1.8448	10	4	6	202.394	-2.989	-0.105	61.824	-2.735	Yes	Yes	Yes	0.928	0.167	-1.207	-3.143	Yes	No	Yes	Yes	No	No	Yes	1.299	No	No	0.448	No	Yes	2.169	3.236	Yes	No	0.285	3.935
CCCNS(=O)(=O)Nc1ncnc(c1c1ccc(cc1)Br)OCCOc1ncc(cn1)Br	588.282	3.5727	11	8	2	202.207	-3.77	0.973	77.632	-2.735	No	Yes	Yes	-0.604	0	-1.768	-4.212	No	Yes	No	No	No	No	Yes	-0.064	No	No	1.068	No	Yes	1.969	1.536	Yes	No	0.285	0.559
NCc1ccc(cc1)S(=O)(=O)N	186.236	-0.2073	2	3	2	71.237	-0.578	0.717	74.406	-3.456	No	No	Yes	0.264	0.625	-0.208	-2.784	No	No	No	No	No	No	No	0.576	No	No	0.981	No	No	2.033	1.956	Yes	No	0.057	2.201
CC(=O)O	60.052	0.0909	0	1	1	24.060	0.702	1.557	95.463	-2.788	No	No	No	-0.619	0.767	-0.321	-2.69	No	No	No	No	No	No	No	0.595	No	No	1.372	No	No	1.774	2.555	No	No	-0.954	2.77
CC(=O)O	60.052	0.0909	0	1	1	24.060	0.702	1.557	95.463	-2.788	No	No	No	-0.619	0.767	-0.321	-2.69	No	No	No	No	No	No	No	0.595	No	No	1.372	No	No	1.774	2.555	No	No	-0.954	2.77
OCC(C1OC(=O)C(=C1O)O)O	176.124	-1.4074	2	6	4	67.321	-0.435	-0.467	39.716	-3.183	No	No	No	-0.072	0.888	-0.911	-3.971	No	No	No	No	No	No	No	0.631	No	No	1.805	No	No	1.223	2.78	No	No	0.285	3.046
OC(=O)O	62.024	0.2224	0	1	2	22.489	0.847	1.104	83.987	-2.778	No	No	No	-0.874	0.783	-0.462	-3.039	No	No	No	No	No	No	No	0.481	No	No	1.439	No	No	1.851	2.854	No	No	-0.751	3.027
OC(=O)C(CC(=O)O)(CC(=O)O)O	192.123	-1.2485	5	4	4	72.225	-1.716	-0.497	0	-2.735	Yes	No	No	-0.443	0.555	-1.118	-3.649	No	No	No	No	No	No	No	0.891	No	No	0.606	No	No	1.891	2.761	No	No	0.285	4.007
OCC(C(C(C(C(=O)O)O)O)O)O	196.155	-3.4931	5	6	6	73.491	-0.934	-0.464	0	-2.737	No	No	No	-0.272	0.85	-1.153	-3.8	No	No	No	No	No	No	No	0.966	No	No	1.561	No	No	0.933	3.912	No	No	0.285	5.227
NCC(=O)O	75.067	-0.9703	1	2	2	29.400	1.288	0.572	81.787	-2.785	No	No	No	-0.357	0.906	-0.435	-3.063	No	No	No	No	No	No	No	0.475	No	No	1.322	No	No	1.721	2.819	No	No	-0.927	3.24
CCOC(=O)CC(C(=O)OCC)SP(=S)(OC)OC	330.364	2.1218	9	8	0	121.966	-2.058	1.33	94.634	-1.42	No	No	No	-0.536	0.569	-1.321	-3.089	No	No	No	No	No	No	No	0.632	No	No	0.661	No	No	3.373	1.295	No	No	-0.101	2.186
OC(c1ccccc1)C(=O)O	152.149	0.8046	2	2	2	63.911	-1.526	1.149	77.497	-2.727	No	No	No	-1.786	0.532	-0.274	-2.539	No	No	No	No	No	No	No	0.611	No	No	0.594	No	No	2.067	2.102	No	No	0.145	1.999
OC(=O)CN(Cc1cc(COP(=O)(O)O)nc(c1O)C)CCN(Cc1cc(COP(=O)(O)O)nc(c1O)C)CC(=O)O	638.46	0.19664	17	12	8	238.830	-2.892	-1.154	0	-2.735	Yes	No	No	-0.039	0.449	-3.189	-4.896	No	No	No	No	No	No	No	-0.077	No	No	0.471	No	No	2.481	3.241	Yes	No	0.285	5.011
OCC(C(C(C(C(=O)O)O)O)O)O	196.155	-3.4931	5	6	6	73.491	-0.934	-0.464	0	-2.737	No	No	No	-0.272	0.85	-1.153	-3.8	No	No	No	No	No	No	No	0.966	No	No	1.561	No	No	0.933	3.912	No	No	0.285	5.227
OCC(C(C(C(CO)O)O)O)O	182.172	-3.5854	5	6	6	69.329	-0.892	-0.572	20.824	-3.164	No	No	No	-0.527	0.934	-1.281	-4.152	No	No	No	No	No	No	No	0.915	No	No	2.174	No	No	1.286	3.688	No	No	0.284	5.272
CNCCCC12CCC(c3c1cccc3)c1c2cccc1	277.411	4.2114	4	1	1	126.946	-4.729	1.505	99.775	-2.768	Yes	Yes	Yes	1.477	0.097	0.904	-1.331	No	Yes	No	No	No	Yes	Yes	1.338	No	Yes	0.095	No	Yes	2.745	1.139	Yes	No	0.379	1.398
O=C(C1CCC(CC1)(F)F)NC(c1ccccc1)CCN1C2CCC1CC(C2)n1c(C)nnc1C(C)C	513.677	5.95092	8	5	1	218.764	-4.446	0.647	84.101	-2.838	Yes	Yes	Yes	1.225	0.15	0.12	-1.982	Yes	Yes	No	No	No	Yes	Yes	0.592	No	No	-0.408	No	Yes	3.192	-0.252	Yes	No	0.382	1.847
CC(C(Cc1ccc(c(c1)O)O)C)Cc1ccc(c(c1)O)O	302.37	3.5664	5	4	4	129.855	-3.333	0.948	88.444	-2.735	Yes	Yes	No	0.246	0.231	-0.931	-2.42	No	Yes	Yes	Yes	Yes	Yes	No	-0.043	No	No	0.308	No	Yes	2.45	1.327	No	No	0.508	1.437
Clc1ccc(cc1)C1(O)c2ccccc2C2=NCCN12	284.746	2.6092	1	3	1	121.689	-3.977	1.093	95.093	-2.974	Yes	No	No	0.364	0.114	0.275	-1.568	Yes	Yes	Yes	Yes	No	No	No	0.316	No	Yes	0.342	No	Yes	2.289	1.495	No	No	0.813	0.884
COC(=O)Nc1nc2c([nH]1)cc(cc2)C(=O)c1ccccc1	295.298	2.9722	3	4	2	125.680	-3.196	0.859	91.47	-2.735	No	No	Yes	0.002	0.178	-1.051	-2.401	No	No	Yes	No	No	No	No	0.864	No	Yes	0.325	No	Yes	2.474	1.025	Yes	No	0.285	0.692
COc1ccc(cc1)CC(N(CCCCOC(=O)c1ccc(c(c1)OC)OC)CC)C	429.557	4.6025	13	6	0	185.608	-5.284	0.827	88.834	-2.773	Yes	Yes	Yes	0.625	0.078	-0.024	-2.723	Yes	Yes	No	No	No	No	Yes	1.141	No	No	0.778	No	Yes	2.384	1.515	Yes	No	0.395	0.546
CCC(C(COC(=O)N)(COC(=O)N)C)C	232.28	1.2294	6	4	2	95.254	-1.618	-0.345	63.852	-3.432	No	No	No	-0.283	0.639	-0.231	-3.085	No	No	No	No	No	No	No	0.496	No	No	1.058	No	No	2.587	1.667	No	No	0.094	1.919
CNC1(C)C2CCC(C1(C)C)C2	167.296	2.4206	1	1	1	75.927	-2.975	1.377	94.731	-2.179	No	No	No	0.753	0.478	0.75	-1.815	No	No	No	No	No	No	No	0.915	No	No	0.383	No	No	2.262	1.806	No	Yes	0.617	1.059
ClCCN(CCCl)C	156.056	1.3958	4	1	0	60.565	-0.957	1.387	93.653	-2.048	No	No	No	0.471	0.745	0.241	-2.591	No	No	No	No	No	No	No	0.997	No	Yes	0.707	No	No	3.632	1.151	No	Yes	0.248	1.599
Clc1ccc(cc1)C(c1ccccc1)N1CCN(CC1)Cc1cccc(c1)C	390.958	5.55562	5	2	0	172.917	-3.613	0.384	86.109	-2.738	Yes	Yes	Yes	1.613	0.166	1.536	-1.057	Yes	Yes	Yes	No	No	Yes	No	0.68	No	Yes	0.36	No	Yes	2.54	0.311	No	No	0.285	-0.107
OC(=O)c1ccccc1Nc1c(Cl)ccc(c1Cl)C	296.153	4.74362	3	2	2	120.331	-4.575	1.335	87.467	-2.052	No	No	No	-0.268	0.082	0.075	-1.753	No	No	Yes	No	Yes	No	No	0.333	No	No	0.512	No	No	2.672	1.499	No	No	1.272	0.064
CN(CC(Oc1ccccc1)Oc1ccccc1)C	257.333	3.0321	6	3	0	113.935	-3.407	1.669	94.058	-2.601	No	No	No	0.82	0.104	0.559	-1.413	No	Yes	Yes	No	No	Yes	No	0.672	No	No	0.666	No	Yes	2.463	1.808	No	Yes	1.253	1.549
O=C1CCC2(C(=C1)C(=CC1C2CCC2(C1CCC2(C)C(=O)C)C)C)C	340.507	5.2797	1	2	0	151.688	-5.909	1.191	98.008	-2.985	No	Yes	No	0.413	0	0.198	-2.096	No	Yes	No	No	No	No	No	0.573	No	No	-0.885	No	Yes	1.823	1.848	Yes	No	1.018	-0.346
OP(=O)(CP(=O)(O)O)O	176.001	-0.7007	2	2	4	50.842	0.079	-0.718	39.86	-3.163	No	No	No	-0.454	0.801	-1.302	-4.361	No	No	No	No	No	No	No	0.214	No	No	1.26	No	No	1.847	3.015	No	No	0.285	2.717
O=C1CCC2(C(=C1)C(C)CC1C2CCC2(C1CCC2(OC(=O)C)C(=O)C)C)C	386.532	4.6552	2	4	0	168.018	-5.478	1.153	98.783	-3.457	No	Yes	Yes	0.266	0.041	0.396	-1.75	No	Yes	No	No	No	No	No	0.487	No	No	-0.486	No	No	1.935	1.553	No	No	0.74	-0.372
