SMILES	MOL_WEIGHT	LOGP	#ROTATABLE_BONDS	#ACCEPTORS	#DONORS	SURFACE_AREA	Water solubility	Caco2 permeability	Intestinal absorption (human)	Skin Permeability	P-glycoprotein substrate	P-glycoprotein I inhibitor	P-glycoprotein II inhibitor	VDss (human)	Fraction unbound (human)	BBB permeability	CNS permeability	CYP2D6 substrate	CYP3A4 substrate	CYP1A2 inhibitior	CYP2C19 inhibitior	CYP2C9 inhibitior	CYP2D6 inhibitior	CYP3A4 inhibitior	Total Clearance	Renal OCT2 substrate	AMES toxicity	Max. tolerated dose (human)	hERG I inhibitor	hERG II inhibitor	Oral Rat Acute Toxicity (LD50)	Oral Rat Chronic Toxicity (LOAEL)	Hepatotoxicity	Skin Sensitisation	<i>T.Pyriformis</i> toxicity	Minnow toxicity
Clc1ccc2c(c1)[nH]c(=O)o2	169.567	1.7745	0	2	1	66.592	-2.134	1.254	92.688	-2.359	No	No	No	0.074	0.404	0.304	-2.155	No	No	Yes	No	No	No	No	0.117	No	No	0.245	No	No	2.328	1.64	Yes	No	0.805	1.457
CC(CCCC(C1CCC2C1(C)CCCC2=CC=C1CC(O)CCC1=C)C)C	384.648	7.619	6	1	1	173.936	-6.882	1.224	95.859	-2.721	No	No	Yes	-0.005	0	0.776	-1.356	No	Yes	No	No	No	No	No	0.83	No	No	-0.846	No	Yes	2.56	1.21	No	No	0.515	-2.083
CC(CCCC(C1CCC2C1(C)CCC1C2CC=C2C1(C)CCC(C2)O)C)C	386.664	7.3887	5	1	1	174.309	-6.875	1.219	95.421	-2.832	No	No	Yes	0.363	0	0.771	-1.759	No	Yes	No	No	No	No	No	0.589	No	No	-0.528	No	Yes	2.273	0.969	No	No	0.589	-1.772
C[N+](C)(C)CCO	104.173	-0.3151	2	1	1	44.963	0.765	1.473	100	-3.102	Yes	No	No	0.224	0.865	0.087	-2.901	No	No	No	No	No	No	No	0.932	No	No	0.952	No	No	1.939	0.885	No	Yes	-0.449	2.842
OCC(C(C(C(C(=O)O)O)O)O)O	196.155	-3.4931	5	6	6	73.491	-0.934	-0.464	0	-2.737	No	No	No	-0.272	0.85	-1.153	-3.8	No	No	No	No	No	No	No	0.966	No	No	1.561	No	No	0.933	3.912	No	No	0.285	5.227
OC(=O)c1cccnc1	123.111	0.7798	1	2	1	51.972	-0.587	1.219	86.389	-2.865	No	No	No	-0.788	0.601	-0.349	-2.932	No	No	No	No	No	No	No	0.702	No	No	1.15	No	No	1.911	2.844	No	No	-0.461	2.37
Oc1cc2OC(c3ccc(c(c3)O)O)C(Cc2c(c1)O)O	290.271	1.5461	1	6	5	119.662	-3.178	-0.411	66.773	-2.735	Yes	No	No	0.668	0.295	-1.005	-3.359	No	No	No	No	No	No	No	0.179	No	No	0.244	No	No	2.387	1.882	No	No	0.605	2.869
O=C(C(C)C)OCC(=O)C12OC(OC1CC1C2(C)CC(O)C2C1CCC1=CC(=O)C=CC21C)C1CCCCC1	540.697	4.7039	5	7	1	231.258	-4.279	1.064	100	-2.583	Yes	Yes	Yes	-0.3	0	-0.106	-1.983	No	Yes	No	No	No	No	No	0.243	No	No	-0.757	No	No	3.687	-0.072	No	No	0.285	0.498
Cc1cc(C2CCCCC2)n(c(=O)c1)O	207.273	2.44172	1	3	1	89.320	-2.654	1.55	93.581	-2.336	No	No	No	0.499	0.39	0.401	-2.291	No	No	Yes	No	No	No	No	1.114	No	No	0.715	No	No	2.067	1.741	No	No	1.343	0.959
CC=CCC(C(C1C(=O)NC(CC)C(=O)N(C)CC(=O)N(C)C(CC(C)C)C(=O)NC(C(C)C)C(=O)N(C)C(CC(C)C)C(=O)NC(C(=O)NC(C(=O)N(C(C(=O)N(C(C(=O)N(C(C(=O)N1C)C(C)C)C)CC(C)C)C)CC(C)C)C)C)C)O)C	1202.635	3.269	15	12	5	508.395	-2.892	1.293	0	-2.735	Yes	Yes	No	-0.491	0.276	-0.877	-2.788	No	Yes	No	No	No	No	No	0.563	No	No	0.366	No	Yes	2.561	5.92	Yes	No	0.285	13.697
OCC(Cn1ccc(nc1=O)N)OCP(=O)(O)O	279.189	-1.6618	6	7	4	102.001	-2.114	0.177	45.229	-2.784	No	No	No	-0.757	0.789	-1.373	-3.775	No	No	No	No	No	No	No	0.279	No	No	0.836	No	No	1.947	2.475	Yes	No	0.276	3.654
OC(=O)C(CSCCCCC=C(C(=O)O)NC(=O)C1CC1(C)C)N	358.46	1.4326	11	5	4	145.604	-2.562	-0.247	20.167	-2.735	Yes	No	No	-1.321	0.625	-1.075	-3.544	No	No	No	No	No	No	No	0.285	No	No	0.241	No	No	1.996	1.437	Yes	No	0.281	1.854
CCOC(=O)C(NC1CCCN2N(C1=O)C(CCC2)C(=O)O)CCc1ccccc1	417.506	1.5955	8	6	2	176.691	-3.142	0.582	51.811	-2.735	Yes	No	No	-0.104	0.426	-0.391	-3.053	No	No	No	No	No	No	No	0.668	No	No	0.328	No	No	2.085	1.691	Yes	No	0.285	0.35
O=C1CCc2c(N1)ccc(c2)OCCCCc1nnnn1C1CCCCC1	369.469	3.4647	7	6	1	159.029	-4.798	1.132	93.794	-3.025	Yes	Yes	Yes	0.298	0.129	-0.599	-2.6	No	Yes	No	Yes	Yes	No	Yes	1.125	No	No	0.116	No	No	2.779	1.42	Yes	No	0.605	-0.52
N#CN=C(NCCSCc1nc[nH]c1C)NC	252.347	0.5974	5	4	3	104.926	-1.969	0.847	78.458	-2.735	Yes	No	No	0.097	0.679	-1.104	-3.879	No	No	No	Yes	No	No	No	0.791	No	Yes	0.09	No	No	2.1	1.37	No	No	0.285	2.458
CC(c1cccc2c1cccc2)NCCCc1cccc(c1)C(F)(F)F	357.419	6.142	6	1	1	151.406	-4.381	0.615	85.254	-2.728	Yes	Yes	Yes	1.265	0.119	1.032	-1.26	Yes	Yes	Yes	Yes	No	Yes	No	0.878	No	Yes	0.343	Yes	Yes	3.032	0.259	No	No	0.288	-0.771
CCCCOc1nc2ccccc2c(c1)C(=O)NCCN(CC)CC	343.471	3.4853	10	4	1	149.932	-3.554	1.177	91.954	-2.874	Yes	Yes	No	1.431	0.198	0.367	-2.767	No	Yes	Yes	No	No	Yes	No	1.082	Yes	No	0.458	No	Yes	2.333	0.739	Yes	No	0.38	0.171
O=CC=Cc1ccccc1	132.162	1.8987	2	1	0	59.998	-2.113	1.654	96.882	-2.345	No	No	No	0.265	0.314	0.44	-1.623	No	No	Yes	No	No	No	No	0.203	No	Yes	0.862	No	No	1.869	1.98	No	Yes	0.738	1.128
OCC=Cc1ccccc1	134.178	1.6921	2	1	1	60.631	-1.578	1.639	94.353	-1.502	No	No	No	0.284	0.342	0.318	-1.796	No	No	Yes	No	No	No	No	0.263	No	No	0.928	No	No	1.768	1.877	No	Yes	0.077	1.396
c1ccc(cc1)C=CCN1CCN(CC1)C(c1ccccc1)c1ccccc1	368.524	5.107	6	2	0	168.289	-4.265	0.856	88.76	-2.752	Yes	Yes	Yes	1.887	0.012	1.227	-0.501	Yes	Yes	Yes	Yes	No	Yes	No	0.704	No	Yes	0.643	Yes	Yes	2.121	0.603	No	No	0.335	1.049
CCn1nc(C(=O)O)c(=O)c2c1cc1OCOc1c2	262.221	0.8433	2	6	1	106.529	-3.206	1.266	78.862	-2.735	No	No	No	-0.661	0.333	-0.653	-3.043	No	No	No	No	No	No	No	0.643	No	Yes	0.87	No	No	1.956	1.004	Yes	No	0.284	2.66
OC(=O)C(Oc1ccc(cc1)C1CC1(Cl)Cl)(C)C	289.158	3.5898	4	2	1	115.656	-3.955	1.36	89.229	-2.668	No	No	No	-0.291	0.07	0.232	-2.401	No	Yes	No	No	No	No	No	-0.013	No	No	0.341	No	No	2.252	1.717	No	No	0.731	0.393
Fc1cc2c(cc1N1CCNCC1)n(cc(c2=O)C(=O)O)C1CC1	331.347	1.5833	3	5	2	137.043	-2.802	0.838	94.767	-2.735	Yes	No	No	-0.137	0.715	-0.603	-2.563	No	No	No	No	No	No	No	0.607	No	No	0.858	No	No	3.072	0.625	Yes	No	0.288	1.846
COC1CN(CCCOc2ccc(cc2)F)CCC1NC(=O)c1cc(Cl)c(cc1OC)N	465.953	3.3581	9	6	2	192.118	-4.977	1.113	91.401	-2.786	Yes	Yes	Yes	0.12	0.077	-1.177	-2.841	No	Yes	No	Yes	No	Yes	Yes	0.998	Yes	No	-0.236	No	Yes	2.357	1.284	Yes	No	0.321	-0.276
N#Cc1ccc2c(c1)COC2(CCCN(C)C)c1ccc(cc1)F	324.399	3.81298	5	3	0	141.834	-3.806	1.65	93.457	-2.529	Yes	Yes	Yes	1.441	0.077	-0.02	-1.476	No	Yes	Yes	No	No	Yes	Yes	0.945	Yes	No	0.024	Yes	Yes	2.934	0.994	Yes	No	0.988	0.429
C[N+](C)(C)CCOP([O-])(=O)OP(O)(=O)OC[C@H]1O[C@H]([C@H](O)[C@@H]1O)N1C=CC(N)=NC1=O	488.327	-2.2305	10	13	4	176.926	-2.757	0.412	24.021	-2.735	No	No	No	-0.339	0.64	-2.128	-4.161	No	No	No	No	No	No	No	-0.081	No	No	1.324	No	No	2.06	3.003	Yes	No	0.285	5.466
OC(=O)C(CC(=O)O)(CC(=O)O)O	192.123	-1.2485	5	4	4	72.225	-1.716	-0.497	0	-2.735	Yes	No	No	-0.443	0.555	-1.118	-3.649	No	No	No	No	No	No	No	0.891	No	No	0.606	No	No	1.891	2.761	No	No	0.285	4.007
OCC1OC(CC1O)n1cnc2c1nc(Cl)nc2N	285.691	-0.2974	2	8	3	112.355	-2.165	0.144	62.305	-2.735	Yes	No	No	-0.236	0.704	-1.191	-3.403	No	No	No	No	No	No	No	0.782	No	Yes	0.623	No	No	1.798	1.764	Yes	No	0.285	2.914
CCC1OC(=O)C(C)C(OC2CC(C)(OC)C(C(O2)C)O)C(C)C(OC2OC(C)CC(C2O)N(C)C)C(CC(C(=O)C(C(C1(C)O)O)C)C)(C)OC	747.964	2.4397	8	14	4	310.279	-3.439	0.212	36.219	-2.735	Yes	Yes	No	0.946	0.534	-1.743	-3.829	No	No	No	No	No	No	Yes	-0.289	No	No	1.214	No	No	2.376	2.016	Yes	No	0.285	6.879
OC(=O)C1N2C(OC1=CCO)CC2=O	199.162	-1.0956	2	4	2	79.377	-0.994	0.553	75.012	-3.103	No	No	No	-0.593	0.791	-0.88	-3.212	No	No	No	No	No	No	No	0.533	No	No	0.94	No	No	1.861	1.853	Yes	No	0.026	3.898
Clc1ccc(cc1)C(c1ccccc1)(OCCC1CCCN1C)C	343.898	5.1044	6	2	0	149.944	-4.966	1.018	92.476	-2.415	Yes	Yes	Yes	1.817	0.043	0.891	-1.77	Yes	Yes	Yes	No	No	Yes	No	0.965	Yes	No	0.537	Yes	Yes	2.226	0.4	Yes	No	1.804	-0.61
OC(c1cc(Cl)c(c(c1)Cl)N)CNC(C)(C)C	277.195	2.9971	3	3	3	111.912	-2.734	1.244	85.6	-2.974	Yes	No	No	1	0.599	-0.097	-2.104	No	No	Yes	No	No	Yes	No	0.82	No	Yes	0.271	No	No	2.229	1.35	No	Yes	0.529	0.608
CCCC(=O)OCOC(=O)C1=C(C)NC(=C(C1c1cccc(c1Cl)Cl)C(=O)OC)C	456.322	4.2452	7	7	1	184.502	-5.496	0.755	91.73	-3.134	Yes	Yes	Yes	-0.271	0.014	-0.793	-2.839	No	Yes	No	No	No	No	Yes	0.324	No	No	-0.172	No	No	3.682	1.544	Yes	No	0.48	-1.559
C[N@@+]12CC[C@@H](CC1)C(C2)OC(=O)C(O)(C1=CC=CC=C1)C1=CC=CC=C1	352.454	2.7045	4	3	1	154.165	-4.223	1.504	98.556	-2.745	No	Yes	No	0.88	0.128	0.226	-1.1	No	Yes	No	No	No	Yes	No	1.212	No	Yes	-0.058	No	Yes	2.454	1.69	No	No	0.378	-0.19
CCCC1CN(C(C1)C(=O)NC(C1OC(SC)C(C(C1O)O)O)C(Cl)C)C	424.991	0.3895	7	7	4	170.325	-2.38	-0.003	43.743	-2.863	Yes	No	No	-0.171	0.704	-0.996	-3.961	No	No	No	No	No	No	No	0.796	No	No	0.779	No	No	2.399	2.801	Yes	No	0.285	2.757
Ic1cc(Cl)c2c(c1O)nccc2	305.502	3.1984	0	2	1	93.692	-3.736	1.478	92.574	-2.355	No	No	No	0.326	0.362	0.599	-2.249	No	No	Yes	No	No	No	No	-0.017	No	No	0.542	No	No	2.371	1.184	No	No	1.103	0.304
Clc1ccc2c(c1)N(C(=O)CC(=O)N2C)c1ccccc1	300.745	3.3712	1	2	0	127.088	-4.539	1.792	96.35	-2.319	No	No	No	0.089	0.019	0.353	-1.408	No	Yes	Yes	Yes	Yes	No	No	0.025	Yes	No	0.118	No	No	2.572	1.292	Yes	No	1.571	0.58
ClCC(=O)C1(O)C(C)CC2C1(C)CC(O)C1(C2CCC2=CC(=O)C=CC12C)F	410.913	3.1422	2	4	2	169.381	-3.892	1.265	96.363	-3	Yes	No	No	0.183	0.202	-0.108	-2.871	No	No	No	No	No	No	No	0.039	No	No	-0.704	No	No	2.205	1.758	No	No	0.315	1.786
CCC(=O)OC1(C(C)CC2C1(C)CC(O)C1(C2CCC2=CC(=O)C=CC12C)F)C(=O)CCl	466.977	4.1031	4	5	1	192.956	-4.974	1.117	96.227	-3.163	Yes	Yes	No	0.067	0.125	-0.609	-2.852	No	Yes	No	No	No	No	Yes	0.092	No	No	-0.587	No	No	2.473	1.744	No	No	0.327	1.29
ClCC(=O)C1(O)C(C)CC2C1(C)CC(=O)C1(C2CCC2=CC(=O)C=CC12C)F	408.897	3.3504	2	4	1	168.748	-4.132	1.362	97.284	-3.144	Yes	No	No	0.168	0.192	-0.289	-2.834	No	Yes	No	No	No	No	No	-0.045	No	No	-0.514	No	No	2.264	1.776	No	No	0.343	1.642
OCC(=O)C1C(C)CC2C1(C)CC(O)C1(C2CC(C2=CC(=O)C=CC12C)F)Cl	410.913	2.9981	2	4	2	169.381	-4.204	1.316	95.102	-3.297	Yes	Yes	No	-0.124	0.201	-0.378	-2.931	No	No	No	No	No	No	No	-0.037	Yes	No	-0.629	No	No	2.221	2.433	No	No	0.386	1.666
ClC(P(=O)(O)O)(P(=O)(O)O)Cl	244.891	0.4307	2	2	4	71.449	-0.872	-0.513	30.525	-2.869	No	No	No	-0.09	0.653	-1.463	-3.963	No	No	No	No	No	No	No	0.199	No	No	1.076	No	No	2.41	3.586	No	No	0.285	2.582
OCC1OC(C(C1O)F)n1cnc2c1nc(Cl)nc2N	303.681	-0.3494	2	8	3	116.521	-2.342	0.234	63.455	-2.735	Yes	No	No	-0.093	0.696	-1.359	-3.49	No	No	No	No	No	No	No	0.651	No	Yes	0.274	No	No	2.039	1.993	Yes	No	0.285	2.395
Clc1ccc(cc1)Nc1cc2nc3ccccc3n(c2cc1=NC(C)C)c1ccc(cc1)Cl	473.407	7.4898	4	4	1	202.059	-4.912	1.073	93.626	-2.735	Yes	Yes	Yes	-0.84	0.04	-0.611	-0.906	No	Yes	No	No	No	No	No	-0.035	No	Yes	0.208	No	Yes	2.093	0.111	Yes	No	0.286	-0.547
CN(CCC(c1ccccc1Cl)(c1ccccc1)O)C	289.806	3.5276	5	2	1	125.171	-3.966	1.554	94.129	-2.761	Yes	No	No	1.319	0.127	0.889	-1.574	Yes	Yes	Yes	No	No	Yes	No	0.668	Yes	No	0.633	No	Yes	2.532	0.759	Yes	Yes	1.414	1.571
CCOC(=O)C(Oc1ccc(cc1)Cl)(C)C	242.702	3.0605	4	3	0	100.313	-3.331	1.814	94.333	-2.437	No	No	No	-0.068	0.252	0.739	-2.403	No	No	Yes	No	No	No	No	0.034	No	No	1.238	No	No	2.708	1.834	No	No	1.089	0.281
CCN(CCOc1ccc(cc1)C(=C(c1ccccc1)Cl)c1ccccc1)CC	405.969	6.5626	9	2	0	178.952	-6.682	0.938	94.919	-2.734	Yes	Yes	Yes	0.66	0.141	1.213	-1.371	No	Yes	Yes	Yes	No	Yes	Yes	0.553	No	Yes	0.46	No	Yes	2.309	-0.104	Yes	No	0.297	0.37
CN(CCCN1c2ccccc2CCc2c1cc(Cl)cc2)C	314.86	4.5284	4	2	0	137.860	-4.903	1.381	94.741	-2.438	Yes	Yes	Yes	1.723	0.071	0.889	-1.418	Yes	Yes	Yes	No	No	Yes	No	0.809	No	No	0.318	No	Yes	2.786	0.658	Yes	No	2.118	1.182
[O-][N+](=O)C1=CC2=C(NC(=O)CN=C2C2=CC=CC=C2Cl)C=C1	315.716	3.0377	2	4	1	130.140	-4.336	0.983	93.586	-2.765	No	No	No	0.146	0.042	-0.391	-2.008	No	Yes	Yes	Yes	Yes	No	No	0.302	No	No	-0.265	No	No	3.084	1.306	No	No	1.359	-0.21
Clc1cccc(c1NC1=NCCN1)Cl	230.098	2.3645	1	3	2	92.122	-2.859	1.466	82.961	-2.735	No	No	No	0.401	0.313	0.381	-2.153	No	No	No	Yes	Yes	Yes	No	0.698	Yes	No	0.219	No	No	3.149	1.7	No	Yes	0.278	1.479
COC(=O)C(c1ccccc1Cl)N1CCc2c(C1)ccs2	321.829	3.6739	3	4	0	132.651	-3.191	1.608	90.84	-2.597	No	Yes	No	0.878	0.307	0.514	-1.736	No	Yes	Yes	No	No	Yes	No	0.964	Yes	No	0.407	No	No	3.417	1.436	No	No	0.352	0.422
OC(=O)C1N=C(c2ccccc2)c2c(NC1=O)ccc(c2)Cl	314.728	2.5827	2	3	2	130.808	-3.667	0.875	91.694	-2.413	No	No	No	-0.596	0.057	-0.389	-2.238	No	Yes	Yes	No	No	No	No	0.151	No	No	-0.073	No	No	2.521	1.361	No	No	0.886	1.029
CN1CCN(CC1)C1=Nc2ccccc2Sc2c1cc(Cl)cc2	343.883	4.1303	0	4	0	145.508	-4.596	1.257	92.334	-2.742	Yes	Yes	Yes	1.358	0.096	0.307	-1.181	Yes	Yes	Yes	No	No	Yes	No	0.311	Yes	No	-0.31	No	Yes	2.859	0.887	Yes	No	1.402	2.106
CCc1sc2c(c1)C(=NCC(=O)N2C)c1ccccc1Cl	318.829	3.7777	2	3	0	132.433	-5.128	1.665	95.581	-2.188	No	Yes	No	0.455	0.013	0.238	-1.436	No	Yes	Yes	Yes	Yes	No	No	0.244	No	No	0.091	No	No	2.528	1.154	Yes	No	2.685	0.369
Clc1ccccc1C(n1cncc1)(c1ccccc1)c1ccccc1	344.845	5.3767	4	2	0	151.910	-2.907	-0.253	97.351	-2.735	Yes	Yes	Yes	-0.197	0.243	0.832	-1.332	No	Yes	Yes	Yes	Yes	Yes	Yes	0.41	No	Yes	0.379	No	Yes	2.596	-0.135	No	No	0.285	2.126
OC(=O)C1N2C(=O)C(C2SC1(C)C)NC(=O)c1c(C)onc1c1ccccc1Cl	435.889	2.54872	4	6	2	175.106	-3.506	0.648	65.634	-2.8	Yes	No	No	-0.926	0.107	-1.319	-2.867	No	Yes	No	No	No	No	No	0.178	No	No	0.018	No	No	2.332	0.79	Yes	No	0.324	2.908
CN1CCN(CC1)C1=Nc2cc(Cl)ccc2Nc2c1cccc2	326.831	3.7227	0	4	1	140.935	-4.212	1.198	92.169	-2.811	Yes	Yes	Yes	1.239	0.163	0.452	-1.038	Yes	Yes	Yes	No	No	Yes	No	0.569	Yes	No	-0.206	No	Yes	2.765	0.923	Yes	No	0.819	2.439
O=C(NC(Cc1ccccc1)CCC(Cc1ccccc1)NC(=O)C(NC(=O)N(Cc1csc(n1)C(C)C)C)CCN1CCOCC1)OCc1cncs1	776.042	6.0007	19	10	3	326.227	-3.88	0.19	80.669	-2.735	Yes	Yes	Yes	0.158	0.032	-1.979	-3.429	Yes	Yes	No	Yes	Yes	No	Yes	1.203	No	No	-0.052	No	Yes	2.408	2.728	Yes	No	0.285	0.992
Ic1ccc(c(c1)F)Nc1c(ccc(c1F)F)C(=O)N1CC(C1)(O)C1CCCCN1	531.316	3.7811	4	4	3	185.335	-3.894	0.884	88.073	-2.738	Yes	Yes	Yes	0.993	0.108	-0.204	-2.312	No	Yes	No	No	No	No	No	0.812	No	No	0.213	No	Yes	2.409	2.007	Yes	No	0.297	1.267
COC(=O)C1C(CC2N(C1CC2)C)OC(=O)c1ccccc1	303.358	1.8677	3	5	0	129.744	-2.498	1.264	96.249	-3.014	No	No	No	0.462	0.394	-0.403	-2.903	No	Yes	No	No	No	No	No	0.779	No	No	-0.246	No	Yes	2.719	1.306	Yes	No	0.405	0.547
CC1=C(CCO[P@](O)(=O)O[P@](O)([O-])=O)SC=[N+]1CC1=CN=C(C)N=C1N	424.312	0.20974	8	9	3	152.871	-2.63	0.381	35.525	-2.736	Yes	No	No	-0.27	0.722	-1.923	-3.848	No	No	No	No	No	No	No	0.401	No	No	0.236	No	No	1.917	1.968	Yes	No	0.285	2.131
COc1ccc2c3c1OC1C43CCN(C(C2)C4C=CC1O)C	299.37	1.5011	1	4	1	129.879	-1.904	1.562	95.661	-3.179	Yes	No	No	1.217	0.469	0.039	-2.981	Yes	Yes	No	No	No	Yes	No	0.837	No	No	-0.493	No	No	2.845	1.168	Yes	No	0.359	1.992
SCCS(=O)(=O)O	142.201	-0.196	2	3	2	47.888	-0.169	1.113	88.681	-2.735	No	No	No	-0.986	0.748	-0.333	-3.07	No	No	No	No	No	No	No	0.44	No	No	0.82	No	No	1.619	0.585	No	No	-0.129	2.107
COc1c(OC)cc2c(c1OC)c1ccc(c(=O)cc1C(CC2)NC(=O)C)OC	399.443	2.8716	5	6	1	169.105	-3.744	1.191	100	-2.771	Yes	No	No	0.355	0.191	-0.701	-3.027	No	Yes	No	Yes	Yes	No	No	0.284	No	No	0.164	No	No	2.985	1.432	No	No	0.348	1.589
CCC(CCCCC(=O)NC(C(=O)NC(C(=O)NC(C(=O)NC1CCNC(=O)C(NC(=O)C(CCNCS(=O)(=O)O)NC(=O)C(NC(=O)C(NC(=O)C(NC(=O)C(NC1=O)CCNCS(=O)(=O)O)CC(C)C)CC(C)C)CCNCS(=O)(=O)O)C(O)C)CCNCS(=O)(=O)O)C(O)C)CCNCS(=O)(=O)O)C	1639.937	-8.0604	44	28	23	622.841	-2.892	-1.21	0	-2.735	No	No	No	-0.154	0.368	-4.666	-8.486	No	No	No	No	No	No	No	-1.77	No	No	0.438	No	No	2.482	6.802	No	No	0.285	22.089
NCCC(C(=NC1CCN=C(O)C(N=C(O)C(CCN)N=C(O)C(N=C(C(N=C(C(N=C(C(N=C1O)CCN)O)CC(C)C)O)CC(C)C)O)CCN)C(O)C)O)N=C(C(C(O)C)N=C(C(N=C(CCCC(CC)C)O)CCN)O)O	1155.455	3.4118	28	18	18	475.219	-2.889	-1.496	0	-2.735	Yes	Yes	No	-1.561	0.47	-4.465	-5.307	No	Yes	No	No	No	No	No	-3.092	No	No	0.546	No	Yes	2.544	3.984	No	No	0.285	13.84
NCCCCC(C(=O)NC(C(=O)NC(C(=O)NC(C(=O)NC(C(=O)NC(C(=O)NC(C(=O)NC(C(=O)NC(C(=O)NC(C(=O)NC(C(=O)NC(C(=O)NC(C(=O)NC(C(=O)NC(C(=O)NC(C(=O)NC(C(=O)NC(C(=O)NC(C(=O)N)C)C(CC)C)CC(=O)O)CC(C)C)CC(C)C)CCCCN)CCCNC(=N)N)CC(=O)N)CO)Cc1[nH]cnc1)C)CCC(=O)N)CCC(=O)N)C)CC(C)C)CCC(=O)N)CC(=O)O)C)NC(=O)C(C(O)C)NC(=O)C(NC(=O)C(NC(=O)C(NC(=O)C(C(C)C)NC(=O)C(NC(=O)C(NC(=O)C(NC(=O)C(NC(=O)C(NC(=O)C(NC(=O)C(C(O)C)NC(=O)C(NC(=O)C(NC(=O)C(NC(=O)C(NC(=O)C(C(CC)C)NC(=O)C1CCCN1C(=O)C1CCCN1C(=O)C(NC(=O)C(NC(=O)C(CO)N)CCC(=O)N)CCC(=O)O)CO)CC(C)C)CC(=O)O)CC(C)C)Cc1ccccc1)Cc1[nH]cnc1)CC(C)C)CC(C)C)CCCNC(=N)N)CCC(=O)O)CC(C)C)CCC(=O)O)CCSC	4670.384	-19.19366	159	65	66	1899.708	-2.892	-1.67	0	-2.735	No	No	No	0.011	0.381	-11.776	-16.61	No	No	No	No	No	No	No	-4.077	No	No	0.438	No	No	2.482	24.476	No	No	0.285	74.273
CC(=O)OCC(=O)C1(O)CCC2C1(C)CC(=O)C1C2CCC2=CC(=O)CCC12C	402.487	2.5606	3	6	1	170.609	-3.734	1.113	84.65	-3.916	Yes	Yes	Yes	0.002	0.151	-0.157	-2.5	No	Yes	No	No	No	No	No	0.535	Yes	Yes	-0.705	No	No	2.605	1.37	No	No	0.314	1.087
OC(=O)CN(C(=N)N)C	131.135	-1.10373	2	2	3	52.575	-2.892	0.469	63.157	-2.735	Yes	No	No	-0.015	0.382	-0.925	-3.948	No	No	No	No	No	No	No	0.101	No	No	0.475	No	No	2.48	2.133	No	No	0.274	3.884
Nc1ncc(cc1OC(c1c(Cl)ccc(c1Cl)F)C)c1cnn(c1)C1CCNCC1	450.345	5.0377	5	6	2	183.697	-4.083	1.255	90.361	-2.756	Yes	Yes	Yes	0.732	0.146	-1.205	-2.18	No	Yes	Yes	No	Yes	No	Yes	0.572	No	No	0.002	No	Yes	3.185	1.026	Yes	No	0.295	0.245
OC(COc1cccc2c1c(=O)cc(o2)C(=O)O)COc1cccc2c1c(=O)cc(o2)C(=O)O	468.37	2.1145	8	9	3	188.542	-2.874	-0.532	29.147	-2.735	Yes	No	No	-1.131	0.245	-1.796	-3.974	No	No	No	No	No	No	No	0.482	No	No	0.494	No	No	2.491	1.429	No	No	0.285	-0.12
CC=CC(=O)N(c1ccccc1C)CC	203.285	2.92402	3	1	0	91.218	-3.569	1.537	96.415	-1.796	No	No	No	0.298	0.216	0.329	-1.935	No	No	Yes	No	No	No	No	0.405	No	No	0.859	No	No	1.974	1.145	No	Yes	1.544	0.716
COc1cc(C=CC(=O)CC(=O)C=Cc2ccc(c(c2)OC)O)ccc1O	368.385	3.3699	8	6	2	156.532	-4.073	0.033	82.441	-2.768	Yes	Yes	Yes	-0.258	0	-0.51	-3.044	No	Yes	No	Yes	Yes	No	Yes	0.014	No	No	0.048	No	No	1.915	1.586	No	No	0.479	-0.634
OC(=O)C1N2C(=O)C(C2SC1(C)C)NC(=O)C1(N)CCCCC1	341.433	0.2797	3	5	3	138.882	-2.888	-0.129	49.582	-2.808	No	No	No	-0.449	0.713	-0.823	-3.646	No	No	No	No	No	No	No	0.343	No	No	0.543	No	No	2.403	0.952	Yes	No	0.222	3.483
CC1CC(OC(=O)C(c2ccccc2)O)CC(C1)(C)C	276.376	3.478	3	3	1	120.509	-3.33	1.33	93.681	-2.946	No	No	No	0.503	0.279	0.39	-2.45	No	No	Yes	Yes	Yes	No	No	0.988	No	No	-0.006	No	No	2.191	1.89	No	No	1.285	0.676
CN1CCN(CC1)C(c1ccccc1)c1ccccc1	266.388	3.0234	3	2	0	121.192	-3.04	1.605	93.924	-2.757	Yes	No	No	1.885	0.119	0.865	-0.973	Yes	Yes	No	No	No	Yes	No	0.718	Yes	No	0.316	No	Yes	2.688	1.076	Yes	Yes	1.18	2.397
CN(CCC=C1c2ccccc2C=Cc2c1cccc2)C	275.395	4.5538	3	1	0	126.783	-4.921	1.514	97.235	-2.624	Yes	Yes	Yes	1.715	0.036	0.916	-1.18	No	Yes	No	No	No	Yes	No	0.716	No	No	0.335	No	Yes	2.717	1.199	Yes	Yes	1.382	1.086
Clc1ccc(cc1)N1C(=NC(=NC1(C)C)N)N	251.721	1.5255	1	5	2	104.784	-2.879	0.717	82.93	-2.735	No	No	No	-0.146	0.075	-0.109	-2.254	No	No	No	No	Yes	No	No	0.19	Yes	Yes	0.33	No	No	2.638	1.792	No	No	0.285	1.845
Clc1cc2NC(CC3CCCC3)NS(=O)(=O)c2cc1S(=O)(=O)N	379.891	1.5976	3	5	3	140.239	-3.881	0.726	81.098	-3.242	Yes	No	No	-0.198	0.174	-0.961	-2.742	No	Yes	No	No	No	No	No	-0.046	No	No	-0.358	No	No	1.891	2.142	Yes	No	0.522	0.554
CN(CCOC(=O)C(C1(O)CCCC1)c1ccccc1)C	291.391	2.1801	6	4	1	126.269	-2.037	1.288	93.769	-4.246	Yes	No	No	0.628	0.376	0.183	-2.907	No	No	No	No	No	No	No	0.84	No	No	0.282	No	Yes	2.653	1.583	No	No	0.778	2.394
ClCCN(P1(=O)NCCCO1)CCCl	261.089	1.884	5	2	1	94.442	-2.547	1.577	91.96	-2.383	No	No	No	-0.152	0.582	0.157	-3.13	No	No	No	No	No	No	No	0.628	No	Yes	0.542	No	No	3.633	0.494	Yes	No	1.29	1.354
NC1CONC1=O	102.093	-1.6249	0	3	2	40.582	0.902	0.57	85.468	-4.238	No	No	No	0.091	0.95	-0.411	-3.108	No	No	No	No	No	No	No	0.891	No	No	1.296	No	No	2.124	2.5	No	No	-1.364	3.465
Clc1cc2NC(NS(=O)(=O)c2cc1S(=O)(=O)N)C1CC2CC1C=C2	389.886	1.2295	2	5	3	144.908	-3.057	1.131	85.213	-2.807	Yes	No	No	-0.042	0.164	-1.071	-2.683	No	Yes	No	No	No	No	No	-0.239	No	Yes	-0.496	No	No	1.778	2.032	Yes	No	0.355	0.986
OC(c1ccccc1)(C1CCCC1)CCN1CCCCC1	287.447	3.9404	5	2	1	128.718	-3.249	1.571	85.734	-2.467	No	Yes	No	1.903	0.284	0.692	-2.361	Yes	Yes	Yes	Yes	No	Yes	No	1.034	Yes	No	0.249	No	No	2.855	0.676	No	Yes	0.565	0.209
CN1CCC(=C2c3ccccc3C=Cc3c2cccc3)CC1	287.406	4.6979	0	1	0	132.142	-5.246	1.519	97.095	-2.482	Yes	Yes	Yes	1.781	0.042	0.777	-1.213	No	Yes	No	No	No	Yes	No	0.656	No	No	-0.008	No	Yes	2.778	0.996	Yes	Yes	1.378	1.347
CC(=O)OC1(CCC2C1(C)CCC1C2C=C(C2=CC(=O)C3C(C12C)C3)Cl)C(=O)C	416.945	4.6076	2	4	0	176.626	-5.292	1.51	100	-2.923	No	Yes	Yes	0.092	0	-0.111	-1.665	No	Yes	No	No	No	No	No	-0.504	No	No	-0.059	No	No	2.441	0.249	No	No	0.359	-0.831
NCCS	77.152	-0.1251	1	2	2	31.599	0.739	1.335	90.321	-3.156	Yes	No	No	0.26	0.861	-0.024	-2.687	No	No	No	No	No	No	No	1.214	No	No	1.261	No	No	2.387	1.026	No	No	-1.22	2.783
NC(C(=O)O)CSSCC(C(=O)O)N	240.306	-0.8084	7	6	4	88.801	-2.889	-0.521	14.154	-2.735	No	No	No	-0.499	0.462	-1.094	-3.72	No	No	No	No	No	No	No	-0.286	No	No	1.188	No	No	2.406	2.287	No	No	0.28	3.113
OCC1OC(C(C1O)O)n1ccc(nc1=O)N	243.219	-2.563	2	8	4	95.897	-2.242	-0.116	53.262	-2.789	No	No	No	-0.443	0.755	-0.778	-3.81	No	No	No	No	No	No	No	0.539	No	No	1.385	No	No	1.777	2.501	Yes	No	0.275	3.684
CSCCC(C(=O)O)N	149.215	0.1514	4	3	2	58.618	-2.888	0.641	81.604	-2.737	No	No	No	-0.56	0.454	-0.326	-3.421	No	No	No	No	No	No	No	0.547	No	No	1.129	No	No	2.009	2.603	No	No	0.152	2.321
OCC(C(=O)O)N	105.093	-1.6094	2	3	3	40.559	-2.887	0.55	69.546	-2.737	No	No	No	-0.521	0.484	-0.538	-3.548	No	No	No	No	No	No	No	0.391	No	No	1.141	No	No	1.979	2.951	No	No	0.086	3.603
CC(CCCC1(C)CCc2c(O1)c(C)c(c(c2C)OC(=O)C)C)CCCC(CCCC(C)C)C	472.754	9.05996	13	3	0	209.938	-8.275	1.253	92.903	-2.683	No	Yes	Yes	0.698	0	-0.252	-1.684	No	Yes	No	No	No	No	No	0.812	No	No	0.465	No	Yes	2.037	2.716	No	No	0.738	-4.243
OCC(C(C(C(C=O)O)O)O)O	180.156	-3.3788	5	6	5	68.697	-1.017	-0.487	26.101	-3.067	No	No	No	-0.263	0.945	-0.867	-3.381	No	No	No	No	No	No	No	0.903	No	No	1.776	No	No	0.687	3.122	No	No	0.27	5.003
OC(C(N(C)C)C)c1ccccc1	179.263	1.6701	3	2	1	79.810	-1.04	1.596	92.02	-2.07	No	No	No	0.639	0.521	0.351	-2.042	No	No	No	No	No	No	No	0.856	No	No	0.506	No	No	2.341	1.673	Yes	Yes	0.133	1.791
CC(CCCC1(C)CCc2c(O1)c(C)c(c(c2C)O)C)CCCC(CCCC(C)C)C	430.717	8.84026	12	2	1	192.727	-7.887	1.215	90.045	-2.693	Yes	Yes	Yes	0.873	0	1.016	-1.567	No	Yes	No	No	No	No	No	0.801	No	No	0.622	No	Yes	2.243	2.445	No	No	1.008	-3.45
CCCCCCOC(=O)N=C(c1ccc(cc1)NCc1nc2c(n1C)ccc(c2)C(=O)N(c1ccccn1)CCC(=O)OCC)N	627.746	5.6026	15	9	2	268.181	-2.954	-0.268	87.122	-2.735	Yes	Yes	Yes	0.007	0.057	-1.732	-3.384	No	Yes	No	No	Yes	No	Yes	0.785	Yes	No	0.282	No	Yes	2.364	0.681	Yes	No	0.285	0.181
Nc1nccc(n1)c1sc(nc1c1cccc(c1F)NS(=O)(=O)c1c(F)cccc1F)C(C)(C)C	519.574	5.3649	5	7	2	203.509	-3.297	1.046	86.124	-2.735	No	Yes	Yes	-0.964	0.322	-1.314	-3.016	No	Yes	No	No	Yes	No	Yes	0.095	No	No	0.508	No	Yes	2.888	-0.225	Yes	No	0.285	-3.181
CN(N=Nc1[nH]cnc1C(=O)N)C	182.187	0.0689	3	4	2	74.633	-2.194	-0.349	69.074	-2.735	No	No	No	-0.584	0.718	-1.179	-3.525	No	No	No	No	No	No	No	0.164	No	Yes	-0.441	No	No	2.112	1.425	Yes	No	0.284	3.225
COC(=O)NC(C(=O)N1CCCC1c1ncc([nH]1)c1ccc(cc1)c1ccc(cc1)c1cnc([nH]1)C1CCCN1C(=O)C(C(C)C)NC(=O)OC)C(C)C	738.89	6.222	11	8	4	314.970	-2.892	-0.398	65.166	-2.735	Yes	No	Yes	0.153	0.325	-1.939	-3.374	No	No	Yes	No	No	No	Yes	0.014	No	No	0.438	No	Yes	2.517	3.683	No	No	0.285	1.093
COc1cc2ncnc(c2cc1NC(=O)C=CCN1CCCCC1)Nc1ccc(c(c1)Cl)F	469.948	5.1551	7	6	2	196.167	-4.265	0.976	90.011	-2.734	Yes	Yes	Yes	0.721	0.052	-1.425	-2.426	No	Yes	No	Yes	No	Yes	Yes	0.568	Yes	No	0.182	No	Yes	2.714	2.05	Yes	No	0.289	0.392
