SMILES	MOL_WEIGHT	LOGP	#ROTATABLE_BONDS	#ACCEPTORS	#DONORS	SURFACE_AREA	Water solubility	Caco2 permeability	Intestinal absorption (human)	Skin Permeability	P-glycoprotein substrate	P-glycoprotein I inhibitor	P-glycoprotein II inhibitor	VDss (human)	Fraction unbound (human)	BBB permeability	CNS permeability	CYP2D6 substrate	CYP3A4 substrate	CYP1A2 inhibitior	CYP2C19 inhibitior	CYP2C9 inhibitior	CYP2D6 inhibitior	CYP3A4 inhibitior	Total Clearance	Renal OCT2 substrate	AMES toxicity	Max. tolerated dose (human)	hERG I inhibitor	hERG II inhibitor	Oral Rat Acute Toxicity (LD50)	Oral Rat Chronic Toxicity (LOAEL)	Hepatotoxicity	Skin Sensitisation	<i>T.Pyriformis</i> toxicity	Minnow toxicity
OCC(C(C(C(C(=O)O)O)O)OC1OC(CO)C(C(C1O)O)O)O	358.296	-5.6689	8	11	9	135.284	-1.099	-0.749	0	-2.735	Yes	No	No	-0.059	0.681	-1.839	-4.869	No	No	No	No	No	No	No	1.744	No	No	1.425	No	No	1.584	4.432	No	No	0.285	9.196
OCC(C(C(C(C(C(=O)O)O)O)O)O)O	226.181	-4.1322	6	7	7	84.650	-1.283	-0.48	0	-2.736	No	No	No	-0.18	0.801	-1.295	-3.902	No	No	No	No	No	No	No	1.021	No	No	1.617	No	No	1.307	4.352	No	No	0.285	6.179
OCC(C(C(C(C(=O)O)O)O)O)O	196.155	-3.4931	5	6	6	73.491	-0.934	-0.464	0	-2.737	No	No	No	-0.272	0.85	-1.153	-3.8	No	No	No	No	No	No	No	0.966	No	No	1.561	No	No	0.933	3.912	No	No	0.285	5.227
OCC(OP(=O)(O)O)CO	172.073	-1.5511	4	4	4	57.309	-0.281	-0.565	35.058	-3.134	No	No	No	-0.266	0.848	-0.916	-3.666	No	No	No	No	No	No	No	0.548	No	No	1.314	No	No	1.653	3.032	No	No	0.277	3.5
OC(=O)C(O)C	90.078	-0.5482	1	2	2	35.219	0.88	1.073	84.135	-3.394	No	No	No	-0.723	0.808	-0.389	-3.057	No	No	No	No	No	No	No	0.741	No	No	1.214	No	No	1.842	2.79	No	No	-1.08	3.133
CC(=O)CCC(=O)O	116.116	0.4402	3	2	1	47.316	0.145	1.139	89.099	-2.735	No	No	No	-0.862	0.707	-0.308	-2.953	No	No	No	No	No	No	No	0.742	No	No	1.082	No	No	1.663	2.726	No	No	-0.197	2.523
OC(C(C(=O)O)O)C(C(C(=O)O)O)O	210.138	-3.4008	5	6	6	77.652	-1.573	-0.716	2.917	-2.735	Yes	No	No	-0.632	0.788	-1.19	-4.257	No	No	No	No	No	No	No	0.994	No	No	1.161	No	No	1.653	3.563	No	No	0.285	4.997
OCC(C(C(=O)O)O)O	136.103	-2.2149	3	4	4	51.173	0.227	-0.62	23.652	-2.743	No	No	No	-0.645	0.894	-0.872	-3.629	No	No	No	No	No	No	No	0.844	No	No	1.441	No	No	0.573	2.873	No	No	0.233	3.617
O=C1CC2C(C1(C)CC2)(C)C	152.237	2.4017	0	1	0	68.174	-2.878	1.509	96.424	-2.021	No	No	No	0.332	0.454	0.625	-2.168	No	No	No	No	No	No	No	0.109	No	No	0.614	No	No	1.714	1.981	No	Yes	0.25	1.399
OCC1OC(c2ccc(c(c2)Cc2ccc(s2)c2ccc(cc2)F)C)C(C(C1O)O)O	444.524	2.96832	5	6	4	183.556	-4.49	0.848	92.485	-2.739	Yes	Yes	Yes	-0.926	0.052	-1.073	-3.227	No	Yes	No	Yes	No	No	Yes	0.027	No	Yes	0.46	No	Yes	2.509	3.257	No	No	0.286	-0.245
CCOc1nc2c(n1Cc1ccc(cc1)c1ccccc1c1nnn[nH]1)c(ccc2)C(=O)OC(OC(=O)OC1CCCCC1)C	610.671	6.3191	10	11	1	259.212	-2.903	-0.549	93.015	-2.735	Yes	Yes	Yes	-0.512	0.2	-2.625	-3.684	No	Yes	No	No	Yes	No	Yes	0.311	No	No	0.338	No	Yes	2.559	3.258	Yes	No	0.285	-1.318
CSCCNc1nc(SCCC(F)(F)F)nc2c1ncn2C1OC(C(C1O)O)COP(=O)(OP(=O)(C(P(=O)(O)O)(Cl)Cl)O)O	776.366	2.8505	15	15	7	264.045	-2.887	-1.166	26.408	-2.735	Yes	No	No	0.263	0.525	-3.966	-4.538	No	No	No	No	No	No	No	-0.001	No	No	0.148	No	Yes	2.458	3.824	No	No	0.285	6.008
CCCCCc1cc(O)c(c(c1)O)C1C=C(C)CCC1C(=C)C	314.469	5.8465	6	2	2	140.109	-3.883	1.115	91.026	-2.88	Yes	No	No	0.762	0.065	0.057	-1.4	No	Yes	Yes	No	No	No	No	1.139	No	No	-0.376	No	Yes	2.299	2.396	No	No	1.315	-1.25
OC(=O)CCC1(O)CCC2C1(C)CCC1C2C=CC2=CC(=O)CCC12C	358.478	3.8902	3	3	2	154.912	-3.705	1.119	94.836	-2.881	No	No	No	-0.333	0.096	0.144	-1.969	No	Yes	No	No	No	No	No	0.583	No	No	-0.338	No	No	2.465	1.667	No	No	0.431	0.753
O=C1OC(=O)C2(C1(C)C1CCC2O1)C	196.202	0.6436	0	4	0	81.556	-1.536	1.148	100	-3.24	No	No	No	0.029	0.657	-0.217	-2.94	No	No	No	No	No	No	No	0.156	No	No	0.595	No	No	2.061	2.194	No	No	-0.162	2.194
CCCCCOC(=O)Nc1nc(=O)n(cc1F)C1OC(C(C1O)O)C	359.354	0.7602	6	8	3	142.943	-2.631	0.319	51.344	-2.739	No	No	No	-0.073	0.424	-1.392	-3.62	No	No	No	No	No	No	No	1.066	No	No	0.755	No	No	2.387	2.575	Yes	No	0.285	2.326
CNC(=O)c1ccc(cc1F)c1cnc2n(n1)c(cn2)Cc1ccc2c(c1)cccn2	412.428	3.429	4	6	1	176.164	-2.899	1.259	94.479	-2.735	Yes	Yes	Yes	-0.303	0.29	-1.224	-3.569	No	No	Yes	Yes	Yes	No	Yes	0.711	Yes	No	0.357	No	Yes	2.505	1.04	Yes	No	0.285	-0.876
NCCCC(CC(=O)NCC1NC(=O)C(CO)NC(=O)C(N)CNC(=O)C(NC(=O)C(=CNC(=O)N)NC1=O)C1CCN=C(N1)N)N	668.717	-8.2348	10	14	14	268.715	-2.858	-0.065	0	-2.735	Yes	No	No	-1.306	0.756	-2.134	-6.954	No	No	No	No	No	No	No	-0.25	No	No	0.85	No	No	2.479	3.393	No	No	0.285	9.809
COc1cc(CNC(=O)CCCCC=CC(C)C)ccc1O	305.418	3.7896	9	3	2	132.740	-3.682	1.369	91.426	-3.038	Yes	No	No	0.164	0.128	-0.349	-2.416	No	Yes	Yes	No	Yes	Yes	Yes	1.257	No	Yes	0.111	No	Yes	2.205	1.663	Yes	No	1.661	0.238
SCC(C(=O)N1CCCC1C(=O)O)C	217.29	0.6279	3	3	2	88.685	-1.167	1.16	79.769	-2.735	No	No	No	-0.754	0.677	-0.22	-3.081	No	No	No	No	No	No	No	0.306	No	No	1.114	No	No	1.787	1.406	No	No	0.249	2.645
NC(=O)N1c2ccccc2C=Cc2c1cccc2	236.274	3.3872	0	1	1	105.149	-3.822	1.356	94.352	-2.358	Yes	No	No	0.348	0.045	0.182	-1.689	No	Yes	Yes	No	No	No	No	0.086	No	No	0.028	No	No	2.54	0.961	No	No	1.082	0.508
NC(=N)O	60.056	-0.56213	0	1	3	23.559	0.99	0.532	71.734	-4.058	Yes	No	No	-0.469	0.844	-0.525	-3.446	No	No	No	No	No	No	No	0.637	No	No	1.938	No	No	2.309	1.207	No	No	-2.077	3.61
CCC(C1NC(=O)C(NC(=O)CCCSCC(NC(=O)C(NC(=O)C(NC1=O)CCC(=O)N)CC(=O)N)C(=O)N1CCCC1C(=O)NC(C(=O)NCC(=O)N)CC(C)C)Cc1ccc(cc1)OC)C	988.179	-2.5009	18	13	10	405.294	-2.89	-0.076	0	-2.735	Yes	Yes	No	-0.717	0.35	-2.258	-4.866	No	Yes	No	No	No	No	No	-0.624	No	No	0.386	No	Yes	2.608	4.975	Yes	No	0.285	13.162
NNC(C(=O)O)(Cc1ccc(c(c1)O)O)C	226.232	-0.0531	4	5	5	92.295	-2.11	-0.091	41.455	-2.735	Yes	No	No	-0.955	0.586	-0.795	-3.214	No	No	No	No	No	No	No	0.554	No	Yes	0.214	No	No	2.211	2.638	No	No	0.284	2.858
CCOC(=O)n1ccn(c1=S)C	186.236	1.56069	1	5	0	75.374	-2.485	1.708	96.104	-2.735	No	No	No	-0.306	0.65	-0.197	-3.003	No	No	Yes	No	No	No	No	0.486	No	No	0.385	No	No	3.268	0.649	Yes	Yes	0.285	1.476
CN(CCOC(c1ccccn1)c1ccc(cc1)Cl)C	290.794	3.4026	6	3	0	124.710	-2.584	1.938	94.171	-2.523	No	No	No	0.817	0.28	0.302	-2.003	No	Yes	Yes	Yes	No	No	No	0.795	No	No	0.247	No	No	2.647	1.37	No	No	0.709	1.709
OC(=O)CSCC(C(=O)O)N	179.197	-0.7839	5	4	3	67.574	-2.89	-0.363	29.671	-2.735	No	No	No	-0.55	0.465	-0.889	-3.612	No	No	No	No	No	No	No	0.191	No	No	1.13	No	No	2.287	2.103	No	No	0.272	3.052
CCOC(=O)COc1ccc2c(c1)oc(=O)c(c2C)CCN(CC)CC	361.438	2.92762	9	6	0	153.242	-3.405	1.187	94.347	-2.738	No	No	No	0.832	0.317	-0.689	-2.896	No	Yes	Yes	No	No	No	No	0.928	Yes	No	0.474	No	Yes	2.399	0.729	Yes	No	0.387	-1.391
O=C=O	44.009	-0.5835	0	2	0	17.062	1.293	1.594	100	-3.311	Yes	No	No	-0.349	0.824	-0.332	-2.487	No	No	No	No	No	No	No	0.643	No	No	1.322	No	No	1.969	2.499	No	No	-1.572	2.927
CCCCCC(C=CC1C(O)CC(C1CC=CCCCC(=O)O)O)(O)C	368.514	3.433	12	4	4	156.992	-3.548	0.806	42.688	-2.733	No	No	Yes	-1.279	0.212	-1.06	-3.138	No	Yes	No	No	No	No	No	1.656	No	No	-1.173	No	No	1.778	1.228	No	No	0.317	0.683
O=C(C1=C(C)OCCS1)Nc1ccccc1	235.308	2.62	2	3	1	98.874	-2.897	1.85	92.597	-2.581	No	No	No	0.098	0.275	0.236	-1.97	No	No	No	No	No	No	No	0.204	No	No	0.182	No	No	2.738	1.672	Yes	Yes	1.581	0.802
CC(CC(C(=O)NC(C(=O)NC(C(=O)C1(C)CO1)CC(C)C)Cc1ccccc1)NC(=O)C(NC(=O)CN1CCOCC1)CCc1ccccc1)C	719.924	2.5835	20	8	4	307.689	-3.621	0.341	56.64	-2.735	Yes	Yes	Yes	0.6	0.155	-1.001	-3.454	No	Yes	No	No	No	No	Yes	1.057	No	No	-0.06	No	Yes	2.631	3.14	Yes	No	0.285	2.553
OC(=O)CCC(C(=O)O)NC(=O)N	190.155	-1.0273	5	3	4	73.527	-0.57	-0.539	16.999	-2.735	No	No	No	-1.204	0.722	-0.933	-3.681	No	No	No	No	No	No	No	0.921	No	No	0.816	No	No	1.599	2.58	No	No	0.252	3.892
O=C(C(C(=O)Oc1ccc2c(c1)CCC2)c1ccccc1)NC1C(=O)N2C1SC(C2C(=O)O)(C)C	494.569	2.4962	6	6	2	206.567	-3.927	-0.108	63.523	-2.735	Yes	No	No	-0.993	0	-0.729	-3.239	No	Yes	No	No	No	No	No	-0.402	No	No	-0.351	No	No	2.718	2.758	Yes	No	0.285	1.471
O=C(N(C)C)NC1CCC(CC1)CCN1CCN(CC1)c1cccc(c1Cl)Cl	427.42	4.3355	5	3	1	178.491	-5.001	1.121	87.075	-2.924	Yes	No	No	0.71	0.251	0.189	-2.521	No	Yes	No	No	No	Yes	No	0.554	No	No	-0.496	No	Yes	3.12	0.605	Yes	No	1.269	1.88
CCCC(COC(=O)N)(COC(=O)NC(C)C)C	260.334	2.0227	7	4	2	108.194	-1.81	0.88	89.151	-3.154	Yes	No	No	-0.309	0.491	-0.165	-2.968	No	No	No	No	No	No	No	1.191	No	No	0.719	No	No	2.543	1.674	No	No	0.422	1.736
ClCCNC(=O)N(CCCl)N=O	214.052	1.157	5	3	1	79.942	-1.82	1.243	100	-3.061	No	No	No	-0.369	0.643	-0.31	-3.06	No	No	No	No	No	No	No	0.743	No	Yes	0.726	No	No	3.68	0.466	No	Yes	1.109	1.808
OC(=O)C(c1ccc2c(c1)[nH]c1c2cc(cc1)Cl)C	273.719	4.1626	2	1	2	114.358	-4.278	1.316	89.06	-2.218	No	No	No	-0.299	0	0.148	-1.809	No	Yes	Yes	No	No	No	No	0.137	No	No	-0.047	No	No	2.55	1.058	No	No	0.926	-0.978
OC(COc1cccc2c1CCC(=O)N2)CNC(C)(C)C	292.379	1.6991	5	4	3	125.244	-2.472	0.327	88.23	-3.064	Yes	No	No	0.54	0.453	-0.439	-2.653	No	No	No	No	No	No	No	0.981	No	No	-0.255	No	No	2.171	1.925	No	No	0.373	1.739
COc1ccccc1OCCNCC(COc1cccc2c1c1ccccc1[nH]2)O	406.482	3.738	10	5	3	174.935	-3.426	0.964	90.585	-2.735	Yes	Yes	Yes	0.412	0	-1.023	-2.804	Yes	Yes	Yes	Yes	Yes	Yes	Yes	1.053	Yes	Yes	0.258	No	Yes	2.26	1.331	Yes	No	0.286	0.239
NCCNC1NC(=O)C2C(O)CCN2C(=O)C(NC(=O)C(NC(=O)C2N(C(=O)C(NC(=O)C(CC1O)NC(=O)CCCCCCCCC(CC(CC)C)C)C(O)C)CC(C2)O)C(C(c1ccc(cc1)O)O)O)C(CCN)O	1093.331	-3.3119	23	18	16	450.184	-2.889	-1.2	0	-2.735	Yes	No	No	-1.461	0.25	-3.398	-6.14	No	No	No	No	No	No	No	-1.283	No	No	0.495	No	Yes	2.482	7.251	Yes	No	0.285	22.871
NC(c1ccccc1)C(=O)NC1C(=O)N2C1SCC(=C2C(=O)O)Cl	367.814	0.6213	4	5	3	146.369	-2.518	0.397	44.071	-2.735	Yes	No	No	-0.568	0.593	-0.745	-3.019	No	No	No	No	No	No	No	0.415	No	No	1.251	No	No	2.17	2.315	Yes	No	0.285	2.431
O=C(C(c1ccc(cc1)O)N)NC1C(=O)N2C1SCC(=C2C(=O)O)C	363.395	0.1505	4	6	4	147.225	-2.712	-0.105	40.123	-2.735	Yes	No	No	0.359	0.883	-0.987	-3.221	No	No	No	No	No	No	No	0.361	No	No	0.039	No	No	2.34	1.98	Yes	No	0.285	3.499
CC(=O)OCC1=C(C(=O)O)N2C(SC1)C(C2=O)NC(=O)Cc1cccs1	396.446	0.5923	6	7	2	156.736	-2.345	0.383	56.684	-2.736	Yes	No	No	-1.186	0.392	-1.055	-3.57	No	No	No	No	No	No	No	0.214	No	No	0.993	No	No	1.973	2.882	Yes	No	0.273	3.796
OC(C(=O)NC1C(=O)N2C1SCC(=C2C(=O)O)CSc1nnnn1C)c1ccccc1	462.513	-0.2256	7	10	3	184.414	-3.186	-0.02	45.836	-2.735	Yes	No	No	-1.691	0.187	-1.435	-3.477	No	Yes	No	No	No	No	No	-0.044	No	No	1.658	No	No	1.488	2.441	Yes	No	0.285	2.05
O=COC(C(=O)NC1C(=O)N2C1SCC(=C2C(=O)O)CSc1nnnn1C)c1ccccc1	490.523	-0.0449	9	11	2	195.260	-3.318	-0.003	50.39	-2.735	Yes	No	No	-1.78	0.143	-1.652	-3.509	No	Yes	No	No	No	No	No	0	No	No	1.663	No	No	1.757	2.346	Yes	No	0.285	1.977
O=C(NC1C(=O)N2C1SCC(=C2C(=O)O)COC(=O)C)CSc1ccncc1	423.472	0.4754	7	8	2	168.439	-3.055	0.205	44.465	-2.735	No	No	No	-1.439	0.504	-1.419	-3.278	No	No	No	No	No	No	No	0.281	No	No	1.307	No	No	1.529	1.776	Yes	No	0.285	2.339
O=C(NC1C(=O)N2C1SCC(=C2C(=O)O)CSc1nnc(s1)C)Cn1cnnn1	454.519	-0.63608	7	12	2	175.668	-3.07	-0.206	49.127	-2.735	No	No	No	-1.971	0.266	-1.962	-3.666	No	Yes	No	No	No	No	No	0	No	No	1.244	No	No	1.667	2.388	Yes	No	0.285	1.983
ON=C(c1csc(n1)N)C(=O)NC1C(=O)N2C1SCC(=C2C(=O)O)C=C	395.422	-0.1718	5	9	4	154.610	-2.853	-0.434	32.733	-2.735	Yes	No	No	-0.929	0.713	-1.238	-3.39	No	No	No	No	No	No	No	0.083	No	No	1.209	No	No	2.056	2.237	Yes	No	0.285	4.006
CON=C(C(=O)NC1C(=O)N2C1SCC(=C2C(=O)O)C=Cc1scnc1C)c1csc(n1)N	506.591	1.29272	7	11	3	199.576	-3.064	-0.16	42.956	-2.735	Yes	No	No	-1.428	0.42	-1.51	-3.518	No	No	No	No	No	No	No	0.136	No	No	1.578	No	No	1.956	1.839	Yes	No	0.285	1.912
Nc1nc(cs1)C(=NOCC(=O)O)C(=O)NC1C2SCC(=C(N2C1=O)C(=O)O)C=C	453.458	-0.5448	8	10	4	176.615	-2.57	-0.557	6.312	-2.735	Yes	No	No	-1.403	0.559	-1.7	-3.875	No	No	No	No	No	No	No	0.075	No	No	2.055	No	No	1.709	2.157	Yes	No	0.285	4.313
CON=C(C(=O)NC1C(=O)N2C1SCC(=C2C(=O)O)CSc1nnnn1C)c1csc(n1)N	511.571	-0.8698	8	14	3	198.147	-2.902	-0.172	38.278	-2.735	Yes	No	No	-1.659	0.333	-1.858	-3.833	No	No	No	No	No	No	No	-0.023	No	No	1.735	No	No	1.966	2.419	Yes	No	0.285	2.506
N#CCSCC(=O)NC1(OC)C(=O)N2C1SCC(=C2C(=O)O)CSc1nnnn1C	471.546	-0.72832	9	12	2	183.287	-3.021	-0.113	37.155	-2.735	Yes	No	No	-1.503	0.372	-1.633	-3.604	No	No	No	No	No	No	No	0.433	No	No	1.634	No	No	1.487	2.659	Yes	No	0.285	2.399
O=C(C(c1ccccc1)O)NC1C(=O)N2C1SCC(=C2C(=O)O)CSc1nnnn1CS(=O)(=O)O	542.577	-0.9173	9	12	4	206.043	-2.875	-0.875	3.877	-2.735	Yes	No	No	-0.394	0.406	-2.12	-4.741	No	No	No	No	No	No	No	-0.087	No	No	0.716	No	No	2.359	2.854	Yes	No	0.285	4.12
CCN1CCN(C(=O)C1=O)C(=O)NC(c1ccc(cc1)O)C(=O)NC1C(=O)N2C1SCC(=C2C(=O)O)CSc1nnnn1C	645.68	-1.112	9	13	4	257.517	-2.957	-0.395	25.92	-2.735	Yes	No	No	-0.743	0.256	-2.039	-4.948	No	Yes	No	No	No	No	No	-0.135	No	No	1.489	No	No	2.294	3.24	Yes	No	0.285	6.211
NCc1ccccc1CC(=O)NC1C(=O)N2C1SCC(=C2C(=O)O)CSc1nnnn1CC(=O)O	519.565	-0.7102	10	11	4	206.645	-2.909	-0.594	10.038	-2.735	Yes	No	No	-0.962	0.398	-1.596	-4.588	No	No	No	No	No	No	No	0.08	No	No	1.483	No	No	2.009	2.966	Yes	No	0.285	3.644
CON=C(c1csc(n1)N)C(=O)NC1C(=O)N2C1SCC(=C2C(=O)O)COC(=O)C	455.474	-0.6225	7	11	3	177.624	-2.882	-0.433	32.455	-2.735	Yes	No	No	-0.972	0.693	-1.548	-3.492	No	No	No	No	No	No	No	0.16	No	No	1.402	No	No	1.916	2.211	Yes	No	0.285	4.815
COC1(NC(=O)C2SC(=C(C(=O)O)C(=O)N)S2)C(=O)N2C1SCC(=C2C(=O)O)CSc1nnnn1C	575.632	-1.3975	9	14	4	218.509	-2.908	-0.28	11.996	-2.735	Yes	No	No	-1.754	0.322	-2.136	-4.144	No	Yes	No	No	No	No	No	-0.087	No	No	2.027	No	No	1.975	2.88	Yes	No	0.285	4.039
CN(CCn1nnnc1SCC1=C(C(=O)O)N2C(SC1)C(C2=O)NC(=O)Cc1csc(n1)N)C	525.642	-0.6532	10	13	3	206.674	-2.556	-0.187	24.659	-2.735	Yes	No	No	-0.652	0.485	-1.741	-4.012	No	No	No	No	No	No	No	0.336	No	No	1.437	No	No	2.165	2.617	Yes	No	0.285	2.932
COC1(NC(=O)Cc2cccs2)C(=O)N2C1SCC(=C2C(=O)O)COC(=O)N	427.46	0.0986	7	8	3	167.190	-2.835	-0.249	37.154	-2.735	Yes	No	No	-1.913	0.429	-1.271	-3.682	No	No	No	No	No	No	No	0.166	No	No	2.047	No	No	1.506	2.719	Yes	No	0.285	3.402
Oc1ccc(cc1)C(C(=O)NC1C(=O)N2C1SCC(=C2C(=O)O)CSc1nnnn1C)NC(=O)c1cnc(cc1O)C	612.65	0.32672	9	13	5	245.926	-2.98	-0.407	36.283	-2.735	Yes	No	No	-0.519	0.061	-1.783	-4.914	No	Yes	No	No	No	No	No	-0.18	No	No	0.971	No	No	2.218	2.36	Yes	No	0.285	2.877
CON=C(c1csc(n1)N)C(=O)NC1C2SCC(=C(N2C1=O)C(=O)O)COC	427.464	-0.5392	7	10	3	167.097	-2.735	-0.498	27.477	-2.735	Yes	No	No	-1.232	0.673	-1.578	-3.824	No	No	No	No	No	No	No	0.317	No	No	1.408	No	No	1.868	1.883	Yes	No	0.285	4.551
CC=CC1=C(C(=O)O)N2C(SC1)C(C2=O)NC(=O)C(c1ccc(cc1)O)N	389.433	0.7067	5	6	4	159.266	-2.344	0.314	40.539	-2.735	Yes	No	No	0.297	0.769	-0.816	-3.279	No	No	No	No	No	No	No	0.016	No	No	-0.024	No	No	1.968	2.673	Yes	No	0.285	4.674
O=C(C(C1=CCC=CC1)N)NC1C(=O)N2C1SCC(=C2C(=O)O)C	349.412	0.3486	4	5	3	143.179	-2.439	-0.061	42.965	-2.735	No	No	No	-0.556	0.757	-0.875	-3.268	No	No	No	No	No	No	No	0.456	No	No	0.737	No	No	1.726	0.862	Yes	No	0.279	3.415
OC(=O)CC=C(C(=O)NC1C(=O)N2C1SCC=C2C(=O)O)c1csc(n1)N	410.433	-0.0482	6	8	4	160.287	-2.509	-0.414	14.955	-2.735	Yes	No	No	-1.313	0.579	-1.219	-3.57	No	No	No	No	No	No	No	0.276	No	No	1.122	No	No	1.829	2.186	Yes	No	0.285	3.571
CON=C(c1csc(n1)N)C(=O)NC1C2SCC=C(N2C1=O)C(=O)O	383.411	-0.5558	5	9	3	149.254	-2.714	-0.533	36.49	-2.735	Yes	No	No	-1.166	0.7	-1.403	-3.82	No	No	No	No	No	No	No	0.092	No	No	1.281	No	No	1.882	1.883	Yes	No	0.285	4.309
ON=C(c1nsc(n1)N)C(=O)NC1C(=O)N2C1SCC(=C2C(=O)O)C=C1CCN(C1=O)C1CNCC1	534.58	-1.4422	6	12	5	211.985	-2.779	-0.293	28.469	-2.735	Yes	No	No	-0.5	0.735	-1.389	-3.656	No	No	No	No	No	No	No	0.15	No	No	1.566	No	No	2.316	2.304	Yes	No	0.285	4.844
CON=C(c1csc(n1)N)C(=O)NC1C(=O)N2C1SCC(=C2C(=O)O)CSc1nc(=O)c(=O)[nH]n1C	554.592	-1.6113	8	14	4	213.324	-2.718	-0.446	22.08	-2.735	Yes	No	No	-0.855	0.387	-1.724	-4.194	No	No	No	No	No	No	No	-0.202	No	No	1.365	No	No	2.32	2.25	Yes	No	0.285	4.329
CON=C(C(=O)NC1C(=O)N2C1SCC(=C2C(=O)O)COC(=O)N)c1ccco1	424.391	-0.536	7	9	3	167.193	-2.939	-0.258	33.451	-2.735	Yes	No	No	-1.488	0.566	-1.249	-3.569	No	No	No	No	No	No	No	0.162	No	No	1.803	No	No	1.524	1.842	Yes	No	0.285	3.597
Cc1ccc(cc1)c1cc(nn1c1ccc(cc1)S(=O)(=O)N)C(F)(F)F	381.379	3.51392	3	4	1	147.480	-4.45	0.839	92.995	-2.692	Yes	Yes	Yes	-0.273	0.133	-0.931	-2.052	No	Yes	Yes	Yes	Yes	No	Yes	0.435	No	No	0.178	No	No	1.975	1.126	Yes	No	0.43	0.86
CCN(C(=O)Nc1ccc(c(c1)C(=O)C)OCC(CNC(C)(C)C)O)CC	379.501	2.8907	9	5	3	161.631	-3.278	0.853	86.352	-2.858	Yes	No	No	0.339	0.334	-1.233	-2.81	No	Yes	No	No	No	Yes	No	0.637	No	No	-0.422	No	Yes	2.432	1.7	Yes	No	0.498	0.305
NC(c1ccccc1)C(=O)NC1C(=O)N2C1SCC(=C2C(=O)O)C	347.396	0.4449	4	5	3	142.431	-2.354	0.393	44.114	-2.735	Yes	No	No	-0.497	0.602	-0.615	-3.025	No	No	No	No	No	No	No	0.482	No	No	1.247	No	No	2.163	2.33	Yes	No	0.284	2.606
CC(=O)OCC1=C(C(=O)O)N2C(SC1)C(C2=O)NC(=O)C(c1ccccc1)N	405.432	-0.0119	6	7	3	164.436	-2.266	-0.192	48.288	-2.735	Yes	No	No	-0.549	0.779	-0.799	-3.799	No	No	No	No	No	No	No	0.273	No	No	0.545	No	No	1.8	2.814	Yes	No	0.285	4.366
COCc1c(c2ccc(cc2)F)c(C=CC(CC(CC(=O)O)O)O)c(nc1C(C)C)C(C)C	459.558	4.8807	11	5	3	194.316	-5.196	0.584	54.529	-2.735	Yes	No	No	-1.561	0	-1.273	-3.144	No	Yes	No	No	No	No	No	0.833	No	No	-0.046	No	No	2.697	3.592	Yes	No	0.286	-0.109
CSCCC(C(=O)NC(C(=O)NC(C(=O)N)Cc1ccccc1)CC(=O)O)NC(=O)C(Cc1c[nH]c2c1cccc2)NC(=O)CNC(=O)C(C(O)C)NC(=O)C(NC(=O)C(NC(=O)C(NC(=O)C1CCC(=O)N1)CCC(=O)N)CC(=O)O)Cc1ccc(cc1)OS(=O)(=O)O	1352.426	-4.5153	38	19	17	540.195	-2.892	-1.067	0	-2.735	No	No	No	-0.636	0.24	-3.481	-7.337	No	No	No	No	No	No	No	-0.672	No	No	0.439	No	No	2.482	7.569	Yes	No	0.285	16.378
OC(=O)COCCN1CCN(CC1)C(c1ccc(cc1)Cl)c1ccccc1	388.895	3.1482	8	4	1	164.659	-2.92	1.328	90.344	-2.723	Yes	No	No	0.671	0.283	0.129	-2.536	No	Yes	No	No	No	No	No	0.443	No	No	-0.04	No	Yes	2.672	0.83	Yes	No	0.303	-0.335
OCC(C(=O)NC(C(=O)NC(C(=O)NC(C(=O)NC(C(=O)N1CCCC1C(=O)NC(C(=O)N)C)CCCNC(=N)N)CC(C)C)CCCNC(=O)N)Cc1ccc(cc1)O)NC(=O)C(Cc1cccnc1)NC(=O)C(Cc1ccc(cc1)Cl)NC(=O)C(Cc1ccc2c(c1)cccc2)NC(=O)C	1431.064	-0.50613	38	16	17	594.534	-2.892	-0.53	0	-2.735	Yes	Yes	Yes	-0.515	0.257	-2.886	-6.148	No	Yes	No	No	No	No	No	-0.986	No	No	0.438	No	Yes	2.482	9.586	Yes	No	0.285	14.621
CCCCCCCCCCCCCCCCO	242.447	5.46	14	1	1	109.008	-6.889	1.464	89.803	-2.461	No	No	No	0.476	0.108	0.798	-1.737	No	Yes	Yes	No	No	No	No	1.872	No	No	0.029	No	No	1.574	1.139	No	Yes	2.056	-0.929
CC1SCC2(O1)CN1CCC2CC1	199.319	1.5602	0	3	0	84.003	-2.045	1.367	95.63	-3.066	No	No	No	0.698	0.636	0.033	-3.285	No	No	No	No	No	No	No	1.039	No	No	0.48	No	No	2.846	1.141	Yes	Yes	0.232	2.159
OC1CCC2(C(C1)CC(C1C2CCC2(C1CCC2C(CCC(=O)O)C)C)O)C	392.58	4.4779	4	3	3	169.654	-3.914	0.487	93.644	-2.731	No	No	Yes	-0.852	0.104	-0.475	-2.18	No	Yes	No	No	No	No	No	0.603	No	No	-0.828	No	No	2.131	1.884	No	No	0.315	0.273
OC(C(Cl)(Cl)Cl)O	165.403	0.6673	0	2	2	55.602	-0.111	1.606	96.653	-2.549	Yes	No	No	-0.389	0.74	-0.359	-2.842	No	No	No	No	No	No	No	0.276	No	Yes	1.303	No	No	2.657	0.526	No	No	-0.422	2.411
CN1CCN(CC1)C(c1ccc(cc1)Cl)c1ccccc1	300.833	3.6768	3	2	0	131.495	-3.449	1.593	92.454	-2.752	Yes	No	Yes	1.93	0.105	0.821	-1.027	Yes	Yes	No	Yes	No	Yes	No	0.693	Yes	No	0.233	No	Yes	2.714	1.002	Yes	Yes	1.434	2.205
N=C(NC(=N)Nc1ccc(cc1)Cl)NCCCCCCNC(=N)NC(=N)Nc1ccc(cc1)Cl	505.458	4.17528	9	4	10	208.785	-2.892	0.097	45.584	-2.735	Yes	Yes	No	0.027	0.385	-2.632	-2.91	No	Yes	Yes	No	No	Yes	No	0.719	Yes	No	0.414	Yes	Yes	2.446	4.024	No	No	0.285	2.581
CN1C(=O)CCS(=O)(=O)C1c1ccc(cc1)Cl	273.741	1.6155	1	3	0	105.100	-2.708	1.299	93.341	-3.439	No	No	No	-0.334	0.257	0.313	-2.332	No	Yes	Yes	No	No	No	No	0.178	No	No	0.631	No	No	3.005	1.082	Yes	No	0.828	1.5
CC(C(Cl)(Cl)Cl)(O)C	177.458	2.1275	0	1	1	63.538	-1.454	1.515	91.395	-2.143	Yes	No	No	-0.16	0.636	0.131	-2.666	No	No	No	No	No	No	No	0.252	No	Yes	1.058	No	Yes	2.53	1.424	No	Yes	0.642	1.736
ClC(Cl)Cl	119.378	1.9864	0	0	0	39.649	-1.574	1.412	93.769	-2.037	Yes	No	No	-0.054	0.655	0.175	-2.262	No	No	No	No	No	No	No	0.285	No	No	1.047	No	No	2.53	1.635	No	No	1.066	1.559
CCN(CCOC(=O)c1ccc(cc1Cl)N)CC	270.76	2.4208	6	4	1	112.664	-2.826	1.271	90.351	-2.913	No	No	No	0.693	0.443	0.116	-2.934	No	No	No	No	No	No	No	0.872	No	No	0.775	No	No	2.046	0.824	No	No	0.723	2.059
CCN(CCCC(Nc1ccnc2c1ccc(c2)Cl)C)CC	319.88	4.8106	8	3	1	138.230	-3.84	1.471	88.665	-2.764	Yes	No	No	1.371	0.185	0.382	-2.336	Yes	Yes	No	No	No	No	No	1.072	Yes	Yes	0.14	No	Yes	2.818	0.924	Yes	No	1.346	0.559
Clc1cc2NC=NS(=O)(=O)c2cc1S(=O)(=O)N	295.729	0.1299	1	5	2	102.400	-3.047	0.405	79.242	-3.212	No	No	No	-0.5	0.445	-0.945	-3.157	No	No	No	No	No	No	No	0.031	No	No	0.303	No	No	2.084	2.217	Yes	No	0.408	2.222
Clc1cc(Cl)c2c(c1O)nccc2	214.051	3.2472	0	2	1	84.733	-3.597	1.48	92.006	-2.348	No	No	No	0.302	0.366	0.605	-2.249	No	No	Yes	No	No	No	No	0.315	No	No	0.581	No	No	2.416	1.25	No	No	1.067	0.59
Oc1cc(C)c(c(c1)C)Cl	156.612	2.66244	0	1	1	65.259	-2.137	1.491	92.086	-1.531	No	No	No	0.176	0.384	0.136	-2.01	No	No	Yes	No	No	No	No	0.028	No	No	1.069	No	No	2.077	2.062	No	Yes	0.618	1.121
CN(CCC(c1ccccn1)c1ccc(cc1)Cl)C	274.795	3.8186	5	2	0	119.596	-3.153	1.765	94.746	-2.395	Yes	No	No	1.063	0.224	0.539	-1.654	No	Yes	Yes	No	No	Yes	No	0.771	Yes	No	0.051	No	Yes	2.729	0.929	Yes	No	1.449	0.717
OCC(COc1ccc(cc1)Cl)O	202.637	1.072	4	3	2	81.532	-1.389	1.193	79.846	-3.089	No	No	No	-0.023	0.48	-0.214	-2.725	No	No	No	No	No	No	No	0.276	No	No	0.908	No	No	2.116	1.306	No	No	-0.033	1.971
OC(COC(=N)O)COc1ccc(cc1)Cl	245.662	1.58907	5	4	3	97.695	-1.773	0.291	88.21	-3.429	No	No	No	-0.658	0.41	-1.038	-2.922	No	No	Yes	No	No	No	No	0.219	No	No	1.293	No	No	2.644	1.032	No	No	0.252	3.08
CN(CCCN1c2ccccc2Sc2c1cc(Cl)cc2)C	318.873	4.8944	4	3	0	135.253	-5.128	1.32	92.213	-2.46	Yes	Yes	Yes	1.632	0.065	0.832	-1.421	Yes	Yes	Yes	No	No	Yes	No	0.6	No	No	0.342	No	Yes	2.84	0.679	Yes	No	2.07	0.984
CCCNC(=O)NS(=O)(=O)c1ccc(cc1)Cl	276.745	1.7379	4	3	2	105.216	-2.829	1.353	90.789	-3.188	Yes	No	No	-0.601	0.288	-0.558	-2.98	No	No	No	No	No	No	No	-0.057	No	No	1.191	No	No	2.335	1.484	No	No	0.653	1.956
CN(CCC=C1c2ccccc2Sc2c1cc(Cl)cc2)C	315.869	5.188	3	2	0	135.169	-5.41	1.307	93.263	-2.707	Yes	No	Yes	1.581	0.022	0.938	-1.11	No	Yes	No	No	No	Yes	No	0.523	No	No	0.223	No	Yes	2.843	1.056	Yes	No	1.072	1.061
Cc1ccc2c(n1)c(O)c(cc2Cl)Cl	228.078	3.55562	0	2	1	91.098	-3.171	0.988	92.329	-2.683	Yes	No	No	0.273	0.321	0.606	-2.201	No	No	Yes	No	No	No	No	0.266	No	Yes	0.746	No	No	2.259	1.186	No	No	1.267	0.018
CN(C1C(=C(C(=N)O)C(=O)C2(C1CC1C(=C2O)C(=O)c2c(C1(C)O)c(Cl)ccc2O)O)O)C	478.885	1.48897	2	9	7	192.711	-2.443	0.724	50.169	-2.735	Yes	No	No	0.161	0.437	-1.394	-4.383	No	No	No	No	No	No	No	0.09	No	No	0.604	No	No	2.721	3.784	No	No	0.285	6.078
O=C1NC(c2c1cccc2)(O)c1ccc(c(c1)S(=O)(=O)N)Cl	338.772	0.9242	2	4	3	131.122	-3.305	-0.291	77.958	-2.767	Yes	No	No	-0.416	0.162	-0.936	-2.671	No	Yes	Yes	No	No	No	No	-0.253	No	No	0.06	No	Yes	1.73	2.274	No	No	0.498	0.897
