SMILES	MOL_WEIGHT	LOGP	#ROTATABLE_BONDS	#ACCEPTORS	#DONORS	SURFACE_AREA	Water solubility	Caco2 permeability	Intestinal absorption (human)	Skin Permeability	P-glycoprotein substrate	P-glycoprotein I inhibitor	P-glycoprotein II inhibitor	VDss (human)	Fraction unbound (human)	BBB permeability	CNS permeability	CYP2D6 substrate	CYP3A4 substrate	CYP1A2 inhibitior	CYP2C19 inhibitior	CYP2C9 inhibitior	CYP2D6 inhibitior	CYP3A4 inhibitior	Total Clearance	Renal OCT2 substrate	AMES toxicity	Max. tolerated dose (human)	hERG I inhibitor	hERG II inhibitor	Oral Rat Acute Toxicity (LD50)	Oral Rat Chronic Toxicity (LOAEL)	Hepatotoxicity	Skin Sensitisation	<i>T.Pyriformis</i> toxicity	Minnow toxicity
NC(C(=O)O)CCCN	132.163	-0.8628	4	3	3	53.835	-2.613	0.423	59.592	-2.742	No	No	No	-0.506	0.663	-0.437	-3.129	No	No	No	No	No	No	No	0.457	No	No	1.404	No	No	1.829	2.961	No	No	-0.141	2.997
CN(CCOC(c1ccccc1C)c1ccccc1)C	269.388	3.66262	6	2	0	121.552	-3.572	1.651	95.312	-2.283	No	No	No	1.396	0.089	0.843	-1.573	No	Yes	No	No	No	Yes	No	0.742	Yes	No	0.667	Yes	Yes	2.621	0.598	No	Yes	1.281	2.178
CCOC(=O)C1=CC(C(C(C1)N)NC(=O)C)OC(CC)CC	312.41	1.2854	7	5	2	131.958	-2.074	0.745	73.8	-3.065	No	No	No	-0.179	0.687	-0.537	-3.411	No	No	No	No	No	No	No	0.952	No	No	0.121	No	No	2.865	0.62	No	No	0.101	2.084
C=CC(=O)Nc1cc(Nc2nccc(n2)c2cn(c3c2cccc3)C)c(cc1N(CCN(C)C)C)OC	499.619	4.5098	10	8	2	216.940	-4.078	1.079	94.751	-2.735	Yes	Yes	Yes	0.894	0.19	-1.236	-2.689	No	Yes	No	Yes	No	No	Yes	0.575	No	No	0.805	No	Yes	2.958	1.349	Yes	No	0.285	1.001
ClCCC(=C(c1ccccc1)c1ccc(cc1)OCCO)c1ccccc1	378.899	5.6457	8	2	1	165.257	-6.367	1.239	98.408	-2.737	Yes	Yes	Yes	-0.026	0.11	1.124	-1.542	No	Yes	Yes	Yes	No	No	Yes	0.189	No	Yes	0.425	No	Yes	2.593	1.566	No	No	0.299	0.021
O=c1[nH]c(=O)[nH]c(n1)C(=O)O	157.085	-1.8436	1	4	3	58.734	-2.618	-0.459	28.364	-2.735	No	No	No	-1.585	0.631	-1.367	-3.972	No	No	No	No	No	No	No	0.823	No	No	0.885	No	No	1.931	3.032	No	No	0.285	3.439
OCC12C(O)CC(CC2(O)CCC2C1C(O)CC1(C2(O)CCC1C1=CC(=O)OC1)C)OC1OC(C)C(C(C1O)O)O	584.659	-1.515	4	12	8	238.089	-3.289	-0.359	41.904	-2.736	Yes	No	No	0.031	0.48	-1.807	-4.584	No	No	No	No	No	No	No	0.726	No	No	-0.988	No	Yes	3.243	3.534	No	No	0.285	6.298
OC(=O)C1N2C(=O)C(C2SC1(C)C)NC(=O)c1c(C)onc1c1ccccc1	401.444	1.89532	4	6	2	164.803	-3.129	1.036	64.458	-2.804	Yes	No	No	-0.904	0.135	-1.154	-2.982	No	Yes	No	No	No	No	No	0.177	No	No	0.055	No	No	2.224	0.862	Yes	No	0.329	3.223
O=C1OCC2(C(C1)CCC1C2CCC2(C1CCC2(C)O)C)C	306.446	3.5431	0	3	1	133.354	-4.143	1.386	96.121	-3.181	No	Yes	No	0.17	0.133	0.099	-2.439	No	Yes	No	No	No	No	No	0.58	Yes	No	-0.565	No	No	1.905	1.54	No	No	0.917	1.007
OC(=O)CCc1nc(c(o1)c1ccccc1)c1ccccc1	293.322	4.0258	5	3	1	127.610	-4.433	0.834	92.831	-2.703	No	No	Yes	-0.392	0.193	0.201	-2.177	No	Yes	No	No	No	No	No	0.901	No	No	0.797	No	No	2.168	1.914	Yes	No	0.338	-0.86
O=C1Nc2ccc(cc2C(=NC1O)c1ccccc1)Cl	286.718	2.4479	1	3	2	120.282	-3.579	1.27	94.174	-2.852	Yes	No	No	-0.216	0.14	-0.062	-2.078	No	Yes	Yes	No	No	No	No	0.144	No	No	0.121	No	Yes	2.646	1.301	No	No	1.114	1.618
O=C1Cc2ccccc2N(c2c1cccc2)C(=O)N	252.273	2.6422	0	2	1	110.000	-3.687	0.927	95.755	-2.716	Yes	No	No	0.224	0.09	0.033	-1.871	No	Yes	Yes	Yes	No	No	No	0	No	No	0.1	No	No	2.027	0.94	No	No	1.496	0.831
CCN(CCOCCOC(=O)C(c1ccccc1)(CC)CC)CC	335.488	3.646	12	4	0	146.689	-3.801	1.46	93.708	-2.707	No	Yes	No	1.014	0.205	0.15	-2.992	No	Yes	Yes	No	No	No	No	1.142	No	No	0.888	No	Yes	2.456	1.576	Yes	Yes	1.358	1.428
OCCN(CC(=O)N(C(Cc1ccccc1)(C)C)C)CC(=O)N(C(Cc1ccccc1)(C)C)C	467.654	3.2401	12	4	1	204.724	-4.384	0.815	92.523	-2.732	Yes	Yes	Yes	0.719	0.09	-0.265	-2.824	No	Yes	No	Yes	No	Yes	Yes	0.974	No	No	-0.453	No	Yes	2.845	1.528	No	No	0.462	3.976
Clc1ccc(c(c1)Cl)CON=C(c1ccc(cc1Cl)Cl)Cn1cncc1	429.134	6.1178	6	4	0	170.455	-2.952	-0.103	85.052	-2.747	Yes	Yes	Yes	0.115	0.015	0.296	-1.434	No	Yes	Yes	Yes	Yes	Yes	Yes	0.43	Yes	No	0.379	No	Yes	2.682	0.334	No	No	0.285	-0.57
OC(P(=O)(O)O)P(=O)(O)O	192.0	-1.3823	2	3	5	55.636	-0.426	-0.649	20.943	-3.204	No	No	No	-0.102	0.763	-1.303	-4.077	No	No	No	No	No	No	No	0.194	No	No	1.272	No	No	1.865	3.689	No	No	0.285	3.772
CNC(C(c1ccc(cc1)O)O)C	181.235	1.0335	3	3	3	78.030	-1.472	1.135	82.151	-2.795	No	No	No	0.866	0.704	-0.244	-2.536	No	No	No	No	No	No	No	0.927	No	No	-0.316	No	No	2.312	1.759	No	Yes	0.038	2.336
OC(=O)C(Cc1c[nH]c2c1cc(O)cc2)N	220.228	0.8279	3	3	4	91.507	-2.656	-0.43	58.489	-2.735	Yes	No	No	0.576	0.553	-0.859	-2.882	No	No	No	No	No	No	No	0.62	No	No	-0.3	No	No	2.641	1.764	No	No	0.28	1.616
CCN(CCc1onc(n1)c1ccccc1)CC	245.326	2.6209	6	4	0	107.623	-2.458	1.392	94.231	-2.63	No	No	No	0.786	0.289	0.388	-1.969	No	Yes	Yes	No	No	No	No	0.713	No	Yes	0.522	No	No	2.419	1.835	Yes	No	0.877	1.674
C=CCOc1ccccc1OCC(CNC(C)C)O	265.353	1.9891	9	4	2	114.597	-2.331	1.493	93.288	-2.671	Yes	No	No	0.771	0.404	0.009	-2.867	No	No	Yes	No	No	Yes	No	0.824	No	No	0.416	No	No	2.205	1.489	Yes	No	0.585	0.492
Cn1c(=O)n(C)c2c(c1=O)[nH]cn2	180.167	-1.0397	0	5	1	72.454	-1.931	1.514	100	-2.735	Yes	No	No	0.883	0.792	-0.359	-3.081	No	No	No	No	No	No	No	0.306	No	No	0.805	No	No	2.666	0.75	Yes	No	0.285	3.132
COc1ccc(c(c1)O)C(=O)c1ccccc1	228.247	2.6318	3	3	1	99.288	-3.057	1.256	95.422	-2.781	No	No	No	0.024	0.103	0.285	-1.542	No	Yes	Yes	Yes	No	No	No	0.286	No	Yes	0.389	No	No	2.111	2.213	No	No	1.187	0.475
CCCCOc1cc(ccc1N)C(=O)OCCN(CC)CC	308.422	2.9463	10	5	1	132.934	-2.811	0.882	90.609	-2.768	Yes	No	No	1.185	0.515	-0.248	-2.873	No	No	Yes	No	No	Yes	No	1.102	Yes	No	0.126	No	No	2.463	0.84	Yes	No	0.329	0.818
CCN(CC#CCOC(=O)C(c1ccccc1)(C1CCCCC1)O)CC	357.494	3.3429	7	4	1	157.093	-4.462	1.278	91.593	-2.916	Yes	Yes	Yes	1.007	0.052	0.106	-2.371	No	Yes	Yes	Yes	No	Yes	Yes	0.657	No	No	-0.05	No	Yes	2.36	1.652	Yes	No	1.14	2.72
COc1ccc2c3c1OC1C43CCN(C(C2)C4(O)CCC1=O)C	315.369	1.0482	1	5	1	134.730	-1.81	1.178	89.527	-3.259	Yes	No	No	1.045	0.565	-0.07	-2.51	No	Yes	No	No	No	No	No	1.165	No	No	-0.262	No	No	2.623	1.743	No	No	0.322	2.458
Cc1cc(c(c(c1CC1=NCCN1)C)O)C(C)(C)C	260.381	2.85074	2	3	2	115.314	-3.496	1.313	91.977	-2.758	Yes	No	No	0.82	0.106	0.134	-1.736	No	Yes	Yes	Yes	No	No	No	0.858	Yes	Yes	0.158	No	No	2.761	0.954	No	Yes	1.638	1.747
OC=C1CC2(C)C(CC1=O)CCC1C2CCC2(C1CCC2(C)O)C	332.484	4.401	0	3	2	145.075	-4.656	1.436	93.379	-3.43	No	Yes	No	0.221	0.07	-0.134	-1.625	No	Yes	No	No	No	No	Yes	0.538	No	No	-0.527	No	No	2.092	1.872	Yes	No	0.915	0.65
O=C1CCC2(C34C1Oc1c4c(CC2N(CC3)C)ccc1O)O	301.342	0.7452	0	5	2	128.046	-2.072	0.21	83.551	-3.273	Yes	No	No	1.074	0.678	-0.379	-3.39	No	Yes	No	No	No	No	No	1.154	No	No	-0.734	No	No	2.665	1.113	No	No	0.296	2.624
CCCCC1C(=O)N(N(C1=O)c1ccc(cc1)O)c1ccccc1	324.38	3.4934	5	3	1	140.644	-4.212	1.355	93.792	-2.776	No	Yes	No	-0.106	0	0.018	-2.236	No	Yes	Yes	Yes	Yes	No	Yes	0.157	No	Yes	-0.096	No	Yes	2.241	1.735	No	No	0.552	0.734
CN1CCCN=C1COC(=O)C(c1ccccc1)(C1CCCCC1)O	344.455	2.7317	5	5	1	149.253	-3.808	1.045	91.643	-2.903	Yes	Yes	No	0.417	0.037	-0.012	-2.388	No	Yes	No	Yes	No	No	No	1.292	No	Yes	-0.239	No	No	2.612	0.596	Yes	No	0.958	3.089
CC(=O)Oc1ccc(cc1)C1(c2ccc(cc2)OC(=O)C)C(=O)Nc2c1cccc2	401.418	3.8237	4	5	1	172.991	-4.721	1.035	99.324	-2.735	No	Yes	Yes	-1.265	0.171	-0.507	-2.29	No	Yes	Yes	Yes	Yes	No	Yes	0.374	No	No	0.339	No	Yes	2.469	0.389	Yes	No	0.286	-2.78
Oc1cccc2c1nccc2	145.161	1.9404	0	2	1	64.127	-1.188	1.787	94.519	-2.13	No	No	No	-0.128	0.357	0.492	-2.153	No	No	Yes	No	No	No	No	0.265	No	No	0.381	No	No	2.123	2.528	No	No	0.136	1.176
CN(C1C(=C(C(=O)N)C(=O)C2(C1C(O)C1C(=C2O)C(=O)c2c(C1(C)O)cccc2O)O)O)C	460.439	-1.2436	2	10	7	187.223	-2.723	0.428	30.368	-2.735	Yes	No	No	0.492	0.407	-1.136	-4.053	No	No	No	No	No	No	No	0.31	No	No	1.156	No	No	2.393	4.248	No	No	0.285	6.544
CNc1ncc(cc1C)c1ccc2c(c1C)n(cc(c2=O)C(=O)O)C1CC1	363.417	3.75514	4	5	2	156.035	-3.605	1.071	94.605	-2.735	Yes	No	No	-0.802	0.344	-0.492	-2.145	No	No	Yes	No	No	No	No	0.81	No	No	0.991	No	No	2.515	1.217	Yes	No	0.287	1.551
CC(=O)OC1C(=O)C2(C)C(O)CC3C(C2C(C2(C(C1=C(C)C(OC(=O)C(C(c1ccccc1)NC(=O)c1ccccc1)O)C2)(C)C)O)OC(=O)c1ccccc1)(CO3)OC(=O)C	853.918	3.7357	10	14	4	357.885	-3.214	0.672	100	-2.735	Yes	Yes	Yes	1.168	0.031	-1.761	-3.736	No	Yes	No	No	No	No	Yes	-0.284	No	No	0.233	No	Yes	2.821	2.941	Yes	No	0.285	1.556
CCCCC(COC(=O)c1ccc(cc1)N(C)C)CC	277.408	4.1258	8	3	0	122.481	-5.065	1.287	94.356	-2.337	No	No	No	0.428	0.083	0.492	-1.982	No	Yes	Yes	Yes	No	No	No	0.998	Yes	No	1.195	No	No	1.806	2.228	No	Yes	1.977	-0.379
CC(=O)c1c(C)c2cnc(nc2n(c1=O)C1CCCC1)Nc1ccc(cn1)N1CCNCC1	447.543	2.96582	5	9	2	191.809	-2.978	0.624	86.168	-2.739	Yes	Yes	No	0.797	0.262	-1.129	-3.177	No	Yes	No	No	No	No	No	0.754	No	No	-0.351	No	Yes	2.678	1.411	Yes	No	0.285	1.633
Fc1ccc2c(c1)onc2C1CCN(CC1)CCc1c(C)nc2n(c1=O)CCCC2O	426.492	3.08132	4	7	1	179.034	-3.513	0.97	91.439	-2.927	Yes	Yes	Yes	0.843	0.237	-0.815	-2.324	No	Yes	No	No	No	No	Yes	0.793	Yes	No	-0.614	No	Yes	2.86	0.45	Yes	No	0.35	0.176
CCCCCCCCCCCCCCCC(=O)O	256.43	5.5523	14	1	1	113.169	-5.562	1.558	92.004	-2.717	No	No	No	-0.543	0.101	-0.111	-1.816	No	Yes	No	No	No	No	No	1.763	No	No	-0.708	No	No	1.44	3.181	No	Yes	0.84	-1.083
O=C1N(CC2c3c1cccc3CCC2)C1CN2CCC1CC2	296.414	2.6565	1	2	0	131.834	-3.421	1.575	93.135	-2.788	Yes	No	No	1.71	0.289	0.533	-1.656	Yes	Yes	No	No	No	Yes	No	1.257	Yes	No	-0.652	No	No	2.577	2.089	Yes	No	0.389	0.354
NCCC(P(=O)(O)O)(P(=O)(O)O)O	235.069	-1.6633	4	4	6	73.706	0.046	0.232	0	-2.831	No	No	No	0.415	0.67	-1.39	-4.831	No	No	No	No	No	No	No	0.064	No	No	0.986	No	No	1.886	4.51	No	No	0.285	3.535
ON=C(C=Cc1ccc(cc1)CNCCc1c(C)[nH]c2c1cccc2)O	349.434	4.16752	7	3	4	152.232	-3.734	0.735	85.892	-2.742	Yes	Yes	Yes	1.191	0.201	-0.674	-2.17	Yes	Yes	Yes	Yes	No	Yes	Yes	1.012	No	Yes	0.166	No	Yes	2.718	1.98	Yes	No	0.302	-0.408
OCC(C(C(=O)NCCC(=O)NCCSSCCNC(=O)CCNC(=O)C(C(CO)(C)C)O)O)(C)C	554.732	-1.6284	19	10	8	220.072	-2.41	0.386	0.457	-2.745	Yes	No	No	-1.273	0.624	-1.617	-4.102	No	No	No	No	No	No	No	0.66	No	No	1.824	No	No	1.714	2.758	No	No	0.285	4.181
COc1c(OC)ccnc1CS(=O)c1nc2c([nH]1)cc(cc2)OC(F)F	383.376	2.8843	7	6	1	149.324	-3.023	1.287	88.845	-2.735	Yes	No	No	0.138	0.321	-0.727	-3.531	No	No	Yes	No	No	No	No	0.844	Yes	Yes	0.47	No	No	2.249	1.817	Yes	No	0.285	-0.041
OCC(C(C(=O)NCCC(=O)O)O)(C)C	219.237	-1.0433	6	4	4	87.914	-0.703	-0.462	32.84	-2.735	No	No	No	-1.174	0.745	-0.811	-3.63	No	No	No	No	No	No	No	0.591	No	No	0.777	No	No	1.27	2.415	No	No	0.272	3.075
COc1ccc(cc1OC)Cc1nccc2c1cc(OC)c(c2)OC	339.391	3.86	6	5	0	146.669	-4.704	1.399	99.075	-2.71	No	No	Yes	0.137	0.168	0.25	-2.298	No	Yes	Yes	Yes	No	No	Yes	0.394	No	No	0.732	No	Yes	2.507	1.262	Yes	No	0.4	-0.939
Oc1ccc(cc1)Cl	128.558	2.0456	0	1	1	52.529	-1.355	1.647	91.572	-1.608	No	No	No	0.053	0.401	0.104	-1.899	No	No	No	No	No	No	No	0.108	No	No	1.043	No	No	2.187	1.974	No	Yes	-0.032	1.533
CC1OC(C)OC(O1)C	132.159	1.0878	0	3	0	54.899	-0.416	1.744	100	-3.148	No	No	No	-0.103	0.729	-0.02	-2.849	No	No	No	No	No	No	No	0.533	No	No	1.136	No	No	2.036	1.982	No	Yes	-0.897	2.415
CCC1(C)OC(=O)N(C1=O)C	157.169	0.7637	1	3	0	65.119	-0.836	1.213	98.24	-3.757	No	No	No	-0.082	0.719	-0.212	-3.014	No	No	No	No	No	No	No	0.571	No	No	1.138	No	No	2.189	2.286	Yes	No	-0.394	2.283
CC(=O)OCC(=O)C1(O)C(C)CC2C1(C)CC(O)C1C2CC(C2=CC(=O)C=CC12C)F	434.504	2.3224	3	6	2	181.083	-3.763	0.919	76.858	-3.182	Yes	No	No	0.294	0.224	-0.237	-2.884	No	No	No	No	No	No	No	0.493	No	No	-1.056	No	No	3.159	1.999	No	No	0.289	2.124
CCC(=O)NS(=O)(=O)c1ccc(cc1)c1c(C)onc1c1ccccc1	370.43	3.53192	5	5	1	151.443	-4.876	1.27	94.629	-2.741	No	Yes	Yes	-0.364	0.115	-0.612	-2.427	No	Yes	Yes	Yes	Yes	No	Yes	0.903	No	No	0.546	No	Yes	2.591	1.015	Yes	No	0.336	-0.565
CN(Cc1ccccc1)CC#C	159.232	1.7516	3	1	0	74.015	-1.648	1.532	95.021	-1.788	No	No	No	0.93	0.406	0.781	-1.557	Yes	No	No	No	No	No	No	0.941	Yes	No	0.523	No	No	2.249	1.58	No	Yes	0.389	0.995
OC1CC(O)CC(=CC=C2CCCC3(C2CCC3C(C=CC(C(O)(C)C)C)C)C)C1	416.646	5.5606	5	3	3	183.524	-5.442	1.24	90.392	-2.904	Yes	Yes	Yes	-0.431	0.015	-0.46	-1.777	No	Yes	No	No	No	No	No	0.822	No	No	-2.355	No	No	4.103	1.936	Yes	No	0.575	0.79
Cc1ncc(nc1)C(=O)NC1CCCCCC=CC2C(NC(=O)C3N(C1=O)CC(C3)Oc1nc3ccccc3c3c1cccc3)(C2)C(=O)NS(=O)(=O)C1CC1	765.893	3.63692	7	10	3	318.121	-3.497	0.722	82.162	-2.735	Yes	Yes	Yes	-0.308	0.187	-1.87	-3.811	No	Yes	No	No	No	No	Yes	-0.529	No	No	0.615	No	Yes	2.648	3.309	Yes	No	0.285	1.602
OCC1OC(C(C1OC1OC(CN)C(C(C1N)O)O)O)OC1C(O)C(N)CC(C1OC1OC(CO)C(C(C1N)O)O)N	615.634	-8.8617	9	19	13	240.479	-2.449	-0.805	0	-2.735	Yes	No	No	-1.4	0.886	-2.439	-6.188	No	No	No	No	No	No	No	0.394	No	No	1.314	No	Yes	2.176	4.326	No	No	0.285	12.421
Fc1ccc(cc1)C1CCNCC1COc1ccc2c(c1)OCO2	329.371	3.3265	4	4	1	140.087	-3.607	2.013	91.367	-2.749	No	Yes	Yes	0.917	0.099	0.401	-1.536	Yes	Yes	Yes	No	Yes	No	Yes	0.775	Yes	Yes	0.203	No	Yes	2.636	1.534	Yes	No	0.841	1.383
CC1=CCCC2(C)OC2C2C(CC1)C(=C)C(=O)O2	248.322	2.762	0	3	0	107.840	-3.213	1.65	98.029	-3.282	No	No	No	0.253	0.438	0.165	-3.038	No	No	No	No	No	No	No	1.158	Yes	Yes	0.31	No	No	2.03	1.642	No	Yes	0.462	1.582
NCCCCC1NC(=O)C(NC(=O)C(NC(=O)C2N(C(=O)C(NC(=O)C(NC1=O)Cc1ccc(cc1)OCc1ccccc1)Cc1ccccc1)CC(C2)OC(=O)NCCN)c1ccccc1)Cc1c[nH]c2c1cccc2	1047.227	3.3685	17	11	9	446.124	-2.892	-0.092	53.293	-2.735	Yes	Yes	Yes	0.044	0.338	-1.876	-4.164	No	Yes	No	No	No	No	No	-0.729	No	No	0.442	No	Yes	2.482	7.75	Yes	No	0.285	8.006
CN(c1ccc2c(c1)nn(c2C)C)c1ccnc(n1)Nc1ccc(c(c1)S(=O)(=O)N)C	437.529	3.13904	5	8	2	180.144	-3.416	0.542	97.947	-2.739	Yes	Yes	Yes	0.042	0.03	-0.474	-2.508	No	Yes	Yes	No	Yes	No	Yes	0.271	No	No	0.214	No	Yes	2.949	1.741	Yes	No	0.29	0.273
CCn1cc(C(=O)O)c(=O)c2c1cc(N1CCN(CC1)C)c(c2)F	333.363	1.6105	3	5	1	138.259	-3.268	1.436	95.466	-2.732	Yes	No	No	-0.078	0.455	0.429	-2.935	No	No	No	No	No	No	No	0.288	No	Yes	0.554	No	No	1.915	1.794	Yes	No	0.305	1.195
COCCOCCCCCC(=O)NCCCCC(C(=O)O)N	318.414	0.9082	15	5	3	132.083	-2.89	-0.307	38.289	-2.735	Yes	No	No	-0.554	0.412	-1.158	-3.613	No	No	No	No	No	No	No	1.052	No	No	0.959	No	No	2.164	1.775	Yes	No	0.28	1.508
OC(=O)CCC(C(=O)O)NC(=O)c1ccc(cc1)CCc1c[nH]c2c1c(O)nc(=N)[nH]2	427.417	0.90907	9	6	7	174.841	-2.928	-1.06	10.105	-2.735	Yes	No	No	-0.129	0.224	-2.192	-4.329	No	No	No	No	No	No	No	0.372	No	No	0.495	No	No	2.602	3.689	Yes	No	0.285	3.518
Cc1cccn2c1ncc(c2=O)c1n[nH]nn1	228.215	0.18302	1	6	1	95.137	-2.582	1.022	100	-2.735	No	No	No	0.431	0.462	-1.379	-4.162	No	No	Yes	No	No	No	No	0.458	No	No	0.594	No	No	2.274	2.467	Yes	No	0.288	2.412
O=C1N=C(OC1c1ccccc1)N	176.175	0.5992	1	3	1	75.031	-1.448	0.369	86.937	-2.989	No	No	No	0.119	0.489	-0.307	-2.488	No	No	No	No	No	No	No	0.164	No	No	0.108	No	No	2.248	1.272	Yes	No	0.234	2.115
OC(COc1ccccc1C1CCCC1)CNC(C)(C)C	291.435	3.472	6	3	2	128.263	-3.8	1.694	88.159	-2.665	Yes	No	No	1.104	0.149	-0.026	-1.59	No	Yes	Yes	No	No	Yes	No	0.972	Yes	Yes	-0.361	No	Yes	2.152	1.799	Yes	No	0.435	-0.26
OCC(CCn1cnc2c1[nH]c(N)nc2=O)CO	253.262	-1.3073	5	7	4	102.106	-3.068	-0.354	56.056	-2.735	Yes	No	No	-0.258	0.611	-1.801	-4.496	No	No	No	No	No	No	No	0.867	No	Yes	0.759	No	No	2.53	1.088	Yes	No	0.285	3.982
NC(C(S)(C)C)C(=O)O	149.215	0.1067	2	3	3	59.650	-0.103	0.619	76.266	-2.735	No	No	No	-0.666	0.786	-0.379	-3.077	Yes	No	No	No	No	No	No	0.39	No	Yes	1.359	No	No	1.685	2.484	No	No	0.267	2.758
FC(CC(F)(F)F)F	134.047	2.2039	1	0	0	42.297	-1.924	1.436	92.339	-1.99	Yes	No	No	-0.1	0.631	0.299	-2.498	No	No	No	No	No	No	No	0.556	No	No	0.82	No	No	3.35	0.284	No	No	1.803	2.138
CSCCC(C(=O)NC(C(=O)NC(C(=O)N)Cc1ccccc1)CC(=O)O)NC(=O)C(Cc1c[nH]c2c1cccc2)NC(=O)CCNC(=O)OC(C)(C)C	767.906	1.5202	20	9	8	317.024	-2.976	-0.46	8.222	-2.735	Yes	No	No	-0.096	0.129	-1.676	-4.157	No	Yes	No	No	No	No	No	-0.25	No	No	0.56	No	No	3.129	5.671	Yes	No	0.285	5.483
NC(=N)c1ccc(cc1)OCCCCCOc1ccc(cc1)C(=N)N	340.427	2.88284	10	4	4	147.321	-4.051	0.021	73.961	-2.914	Yes	Yes	No	0.143	0.139	-0.882	-2.921	No	Yes	Yes	Yes	Yes	No	Yes	0.831	No	No	0.577	No	No	2.192	2.589	No	No	0.84	0.043
CC(=CCN1CCC2(C(C1Cc1c2cc(cc1)O)C)C)C	285.431	3.8826	2	2	1	128.028	-3.414	1.603	91.743	-2.579	No	Yes	No	1.511	0.33	0.462	-1.803	Yes	Yes	No	No	No	Yes	No	0.91	Yes	No	-0.67	No	No	2.786	1.225	No	Yes	1.579	0.63
OC(=O)CN(CCN(CC(=O)O)CC(=O)O)CCN(CC(=O)O)CC(=O)O	393.349	-2.6846	16	8	5	153.542	-2.892	-0.828	0	-2.735	Yes	No	No	0.008	0.377	-2.005	-3.942	No	No	No	No	No	No	No	-0.749	No	No	0.427	No	No	2.481	3.113	No	No	0.285	7.062
NCCCCC1NC(=O)C(NC(=O)C(Cc2ccccc2)NC(=O)C(CSSCC(NC(=O)C(NC1=O)C(O)C)C(=O)NC(C(O)C)CO)NC(=O)C(Cc1ccccc1)NC(=O)CN(CC(=O)O)CCN(CC(=O)O)CCN(CC(=O)O)CC(=O)O)Cc1c[nH]c2c1cccc2	1394.595	-3.4035	34	21	17	566.285	-2.892	-1.181	0	-2.735	Yes	No	No	-0.013	0.38	-3.909	-7.479	No	Yes	No	No	No	No	No	-1.961	No	No	0.438	No	Yes	2.482	10.71	Yes	No	0.285	14.731
CCCC(C1(CC)C(=O)NC(=O)NC1=O)C	226.276	1.185	4	3	2	94.967	-2.331	0.756	76.599	-3.462	No	No	No	-0.084	0.56	-0.033	-3.017	No	No	No	No	No	No	No	0.273	No	No	0.756	No	No	2.318	1.375	No	No	0.277	1.502
OC1COC(C(C1OS(=O)(=O)O)OS(=O)(=O)O)OC1COC(C(C1OS(=O)(=O)O)OS(=O)(=O)O)O	602.501	-4.8106	10	17	6	196.746	-2.892	-1.614	0	-2.735	Yes	No	No	-0.066	0.393	-3.145	-4.419	No	No	No	No	No	No	No	1.738	No	No	0.439	No	No	2.482	5.252	No	No	0.285	15.838
OCC1OC(CC1O)n1cnc2c1N=CNCC2O	268.273	-1.1798	2	8	4	108.919	-2.095	-0.004	64.513	-2.735	Yes	No	No	-0.435	0.757	-0.978	-3.38	No	No	No	No	No	No	No	0.786	No	No	0.196	No	No	2.206	1.888	No	No	0.285	4.082
CC(=O)CCCCn1c(=O)c2n(C)cnc2n(c1=O)C	278.312	0.193	5	7	0	115.015	-2.107	1.498	91.549	-2.791	Yes	No	No	0.009	0.633	-1.139	-3.05	No	No	Yes	No	No	No	No	0.694	No	Yes	1.152	No	No	3.035	1.535	Yes	No	0.285	1.474
CCN(CCOCCOC(=O)C1(CCCC1)c1ccccc1)CC	333.472	3.4	10	4	0	145.683	-3.672	1.321	95.837	-2.73	No	Yes	No	0.738	0.176	0.085	-2.709	No	Yes	Yes	No	No	Yes	Yes	1.166	No	No	0.349	No	Yes	2.773	1.439	No	No	1.14	1.793
CCC(C(C1C(NC(=N)N)CC(C1O)C(=O)O)NC(=O)C)CC	328.413	-0.13943	7	4	6	135.879	-2.673	-0.577	23.834	-2.735	Yes	No	No	-1.052	0.668	-1.661	-4.768	Yes	No	No	No	No	No	No	0.046	No	No	0.856	No	No	1.883	3.408	No	No	0.285	3.604
N#Cc1ccccc1c1cc(cn(c1=O)c1ccccc1)c1ccccn1	349.393	4.43818	3	4	0	156.171	-5.793	1.066	100	-2.687	Yes	Yes	Yes	0.389	0.34	0.281	-1.589	No	Yes	Yes	Yes	Yes	No	Yes	0.55	No	Yes	0.335	No	Yes	2.122	1.199	Yes	No	0.29	2.418
CN1CCN(CC1)CCCN1c2ccccc2Sc2c1cccc2	339.508	3.9268	4	4	0	148.799	-3.97	1.004	94.179	-2.715	Yes	Yes	Yes	2.294	0.08	0.879	-1.597	Yes	Yes	Yes	Yes	No	Yes	Yes	0.589	No	Yes	0.172	No	Yes	2.653	0.388	Yes	No	1.228	4.129
FC(C(C(F)(F)F)(F)F)(C(F)(F)F)F	238.024	3.3816	1	0	0	69.489	-3.698	1.483	87.736	-2.231	Yes	No	No	-0.248	0.554	0.53	-2.946	No	No	Yes	No	No	No	No	0.387	No	No	0.4	No	No	4.271	-0.043	No	No	2.775	2.257
FC(C(F)(F)F)(C(F)(F)F)F	188.017	2.7463	0	0	0	54.793	-2.758	1.466	89.682	-2.133	Yes	No	No	-0.219	0.605	0.38	-2.756	No	No	No	No	No	No	No	0.401	No	No	0.624	No	No	3.945	0.059	No	No	2.64	2.376
CCCN1CC(CSC)CC2C1Cc1c[nH]c3c1c2ccc3	314.498	4.2711	4	2	1	137.208	-3.866	1.513	93.263	-2.779	Yes	Yes	No	1.755	0.183	0.459	-1.418	Yes	Yes	Yes	No	No	Yes	Yes	1.165	Yes	Yes	-0.411	No	Yes	2.859	1.926	Yes	No	1.001	-1.168
C1CCC(NC1)CC(C1CCCCC1)C1CCCCC1	277.496	5.2954	4	1	1	125.841	-4.872	1.376	93.084	-2.775	Yes	No	No	0.727	0.092	0.835	-0.71	No	Yes	No	No	No	No	No	0.867	No	No	-1.374	No	Yes	2.412	2.05	Yes	Yes	0.97	-1.093
N#Cc1ccc2c(c1)N(CCCN1CCC(CC1)O)c1c(S2)cccc1	365.502	4.00778	4	5	1	158.591	-3.773	0.907	92.332	-2.752	Yes	Yes	Yes	1.439	0.114	-0.08	-1.984	Yes	Yes	Yes	No	No	Yes	No	0.85	Yes	No	-0.108	No	Yes	2.963	1.548	Yes	No	1.102	0.319
CCCC(C(=O)OCC)NC(C(=O)N1C2CCCCC2CC1C(=O)O)C	368.474	1.9406	8	5	2	154.999	-2.42	0.737	45.887	-2.735	Yes	No	No	-0.354	0.629	-0.886	-3.149	No	No	No	No	No	No	No	0.67	No	No	0.267	No	No	1.944	1.973	Yes	No	0.284	2.468
ClC(=CC1C(C1(C)C)C(=O)OCc1cccc(c1)Oc1ccccc1)Cl	391.294	6.1133	6	3	0	163.073	-7.018	1.064	92.982	-2.67	No	Yes	Yes	0.535	0	0.052	-1.37	No	Yes	Yes	Yes	Yes	No	No	-0.167	No	Yes	0.595	No	No	3.299	1.394	No	No	0.468	-2.573
OCCN1CCN(CC1)CCCN1c2ccccc2Sc2c1cc(Cl)cc2	403.979	3.9427	6	5	1	170.261	-3.8	0.947	90.857	-2.745	Yes	Yes	Yes	2.172	0.12	0.59	-1.984	Yes	Yes	Yes	No	No	Yes	No	0.633	No	No	0.074	No	Yes	2.775	0.996	No	No	1.003	4.12
O=C(Cc1ccccc1)NC(=O)N	178.191	0.424	2	2	2	75.739	-1.089	0.752	79.726	-2.945	No	No	No	0.073	0.524	0.022	-2.609	No	No	No	No	No	No	No	0.282	No	No	0.534	No	No	2.146	1.273	No	No	-0.004	2.128
Nc1ccc(c(n1)N)N=Nc1ccccc1	213.244	2.6614	2	5	2	92.835	-2.881	0.837	88.949	-3.159	No	No	No	-0.056	0.341	-0.075	-2.052	No	No	Yes	No	No	No	No	-0.162	No	Yes	0.176	No	No	2.268	1.088	No	No	0.619	2.168
CC1N(C)CCOC1c1ccccc1	191.274	2.0782	1	2	0	85.489	-1.821	1.61	94.486	-2.122	No	No	No	0.825	0.429	0.53	-1.919	No	No	No	No	No	Yes	No	0.892	No	No	0.199	No	No	2.527	1.695	No	Yes	0.835	1.34
NNCCc1ccccc1	136.198	0.6924	3	2	2	61.021	-0.911	1.472	68.684	-2.186	No	No	No	0.169	0.421	-0.103	-1.652	No	No	Yes	Yes	Yes	Yes	Yes	0.414	Yes	Yes	0.816	No	No	2.377	1.274	No	Yes	-0.178	1.891
CC(C(=O)NC1C(=O)N2C1SC(C2C(=O)O)(C)C)Oc1ccccc1	364.423	1.0856	5	5	2	149.259	-2.613	0.569	46.882	-2.735	No	No	No	-1.153	0.408	-0.757	-2.961	No	No	No	No	No	No	No	0.049	No	No	1.404	No	No	1.195	2.035	Yes	No	0.284	2.147
N=C(NC(=N)N)NCCc1ccccc1	205.265	0.23654	3	2	5	88.701	-2.745	-0.261	61.686	-2.735	Yes	No	No	-0.214	0.644	-1.23	-2.999	No	No	No	No	No	Yes	No	0.708	Yes	No	0.044	No	No	2.625	1.98	No	Yes	-0.153	5.467
CN1CCC2=C(C1)C(c1ccccc1)c1c2cccc1	261.368	3.9212	1	1	0	120.102	-4.453	1.634	96.755	-2.739	Yes	Yes	No	1.512	0.045	0.839	-1.061	No	Yes	No	No	No	Yes	No	0.842	No	No	0.135	No	Yes	2.745	1.249	Yes	Yes	1.08	0.986
O=C1C(c2ccccc2)C(=O)c2c1cccc2	222.243	2.8494	1	2	0	98.901	-3.826	1.279	98.598	-2.152	Yes	No	No	0.324	0.082	0.187	-1.424	No	Yes	Yes	No	No	No	No	0.09	No	Yes	0.084	No	No	2.129	2.198	No	No	1.28	0.883
CN(CCC(c1ccccn1)c1ccccc1)C	240.35	3.1652	5	2	0	109.293	-2.383	1.756	96.407	-2.361	Yes	No	No	1.047	0.258	0.576	-1.667	No	Yes	Yes	No	No	Yes	No	0.781	Yes	No	0.077	No	No	2.594	1.03	Yes	Yes	1.119	1.032
CC1NCCOC1c1ccccc1	177.247	1.736	1	2	1	78.914	-1.461	1.594	94.696	-2.16	No	No	No	0.758	0.454	0.262	-1.884	No	No	Yes	No	No	No	No	0.946	No	No	0.267	No	No	2.518	1.745	No	Yes	0.486	1.452
CCC1(C(=O)NC(=O)NC1=O)c1ccccc1	232.239	0.7004	2	3	2	98.200	-2.255	-0.224	65.099	-3.385	Yes	No	No	-0.34	0.318	0.159	-2.636	No	No	No	No	No	No	No	0.212	No	Yes	0.775	No	No	1.923	1.668	No	No	0.358	1.867
