SMILES	MOL_WEIGHT	LOGP	#ROTATABLE_BONDS	#ACCEPTORS	#DONORS	SURFACE_AREA	Water solubility	Caco2 permeability	Intestinal absorption (human)	Skin Permeability	P-glycoprotein substrate	P-glycoprotein I inhibitor	P-glycoprotein II inhibitor	VDss (human)	Fraction unbound (human)	BBB permeability	CNS permeability	CYP2D6 substrate	CYP3A4 substrate	CYP1A2 inhibitior	CYP2C19 inhibitior	CYP2C9 inhibitior	CYP2D6 inhibitior	CYP3A4 inhibitior	Total Clearance	Renal OCT2 substrate	AMES toxicity	Max. tolerated dose (human)	hERG I inhibitor	hERG II inhibitor	Oral Rat Acute Toxicity (LD50)	Oral Rat Chronic Toxicity (LOAEL)	Hepatotoxicity	Skin Sensitisation	<i>T.Pyriformis</i> toxicity	Minnow toxicity
O=C(Cc1ccccc1)NC1C(=O)N2C1SC(C2C(=O)O)(C)C	334.397	0.8608	4	4	2	137.781	-2.577	0.759	73.955	-2.735	Yes	No	No	-0.688	0.487	-0.619	-2.873	No	Yes	No	No	No	No	No	0.199	No	No	0.538	No	No	2.524	2.204	Yes	No	0.282	1.963
CNNCc1ccc(cc1)C(=O)NC(C)C	221.304	1.0488	5	3	3	96.402	-2.298	1.19	70.496	-2.854	Yes	No	No	-0.124	0.33	-0.057	-2.707	Yes	Yes	Yes	Yes	No	No	No	0.564	No	No	0.651	No	No	2.177	1.608	No	Yes	0.335	2.277
CCC(C(c1ccc(c2c1ccc(=O)[nH]2)O)O)NC(C)C	290.363	2.0437	5	4	4	123.187	-3.115	0.972	93.754	-2.735	Yes	No	No	1.958	0.642	-0.803	-2.597	No	No	Yes	No	No	Yes	No	0.811	No	No	0.178	No	No	2.643	0.803	Yes	No	0.285	1.549
CN1CCN(CC1)CCCN1c2ccccc2Sc2c1cc(Cl)cc2	373.953	4.5802	4	4	0	159.102	-4.454	0.995	92.518	-2.721	Yes	Yes	Yes	2.303	0.081	0.887	-1.592	Yes	Yes	Yes	Yes	No	Yes	Yes	0.535	No	No	0.119	No	Yes	2.751	0.929	Yes	No	1.267	3.805
OC(c1ccccc1)(C1CCCCC1)CCN1CCCC1	287.447	3.9404	5	2	1	128.718	-3.367	1.573	86.223	-2.521	No	Yes	No	1.905	0.256	0.723	-2.228	Yes	Yes	Yes	Yes	No	Yes	No	1.027	Yes	No	0.272	No	Yes	2.816	0.671	Yes	Yes	0.5	-0.085
CCN(C(CN1c2ccccc2Sc2c1cccc2)C)CC	312.482	5.0196	5	3	0	137.680	-4.942	1.439	92.289	-2.487	Yes	Yes	No	1.753	0.067	0.833	-1.43	Yes	Yes	Yes	No	No	Yes	No	0.731	No	No	0.378	No	Yes	2.859	0.378	Yes	Yes	1.906	0.474
Nc1ccc2c(c1)nc1c(c2)ccc(c1)N	209.252	2.5524	0	3	2	92.694	-3.681	0.885	93.052	-2.807	Yes	No	No	0.041	0.077	0.095	-1.888	No	Yes	Yes	No	No	No	No	0.439	No	Yes	0.025	No	No	2.517	0.969	No	No	0.604	0.444
O=C1CCC2(C(=C1)CCC1C2CCC2(C1CCC2C(=O)C)C)C	314.469	4.7235	1	2	0	139.648	-5.53	1.62	98.937	-2.91	No	Yes	No	0.322	0.002	0.108	-1.871	No	Yes	No	Yes	No	No	No	0.612	No	No	-0.858	No	Yes	1.928	1.952	Yes	No	0.928	-0.311
CC(NC(=N)NC(=N)Nc1ccc(cc1)Cl)C	253.737	2.20904	2	2	5	105.580	-2.848	0.53	92.502	-2.735	Yes	No	No	-0.056	0.531	-1.56	-2.42	Yes	No	No	No	No	Yes	No	0.642	Yes	Yes	0.201	No	No	2.569	2.113	Yes	Yes	0.274	3.598
OC(=O)C1CCCN1	115.132	-0.177	1	2	2	47.699	-2.254	1.104	87.288	-3.314	Yes	No	No	-0.499	0.78	-0.314	-3.049	No	No	No	No	No	No	No	0.6	No	No	1.184	No	No	1.882	2.503	No	No	-0.963	3.194
CN(CCCN1c2ccccc2Sc2c1cccc2)C	284.428	4.241	4	3	0	124.950	-4.58	1.449	93.874	-2.435	Yes	No	No	1.618	0.07	0.825	-1.426	Yes	Yes	Yes	Yes	No	Yes	No	0.655	No	No	0.401	No	Yes	2.72	0.763	Yes	Yes	1.909	1.308
CN(C(CN1c2ccccc2Sc2c1cccc2)C)C	284.428	4.2394	3	3	0	124.950	-4.546	1.447	93.127	-2.402	Yes	No	No	1.558	0.087	0.774	-1.354	Yes	Yes	Yes	No	No	Yes	No	0.742	No	No	0.25	No	Yes	2.792	0.531	Yes	Yes	1.996	0.804
CCCNCC(COc1ccccc1C(=O)CCc1ccccc1)O	341.451	3.2414	11	4	2	149.392	-3.83	1.252	93.712	-2.766	Yes	Yes	Yes	1.321	0.109	-0.514	-2.76	No	Yes	Yes	No	No	Yes	Yes	1.057	No	No	0.261	No	Yes	2.326	1.257	No	No	1.006	1.278
C1COC1=O	72.063	-0.0667	0	2	0	29.738	0.431	1.599	100	-3.158	No	No	No	-0.094	0.795	-0.057	-2.67	No	No	No	No	No	No	No	0.527	No	Yes	1.189	No	No	1.6	2.294	No	No	0.339	2.575
CCC(=O)c1ccc2c(c1)N(CC(N(C)C)C)c1c(S2)cccc1	340.492	4.8321	5	4	0	148.207	-4.762	0.917	93.246	-2.479	Yes	Yes	Yes	1.602	0.158	0.729	-1.557	No	Yes	Yes	No	No	Yes	No	0.848	Yes	Yes	0.294	No	Yes	2.936	0.779	Yes	No	0.962	-0.655
CCCOC(c1ccccc1)(c1ccccc1)C(=O)OC1CCN(CC1)C	367.489	3.9942	7	4	0	161.645	-4.316	1.393	94.83	-2.4	Yes	Yes	Yes	1.271	0.02	0.373	-1.855	No	Yes	No	No	No	Yes	Yes	0.787	Yes	Yes	0.409	No	Yes	2.449	1.246	Yes	No	0.452	0.366
CC(c1cccc(c1O)C(C)C)C	178.275	3.639	2	1	1	80.415	-2.929	1.221	92.548	-2.372	No	No	No	0.53	0.141	0.437	-1.147	No	No	Yes	No	No	No	No	0.204	No	No	0.525	No	No	2.322	2.26	No	Yes	1.4	-0.239
CCCOc1cc(N)ccc1C(=O)OCCN(CC)CC	294.395	2.5562	9	5	1	126.569	-2.871	1.047	92.07	-2.773	Yes	No	No	0.978	0.532	-0.274	-2.959	No	No	Yes	No	No	Yes	No	0.957	No	No	0.365	No	Yes	2.486	0.806	Yes	No	0.311	0.771
OC(COc1cccc2c1cccc2)CNC(C)C	259.349	2.5775	6	3	2	113.760	-2.729	1.601	90.826	-2.632	Yes	No	No	1.191	0.187	0.168	-1.816	No	Yes	Yes	No	No	No	No	0.882	Yes	Yes	0.374	No	Yes	2.072	1.597	No	No	0.383	-0.304
CCCO	60.096	0.3887	1	1	1	26.263	0.36	1.477	96.667	-2.88	Yes	No	No	-0.109	0.758	0.014	-2.537	No	No	No	No	No	No	No	0.338	No	No	1.314	No	No	1.984	1.588	No	No	-1.584	2.595
OCC(O)C	76.095	-0.6405	1	2	2	31.058	1.394	1.563	86.813	-3.707	Yes	No	No	-0.274	0.841	-0.314	-2.977	No	No	No	No	No	No	No	0.666	No	No	1.452	No	No	1.875	2.679	No	No	-2.065	3.287
CNC(CC1CCCCC1)C	155.285	2.5647	3	1	1	70.568	-2.924	1.366	93.287	-1.615	No	No	No	0.707	0.46	0.708	-1.512	No	No	No	No	No	No	No	1.046	No	No	0.237	No	No	2.273	1.908	No	Yes	0.822	1.103
CCCOC(=O)Cn1cc(I)c(=O)c(c1)I	447.01	2.0107	4	4	0	120.646	-3.609	1.289	97.837	-2.775	No	No	No	-0.264	0.421	-0.044	-2.9	No	No	No	No	No	No	No	-0.324	No	No	0.894	No	No	2.346	1.338	No	No	0.785	0.169
CCCOC(=O)c1ccc(cc1)O	180.203	1.959	3	3	1	76.960	-2.409	1.248	93.328	-2.678	No	No	No	0.122	0.429	0.303	-2.229	No	No	Yes	No	No	No	No	0.699	No	No	0.805	No	No	1.816	2.338	No	No	0.713	1.295
CCCc1cc(=O)[nH]c(=S)[nH]1	170.237	1.38499	2	2	2	69.486	-2.888	1.208	93.101	-3.154	No	No	No	0.066	0.623	-0.303	-2.993	No	No	No	No	No	No	No	0.075	No	No	0.915	No	No	2.388	1.317	Yes	No	-0.04	2.037
CCCc1cc(ccn1)C(=N)S	180.276	2.28927	3	2	2	77.951	-2.568	1.577	92.984	-2.62	No	No	No	0.126	0.616	0.294	-2.922	No	No	No	No	No	No	No	0.241	No	No	0.645	No	No	2.447	1.562	Yes	Yes	0.479	1.547
O=C1CCC(N1)C(=O)NC(C(=O)N1CCCC1C(=O)N)Cc1[nH]cnc1	362.39	-1.8081	6	5	4	149.438	-2.61	0.307	54.134	-2.735	Yes	No	No	-0.95	0.765	-1.033	-4.314	No	No	No	No	No	No	No	1.035	No	No	-1.017	No	No	2.891	1.565	Yes	No	0.285	4.447
O=Cc1ccc(c(c1)O)O	138.122	0.9103	1	3	2	57.546	-0.984	1.129	88.097	-2.719	No	No	No	-0.043	0.61	-0.365	-2.496	No	No	No	No	No	No	No	0.519	No	No	0.005	No	No	2.085	1.944	No	No	0.134	2.04
CC(Cc1ccc2c(c1)OCO2)NCC(c1ccc(c(c1)O)O)O	331.368	2.0807	6	6	4	139.832	-3.175	0.918	88.557	-2.735	Yes	No	No	1.462	0.504	-1.001	-2.836	No	No	No	No	No	Yes	No	1.1	No	No	0.01	No	Yes	2.836	2.281	Yes	No	0.286	1.415
CNCCCC1c2ccccc2C=Cc2c1cccc2	263.384	4.3019	4	1	1	120.898	-4.61	1.49	97.244	-2.628	Yes	Yes	Yes	1.698	0.048	0.799	-1.257	No	Yes	No	No	No	Yes	No	0.969	No	No	0.355	No	Yes	2.698	1.215	Yes	Yes	1.355	1.105
C=CCC1(CC(O)C)C(=O)NC(=O)NC1=O	226.232	-0.3142	4	4	3	92.707	-1.885	-0.189	58.701	-3.689	No	No	No	-0.201	0.697	-0.54	-3.146	No	No	No	No	No	No	No	0.176	No	No	1.187	No	No	2.11	2.034	No	No	0.065	2.615
COCCCN1CCC(CC1)NC(=O)c1cc(Cl)c(c2c1OCC2)N	367.877	2.0878	6	5	2	153.141	-2.75	1.012	91.326	-3.03	Yes	No	No	0.533	0.491	-0.856	-3.394	No	No	No	No	No	No	No	1.194	No	No	-0.234	No	Yes	2.277	0.536	Yes	No	0.383	3.063
CNC(C(c1ccccc1)O)C	165.236	1.3279	3	2	2	73.235	-0.992	1.57	93.396	-2.526	No	No	No	0.845	0.597	-0.138	-1.988	No	No	No	No	No	No	No	0.948	No	No	0.138	No	No	2.464	1.396	Yes	Yes	-0.234	1.894
CN1CCCN=C1C=Cc1cccs1	206.314	2.4953	2	3	0	88.586	-3.348	1.527	92.67	-1.786	No	No	No	0.383	0.291	0.473	-1.696	No	Yes	Yes	No	No	Yes	No	0.287	Yes	No	0.219	No	No	2.79	1.411	No	Yes	1.839	1.529
NC(=O)c1cnccn1	123.115	-0.4245	1	3	1	51.737	-0.22	1.38	84.631	-2.968	No	No	No	-0.491	0.667	-0.204	-3.018	No	No	No	No	No	No	No	0.728	No	No	1.49	No	No	2.188	2.971	No	No	-0.651	2.65
O=Cc1c(COP(=O)(O)O)cnc(c1O)C	247.143	0.51742	4	5	3	90.953	-2.145	-0.232	64.124	-2.769	No	No	No	-0.207	0.685	-1.236	-3.636	No	No	No	No	No	No	No	0.349	No	No	0.812	No	No	2.065	2.337	No	No	0.288	2.744
OCc1c(CO)cnc(c1O)C	169.18	0.08022	2	4	3	70.129	-2.152	0.728	77.597	-3.377	No	No	No	0.001	0.762	-0.774	-3.056	No	No	No	No	No	No	No	0.709	No	No	0.626	No	No	1.681	2.273	No	No	-0.433	2.875
CCc1nc(N)nc(c1c1ccc(cc1)Cl)N	248.717	2.5238	2	4	2	104.641	-2.843	1.315	90.889	-2.887	Yes	No	No	0.148	0.189	-0.186	-2.206	No	Yes	Yes	No	No	No	No	-0.03	No	No	0.22	No	No	2.667	1.478	No	No	0.581	0.622
OC(=O)C(=O)C	88.062	-0.34	1	2	1	34.586	0.858	1.098	93.47	-3.31	No	No	No	-0.766	0.79	-0.379	-3.007	No	No	No	No	No	No	No	0.749	No	Yes	1.138	No	No	1.996	2.732	No	No	-1.088	2.864
Clc1ccc2c(c1)C(=NCC(=S)N2CC(F)(F)F)c1ccccc1F	386.801	5.0262	2	2	0	151.287	-6.497	1.206	91.528	-2.423	No	Yes	No	0.361	0	0.552	-1.3	No	Yes	Yes	Yes	Yes	No	No	0.329	Yes	No	0.073	No	No	2.638	0.821	No	No	2.587	0.304
OCCOCCN1CCN(CC1)C1=Nc2ccccc2Sc2c1cccc2	383.517	2.856	5	6	1	164.207	-3.456	1.155	92.794	-2.671	Yes	Yes	Yes	1.209	0.141	0.022	-1.723	Yes	Yes	No	No	No	Yes	Yes	0.653	No	No	-0.273	No	Yes	2.954	0.887	Yes	No	0.709	1.171
CCCN1CC(CC2C1Cc1cccc(c1C2)O)NS(=O)(=O)N(CC)CC	395.569	2.1361	7	4	2	163.289	-3.573	1.007	93.432	-2.898	Yes	No	No	0.909	0.497	-0.845	-2.823	No	Yes	No	No	No	No	No	0.435	No	No	-0.293	No	Yes	2.349	0.604	Yes	No	0.541	1.255
CCOC(=O)C(NC(C(=O)N1Cc2ccccc2CC1C(=O)O)C)CCc1ccccc1	438.524	2.5671	9	5	2	187.929	-3.765	0.834	50.992	-2.735	Yes	No	No	-0.73	0.224	-0.625	-2.778	No	No	No	No	No	No	No	0.842	No	No	0.309	No	No	2.025	1.772	Yes	No	0.285	-0.543
C#CC1(O)CCC2C1(C)CCC1C2CCc2c1ccc(c2)OC1CCCC1	364.529	5.2284	2	2	1	163.249	-4.814	1.188	98.324	-2.819	Yes	Yes	Yes	0.378	0	0.377	-1.162	No	Yes	No	Yes	No	No	No	0.593	No	No	-0.504	No	No	3.214	1.871	No	No	0.49	-0.509
CCC1NC(=O)c2c(N1)cc(c(c2)S(=O)(=O)N)Cl	289.744	0.8788	2	4	3	109.551	-3.024	0.086	73.649	-3.086	Yes	No	No	-0.465	0.385	-0.889	-3.434	No	No	No	No	No	No	No	0.129	No	No	0.231	No	No	1.912	1.768	No	No	0.395	1.672
C=CC1CN2CCC1CC2C(c1ccnc2c1cc(OC)cc2)O	324.424	3.1732	4	4	1	142.313	-2.978	1.261	93.429	-3.465	Yes	Yes	No	1.805	0.338	0.395	-2.483	Yes	Yes	Yes	No	No	Yes	No	1.067	Yes	No	-0.819	No	Yes	2.787	1.39	Yes	No	0.586	0.782
C=CC1CN2CCC1CC2C(c1ccnc2c1cc(OC)cc2)O	324.424	3.1732	4	4	1	142.313	-2.978	1.261	93.429	-3.465	Yes	Yes	No	1.805	0.338	0.395	-2.483	Yes	Yes	Yes	No	No	Yes	No	1.067	Yes	No	-0.819	No	Yes	2.787	1.39	Yes	No	0.586	0.782
C=CC1CN2CCC1CC2C(c1ccnc2c1cc(OC)cc2)O	324.424	3.1732	4	4	1	142.313	-2.978	1.261	93.429	-3.465	Yes	Yes	No	1.805	0.338	0.395	-2.483	Yes	Yes	Yes	No	No	Yes	No	1.067	Yes	No	-0.819	No	Yes	2.787	1.39	Yes	No	0.586	0.782
c1ccc2c(c1)N(C1CN3CCC1CC3)c1ccccc1CC2	304.437	4.0175	1	2	0	138.275	-3.998	1.582	94.912	-2.73	No	Yes	No	1.686	0.157	0.904	-1.443	Yes	Yes	Yes	Yes	No	Yes	No	1.06	Yes	Yes	-0.088	No	Yes	2.949	1.228	Yes	No	0.651	0.583
CCC1NC(=O)C(NC(=O)c2ncccc2O)C(C)OC(=O)C(NC(=O)C2N(C(=O)C(N(C(=O)C3N(C1=O)CCC3)C)Cc1ccc(cc1)N(C)C)CC(CSC1CN3CCC1CC3)C(=O)C2)c1ccccc1	1022.239	2.3235	10	14	4	429.646	-2.891	0.674	57.465	-2.735	Yes	Yes	No	0.847	0.201	-1.877	-4.166	No	Yes	No	No	No	No	No	-0.718	No	No	0.527	No	Yes	2.525	4.459	Yes	No	0.285	6.22
COCCCOc1ccnc(c1C)CS(=O)c1nc2c([nH]1)cccc2	359.451	2.98942	8	5	1	148.610	-3.074	1.309	90.569	-2.735	Yes	No	No	0.186	0.249	-0.374	-2.984	No	No	Yes	Yes	No	No	No	1.182	Yes	Yes	0.504	No	No	2.181	1.854	Yes	No	0.285	-0.984
CSCCC(C(=O)O)N	149.215	0.1514	4	3	2	58.618	-2.888	0.641	81.604	-2.737	No	No	No	-0.56	0.454	-0.326	-3.421	No	No	No	No	No	No	No	0.547	No	No	1.129	No	No	2.009	2.603	No	No	0.152	2.321
Oc1ccc2c(c1)sc(c2C(=O)c1ccc(cc1)OCCN1CCCCC1)c1ccc(cc1)O	473.594	6.0752	7	6	2	202.405	-4.865	0.37	89.337	-2.735	Yes	Yes	Yes	-0.64	0.101	-0.938	-1.97	No	Yes	No	Yes	No	Yes	Yes	0.813	Yes	Yes	0.082	No	Yes	2.693	1.563	Yes	No	0.285	0.27
Fc1ccc(cc1)CNC(=O)c1nc(n(c(=O)c1O)C)C(NC(=O)c1nnc(o1)C)(C)C	444.423	0.91152	6	9	3	180.861	-2.8	0.646	68.455	-2.735	Yes	No	No	0.468	0.104	-1.384	-4.337	No	No	No	No	No	No	No	0.279	No	No	0.216	No	Yes	1.948	2.966	Yes	No	0.285	2.495
OC(=O)CCC(C(=O)O)NC(=O)c1ccc(s1)N(Cc1ccc2c(c1)c(=O)nc([nH]2)C)C	458.496	1.97722	9	7	4	186.079	-3.278	-0.495	25.117	-2.735	Yes	No	No	-0.7	0.11	-1.551	-3.881	No	No	No	No	No	No	No	0.008	No	No	0.737	No	No	2.39	2.241	Yes	No	0.285	1.973
CCC(=O)NCCC1CCc2c1c1CCOc1cc2	259.349	2.5676	4	2	1	113.894	-3.58	1.402	96.111	-2.94	Yes	No	No	0.375	0.126	0.023	-1.618	No	Yes	No	Yes	No	No	No	1.267	No	No	-0.114	No	No	2.517	1.864	No	No	1.74	1.479
CCOC(=O)C(NC(C(=O)N1C2CCCC2CC1C(=O)O)C)CCc1ccccc1	416.518	2.3832	9	5	2	177.326	-3.346	0.692	50.928	-2.735	Yes	No	No	-0.387	0.412	-0.73	-2.94	No	No	No	No	No	No	No	0.742	No	No	0.809	No	No	1.599	1.796	Yes	No	0.285	1.148
COc1ccccc1OCC(CN1CCN(CC1)CC(=O)Nc1c(C)cccc1C)O	427.545	2.30804	9	6	2	184.114	-3.271	0.987	92.651	-2.957	Yes	Yes	Yes	1.545	0.202	-0.842	-2.923	Yes	Yes	No	No	No	Yes	No	0.784	No	No	-0.326	No	Yes	2.584	2.329	Yes	No	0.374	2.767
C#CCNC1CCc2c1cccc2	171.243	1.8967	2	1	1	79.164	-1.884	1.52	94.678	-2.112	No	No	No	1.067	0.447	0.609	-1.73	No	No	No	No	No	No	No	1.209	No	No	0.28	No	No	2.544	1.33	Yes	Yes	0.659	1.164
CCOc1ccccc1OC(c1ccccc1)C1OCCNC1	313.397	3.1938	6	4	1	136.928	-3.515	1.836	94.985	-2.364	Yes	Yes	No	1.037	0.107	0.391	-1.9	No	Yes	Yes	No	No	Yes	No	0.89	Yes	No	0.387	No	Yes	2.359	1.386	Yes	No	0.517	0.406
OCC1OC(C(C1O)O)n1cnc2c1nc(nc2N)n1ncc(c1)C(=O)NC	390.36	-2.4347	4	12	5	156.952	-2.496	0.83	43.382	-2.735	Yes	No	No	0.073	0.548	-1.512	-4.209	No	No	No	No	No	No	No	0.598	No	No	0.302	No	No	2.255	2.434	Yes	No	0.285	3.381
CNC(=O)c1nccc(c1)Oc1ccc(c(c1)F)NC(=O)Nc1ccc(c(c1)C(F)(F)F)Cl	482.821	5.6888	5	4	3	189.277	-4.868	0.749	87.598	-2.739	Yes	Yes	Yes	-0.348	0	-1.612	-2.065	No	Yes	No	Yes	Yes	No	Yes	-0.044	No	No	0.445	No	Yes	2.068	1.811	Yes	No	0.297	-0.592
COC(=O)C1(CCN(CC1)CCC(=O)OC)N(c1ccccc1)C(=O)CC	376.453	2.0003	7	6	0	159.766	-3.032	1.125	96.013	-2.914	Yes	No	No	0.292	0.307	-0.485	-2.831	No	Yes	No	No	No	No	No	0.85	Yes	No	-0.275	No	Yes	3.117	1.329	Yes	No	0.426	-0.689
CCN1CCCC1CNC(=O)c1c(OC)ccc(c1OC)Br	371.275	2.6804	6	4	1	139.641	-3.158	1.323	93.067	-3.414	Yes	No	No	0.529	0.378	0.378	-2.923	No	Yes	No	No	No	Yes	No	0.738	No	No	0.58	No	No	2.716	0.411	No	No	0.814	1.225
CCOc1cc(ccc1C(=O)O)CC(=O)NC(c1ccccc1N1CCCCC1)CC(C)C	452.595	5.2199	10	4	2	196.497	-3.928	0.621	97.951	-2.735	Yes	No	No	-1.458	0	-0.017	-2.265	No	No	No	No	No	No	No	0.812	No	No	0.714	No	No	2.594	1.896	Yes	No	0.287	-2.704
COc1ccc2c(c1)[nH]c1c2CCN2C1CC1C(C2)CC(C(C1C(=O)OC)OC)OC(=O)C=Cc1cc(OC)c(c(c1)OC)OC	634.726	4.5707	9	10	1	268.214	-3.983	1.109	95.828	-2.737	Yes	Yes	Yes	0.998	0.086	-1.307	-3.12	No	Yes	No	No	No	No	Yes	0.493	No	No	-0.775	No	Yes	2.367	2.009	No	No	0.285	-1.495
COc1ccc2c(c1)[nH]c1c2CCN2C1CC1C(C2)CC(C(C1C(=O)OC)OC)OC(=O)c1cc(OC)c(c(c1)OC)OC	608.688	4.1711	8	10	1	256.173	-3.846	1.198	93.607	-2.737	Yes	Yes	Yes	1.101	0.105	-1.306	-3.352	No	Yes	No	No	No	No	Yes	0.509	No	No	-0.709	No	Yes	2.403	1.802	No	No	0.285	-0.728
Oc1cccc(c1)O	110.112	1.0978	0	2	2	47.020	-0.241	1.701	80.118	-2.572	No	No	No	0.059	0.544	-0.278	-2.12	No	No	No	No	No	No	No	0.242	No	No	0.61	No	No	2.144	2.172	No	Yes	-0.136	2.191
Oc1ccc(cc1)C=Cc1cc(O)cc(c1)O	228.247	2.9738	2	3	3	98.911	-3.36	1.186	88.564	-2.911	Yes	No	No	0.164	0.131	0.101	-2.041	No	No	Yes	Yes	Yes	No	Yes	0.13	No	Yes	0.648	No	No	2.062	1.93	No	No	0.977	1.174
C=CC1(C)CC(OC(=O)CSC2CC3CCC(C2)N3C)C2(C)C(C)CCC3(C(C1O)C)C2C(=O)CC3	517.776	5.2513	5	6	1	221.718	-4.912	0.95	93.727	-3.258	Yes	Yes	Yes	0.514	0.116	-0.112	-2.827	No	Yes	No	No	No	No	No	0.432	No	No	-0.573	No	Yes	2.923	1.318	Yes	No	0.296	1.484
O=C(Nc1ccccc1c1ccccc1)OC1CCN(CC1)CCN(C(=O)c1ccc(cc1)CN1CCC(CC1)C(=O)N)C	597.76	4.836	10	6	2	259.505	-3.768	0.898	78.036	-2.735	Yes	Yes	Yes	1.137	0.132	-0.99	-2.481	Yes	Yes	Yes	Yes	Yes	Yes	No	0.517	No	No	0.164	Yes	Yes	2.24	3.473	Yes	No	0.285	1.312
OCC1OC(C(C1O)O)n1cnc(n1)C(=O)N	244.207	-3.0115	3	8	4	95.440	-1.946	0.386	55.706	-2.819	No	No	No	-0.597	0.751	-0.964	-3.878	No	No	No	No	No	No	No	0.653	No	No	1.287	No	No	1.916	2.747	No	No	0.283	4.036
CN(C(=O)c1cc2c(n1C1CCCC1)nc(nc2)Nc1ccc(cn1)N1CCNCC1)C	434.548	2.7964	5	8	2	187.397	-3.402	1.134	95.663	-2.779	Yes	No	No	1.133	0.336	-1.164	-3.19	No	Yes	No	No	No	No	No	0.681	No	No	-0.413	No	Yes	2.645	-0.749	Yes	No	0.287	2.691
OCC(C(C(Cn1c2cc(C)c(cc2nc2c1nc(=O)[nH]c2=O)C)O)O)O	376.369	-1.72356	5	9	5	152.292	-2.684	0.224	56.891	-2.736	Yes	No	No	0.353	0.81	-1.104	-3.427	No	No	No	No	No	No	No	0.696	No	No	0.536	No	No	2.017	2.442	Yes	No	0.285	4.755
OCC1OC(C(C1O)O)OC1C(OC2OC(CN)C(C(C2N)O)O)C(N)CC(C1O)N	454.477	-6.6523	6	14	10	178.140	-2.468	-0.329	7.842	-2.735	Yes	No	No	-1.504	0.816	-1.113	-5.459	No	No	No	No	No	No	No	0.503	No	No	1.468	No	No	2.302	3.627	No	No	0.285	8.114
COC1C=COC2(C)Oc3c(C2=O)c2C4=NC5(NC4=C(C(=O)c2c(c3C)O)NC(=O)C(=CC=CC(C(C(C(C(C(C1C)OC(=O)C)C)O)C)O)C)C)CCN(CC5)CC(C)C	847.019	4.61572	4	14	5	357.479	-3.196	0.686	63.021	-2.735	Yes	Yes	No	0.826	0.132	-1.701	-3.185	No	Yes	No	No	No	No	No	-0.881	No	No	-0.613	No	No	2.746	2.72	Yes	No	0.285	4.055
COC1C=COC2(C)Oc3c(C2=O)c2c(O)c(C=NN4CCN(CC4)C)c(c(c2c(c3C)O)O)NC(=O)C(=CC=CC(C(C(C(C(C(C1C)OC(=O)C)C)O)C)O)C)C	822.953	4.33542	4	15	6	343.915	-3.102	0.618	73.272	-2.735	Yes	Yes	No	1.803	0.095	-1.827	-3.388	No	Yes	No	No	No	No	No	-0.761	No	No	0.357	No	Yes	2.521	3.291	No	No	0.285	6.439
COC1C=COC2(C)Oc3c(C2=O)c2c(O)cc(c(c2c(c3C)O)O)NC(=O)C(=CC=CC(C(C(C(C(C(C1C)OC(=O)C)C)O)C)O)C)C	697.778	4.75412	2	12	6	290.346	-3.402	0.419	82.186	-2.735	Yes	Yes	No	1.379	0	-1.82	-3.207	No	No	No	No	No	No	No	-0.389	No	No	0.51	No	Yes	2.584	3.397	No	No	0.285	5.034
COC1C=COC2(C)Oc3c(C2=O)c2c(O)c(C=NN4CCN(CC4)C4CCCC4)c(c(c2c(c3C)O)O)NC(=O)C(=CC=CC(C(C(C(C(C(C1C)OC(=O)C)C)O)C)O)C)C	877.045	5.64822	5	15	6	368.369	-3.048	0.65	80.741	-2.735	Yes	Yes	No	1.853	0.1	-1.909	-3.264	No	Yes	No	No	No	No	No	-0.64	No	No	0.302	No	Yes	2.523	3.101	Yes	No	0.285	6.048
COC1C=COC2(C)Oc3c(C2=O)c2c(c(c3C)O)c(O)c(c3c2nc2n3ccc(c2)C)NC(=O)C(=CC=CC(C(C(C(C(C(C1C)OC(=O)C)C)O)C)O)C)C	785.891	6.15784	2	13	5	329.936	-2.892	0.015	79.744	-2.735	Yes	Yes	No	0.051	0.321	-1.712	-3.598	No	No	No	No	No	No	No	-0.656	No	No	0.406	No	Yes	2.483	2.049	No	No	0.285	1.383
C1CN=C(O1)NC(C1CC1)C1CC1	180.251	1.1508	3	3	1	78.565	-2.416	1.345	91.112	-2.822	No	No	No	0.262	0.476	0.013	-2.142	No	No	No	No	No	No	No	0.411	No	No	0.134	No	No	2.3	1.189	No	Yes	0.467	1.754
N#CC=Cc1cc(C)c(c(c1)C)Nc1ccnc(n1)Nc1ccc(cc1)C#N	366.428	4.9891	5	6	2	163.370	-4.245	0.486	93.213	-2.772	Yes	Yes	Yes	0.4	0	-0.1	-1.77	No	Yes	Yes	Yes	Yes	No	Yes	0.209	No	No	-0.196	No	Yes	2.588	0.731	Yes	No	0.472	1.194
Nc1nc2c(s1)cc(cc2)OC(F)(F)F	234.202	2.7771	1	4	1	86.288	-3.385	1.385	88.94	-2.779	No	No	No	-0.356	0.264	0.377	-2.487	No	No	Yes	No	No	No	No	0.263	No	Yes	0.539	No	No	2.579	1.265	Yes	No	0.865	1.176
CC(C12CC3CC(C2)CC(C1)C3)N	179.307	2.55	1	1	1	81.076	-2.692	1.322	89.069	-2.536	No	No	No	0.65	0.489	0.699	-1.857	No	Yes	Yes	No	No	No	No	0.879	No	No	0.382	No	No	2.734	1.186	No	Yes	0.334	1.188
CCC(=O)C1(C)C(C)CC2C1(C)CC(O)C1C2CCC2=CC(=O)C=CC12C	370.533	4.4965	2	3	1	162.848	-4.494	1.516	99.069	-3.312	No	Yes	Yes	0.041	0	-0.464	-1.62	No	Yes	No	No	No	No	No	0.658	No	No	-0.695	No	No	2.374	1.669	No	No	0.543	0.363
Clc1ccc(cc1)c1c(C)c(nn1c1ccc(cc1Cl)Cl)C(=O)NN1CCCCC1	463.796	5.93862	4	4	1	190.053	-5.85	1.4	91.148	-2.715	Yes	Yes	Yes	0.44	0.073	0.475	-1.55	No	Yes	Yes	Yes	Yes	Yes	No	0.139	No	Yes	0.365	No	Yes	2.299	0.744	No	No	0.388	-0.517
COC(=O)N(c1c(N)nc(nc1N)c1nn(c2c1cccn2)Cc1ccccc1F)C	422.424	2.4427	4	9	2	175.833	-2.831	0.645	95.444	-2.735	No	Yes	No	-0.036	0.094	-0.822	-4.342	No	No	No	No	Yes	No	Yes	0.036	No	No	0.347	No	Yes	2.486	1.331	Yes	No	0.285	0.972
OP(=O)(C(P(=O)(O)O)(Cc1cccnc1)O)O	283.113	-0.3744	4	4	5	96.278	-1.654	0.307	42.633	-2.736	No	No	No	0.157	0.671	-1.555	-3.804	No	No	No	No	No	No	No	-0.033	No	No	0.594	No	No	1.581	3.251	No	No	0.285	2.72
Fc1ccc2c(c1)onc2C1CCN(CC1)CCc1c(C)nc2n(c1=O)CCCC2	410.493	3.59042	4	6	0	174.239	-3.596	0.882	93.835	-2.888	Yes	Yes	Yes	0.713	0.184	0.303	-2.112	Yes	Yes	No	No	No	Yes	Yes	0.933	Yes	No	-0.798	No	Yes	2.89	0.988	Yes	No	0.441	-0.418
OC(=O)CSC(SCC(=O)O)SCC(=O)O	286.352	0.7234	9	6	3	104.166	-1.579	-0.42	12.188	-2.735	No	No	No	-1.607	0.546	-1.468	-3.333	No	No	No	No	No	No	No	0.817	No	No	0.172	No	No	1.881	2.24	No	No	0.228	2.56
Oc1ccc(cc1)CCNC(C(c1ccc(cc1)O)O)C	287.359	2.352	6	4	4	124.246	-2.947	0.842	84.6	-2.749	Yes	No	No	1.339	0.42	-0.607	-2.512	Yes	Yes	Yes	No	No	Yes	No	1.089	No	No	0.06	No	Yes	2.904	1.209	No	No	0.424	1.511
O=C(NC(C(CC(Cc1ccccc1)NC(=O)C(C(C)C)NC(=O)N(Cc1csc(n1)C(C)C)C)O)Cc1ccccc1)OCc1cncs1	720.962	5.9052	17	9	4	302.058	-4.304	0.208	75.893	-2.735	Yes	Yes	Yes	-0.203	0	-1.739	-3.252	No	Yes	No	Yes	Yes	No	Yes	0.56	No	No	-0.126	No	Yes	2.688	1.091	Yes	No	0.285	3.247
