SMILES	MOL_WEIGHT	LOGP	#ROTATABLE_BONDS	#ACCEPTORS	#DONORS	SURFACE_AREA	Water solubility	Caco2 permeability	Intestinal absorption (human)	Skin Permeability	P-glycoprotein substrate	P-glycoprotein I inhibitor	P-glycoprotein II inhibitor	VDss (human)	Fraction unbound (human)	BBB permeability	CNS permeability	CYP2D6 substrate	CYP3A4 substrate	CYP1A2 inhibitior	CYP2C19 inhibitior	CYP2C9 inhibitior	CYP2D6 inhibitior	CYP3A4 inhibitior	Total Clearance	Renal OCT2 substrate	AMES toxicity	Max. tolerated dose (human)	hERG I inhibitor	hERG II inhibitor	Oral Rat Acute Toxicity (LD50)	Oral Rat Chronic Toxicity (LOAEL)	Hepatotoxicity	Skin Sensitisation	<i>T.Pyriformis</i> toxicity	Minnow toxicity
CCN1CCCC1CNC(=O)c1cc(c(cc1OC)N)S(=O)(=O)CC	369.487	1.2851	7	6	2	148.990	-2.691	0.604	68.918	-3.018	Yes	No	No	0.281	0.4	-1.054	-3.035	No	Yes	No	No	No	No	No	0.884	No	No	0.134	No	Yes	2.072	1.483	Yes	No	0.396	3.048
CN(CCC=C1c2ccccc2CCc2c1cccc2)C	277.411	4.1686	3	1	0	127.472	-4.741	1.514	98.149	-2.624	Yes	Yes	Yes	1.701	0.044	0.953	-1.18	No	Yes	No	No	No	Yes	No	0.843	No	No	0.306	No	Yes	2.698	1.142	Yes	Yes	1.367	1.16
CC(c1ccc2c(c1)c(=O)c1c(o2)nc(c(c1)C(=O)O)N)C	298.298	2.745	2	5	2	124.736	-3.108	1.031	74.275	-2.735	Yes	No	No	-1.328	0.242	-0.242	-2.268	No	No	No	No	No	No	No	0.301	No	No	0.72	No	No	1.942	2.277	No	No	0.286	1.187
NCCOCC1=C(C(=O)OCC)C(C(=C(N1)C)C(=O)OC)c1ccccc1Cl	408.882	2.2663	8	7	2	169.012	-3.203	1.171	86.58	-3.275	No	Yes	No	0.081	0.221	-0.903	-3.002	No	Yes	No	No	No	No	No	0.856	No	No	-0.08	No	No	3.188	1.365	No	No	0.374	0.652
OC(=O)C(O)C	90.078	-0.5482	1	2	2	35.219	0.88	1.073	84.135	-3.394	No	No	No	-0.723	0.808	-0.389	-3.057	No	No	No	No	No	No	No	0.741	No	No	1.214	No	No	1.842	2.79	No	No	-1.08	3.133
CCC1(CCC(C)C)C(=O)NC(=O)NC1=O	226.276	1.185	4	3	2	94.967	-2.454	0.741	73.173	-3.203	No	No	No	-0.112	0.495	-0.03	-2.75	No	No	No	No	No	No	No	0.226	No	No	0.61	No	No	2.224	1.602	No	No	0.469	1.269
CCN(Cc1cc(ccc1O)Nc1ccnc2c1ccc(c2)Cl)CC	355.869	5.1792	6	4	2	152.622	-4.369	1.096	90.608	-2.766	Yes	No	Yes	0.93	0.086	0.128	-1.843	Yes	Yes	Yes	Yes	No	Yes	Yes	0.878	No	No	0.128	No	Yes	2.735	0.898	Yes	No	0.493	3.191
CCC(c1ccc(cc1)CC(CN1CC(C)OC(C1)C)C)(C)C	317.517	4.662	6	2	0	142.773	-4.23	1.624	90.652	-2.2	No	Yes	No	1.744	0.219	0.959	-2.427	Yes	Yes	Yes	Yes	No	Yes	No	1.001	Yes	No	0.119	No	Yes	2.672	0.527	Yes	Yes	1.493	0.308
Clc1ccc2c(c1)C(=Nc1c(O2)cccc1)N1CCNCC1	313.788	3.4292	0	4	1	133.923	-3.499	1.093	92.774	-2.806	Yes	Yes	Yes	1.774	0.165	0.349	-1.852	No	Yes	Yes	No	No	Yes	No	0.414	Yes	No	0.127	No	Yes	2.99	1.638	No	No	0.495	0.59
O=C(C(c1ccc(cc1)O)N)NC1C(=O)N2C1SC(C2C(=O)O)(C)C	365.411	0.0237	4	6	4	147.915	-2.723	-0.097	39.429	-2.735	Yes	No	No	0.33	0.884	-0.969	-3.249	No	No	No	No	No	No	No	0.287	No	No	0.03	No	No	2.326	2.007	Yes	No	0.285	3.232
CC(Cc1ccccc1)N	135.21	1.5763	2	1	1	61.866	-1.819	1.478	91.759	-2.148	No	No	No	0.936	0.761	0.416	-1.924	No	No	Yes	No	No	No	No	0.843	No	No	0.184	No	No	3.104	1.638	No	Yes	-0.059	1.486
OC1CCC(O)C(O)CC(O)CC2(O)CC(O)C(C(O2)CC(C=CC=CC=CC=CC=CC=CC=CC(C(C(C(OC(=O)CC(C1)O)C)C)O)C)OC1OC(C)C(C(C1O)N)O)C(=O)O	924.091	0.7117	3	17	12	380.536	-2.971	-1.076	0	-2.735	Yes	No	No	-0.567	0.636	-2.593	-5.769	No	No	No	No	No	No	No	-1.357	No	No	-0.068	No	No	2.252	3.459	No	No	0.285	9.146
NC(c1ccccc1)C(=O)NC1C(=O)N2C1SC(C2C(=O)O)(C)C	349.412	0.3181	4	5	3	143.121	-2.342	0.419	43.421	-2.735	Yes	No	No	-0.513	0.608	-0.608	-3.052	No	No	No	No	No	No	No	0.392	No	No	1.252	No	No	2.124	2.334	Yes	No	0.284	2.596
CC(CN(S(=O)(=O)c1ccc(cc1)N)CC(C(Cc1ccccc1)NC(=O)OC1CCOC1)O)C	505.637	2.4028	11	7	3	206.820	-3.422	0.148	66.519	-2.741	Yes	Yes	No	0.436	0.066	-0.988	-3.36	No	Yes	No	No	No	No	Yes	0.891	No	No	-0.67	No	No	2.158	2.238	Yes	No	0.299	0.701
O=c1[nH]cc(cc1N)c1ccncc1	187.202	1.0191	1	3	2	80.429	-2.996	0.713	78.176	-3.053	No	No	No	-0.262	0.568	-0.135	-3.219	No	No	Yes	No	No	No	No	0.488	No	No	0.008	No	No	3.02	1.086	No	No	0.431	2.491
COc1cc(ccc1Nc1c2ccccc2nc2c1cccc2)NS(=O)(=O)C	393.468	4.5117	5	5	2	162.775	-4.059	0.645	94.491	-2.735	Yes	No	Yes	-1.217	0.027	-0.246	-2.148	No	Yes	Yes	Yes	Yes	No	Yes	0.219	No	Yes	0.25	No	Yes	1.835	1.434	Yes	No	0.286	-1.139
CCCCCON=O	117.148	1.8746	5	3	0	48.961	-1.549	1.463	94.195	-2.309	Yes	No	No	-0.089	0.603	0.07	-2.431	No	No	No	No	No	No	No	0.385	No	Yes	0.785	No	No	2.612	1.848	No	Yes	-0.184	1.592
CCCCCc1ccc(cc1O)C	178.275	3.43332	4	1	1	80.415	-2.749	1.608	92.052	-1.602	No	No	No	0.684	0.265	0.55	-1.739	No	No	Yes	No	No	No	No	0.286	No	No	0.673	No	No	2.224	1.429	Yes	Yes	1.252	0.547
CCC(OC(=O)c1ccccc1)(CN(C)C)C	235.327	2.5737	5	3	0	103.386	-2.658	1.264	92.996	-2.507	No	No	No	0.639	0.461	0.568	-2.501	No	No	Yes	No	No	Yes	No	0.719	No	No	0.623	No	No	2.362	1.768	No	No	0.299	1.022
O=C1NC2=Nc3c(CN2C1)c(Cl)c(cc3)Cl	256.092	1.9263	0	3	1	101.853	-2.713	1.253	92.294	-2.735	Yes	No	No	0.797	0.506	0.089	-1.676	No	No	No	No	No	No	No	0.973	Yes	No	-0.259	No	No	2.799	1.466	No	No	0.363	1.113
N#CC(c1cc(cc(c1)C(C#N)(C)C)Cn1ncnc1)(C)C	293.374	2.92876	4	5	0	130.385	-3.943	0.911	97.092	-2.436	No	No	No	0.081	0.109	-0.347	-2.15	No	Yes	Yes	Yes	No	No	No	1.528	No	Yes	-0.2	No	No	2.332	1.207	Yes	No	1.477	1.134
COc1ccc(cc1)c1ssc(=S)c1	240.374	4.21469	2	4	0	94.997	-4.756	1.442	91.964	-1.957	Yes	No	No	0.318	0.044	0.513	-1.439	No	Yes	Yes	Yes	Yes	No	No	0.097	No	No	0.693	No	No	2.564	1.07	No	No	1.536	-0.477
CCC(C(C(=O)NC(C(=O)N1CCCC1C(=O)NC(C(=O)O)Cc1ccccc1)Cc1[nH]cnc1)NC(=O)C(NC(=O)C(C(C)C)NC(=O)C(NC(=O)C(CC(=O)O)N)CCCN=C(N)N)Cc1ccc(cc1)O)C	1046.197	-1.3147	29	13	13	433.552	-2.892	-0.673	0	-2.735	Yes	No	No	-0.03	0.383	-2.54	-6.191	No	No	No	No	No	No	No	-0.801	No	No	0.438	No	No	2.482	7.822	No	No	0.285	13.385
CCCCCOc1ccc(cc1)c1ccc(cc1)c1ccc(cc1)C(=O)NC1CC(O)C(O)NC(=O)C2C(O)C(CN2C(=O)C(NC(=O)C(NC(=O)C2N(C(=O)C(NC1=O)C(O)C)CC(C2)O)C(C(c1ccc(cc1)O)O)O)C(O)C)C	1140.254	-0.9271	14	17	14	472.655	-2.892	-1.272	8.74	-2.735	Yes	Yes	Yes	-0.471	0.23	-2.786	-5.79	No	No	No	No	No	No	No	-0.895	No	No	0.438	No	Yes	2.482	7.886	Yes	No	0.285	13.527
CCOC(=O)C1(CCN(CC1)CCc1ccc(cc1)N)c1ccccc1	352.478	3.4082	6	4	1	155.507	-3.773	1.445	92.525	-2.769	Yes	Yes	Yes	1.083	0.084	0.236	-2.141	No	Yes	No	No	No	Yes	Yes	1.172	Yes	No	-0.814	No	Yes	2.447	1.216	Yes	No	0.396	-0.573
COc1ccc(cc1)C1C(=O)c2c(C1=O)cccc2	252.269	2.858	2	3	0	110.379	-3.958	1.292	98.99	-2.559	No	No	No	-0.032	0.1	-0.091	-1.537	No	Yes	Yes	Yes	Yes	No	No	0.14	No	Yes	0.542	No	No	2.232	2.231	No	No	0.942	0.133
c1ccc(cc1)CN(c1ccccc1)CC1=NCCN1	265.36	2.6949	5	3	1	119.512	-3.511	1.549	95.213	-2.232	No	No	No	0.713	0.087	0.733	-1.763	Yes	Yes	Yes	Yes	No	Yes	No	0.483	Yes	Yes	0.432	No	No	2.359	0.536	No	No	2.356	0.947
Oc1cccc2c1C(=O)c1c(C2)cccc1O	226.231	2.233	0	3	2	97.963	-3.038	1.15	95.027	-2.896	Yes	No	No	0.273	0.163	0.129	-2.048	No	Yes	Yes	No	No	No	No	-0.042	No	Yes	0.147	No	No	1.984	1.908	No	No	1.157	0.728
O=c1cc(n(n1c1ccccc1)C)C	188.23	1.48442	1	3	0	82.197	-1.781	1.704	98.133	-2.079	Yes	No	No	-0.146	0.326	0.091	-1.613	No	No	Yes	No	No	No	No	0.502	No	No	0.074	No	No	1.98	0.82	No	No	0.819	1.363
O=C(c1ccccc1Nc1ccnc2c1ccc(c2)C(F)(F)F)OCCN1CCN(CC1)c1cccc(c1)C(F)(F)F	588.552	6.995	7	6	1	237.063	-4.776	0.849	85.386	-2.732	Yes	Yes	Yes	0.732	0.03	0.154	-1.569	Yes	Yes	No	Yes	No	Yes	Yes	0.477	No	No	0.234	No	Yes	2.318	1.447	Yes	No	0.289	1.276
CNC(=O)c1ccc(cc1F)N1C(=S)N(C(=O)C21CCC2)c1cnc(c(c1)C(F)(F)F)C#N	477.443	3.53158	3	5	1	190.152	-4.946	1.412	92.059	-3.079	No	Yes	No	-0.59	0.005	-1.283	-3.021	No	Yes	No	Yes	No	No	Yes	-0.236	No	No	-0.624	No	No	3.214	1.143	Yes	No	0.399	1.337
COc1ccc(cc1)n1nc(c2c1C(=O)N(CC2)c1ccc(cc1)N1CCCCC1=O)C(=O)N	459.506	2.6996	5	6	1	196.248	-4.04	0.842	92.402	-2.761	Yes	Yes	Yes	-0.167	0	-0.993	-2.582	No	Yes	No	Yes	Yes	No	No	0.264	No	No	0.026	No	Yes	2.475	1.143	Yes	No	0.315	0.597
CN1CCc2c3C1Cc1ccc(c(c1c3ccc2)O)O	267.328	2.8499	0	3	2	117.650	-3.987	1.152	94.278	-2.743	Yes	No	No	1.135	0.147	0.199	-1.734	Yes	Yes	Yes	No	No	Yes	No	0.979	No	No	0.123	No	Yes	2.524	0.938	No	No	0.713	0.669
Nc1cc(Cl)c(c(c1)Cl)NC1=NCCN1	245.113	1.9467	1	4	3	97.462	-2.859	0.961	81.708	-2.737	No	No	No	0.721	0.57	0.043	-2.946	No	No	No	No	No	Yes	No	0.675	Yes	Yes	0.472	No	No	2.675	1.547	No	Yes	0.278	1.618
CCOc1cc(ccc1OC)C(N1C(=O)c2c(C1=O)c(ccc2)N=C(O)C)CS(=O)(=O)C	460.508	3.0837	8	7	1	185.757	-4.296	0.673	89.313	-2.796	Yes	Yes	No	-0.056	0.027	-0.953	-3.319	No	Yes	No	No	Yes	No	Yes	0.322	No	No	0.366	No	No	2.148	1.805	Yes	No	0.332	0.796
Fc1ccc(cc1)C1C(OCCN1Cc1n[nH]c(=O)[nH]1)OC(c1cc(cc(c1)C(F)(F)F)C(F)(F)F)C	534.432	4.9521	6	5	2	204.748	-3.617	1.156	87.177	-2.74	Yes	Yes	Yes	0.368	0.086	-1.984	-2.4	No	Yes	No	No	Yes	No	Yes	0.176	No	No	0.262	No	Yes	2.99	2.838	Yes	No	0.288	2.903
C=CCC(C(=O)NC(=O)N)C(C)C	184.239	1.0296	4	2	2	78.182	-1.502	0.404	72.567	-2.905	No	No	No	-0.352	0.519	0.158	-2.939	No	No	No	No	No	No	No	0.566	No	No	0.837	No	No	2.06	2.745	No	Yes	0.148	1.673
Oc1ccc(cc1)CCCCNCC(c1ccc(c(c1)O)O)O	317.385	2.4493	8	5	5	135.405	-3.195	-0.372	62.992	-2.737	Yes	No	No	1.318	0.38	-1.016	-2.877	Yes	Yes	No	No	No	Yes	Yes	1.283	No	No	0.361	No	Yes	2.667	2.705	Yes	No	0.388	1.09
OCC1OC(Oc2ccc(cc2)O)C(C(C1O)O)O	272.253	-1.4291	3	7	5	108.813	-1.047	0.139	42.469	-2.755	No	Yes	No	0.119	0.709	-0.823	-3.93	No	No	No	No	No	No	No	0.567	No	No	0.435	No	No	1.721	3.094	No	No	0.285	3.482
O=CNc1cc(ccc1O)C(CNC(Cc1ccc(cc1)OC)C)O	344.411	2.2233	9	5	4	147.006	-3.352	0.814	89.81	-2.74	Yes	No	No	0.942	0.471	-1.118	-2.888	Yes	Yes	No	No	No	Yes	No	1.128	No	No	0.374	No	Yes	2.467	1.478	Yes	No	0.323	2.718
NC(=N)NCCCC(C(=O)N1CCC(CC1C(=O)O)C)NS(=O)(=O)c1cccc2c1NCC(C2)C	508.645	0.91257	9	6	6	205.936	-2.828	-0.259	21.317	-2.735	Yes	No	No	0.269	0.594	-1.162	-3.748	No	Yes	No	No	No	No	No	-0.397	No	No	0.495	No	No	2.081	2.83	Yes	No	0.285	7.806
O=C1CCc2c(N1)cc(cc2)OCCCCN1CCN(CC1)c1cccc(c1Cl)Cl	448.394	4.8593	7	4	1	187.442	-4.729	0.959	88.312	-2.858	Yes	Yes	Yes	1.43	0.196	0.072	-1.345	Yes	Yes	No	No	No	Yes	No	1.156	Yes	No	-0.336	No	Yes	2.985	1.264	Yes	No	1.069	-0.385
CCCCCCCCCCCC(=O)OCN1C(=O)CCc2c1cc(OCCCCN1CCN(CC1)c1cccc(c1Cl)Cl)cc2	660.727	8.6754	19	6	0	279.672	-6.742	0.336	87.734	-2.713	Yes	Yes	Yes	0.947	0	-0.899	-2.374	No	Yes	No	No	No	No	Yes	1.574	Yes	No	0.123	No	Yes	3.142	1.013	No	No	0.294	-3.911
NC(=O)CS(=O)C(c1ccccc1)c1ccccc1	273.357	2.01	5	2	1	114.459	-3.563	1.274	97.165	-2.631	No	No	No	-0.251	0.031	-0.089	-2.544	No	Yes	Yes	Yes	No	No	No	0.361	No	Yes	0.472	No	No	2.169	2.549	Yes	No	0.717	0.559
COC1OC2OC3(C)CCC4C2(C(C1C)CCC4C)OO3	298.379	2.8408	1	5	0	125.687	-3.648	1.383	97.231	-3.304	No	Yes	No	0.518	0.394	-0.114	-3.296	No	Yes	No	No	No	No	No	1.015	No	No	0.09	No	No	2.542	1.043	No	No	0.329	1.759
CCOC1OC2OC3(C)CCC4C2(C(C1C)CCC4C)OO3	312.406	3.2309	2	5	0	132.052	-3.795	1.404	96.812	-3.274	No	Yes	No	0.553	0.367	-0.129	-3.395	No	Yes	No	No	No	No	No	1.06	No	No	0.002	No	No	2.56	1.075	No	No	0.329	1.594
OC(=O)CCC(=O)OC1OC2OC3(C)CCC4C2(C(C1C)CCC4C)OO3	384.425	2.6024	4	7	1	157.899	-3.667	0.948	70.953	-2.815	No	No	No	0.019	0.342	-1.036	-3.011	No	Yes	No	No	No	No	No	0.953	No	No	-0.187	No	No	2.639	1.687	No	No	0.293	2.144
CCCNC(C(=Nc1c(C)csc1C(=O)OC)O)C	284.381	2.81922	6	5	2	116.871	-2.596	1.025	88.445	-3.084	No	No	No	0.477	0.556	-0.437	-2.916	No	No	No	No	No	No	No	0.852	No	No	0.657	No	No	3.068	0.492	No	No	0.98	1.5
COc1ccc(cc1)c1sc2c(c1Oc1ccc(cc1)OCCN1CCCCC1)ccc(c2)O	475.61	6.9395	8	6	1	203.676	-4.59	1.176	90.052	-2.735	Yes	Yes	Yes	-0.838	0.128	-0.022	-1.872	No	Yes	No	Yes	No	No	Yes	0.811	Yes	Yes	0.138	No	Yes	2.518	1.675	Yes	No	0.285	-1.303
OCC(C1OC(=O)C(=C1O)O)O	176.124	-1.4074	2	6	4	67.321	-0.435	-0.467	39.716	-3.183	No	No	No	-0.072	0.888	-0.911	-3.971	No	No	No	No	No	No	No	0.631	No	No	1.805	No	No	1.223	2.78	No	No	0.285	3.046
Clc1ccc2c(c1)C1CN(CC1c1c(O2)cccc1)C	285.774	4.2585	0	2	0	123.478	-4.056	1.135	92.282	-2.783	Yes	No	No	1.593	0.132	0.807	-1.256	Yes	Yes	Yes	No	No	Yes	No	0.631	No	Yes	0.098	No	Yes	3.191	1.377	Yes	No	0.597	-0.353
NC(=O)CC(C(=O)O)N	132.119	-1.7263	3	3	3	51.631	-2.888	-0.363	35.388	-2.735	No	No	No	-0.528	0.488	-0.573	-3.564	No	No	No	No	No	No	No	0.426	No	No	1.202	No	No	2.025	1.985	No	No	0.264	3.674
OC(=O)CC(C(=O)O)N	133.103	-1.127	3	3	3	51.085	-2.892	-0.39	20.566	-2.735	No	No	No	-0.358	0.426	-0.765	-3.563	No	No	No	No	No	No	No	0.027	No	No	0.994	No	No	2.337	1.9	No	No	0.281	3.542
COc1ccc(cc1)CCN1CCC(CC1)Nc1nc2c(n1Cc1ccc(cc1)F)cccc2	458.581	5.3513	8	5	1	199.733	-3.094	0.401	87.802	-2.735	Yes	Yes	Yes	0.29	0.005	0.219	-0.416	No	Yes	Yes	Yes	No	Yes	No	0.955	Yes	Yes	0.227	Yes	Yes	2.46	0.835	Yes	No	0.285	3.382
C=CC1CC1(NC(=O)C1CC(CN1C(=O)C(C(C)(C)C)NC(=O)OC(C)(C)C)Oc1ncc(c2c1cc(Cl)cc2)OC)C(=O)NS(=O)(=O)C1CC1	748.299	3.8538	11	10	3	302.574	-3.742	0.683	70.603	-2.735	Yes	Yes	Yes	-0.035	0.11	-2.016	-3.41	No	Yes	No	No	No	No	Yes	0.089	No	No	-0.124	No	Yes	4.193	2.7	Yes	No	0.285	5.375
Fc1ccccc1c1onc(n1)c1cccc(c1)C(=O)O	284.246	3.2409	3	4	1	118.217	-2.986	1.132	100	-2.735	No	No	No	-1.878	0.142	-0.689	-2.138	No	No	Yes	No	No	No	No	0.4	No	No	0.969	No	No	2.182	1.724	Yes	No	0.286	0.476
COC(=O)NC(C(C)(C)C)C(=O)NN(Cc1ccc(cc1)c1ccccn1)CC(C(Cc1ccccc1)NC(=O)C(C(C)(C)C)NC(=O)OC)O	704.869	4.2116	14	9	5	300.026	-4.392	0.381	50.482	-2.735	Yes	Yes	Yes	-0.231	0.048	-1.25	-3.151	No	Yes	No	No	Yes	No	Yes	0.345	No	No	-0.361	No	Yes	2.823	2.289	Yes	No	0.285	1.258
OC(COc1ccc(cc1)CC(=O)N)CNC(C)C	266.341	0.4521	8	4	3	113.310	-1.91	0.479	67.661	-2.908	Yes	No	No	0.492	0.519	-0.444	-3.224	No	No	No	No	No	No	No	0.949	No	No	0.271	No	No	1.711	2.255	Yes	No	0.331	1.94
CNCCC(c1ccccc1)Oc1ccccc1C	255.361	3.72462	6	2	1	114.977	-3.474	1.731	94.442	-2.399	No	No	No	1.285	0.074	0.527	-1.371	No	Yes	Yes	No	No	Yes	No	0.846	Yes	No	0.649	No	Yes	2.565	0.942	Yes	Yes	1.731	1.267
OC(CC(CC(=O)O)O)CCn1c(C(C)C)c(c(c1c1ccc(cc1)F)c1ccccc1)C(=O)Nc1ccccc1	558.65	6.3136	12	5	4	238.457	-4.552	0.206	66.252	-2.735	Yes	No	No	-1.941	0.129	-1.275	-3.033	No	Yes	Yes	No	Yes	No	No	0.501	No	No	0.253	No	No	2.906	1.925	Yes	No	0.285	-1.565
NCCCC(C(=O)NCC(=O)N)NC(=O)C1CCCN1C(=O)C1CSSCCC(=O)NC(Cc2ccc(cc2)OCC)C(=O)NC(C(=O)NC(C(=O)NC(C(=O)N1)CC(=O)N)C(O)C)C(CC)C	994.208	-3.0446	18	15	11	402.720	-2.91	0.827	0	-2.735	Yes	No	No	-1.049	0.49	-1.622	-5.205	No	No	No	No	No	No	No	-0.387	No	No	0.442	No	Yes	2.519	3.496	Yes	No	0.285	9.94
Clc1ccc(cc1)C1CCC(CC1)C1=C(O)C(=O)c2c(C1=O)cccc2	366.844	5.5051	2	3	1	156.857	-5.417	1.08	90.9	-2.752	No	Yes	Yes	0.057	0	0.179	-1.502	No	Yes	Yes	No	No	No	Yes	-0.267	No	No	0.059	No	Yes	2.634	2.528	Yes	No	0.422	-1.925
OCC(c1ccccc1)C(=O)OC1CC2CCC(C1)N2C	289.375	1.9309	4	4	1	125.263	-1.749	1.26	92.775	-2.873	No	No	No	0.866	0.459	0.28	-2.5	No	Yes	No	No	No	Yes	No	1.03	Yes	No	-0.37	No	No	2.47	1.26	No	No	0.354	1.36
OCC1OC(S)C(C(C1O)O)O	196.224	-2.2839	1	6	5	75.004	-1.019	0.332	58.166	-3.381	No	No	No	-0.376	0.88	-1.034	-4.025	No	No	No	No	No	No	No	0.542	No	No	1.961	No	No	1.295	3.217	No	No	0.279	3.752
OCC1CCCN1c1ncc(c(n1)NCc1ccc(c(c1)Cl)OC)C(=O)NCc1ncccn1	483.96	2.4318	9	9	3	201.935	-3.069	0.634	77.322	-2.747	Yes	Yes	No	0.174	0.107	-1.46	-3.928	No	Yes	No	No	Yes	No	Yes	0.284	No	No	0.216	No	Yes	2.426	1.383	Yes	No	0.291	1.374
OC(=O)C1CCN(CC1)c1ncc(cc1Cl)C(=O)Nc1sc(c(n1)c1scc(c1)Cl)N1CCN(CC1)C1CCCCC1	649.67	6.5814	7	9	2	263.005	-3.452	0.775	79.971	-2.736	Yes	No	No	0.897	0.15	-1.812	-3.126	No	Yes	No	No	No	No	No	-0.101	No	No	0.264	No	Yes	2.858	-0.426	Yes	No	0.285	-0.284
NC(=O)C1CCC2CN1C(=O)N2OS(=O)(=O)O	265.247	-1.5253	3	5	2	97.005	-1.937	-0.185	14.97	-2.735	No	No	No	-0.752	0.783	-1.034	-3.339	No	No	No	No	No	No	No	0.546	No	No	1.444	No	No	1.834	2.545	No	No	0.285	3.821
COc1ccc(cc1)C(=O)CC(=O)c1ccc(cc1)C(C)(C)C	310.393	4.4484	5	3	0	136.845	-5.418	1.45	95.647	-2.654	No	No	No	-0.19	0	0.009	-1.267	No	Yes	Yes	Yes	Yes	No	No	0.204	No	Yes	0.584	No	No	2.049	2.294	No	No	0.626	-1.707
CNC(=O)c1ccccc1Sc1ccc2c(c1)[nH]nc2C=Cc1ccccn1	386.48	4.6391	5	4	2	166.449	-4.081	0.72	91.668	-2.739	Yes	Yes	Yes	-0.204	0	-1.117	-2.097	Yes	Yes	Yes	Yes	Yes	No	Yes	0.115	No	Yes	0.151	No	Yes	3.032	0.838	Yes	No	0.311	1.85
OCC1OC(C(C1O)O)n1cnc(nc1=O)N	244.207	-3.168	2	9	4	95.117	-1.952	0.53	44.923	-2.747	No	No	No	-0.392	0.708	-0.874	-3.864	No	No	No	No	No	No	No	0.561	No	No	1.487	No	No	1.717	2.619	Yes	No	0.284	3.688
CN1CCC(=C2c3ccccc3CCc3c2nccc3)CC1	290.41	3.7077	0	2	0	132.051	-4.061	1.686	98.424	-2.469	Yes	Yes	No	1.402	0.196	0.525	-1.54	No	Yes	Yes	No	No	Yes	No	0.822	Yes	No	-0.868	No	No	2.815	0.932	Yes	No	1.352	1.577
OC(=O)CCCCCCCC(=O)O	188.223	1.8863	8	2	2	77.570	-1.737	0.726	92.806	-2.728	No	No	No	-1.42	0.466	-0.355	-2.975	No	No	No	No	No	No	No	1.47	No	No	-0.198	No	No	1.465	2.98	No	No	0.297	1.717
CN1CCCC(CC1)n1nc(Cc2ccc(cc2)Cl)c2c(c1=O)cccc2	381.907	4.2975	3	4	0	163.926	-4.772	1.019	95.56	-2.631	No	Yes	Yes	0.969	0.116	0.395	-1.56	No	Yes	Yes	Yes	No	Yes	Yes	0.613	No	No	0.174	No	Yes	2.681	1.198	Yes	No	0.546	2.662
CCOc1nc2c(n1Cc1ccc(cc1)c1ccccc1c1noc(=O)[nH]1)c(ccc2)C(=O)OCc1oc(=O)oc1C	568.542	4.70522	9	11	1	236.666	-2.907	-0.323	100	-2.735	Yes	Yes	Yes	-0.403	0.229	-2.095	-3.776	No	Yes	No	No	Yes	No	Yes	0.316	No	Yes	0.365	No	Yes	2.59	1.845	No	No	0.285	-0.903
CCC1OC(=O)C(C)C(OC2OC(C)C(C(C2)(C)OC)O)C(C)C(OC2OC(C)CC(C2O)N(C)C)C(CC(CN(C(C(C1(C)O)O)C)C)C)(C)O	748.996	1.9007	7	14	5	311.558	-3.055	0.386	25.753	-2.735	Yes	Yes	No	0.873	0.71	-1.349	-3.958	No	No	No	No	No	No	No	-0.407	No	No	1.31	No	No	2.411	2.143	Yes	No	0.285	6.421
O=C(C(c1ccccc1)NC(=O)N1CCNC1=O)NC1C(=O)N2C1SC(C2C(=O)O)(C)C	461.5	0.0942	5	6	4	187.417	-2.888	-0.479	33.464	-2.735	Yes	No	No	-0.794	0.626	-1.018	-3.719	No	No	No	No	No	No	No	0.049	No	No	0.954	No	No	2.168	3.077	Yes	No	0.285	3.922
CC1C(NC(=O)C(=NOC(C(=O)O)(C)C)c2csc(n2)N)C(=O)N1S(=O)(=O)O	435.44	-1.1725	7	10	4	162.590	-2.608	-0.647	0	-2.735	Yes	No	No	-1.328	0.626	-1.617	-3.681	No	No	No	No	No	No	No	-0.086	No	No	1.379	No	No	1.831	2.412	Yes	No	0.285	4.984
CCOC(=O)OC(OC(=O)C1N2C(=O)C(C2SC1(C)C)NC(=O)C(c1ccccc1)N)C	465.528	1.2958	7	9	2	189.653	-2.686	0.427	60.649	-2.784	Yes	No	No	-0.21	0.684	-1.167	-3.596	No	No	No	No	No	No	No	0.373	No	No	-0.291	No	No	2.357	1.629	Yes	No	0.285	2.736
NCCCC1NC(=O)C(CCCCNC(=O)C(CC(=O)N)NC(=O)C(NC(=O)C(NC(=O)C(NC(=O)C(NC1=O)C(CC)C)Cc1ccccc1)Cc1nc[nH]c1)CC(=O)O)NC(=O)C(C(CC)C)NC(=O)C(NC(=O)C(NC(=O)C1CSC(=N1)C(C(CC)C)N)CC(C)C)CCC(=O)O	1422.72	-1.6776	31	19	17	585.644	-2.892	-0.848	0	-2.735	Yes	No	No	-0.359	0.413	-3.722	-6.319	No	No	No	No	No	No	No	-1.011	No	No	0.439	No	No	2.482	6.509	Yes	No	0.285	14.632
NCC(c1ccc(cc1)Cl)CC(=O)O	213.664	1.857	4	2	2	87.490	-2.515	0.793	93.783	-2.701	No	No	No	-0.704	0.481	0.055	-2.484	No	No	No	No	No	No	No	0.47	No	No	0.753	No	No	2.244	1.636	Yes	No	0.315	1.25
COC(=O)OCOc1c(=O)ccn2c1C(=O)N1CCOCC1N2C1c2ccccc2SCc2c1ccc(c2F)F	571.558	3.3912	4	10	0	230.490	-3.828	0.644	87.475	-2.736	No	Yes	Yes	-0.202	0.126	-1.626	-3.963	No	Yes	No	No	No	No	Yes	0.284	No	No	0.156	No	Yes	2.862	0.436	Yes	No	0.285	-4.144
OC(=O)CCNC(=O)c1ccc(cc1)N=Nc1ccc(c(c1)C(=O)O)O	357.322	2.7103	7	6	4	147.177	-3.058	-0.715	29.484	-2.735	Yes	No	No	-2.582	0.078	-1.407	-3.407	No	No	No	No	No	No	No	0.513	No	No	0.783	No	No	1.908	2.007	No	No	0.285	1.069
N#CCC1(CN(C1)S(=O)(=O)CC)n1ncc(c1)c1ncnc2c1cc[nH]2	371.426	1.09568	5	7	1	149.888	-2.676	0.722	83.08	-2.737	Yes	No	No	0.517	0.169	-1.134	-3.345	No	No	No	No	No	No	No	0.983	No	No	0.088	No	Yes	2.373	1.556	Yes	No	0.287	0.524
Oc1ccc2c(c1)c(C)c(n2Cc1ccc(cc1)OCCN1CCCCCC1)c1ccc(cc1)O	470.613	6.33102	7	5	2	206.752	-5.145	0.918	88.148	-2.736	Yes	Yes	Yes	0.325	0.086	-0.07	-1.729	Yes	Yes	No	Yes	No	Yes	Yes	0.778	No	No	0.34	No	Yes	2.531	1.369	No	No	0.288	1.04
CCC(=O)OC1(C(C)CC2C1(C)CC(O)C1(C2CCC2=CC(=O)C=CC12C)Cl)C(=O)COC(=O)CC	521.05	4.0868	6	7	1	217.161	-5.052	0.962	93.898	-2.994	No	Yes	Yes	0.005	0.032	-0.822	-2.531	No	Yes	No	No	No	No	No	0.042	Yes	No	-0.974	No	No	2.195	2.035	No	No	0.291	0.984
COc1nc2ccc(cc2cc1C(C(c1cccc2c1cccc2)(CCN(C)C)O)c1ccccc1)Br	555.516	7.1305	8	4	1	226.218	-3.534	0.771	95.278	-2.735	Yes	Yes	Yes	-1.334	0.36	-0.028	-1.26	No	Yes	Yes	No	No	Yes	No	0.585	No	No	0.451	No	Yes	2.85	2.221	Yes	No	0.285	-3.36
ONC(=O)C=Cc1cccc(c1)S(=O)(=O)Nc1ccccc1	318.354	2.006	5	4	3	127.664	-4.014	1.225	79.325	-2.96	Yes	No	No	-0.617	0.009	-0.781	-2.689	No	Yes	No	No	No	No	No	0.562	No	No	0.015	No	Yes	2.484	1.912	Yes	No	0.45	2.109
CCCCC(COc1ccc(c(c1)O)c1nc(nc(n1)c1ccc(cc1)OC)c1ccc(cc1O)OCC(CCCC)CC)CC	627.826	9.4828	18	8	2	273.395	-3.18	0.484	96.892	-2.735	No	Yes	Yes	-1.459	0.287	-0.557	-3.042	No	Yes	No	Yes	Yes	No	No	0.537	Yes	No	0.318	No	Yes	2.679	2.107	Yes	No	0.285	-6.39
CCOC(=O)C(NC1CCc2c(N(C1=O)CC(=O)O)cccc2)CCc1ccccc1	424.497	2.5731	9	5	2	181.564	-4.367	0.824	56.126	-2.735	Yes	No	No	-0.192	0.145	-0.129	-2.825	No	No	No	No	No	No	No	0.821	No	No	-0.039	No	No	1.886	1.715	Yes	No	0.285	-1.404
ClCCN(c1ccc2c(c1)nc(n2C)CCCC(=O)O)CCCl	358.269	3.2646	9	4	1	145.358	-2.901	1.533	87.189	-2.735	Yes	No	No	-0.731	0.171	-0.158	-2.706	No	No	No	No	No	No	No	0.925	No	Yes	0.279	No	No	2.4	1.814	No	No	0.285	-1.244
OC(=O)COc1nn(c2c1cccc2)Cc1ccccc1	282.299	2.548	5	4	1	120.942	-3.94	1.241	94.503	-2.729	No	No	No	-0.603	0.074	0.433	-2.618	No	Yes	No	No	No	No	No	0.665	No	No	0.807	No	No	2.297	1.11	Yes	No	0.356	-1.236
O=S1(=O)NC(Cc2ccccc2)Nc2c1cc(c(c2)C(F)(F)F)S(=O)(=O)N	421.422	1.6254	3	5	3	153.035	-3.498	-0.051	76.491	-2.837	Yes	Yes	No	-0.501	0.025	-0.999	-2.677	No	Yes	No	No	No	No	No	0.328	No	No	-0.437	No	No	1.354	2.2	Yes	No	0.405	2.522
O=CN(C(=C(SC(=O)c1ccccc1)CCOP(=O)(O)O)C)Cc1cnc([nH]c1=N)C	466.456	2.46049	10	7	4	182.666	-2.534	0.13	46.302	-2.742	Yes	No	No	-0.614	0.319	-1.953	-4.185	No	No	No	No	No	No	No	0.101	No	No	0.3	No	No	2.506	2.883	Yes	No	0.286	2.306
CC(=O)Nc1ccc(cc1)OC(=O)c1ccccc1OC(=O)C	313.309	2.7895	4	5	1	132.575	-4.488	1.126	94.133	-3.015	No	No	No	-0.486	0.038	-0.483	-2.343	No	Yes	Yes	Yes	No	No	No	0.498	No	Yes	0.55	No	Yes	2.184	1.488	No	No	0.939	1.386
OC(=O)C(c1ccc2c(c1)nc(o2)c1ccc(cc1)Cl)C	301.729	4.3363	3	3	1	125.538	-4.459	0.493	91.75	-2.616	No	No	No	-0.495	0.091	0.167	-1.911	No	Yes	No	No	No	No	No	-0.042	No	No	0.378	No	No	2.286	1.079	Yes	No	0.568	-0.897
Fc1ccc(cc1)C(=O)CCCN1CCC(CC1)n1c(O)nc2c1cccc2	381.451	4.181	6	5	1	162.969	-3.451	0.685	88.12	-2.735	Yes	Yes	Yes	0.572	0.066	0.274	-2.186	Yes	No	No	Yes	No	Yes	No	1.034	Yes	No	0.248	Yes	Yes	2.609	1.368	No	No	0.285	0.223
OCC(C(=O)NNCc1ccc(c(c1O)O)O)N	257.246	-1.7562	5	7	7	102.639	-2.724	-0.74	41.381	-2.735	Yes	No	No	0.385	0.914	-1.311	-4.004	No	No	No	No	No	No	No	0.929	No	No	0.295	No	No	2.052	3.114	Yes	No	0.285	4.138
CN1C2CCC1CC(C2)OC(c1ccccc1)c1ccccc1	307.437	4.4178	4	2	0	138.635	-4.098	1.865	93.847	-2.346	No	Yes	No	1.605	0.054	0.706	-1.723	No	Yes	No	No	No	Yes	No	0.872	Yes	No	0.111	Yes	No	2.615	0.486	No	Yes	1.264	2.603
CCc1oc2c(c1C(=O)c1cc(I)c(c(c1)I)O)cccc2	518.088	5.141	3	3	1	154.539	-5.512	1.244	93.396	-2.66	Yes	No	Yes	0.371	0.024	-0.103	-1.599	No	Yes	Yes	Yes	Yes	No	Yes	-0.287	No	No	0.297	No	Yes	2.482	1.329	No	No	0.944	-1.025
CCOC(=O)c1ccc(cc1)N	165.192	1.4455	2	3	1	71.141	-2.137	1.204	94.163	-2.854	No	No	No	0.087	0.459	-0.219	-2.858	No	No	Yes	No	No	No	No	0.65	No	No	0.638	No	No	1.811	2	No	No	0.261	1.712
