,Name,Name,SMILES
1500,11056,11056,COc1cccc2c1C(=O)c1ccc(C)c(O)c1C2=O
1501,17141,17141,Cc1cnc(C(O)C(O)C(O)CO)cn1
1502,13327,13327,CC(=O)OCC(CC(O)C=C(C)C)C1CCC2(C)C3=CCC4C(C)(COC5OC(CO)C(O)C(O)C5O)C(=O)CCC4(C)C3CC(OC(C)=O)C12C
1503,6435,6435,CC(C)=CCC/C(C)=C/CC1(C)C(=O)C(C)=C(O)C2=C1OC(C)CC2=O
1504,3428,3428,C=CC(C)(CC/C=C(\C)C(=O)OC1C(C)OC(OC(C)(C=C)CC/C=C(\C)C(=O)OC2CC3(C(=O)OC4OC(CO)C(O)C(O)C4OC4OC(C)C(OC5OC(CO)C(O)C5O)C(OC5OC(CO)C(O)C(O)C5O)C4O)C(O)CC4(C)C(=CCC5C6(C)CCC(OC7OC(COC8OCC(O)C(O)C8OC8OCC(O)C(O)C8O)C(O)C(O)C7O)C(C)(C)C6CCC54C)C3CC2(C)C)C(O)C1O)OC1OC(C)C(O)C(O)C1O
1505,3350,3350,CCCCCCCC/C=C/CCCCCCCC(=O)O
1506,17452,17452,CC(C)(O)C1C=CC(O)(CO)CC1
1507,17458,17458,C=C1CCC(O)C2(C)CCC(C(C)C)C=C12
1508,10864,10864,C=C(C)C1CC(=O)c2c(O)c(C(C)C)c(O)c(O)c2C1(C)CCC(=O)O
1509,15031,15031,CC(C)=CCc1cc2c(cc1O)OCc1c-2oc2c(CC=C(C)C)c(O)ccc12
1510,1545,1545,COc1c(CC=C(C)C)c(O)c(C(=O)CC(C)C)c(O)c1C(C)=O
1511,16932,16932,CC1CCC2(OC1)OC1C(O)C3C4CC=C5CC(OC6OC(CO)C(OC7OC(CO)C(O)C(O)C7OC7OC(CO)C(O)C(O)C7O)C(O)C6OC6OC(C)C(O)C(O)C6O)CCC5(C)C4CCC3(C)C1C2C
1512,4543,4543,COC1CC(OC2CCC3(C)C(CCC4(O)C3CC(OC(C)=O)C3(C)C(O)(C(C)OC(C)=O)CCC43O)C2)OC(C)C1OC1CC(OC)C(OC2OC(C)C(O)C(OC)C2O)C(C)O1
1513,6699,6699,CCCCCCCCCC(=O)OC1C(C)C2(O)C(C=C(CO)CC3(O)C(=O)C(C)=CC32)C2C(C)(C)C12OC(=O)C(C)CC
1514,7560,7560,CC(C)(O)CCc1cc(=O)c2ccc(O)cc2[nH]1
1515,4209,4209,COC(=O)C1(O)CC(O)C(OC(=O)/C=C/c2ccc(O)c(O)c2)C(O)C1
1516,14749,14749,CCCCCCCC=O
1517,12817,12817,COc1cc2c(cc1OC)C13CC[N+]4([O-])CC5=CCOC6CC(=O)N2C1C6C5CC34
1518,11806,11806,C/C(=C\C=C\C(C)(C)O)CCOc1ccc2ccc(=O)oc2c1
1519,15713,15713,c1cc2c(cc1C1OCC3C(c4ccc5c(c4)COC5)OCC13)COC2
1520,9736,9736,C/C=C(/C)C(=O)OC1C2OC2(C)CCC=C(C)CC2OC(=O)C(C)(OC(=O)/C(C)=C\C)C21
1521,4143,4143,COc1cc(C2C(C(=O)OC3CC4C(C)CN(C)CC4C3C)C(c3ccc(O)c(OC)c3)C2C(=O)OC2CC3C(C)CN(C)CC3C2C)ccc1O
1522,10657,10657,COC(=O)c1c2c(c3ccccc3c1O)OC(C=C(C)C)C1=C2C(=O)c2ccccc2C1=O
1523,4220,4220,COc1ccc(/C=C/C(=O)OC2C(C)OC(OC3C4C=COC(OC5OC(CO)C(O)C(O)C5O)C4C4(CO)OC34)C(OC(C)=O)C2OC(=O)/C=C/c2ccccc2)cc1
1524,10350,10350,O=C(/C=C/c1ccc(O)cc1)C1=C(O)C(O)(C2OC(CO)C(O)C(O)C2O)C2=C(C1=O)C1OC(CO)C(O)C(O)C1O2
1525,7668,7668,CC(C)C1=CC(=O)C2=C(C(=O)CC3C(C)(C)CCCC23C)C1=O
1526,7963,7963,O=c1cc(Oc2ccc(O)cc2)oc2cc(O)cc(O)c12
1527,17365,17365,Oc1ccccc1
1528,13798,13798,O=c1ccc2c(-c3c(O)c(O)cc4oc(=O)ccc34)c(O)c(O)cc2o1
1529,705,705,Oc1cc(O)c2c(c1)OC1(c3ccc(O)c(O)c3)Oc3cc(O)c4c(c3C2C1O)OC(c1ccc(O)c(O)c1)C(O)C4c1c(O)cc(O)c2c1OC(c1ccc(O)c(O)c1)C(O)C2c1c(O)cc(O)c2c1OC(c1ccc(O)c(O)c1)C(O)C2
1530,9601,9601,C=C1C(=O)OC2C3=C(C)C=CC3=C(C)CCC12
1531,5831,5831,C=CCCCCCCCCCCCC(O)CC(O)COC(C)=O
1532,2161,2161,CCC(NC(=O)C(Cc1ccccc1)NC(=O)C(CO)NC(=O)C(NC(=O)c1ccc[nH]1)C(C)O)C(=O)O
1533,1357,1357,COc1cc(C(=O)O)ccc1O
1534,4003,4003,CCCCCCCC/C=C/CCCCCCCC(=O)OC
1535,8007,8007,CC(C)=CCc1cc(C2CC(=O)c3c(O)cc(O)cc3O2)ccc1O
1536,11388,11388,CC1(C)CCC(O)C2(CO)C1CC(O)C13C(=O)C(CO)C(CCC21)C3O
1537,3802,3802,COC(=O)C1=COC(OC2OC(CO)C(O)C(O)C2O)C2C1C(O)CC2(C)O
1538,2875,2875,CC(C)C1CCC(C)(O)C2CCC(C(=O)O)C12
1539,1466,1466,COc1cc(/C=C/C(=O)CC(=O)/C=C/c2ccc(O)cc2)ccc1O
1540,3879,3879,COC(=O)C1C(O)C2(O)c3c(cc4c(c3OC)OCO4)OC2(c2ccc(OC)cc2)C1c1ccccc1
1541,11786,11786,COc1ccc2c(c1)oc1c3ccc(O)cc3oc(=O)c21
1542,11041,11041,CC(C)=CCc1c2c(c3oc4c(O)cccc4c(=O)c3c1O)CC(C(C)(C)O)O2
1543,3032,3032,CC1(C(=O)O)CCC2(C(=O)O)CCC3(C)C(=CCC4C5(C)CC(O)C(OC6OCC(O)C(O)C6O)C(C)(CO)C5CCC43C)C2C1
1544,1681,1681,COc1c(CC=C(C)C)c2c(c(O)c1C(C)=O)CC(C(C)(C)O)O2
1545,16963,16963,CC1CCC2(OC1)OC1CC3C4CCC5CC(OC6OC(COC7OC(CO)C(O)C(O)C7O)C(OC7OC(C)C(O)C(O)C7O)C(O)C6OC6OC(CO)C(O)C(O)C6O)CCC5(C)C4CCC3(C)C1C2C
1546,7173,7173,COC1=C(OC)C(=O)C23COc4c5c(cc(c42)C(OC(=O)c2ccccc2)C(C)C(C)(O)C(OC(C)=O)C3=C1)OCO5
1547,9062,9062,CN1CC(CO)CC(c2cccc(=O)[nH]2)C1
1548,11627,11627,CC12CC(c3ccoc3)OC(=O)C1CCC13COC(=O)C1=CC=CC32
1549,17113,17113,C=CC(C)(O)C/C=C/C(=C)C
1550,17054,17054,Oc1ccc(C2Oc3ccc(/C=C/c4cc(O)cc5c4C(c4cc(O)cc(O)c4)C(c4ccc(O)cc4)O5)cc3C2c2cc(O)cc3c2C(c2cc(O)cc(O)c2)C(c2ccc(O)cc2)O3)cc1
1551,16793,16793,CC(CCC1(O)OC2CC3C4CCC5CC(OC6OC(COC7OC(C)C(O)C(O)C7O)C(O)C(O)C6O)CCC5(C)C4CCC3(C)C2C1C)COC1OC(CO)C(O)C(O)C1O
1552,5457,5457,CC1OC(OC2COC(OC(=O)C34CCC(C)(C)CC3C3=CCC5C6(C)CCC(OC7OCC(OC8OC(CO)C(O)C(O)C8O)C(O)C7O)C(C)(C)C6CCC5(C)C3(C)CC4)C(O)C2O)C(O)C(OC2OCC(O)C(O)C2O)C1O
1553,4724,4724,C=C1CCC2(C(=O)OC3OC(CO)C(O)C(O)C3O)CCC3(C)C(=CCC4C5(C)CCC(OC6OCC(O)C(OC7OC(CO)C(O)C(O)C7OC7OC(C)C(O)C(O)C7O)C6O)C(C)(C)C5CCC43C)C2C1
1554,16971,16971,CC1CC2OC3(OC2C(C)(C)O)C(O)C2(C)C4=CCC5C(C)(C)C(OC6OCC(O)C(O)C6O)CCC56CC46CC(O)C2(C)C13
1555,3847,3847,C=C/C(C)=C/CC1C(=C)CCC2C(C)(C(=O)OC)CCCC12C
1556,14523,14523,COCc1ccc(C=O)o1
1557,10857,10857,CC1=CC(=O)C2=C(C)CCC3C(C)C(=O)OC3C12
1558,1100,1100,COc1c2cc(c(O)c1OC)CCCCC(O)CCc1ccc(O)c-2c1
1559,7237,7237,COc1c(-c2ccc(O)c(O)c2)oc2cc(OC3OC(CO)C(O)C(O)C3O)cc(O)c2c1=O
1560,744,744,CCCCCCCCC(OCC)OCC
1561,14857,14857,C=CC(C)(CC/C=C(\C)CCC=C(C)C)OC1OC(COC2OC(C)C(OC3OC(C)C(O)C(O)C3O)C(O)C2O)C(O)C(O)C1O
1562,11328,11328,CC1CCC2(C(=O)O)CCC3(C)C(=CCC4C5(C)CCC(O)C(C)(C=O)C5C(=O)CC43C)C2C1(C)O
1563,16448,16448,COc1c2c(cc3c1-c1c(cc4c(c1OC)OCO4)CC(C)C(C)C3)OCO2
1564,12458,12458,CC(C)C(O)CC(O)C(C)(O)C1CCC2(O)C3=CC(=O)C4CC(O)C(O)CC4(C)C3CCC12C
1565,7164,7164,COC1=C(OC)C(=O)C(C/C(C)=C/CCc2ccoc2)=CC1=O
1566,3277,3277,CCCCCCC/C=C/CCC(=O)O
1567,6918,6918,C=CC(C)(O)CC/C=C(\C)C(=O)OCC(C)(C)CC1=C(O)C(=O)c2ccccc2C1=O
1568,2950,2950,C=C1CCC2(C(=O)O)CCC3(C)C(=CCC4C5(C)CC(O)C(O)C(C)(C)C5CCC43C)C2C1
1569,16187,16187,COc1cc2c(cc1O)[nH]c1c3c(c(C)cc12)OC(C)(C)C=C3
1570,8817,8817,CC1=CC(c2ccc(O)c(C3Oc4cc(O)ccc4C(=O)C3O)c2)C(C(=O)c2ccc(O)cc2O)C(c2ccc(O)cc2O)C1
1571,12977,12977,CC(C)CC(=O)OC1C(O)c2c(ccc3ccc(=O)oc23)OC1(C)C
1572,650,650,Cc1c[nH]c2ccccc12
1573,11067,11067,O=c1cc(-c2ccc(O)cc2)oc2cc(O)c(O)c(O)c12
1574,8800,8800,O=C(/C=C/c1ccccc1)OCC1(O)COC(OC2C(Oc3cc(O)c4c(c3)OC(c3ccccc3)CC4=O)OC(CO)C(O)C2O)C1O
1575,10746,10746,COc1cc(/C=C/C(=O)N2C=CC(=O)CC2)cc(OC)c1O
1576,9742,9742,C=C1C(=O)OC2CC(C)C(CO)C12
1577,6920,6920,CC(C)(COC(=O)c1ccccc1)CC1=C(O)C(=O)c2ccccc2C1=O
1578,10053,10053,COc1cc(CC2(O)C(=O)OCC2C(=O)c2ccc(O)c(OC)c2)ccc1O
1579,15577,15577,C/C=C/c1cc(OC)c2c(c1)OCO2
1580,1463,1463,COc1cc(/C=C/C(C)=O)cc(OC)c1O
1581,13711,13711,CC(=O)c1cncc2c(=O)n3c(cc12)-c1[nH]c2ccccc2c1CC3
1582,1296,1296,OCCc1ccc(OOc2ccc(CCO)cc2)cc1
1583,12333,12333,O=c1c(OC2OC(CO)C(O)C(O)C2OC2OC(CO)C(O)C(O)C2O)c(-c2ccc(O)cc2)oc2cc(OC3OC(CO)C(O)C(O)C3O)cc(O)c12
1584,12778,12778,C=C1CC23CCC4C(C)(C)C(O)CCC4(C)C2CC1C(O)C3=O
1585,12092,12092,O=C1OC2=CC(OC3OC(CO)C(O)C(O)C3O)CCC2=C1C(O)c1ccccc1
1586,3974,3974,COC(=O)C1OC(OC2CCC3(C)C(CCC4(C)C3CCC35OCC6(CCC(C)(CO)CC63)C(O)CC45C)C2(C)C)C(OC2OC(CO)C(O)C(O)C2O)C(O)C1O
1587,16546,16546,Cc1cc(OC2OC(CO)C(O)C(O)C2O)cc(Oc2c(C)cc(OC3OC(CO)C(O)C(O)C3O)cc2-c2cc(OC3OC(CO)C(O)C(O)C3O)cc(C)c2O)c1O
1588,6199,6199,C=C(C)C1CCC2(C(=O)OC)CCC3(COC(=O)c4ccccc4)C(CCC4C5(C)CCC(OC(C)=O)C(C)(C)C5CCC43C)C12
1589,17869,17869,CC1(C)C=C2C3CCC4C5(C)CCC(O)C(C)(C)C5CCC4(C)C3(C)CCC2(C)CC1
1590,8131,8131,COc1cc(OC)c(-c2coc3c(OC)c(O)c(CC=C(C)C)c(O)c3c2=O)cc1OC
1591,8768,8768,O=C(O)CC(=O)OCC1OC(Oc2cc(O)c3c(=O)cc(-c4ccc(O)c(O)c4)oc3c2)C(OC2OCC(O)(CO)C2O)C(O)C1OC1OC(CO)C(O)C(O)C1O
1592,16589,16589,CN1C2Cc3cc4c(cc3C1Cc1cc3c(cc12)OCO3)OCO4
1593,4285,4285,COc1cc(/C=C/C(=O)OCC2OC(CO)(OC3OC(COC(C)=O)C(O)C(O)C3O)C(OC(=O)/C=C\c3ccc(O)cc3)C2O)ccc1O
1594,8010,8010,CC(C)=CCc1cc(C2CC(=O)c3c(O)cc(O)c(CC=C(C)C)c3O2)cc(O)c1O
1595,6560,6560,C=C1C(=O)C23C(O)CC4C(C)(C)C(OC(C)=O)CC(OC(C)=O)C4(C)C2CCC1C3OC(C)=O
1596,9325,9325,CC(=O)OC(C1CC(C)C(C2(C)CCC34CC35CCC(OC3OCC(O)C(O)C3O)C(C)(C)C5CC=C4C2(C)C(=O)O)C(=O)O1)C(C)(C)O
1597,4735,4735,CC1(C)CCC2(C(=O)OC3OC(CO)C(O)C(O)C3O)CCC3(C)C(=CCC4C5(C)CCC(OC6OC(C(=O)O)C(OC7OC(CO)C(O)C7O)C(OC7OC(CO)C(O)C(O)C7O)C6O)C(C)(C)C5CCC43C)C2C1
1598,17220,17220,Cc1c(O)cc(CCc2ccccc2)cc1O
1599,9419,9419,CC(=O)OC12CCC(C)=CCC13CCC2C(C)(/C=C/C=C(/C)C(=O)O)OC3=O
