,Name,Name,SMILES
1000,18230,18230,CSSSSC
1001,12132,12132,CC(=O)OC1CCC(C)(C)C(C=O)C12COC(=O)C13CC(CCC12)C(C)C3=O
1002,16185,16185,C/C=C1/C[N+]2(C)CCC34c5ccccc5N5C=C6C7CC8C9(CC[N+]8(C)C/C7=C/C)c7ccccc7N7C=C(C1CC32)C54OC679
1003,7486,7486,CC1CC2OC(=O)C(C)C2C(O)C2(C)C(=O)C=CC12
1004,17751,17751,C=C(C)C(CC)CCC(C)C1CCC2C3CC=C4CC(O)CCC4(C)C3CCC12C
1005,6160,6160,CC(=O)CCc1ccc(O)c(OC2OC(COC3OCC(O)(COC(=O)/C=C/c4ccc(O)c(O)c4)C3O)C(O)C(O)C2O)c1
1006,16021,16021,COc1c2c3c(c4c1OCO4)-c1cc4c(cc1CC3NCC2)OCO4
1007,12630,12630,CC(C)=CCC1(CC=C(C)C)C2=C(C=CC(C)(C)O2)C(=O)c2c1cc1cc(C)cc(O)c1c2O
1008,9154,9154,O=c1[nH]cnc2c1ncn2C1OC(CO)C(O)C1O
1009,18192,18192,c1ccc(CSCc2ccccc2)cc1
1010,304,304,C=C(CCC=C(C)C)C1CC=C(CCC=C(C)C)CC1
1011,17763,17763,CC1CCC2(O)CCC3(C)C(=CCC4C5(C)CCC(O)C(C)(C)C5CCC43C)C2C1C
1012,7197,7197,COc1ccc(-c2oc3cc(OC)c(OC)c(O)c3c(=O)c2OC)cc1O
1013,9678,9678,C=C1C(=O)OC2C1C(OC(=O)/C(C)=C/C)CC(CO)=C1CC(O)C(C)(O)C12
1014,15987,15987,Oc1ccc(C2Oc3cc(O)cc4c3C2c2cc3c(c(O)c2C(c2ccc(O)cc2O)C4)C(c2cc(O)cc(O)c2)C(c2cccc(O)c2)O3)cc1
1015,7322,7322,COC1=CC(C)C2CC3OC(OC4OC(CO)C(O)C(O)C4O)CC4C(C)(O)C(OC)C(O)C(C2(C)C1=O)C34C
1016,16374,16374,CCOC1c2c(ccc(OC)c2OC)-c2ccc3cc4c(cc3c2N1C)OCO4
1017,16000,16000,C=C(C)C1Cc2c(OC)c3cc(OC)cc(OC)c3[n+](C)c2O1
1018,7302,7302,COC1=CC(C)C2CC3OC(=O)CC4(O)C(C)(O)C(OC)C(O)C(C2(C)C1=O)C34C
1019,5458,5458,CC(=O)OC1CC2(O)C(OC(C)=O)C3C4(OC(C)=O)COC4CC(OC(C)=O)C3(C)C(OC(C)=O)C(OC(C)=O)C(=C1C)C2(C)C
1020,7016,7016,O=c1c(O)c(-c2cc(O)c(O)c(OC3OCC(O)C(O)C3O)c2)oc2cc(O)cc(O)c12
1021,17621,17621,OC1CN2CCc3c([nH]c4ccccc34)C2Cc2ccncc21
1022,9915,9915,CC1(C)CC2=C3C=CC4C5(C)CCC(O)C(C)(C)C5CCC4(C)C3(C)CCC23C(=O)OC3C1O
1023,13533,13533,CC(=O)OC12COC1CC(O)C1(CO)C(=O)C(O)C3=C(C)C(O)CC(O)(C(OC(=O)c4ccccc4)C21)C3(C)C
1024,6237,6237,CC1OC(OC2C(OC3CCC4(C)C(=CCC5C4CCC4(C)C5CC5OC6(CCC(COC(=O)CC(C)(O)CC(=O)O)CO6)C(C)C54)C3)OC(CO)C(O)C2O)C(O)C(O)C1O
1025,17376,17376,C=C1C2CCC3C4(C)CCCC(C)(C)C4CCC3(C2)C1O
1026,14017,14017,COC(=O)C1(C)CC(O)C2(C)CCC3(C)C(=CCC4C5(C)CCC(=O)C(C)(C)C5CCC43C)C2C1
1027,7917,7917,COc1ccc(-c2cc(=O)c3c(O)cc(OC)cc3o2)cc1
1028,17956,17956,CC1CCC(C(C)CO)C1CO
1029,5879,5879,CCOC(=O)c1ccccc1
1030,3034,3034,C=C1C(C)CCC2(C(=O)O)CCC3(C)C(=CCC4C5(C)CCC(OC6OCC(O)C(O)C6O)C(C)(C)C5CCC43C)C12
1031,2123,2123,O=C(/C=C/C=C/C=C/c1ccc2c(c1)OCO2)N1CCCCC1
1032,7147,7147,COC1=C(CC=C(C)C)C(=O)c2c(C)coc2C1=O
1033,6880,6880,CC(C)=CCC/C(C)=C/CCC(C)(O)C1CCC(C)C(=O)C1
1034,174,174,CC(C)=CCC/C(C)=C/CC/C(C)=C/CC/C(C)=C/C=C/C=C(\C)CC/C=C(\C)CC/C=C(\C)CCC=C(C)C
1035,15615,15615,CC(O)C1C=C2C(C)(C)CC=CC2(C)O1
1036,15284,15284,OCC1OC(OC2C(CO)OC(OC3(CO)OC(CO)C(O)C3O)C(O)C2O)C(O)C(O)C1O
1037,582,582,CC(C1CCC2C3CC=C4CC(N(C)C)CCC4(C)C3CCC21C)N(C)C
1038,12558,12558,CC(C)C1=CC2(CC1=O)C(=O)CCC1C(C)(C)CCCC12C
1039,13412,13412,CC1OC(OCC2OC(Oc3c(-c4ccc(O)c(OC5OC(CO)C(O)C(O)C5O)c4)oc4cc(O)cc(O)c4c3=O)C(OC3OCC(O)C(O)C3O)C(O)C2O)C(O)C(O)C1O
1040,17134,17134,CNC(C)C(O)c1ccccc1
1041,9007,9007,O=C1C2CCCN2C(=O)C2CCCN12
1042,17529,17529,C=C1C2CCC3C(O)C2(CC(O)C2(O)C1CC(O)C2(C)C)CC3(C)O
1043,809,809,COc1ccc(C/C=C/c2ccccc2)c(OC)c1O
1044,6954,6954,COC(=O)C12OCC34C(CC(=O)C(OC(=O)c5ccccc5)C13)CC1C(C)=C(O)C(=O)CC1(C)C4C(O)C2O
1045,5712,5712,CC(=O)OC1COC(OC2C(OC3CCC4(C)C(CC(O)C5(C=O)C4CCC4C(C(C)(O)CC/C=C(\C)CO)CCC45C)C3(C)C)OC(CO)C(O)C2O)C(O)C1O
1046,18131,18131,O=S(=O)(O)O/N=C(\CCO)SC1OC(CO)C(O)C(O)C1O
1047,1368,1368,C=CC(=O)C#CC#CCC1OC1CCCCCCC
1048,5238,5238,COC1(C)c2ccoc2CC2C1C(OC(C)=O)C(OC(C)=O)C1(O)C(C)(C)CCC(OC(C)=O)C21C
1049,18188,18188,C=CCSC
1050,14934,14934,OCC1=CC(O)C2C=COC(O)C12
1051,14518,14518,CC(C)CCn1c(C=O)ccc1CO
1052,15479,15479,COc1ccc2c(c1)OC1c3ccc(O)cc3OCC21
1053,2847,2847,CC(=O)OCC1(O)C=CC2C(C(=O)O)=COC(OC3OC(CO)C(O)C(O)C3O)C21
1054,5753,5753,C/C=C(\C)C(=O)OC1C(OC(=O)/C(C)=C/C)C23C(O)CC4(C)C5(C)CCC6C(C)(C)C(OC7OC(C(=O)O)C(O)C(OC8OC(CO)C(O)C(O)C8OC8OC(C)C(O)C(O)C8O)C7OC7OC(CO)C(O)C(O)C7O)CCC6(C)C5CCC4(OC2O)C3CC1(C)C
1055,17812,17812,CC1CC23C4=CCCN2CCCC3C(O)CC4C1O
1056,6440,6440,O=C(/C=C/c1ccc(O)cc1)C1=C(O)c2cc(C3OCC(O)C3O)[nH]c2C(O)(C2OC(CO)C(O)C(O)C2O)C1=O
1057,9896,9896,C=C1CC2OC(=O)C3=CC(O)CC4C1(CC(OC(C)=O)c1ccoc1)C(O)OCC324
1058,5490,5490,CC(=O)OC1CCC2(C)C3CCC4CC3(CCC2C1(C)C)CC4(O)CO
1059,12650,12650,CC(C)=CCc1c(O)ccc2oc3cc4c(c(O)c3c(=O)c12)C=CC(C)(C)O4
1060,2035,2035,CC(=O)CCc1ccccc1
1061,12485,12485,COC1CC(OC2CCC3(C)C(CC(OC(=O)/C=C/c4ccccc4)C4(C)C(=O)CCC4C(C)=O)C(=O)C=CC3(O)C2)OC(C)C1OC1OC(CO)C(O)C(O)C1O
1062,1498,1498,CC(=O)C=O
1063,12067,12067,C=C1C(=O)OC2CC(C)C3(CCC(C)O3)C(O)CC12
1064,4831,4831,CC1CCC2(C(=O)OC3OC(COC4OC(CO)C(OC5OC(C)C(O)C(O)C5O)C(O)C4O)C(O)C(O)C3O)CCC3(C)C(=CCC4C5(C)CC(O)C(O)C(C)(CO)C5CCC43C)C2C1C
1065,9310,9310,CCCCC(/C=C/C(O)C1C=CC(=O)O1)OC(C)=O
1066,15958,15958,COc1cc2c3cc1Oc1c(OC)c(OC)cc4c1C(=NCC4)Cc1ccc(cc1)Oc1cc(ccc1O)CC3=NCC2
1067,3853,3853,CCC1=CC2CN3CCc4c([nH]c5ccccc45)C(C(=O)OC)(C2)C13
1068,5422,5422,C=C1C2CC(OC(C)=O)C3C45COC(O)(C(O)C4C(C)(C)CCC5O)C3(C2)C1O
1069,15346,15346,OCC1OC(OC2OC=CC3C(OC4OC(CO)C(O)C(O)C4O)C4OC4(CO)C23)C(O)C(O)C1O
1070,4237,4237,CC(=O)OC1C(OC2CC3C4CC=C5CC(O)CCC5(C)C4C(O)CC3(C)C2C(C)C(O)CC=C(C)C)OC(C)C(O)C1OC(C)=O
1071,3248,3248,O=C(O)Cc1cc(O)ccc1OC1OC(CO)C(O)C(O)C1O
1072,9678,9678,C=C1C(=O)OC2C1C(OC(=O)/C(C)=C/C)CC(CO)=C1CC(O)C(C)(O)C12
1073,17539,17539,C=CC1(C)CC2CCC3(O)C(CCCC3(C)C)C2(C)CC1O
1074,1179,1179,COc1cccc2[nH]c3cc(O)c(C)cc3c12
1075,13363,13363,CC(=O)OC1CC23CC24CCC(OC2OCC(O)C(O)C2O)C(C)(C)C4CC=C3C2(C)C(O)C(=O)C(C(C)CC(=O)C(O)C(C)(C)O)C12C
1076,11648,11648,CC(=O)OC1OC(=O)C(C)C2CCC(C)C3CCOC132
1077,16782,16782,CC1CCC2C(C)C3C(CC4C5CCC6CC(OC7OC(CO)C(OC8OC(CO)C(O)C(OC9OC(CO)C(O)C(O)C9O)C8OC8OC(CO)C(O)C(O)C8O)C(O)C7O)CCC6(C)C5CCC43C)N2C1
1078,3078,3078,CC1CCC2(C(=O)O)CCC3(C)C(=CCC4C5(C)CCC(OC6OCC(O)C(OC7OC(CO)C(O)C(O)C7O)C6O)C(C)(CO)C5CCC43C)C2C1(C)O
1079,1011,1011,COc1ccc(/C=C/c2cccc(OC)c2)cc1
1080,1662,1662,COc1c(CC=C(C)C)c(O)c(C=O)c(O)c1C(C)=O
1081,10908,10908,COc1cc(CCC(=O)OCC2OC(c3c(O)cc4oc(-c5ccc(OC6OC(CO)C(O)C(O)C6O)cc5)cc(=O)c4c3O)C(OC3OCC(O)C(O)C3O)C(O)C2O)ccc1O
1082,11689,11689,CCCc1cc(=O)oc2c(C(=O)C(C)CC)c(O)c(C/C=C(\C)CCC=C(C)C)c(O)c12
1083,13753,13753,COc1ccc2c3ccnc4cc(C)c(=O)n(c2c1)c43
1084,2995,2995,CCC(CCC(C)C1CCC2C3CCC4CC(C(=O)O)CCC4(C)C3CCC12C)C(C)C
1085,10642,10642,O=c1c(OC2OCC(O)C(O)C2O)c(-c2ccc(O)c(O)c2)oc2cc(O)cc(O)c12
1086,10172,10172,CC1CCC2C(C)(C)C(O)CCC2(C)C12Cc1c(O)cc3c(c1O2)COC3=O
1087,18276,18276,CS
1088,13577,13577,CC1OC(OCC2OC(Oc3cc4oc(-c5ccc(O)cc5)cc(=O)c4c(O)c3O)C(O)C(O)C2O)C(O)C(O)C1O
1089,8575,8575,CC1(C)CCCC2(C)C1CCC13CC(=O)C(CCC12)C3
1090,14389,14389,CC(=O)OC1CC23CC24CCC(OC2OCC(O)C(O)C2O)C(C)(C)C4CCC3C2(C)CC3(O)C(O)C(=O)CC(C)C3C12C
1091,9193,9193,CC(O)C12CN(C)C3C4COC(CC41)C1(C(=O)Nc4ccccc41)C32
1092,6494,6494,C=C1C(=O)C23C(O)CC4C(C)(C)CCC(O)C4(C)C2CC(OC(C)=O)C1C3O
1093,16976,16976,COC(C)(C)C1OC23OC1CC(C)C2C1(C)CCC24CC25CCC(OC2OCC(O)C(O)C2O)C(C)(C)C5CCC4C1(C)C3O
1094,12080,12080,CC(C)=CCCC1C(=O)OC2CC3(C)C4=CCC5C(C)(C)C(O)CCC5(C)C4CCC3(C)C21
1095,12535,12535,Cc1cc(O)c2c(c1)C(O)(C1OC(CO)C(O)C(O)C1O)c1cccc(O)c1C2=O
1096,10520,10520,CC1C(=O)C(O)C2C(C)(CO)CCCC2(C)C12CCC1(COC(=O)C1)O2
1097,3574,3574,COC(=O)/C(C)=C\C1CC(C)C2(C)C(C=C3C4=C(CCC32C)C2(C)CCC(O)C(C)(C)C2CC4)O1
1098,765,765,COc1cc(C2(C)CCCC2(C)C)cc(O)c1C
1099,14089,14089,CN1CCc2cc3c(c4c2C1CC41C=CC(=O)C=C1)OCO3
