Molecule,Canonical SMILES,Formula,MW,#Heavy atoms,#Aromatic heavy atoms,Fraction Csp3,#Rotatable bonds,#H-bond acceptors,#H-bond donors,MR,TPSA,iLOGP,XLOGP3,WLOGP,MLOGP,Silicos-IT Log P,Consensus Log P,ESOL Log S,ESOL Solubility (mg/ml),ESOL Solubility (mol/l),ESOL Class,Ali Log S,Ali Solubility (mg/ml),Ali Solubility (mol/l),Ali Class,Silicos-IT LogSw,Silicos-IT Solubility (mg/ml),Silicos-IT Solubility (mol/l),Silicos-IT class,GI absorption,BBB permeant,Pgp substrate,CYP1A2 inhibitor,CYP2C19 inhibitor,CYP2C9 inhibitor,CYP2D6 inhibitor,CYP3A4 inhibitor,log Kp (cm/s),Lipinski #violations,Ghose #violations,Veber #violations,Egan #violations,Muegge #violations,Bioavailability Score,PAINS #alerts,Brenk #alerts,Leadlikeness #violations,Synthetic Accessibility
Molecule 1,CCN1CCCC1CNC(=O)c1cc(c(cc1OC)N)S(=O)(=O)CC,C17H27N3O4S,369.48,25,6,0.59,8,5,2,101.77,110.11,2.77,1.10,1.99,0.89,1.27,1.60,-2.47,1.24e+00,3.36e-03,Soluble,-3.00,3.65e-01,9.89e-04,Soluble,-4.24,2.12e-02,5.73e-05,Moderately soluble,High,No,Yes,No,No,No,No,No,-7.77,0,0,0,0,0,0.55,0,1,2,3.38
Molecule 2,CN(CCC=C1c2ccccc2CCc2c1cccc2)C,C20H23N,277.40,21,12,0.30,3,1,0,90.96,3.24,3.43,5.04,4.17,4.31,4.86,4.36,-4.96,3.04e-03,1.10e-05,Moderately soluble,-4.85,3.93e-03,1.41e-05,Moderately soluble,-6.69,5.62e-05,2.03e-07,Poorly soluble,High,Yes,No,No,No,No,Yes,No,-4.41,1,0,0,0,2,0.55,1,0,1,3.40
Molecule 3,CC(c1ccc2c(c1)c(=O)c1c(o2)nc(c(c1)C(=O)O)N)C,C16H14N2O4,298.29,22,14,0.19,2,5,2,83.73,106.42,2.02,3.08,2.75,0.43,2.64,2.19,-3.97,3.21e-02,1.07e-04,Soluble,-4.98,3.11e-03,1.04e-05,Moderately soluble,-4.74,5.40e-03,1.81e-05,Moderately soluble,High,No,No,Yes,No,No,No,No,-5.93,0,0,0,0,0,0.56,0,1,0,2.91
Molecule 4,NCCOCC1=C(C(=O)OCC)C(C(=C(N1)C)C(=O)OC)c1ccccc1Cl,C20H25ClN2O5,408.88,28,6,0.40,10,6,2,108.93,99.88,3.17,3.00,1.89,1.33,3.21,2.52,-3.76,7.05e-02,1.72e-04,Soluble,-4.76,7.08e-03,1.73e-05,Moderately soluble,-5.62,9.85e-04,2.41e-06,Moderately soluble,High,No,Yes,Yes,Yes,Yes,No,Yes,-6.66,0,0,0,0,0,0.55,0,1,2,4.39
Molecule 5,OC(=O)C(O)C,C3H6O3,90.08,6,0,0.67,1,3,2,19.47,57.53,0.52,-0.72,-0.55,-0.85,-0.80,-0.48,0.12,1.19e+02,1.32e+00,Highly soluble,-0.01,8.76e+01,9.72e-01,Very soluble,0.98,8.66e+02,9.62e+00,Soluble,High,No,No,No,No,No,No,No,-7.36,0,4,0,0,2,0.56,0,0,1,1.29
Molecule 6,CCC1(CCC(C)C)C(=O)NC(=O)NC1=O,C11H18N2O3,226.27,16,0,0.73,4,3,2,67.04,75.27,1.64,2.07,0.42,0.93,1.71,1.36,-2.28,1.18e+00,5.21e-03,Soluble,-3.28,1.19e-01,5.25e-04,Soluble,-3.18,1.49e-01,6.61e-04,Soluble,High,No,No,No,No,No,No,No,-6.21,0,0,0,0,0,0.55,0,1,1,2.13
Molecule 7,CCN(Cc1cc(ccc1O)Nc1ccnc2c1ccc(c2)Cl)CC,C20H22ClN3O,355.86,25,16,0.25,6,3,2,105.41,48.39,3.65,5.18,5.03,3.10,4.12,4.22,-5.39,1.46e-03,4.10e-06,Moderately soluble,-5.94,4.06e-04,1.14e-06,Moderately soluble,-7.59,9.11e-06,2.56e-08,Poorly soluble,High,Yes,No,Yes,Yes,No,Yes,Yes,-4.79,0,0,0,0,1,0.55,1,1,2,2.60
Molecule 8,CCC(c1ccc(cc1)CC(CN1CC(C)OC(C1)C)C)(C)C,C21H35NO,317.51,23,6,0.71,6,2,0,104.53,12.47,4.08,5.47,4.28,3.95,5.08,4.57,-5.05,2.82e-03,8.88e-06,Moderately soluble,-5.49,1.03e-03,3.24e-06,Moderately soluble,-5.74,5.82e-04,1.83e-06,Moderately soluble,High,Yes,No,No,No,No,Yes,No,-4.35,0,0,0,0,1,0.55,0,0,1,3.30
Molecule 9,Clc1ccc2c(c1)C(=Nc1c(O2)cccc1)N1CCNCC1,C17H16ClN3O,313.78,22,12,0.24,1,3,1,99.19,36.86,3.04,2.75,2.29,3.35,3.71,3.03,-3.86,4.38e-02,1.39e-04,Soluble,-3.18,2.08e-01,6.62e-04,Soluble,-6.06,2.76e-04,8.79e-07,Poorly soluble,High,Yes,Yes,Yes,No,No,Yes,Yes,-6.26,0,0,0,0,0,0.55,0,0,0,3.57
Molecule 10,O=C(C(c1ccc(cc1)O)N)NC1C(=O)N2C1SC(C2C(=O)O)(C)C,C16H19N3O5S,365.40,25,6,0.44,5,6,4,94.59,158.26,1.22,-1.99,-0.68,0.23,-0.45,-0.33,-0.70,7.30e+01,2.00e-01,Very soluble,-0.81,5.66e+01,1.55e-01,Very soluble,-1.62,8.67e+00,2.37e-02,Soluble,Low,No,No,No,No,No,No,No,-9.94,0,1,1,1,1,0.55,0,0,1,4.17
Molecule 11,CC(Cc1ccccc1)N,C9H13N,135.21,10,6,0.33,2,1,1,43.73,26.02,2.08,1.76,1.58,2.19,1.94,1.91,-2.10,1.08e+00,7.96e-03,Soluble,-1.92,1.61e+00,1.19e-02,Very soluble,-2.85,1.93e-01,1.43e-03,Soluble,High,Yes,No,Yes,No,No,No,No,-5.88,0,1,0,0,2,0.55,0,0,1,1.19
Molecule 12,OC1CCC(O)C(O)CC(O)CC2(O)CC(O)C(C(O2)CC(C=CC=CC=CC=CC=CC=CC=CC(C(C(C(OC(=O)CC(C1)O)C)C)O)C)OC1OC(C)C(C(C1O)N)O)C(=O)O,C47H73NO17,924.08,65,0,0.66,3,18,12,239.06,319.61,3.76,0.00,0.71,-1.74,-4.66,-0.39,-5.37,3.93e-03,4.25e-06,Moderately soluble,-6.26,5.04e-04,5.46e-07,Poorly soluble,3.00,9.30e+05,1.01e+03,Soluble,Low,No,Yes,No,No,No,No,No,-11.94,3,3,1,1,4,0.17,0,0,1,10.00
Molecule 13,NC(c1ccccc1)C(=O)NC1C(=O)N2C1SC(C2C(=O)O)(C)C,C16H19N3O4S,349.40,24,6,0.44,5,5,3,92.56,138.03,1.14,-1.13,-0.39,0.75,0.01,0.08,-1.15,2.48e+01,7.09e-02,Very soluble,-1.28,1.85e+01,5.28e-02,Very soluble,-2.21,2.15e+00,6.15e-03,Soluble,Low,No,No,No,No,No,No,No,-9.23,0,0,0,1,0,0.55,0,0,0,4.16
Molecule 14,CC(CN(S(=O)(=O)c1ccc(cc1)N)CC(C(Cc1ccccc1)NC(=O)OC1CCOC1)O)C,C25H35N3O6S,505.63,35,12,0.48,13,7,3,133.62,139.57,3.20,2.89,3.49,1.14,1.78,2.50,-4.19,3.25e-02,6.44e-05,Moderately soluble,-5.48,1.67e-03,3.30e-06,Moderately soluble,-5.55,1.42e-03,2.81e-06,Moderately soluble,Low,No,Yes,No,No,No,Yes,Yes,-7.33,1,2,1,1,0,0.55,0,1,2,4.98
Molecule 15,O=c1[nH]cc(cc1N)c1ccncc1,C10H9N3O,187.20,14,12,0.00,1,2,2,54.70,71.77,1.14,-0.16,1.03,0.18,1.88,0.81,-1.47,6.37e+00,3.40e-02,Very soluble,-0.89,2.40e+01,1.28e-01,Very soluble,-3.72,3.58e-02,1.91e-04,Soluble,High,No,No,Yes,No,No,No,No,-7.56,0,0,0,0,1,0.55,0,0,1,2.04
Molecule 16,COc1cc(ccc1Nc1c2ccccc2nc2c1cccc2)NS(=O)(=O)C,C21H19N3O3S,393.46,28,20,0.10,5,4,2,113.55,88.70,2.93,4.01,5.40,2.22,2.78,3.47,-5.00,3.90e-03,9.90e-06,Moderately soluble,-5.58,1.05e-03,2.66e-06,Moderately soluble,-8.36,1.70e-06,4.33e-09,Poorly soluble,High,No,No,Yes,Yes,Yes,Yes,Yes,-5.85,0,0,0,0,0,0.55,1,1,2,2.94
Molecule 17,CCCCCON=O,C5H11NO2,117.15,8,0,1.00,5,3,0,31.97,38.66,0.00,1.83,1.87,0.83,1.14,1.13,-1.39,4.78e+00,4.08e-02,Very soluble,-2.26,6.41e-01,5.47e-03,Soluble,-1.53,3.49e+00,2.98e-02,Soluble,High,Yes,No,No,No,No,No,No,-5.72,0,3,0,0,1,0.55,0,1,1,2.16
Molecule 18,CCCCCc1ccc(cc1O)C,C12H18O,178.27,13,6,0.50,4,1,1,57.63,20.23,2.78,4.35,3.43,3.33,3.69,3.52,-3.76,3.07e-02,1.72e-04,Soluble,-4.49,5.77e-03,3.24e-05,Moderately soluble,-4.21,1.09e-02,6.11e-05,Moderately soluble,High,Yes,No,Yes,No,No,Yes,No,-4.30,0,0,0,0,2,0.55,0,0,2,1.49
Molecule 19,CCC(OC(=O)c1ccccc1)(CN(C)C)C,C14H21NO2,235.32,17,6,0.50,6,3,0,69.50,29.54,3.17,2.96,2.57,2.78,2.37,2.77,-3.03,2.20e-01,9.35e-04,Soluble,-3.24,1.34e-01,5.71e-04,Soluble,-3.84,3.43e-02,1.46e-04,Soluble,High,Yes,No,No,No,No,Yes,No,-5.63,0,0,0,0,0,0.55,0,0,1,2.34
Molecule 20,O=C1NC2=Nc3c(CN2C1)c(Cl)c(cc3)Cl,C10H7Cl2N3O,256.09,16,6,0.20,0,2,1,73.08,44.70,1.88,1.60,0.63,2.27,2.69,1.81,-2.71,4.96e-01,1.94e-03,Soluble,-2.15,1.81e+00,7.08e-03,Soluble,-4.05,2.30e-02,8.99e-05,Moderately soluble,High,Yes,No,Yes,No,No,No,No,-6.73,0,0,0,0,0,0.55,0,0,0,2.85
Molecule 21,N#CC(c1cc(cc(c1)C(C#N)(C)C)Cn1ncnc1)(C)C,C17H19N5,293.37,22,11,0.41,4,4,0,83.81,78.29,2.25,2.03,2.93,1.71,2.85,2.35,-3.04,2.65e-01,9.04e-04,Soluble,-3.30,1.46e-01,4.99e-04,Soluble,-4.77,4.98e-03,1.70e-05,Moderately soluble,High,Yes,No,No,No,Yes,No,No,-6.65,0,0,0,0,0,0.55,0,0,0,2.21
Molecule 22,COc1ccc(cc1)c1ssc(=S)c1,C10H8OS3,240.36,14,11,0.10,2,1,0,64.96,97.80,2.63,3.82,4.21,2.07,6.36,3.82,-4.19,1.57e-02,6.51e-05,Moderately soluble,-5.57,6.48e-04,2.70e-06,Moderately soluble,-4.12,1.84e-02,7.67e-05,Moderately soluble,High,No,No,Yes,Yes,Yes,No,No,-5.05,0,0,0,0,0,0.55,0,1,2,2.58
Molecule 23,CCC(C(C(=O)NC(C(=O)N1CCCC1C(=O)NC(C(=O)O)Cc1ccccc1)Cc1[nH]cnc1)NC(=O)C(NC(=O)C(C(C)C)NC(=O)C(NC(=O)C(CC(=O)O)N)CCCN=C(N)N)Cc1ccc(cc1)O)C,C50H71N13O12,1046.18,75,17,0.50,36,15,13,276.25,408.84,2.07,-1.66,-1.70,-2.97,2.21,-0.41,-3.07,8.86e-01,8.47e-04,Soluble,-6.41,4.03e-04,3.85e-07,Poorly soluble,-7.82,1.58e-05,1.51e-08,Poorly soluble,Low,No,Yes,No,No,No,No,No,-13.86,3,4,2,1,5,0.17,0,2,2,8.54
Molecule 24,CCCCCOc1ccc(cc1)c1ccc(cc1)c1ccc(cc1)C(=O)NC1CC(O)C(O)NC(=O)C2C(O)C(CN2C(=O)C(NC(=O)C(NC(=O)C2N(C(=O)C(NC1=O)C(O)C)CC(C2)O)C(C(c1ccc(cc1)O)O)O)C(O)C)C,C58H73N7O17,1140.24,82,24,0.47,15,17,14,316.97,377.42,3.27,2.34,-3.54,-3.40,-0.17,-0.30,-7.61,2.80e-05,2.45e-08,Poorly soluble,-9.91,1.42e-07,1.24e-10,Poorly soluble,-8.19,7.40e-06,6.49e-09,Poorly soluble,Low,No,Yes,No,No,No,No,No,-11.59,3,4,2,1,4,0.17,0,0,2,9.59
Molecule 25,CCOC(=O)C1(CCN(CC1)CCc1ccc(cc1)N)c1ccccc1,C22H28N2O2,352.47,26,12,0.41,7,3,1,109.43,55.56,3.39,3.99,3.04,3.18,4.01,3.52,-4.42,1.34e-02,3.81e-05,Moderately soluble,-4.86,4.88e-03,1.39e-05,Moderately soluble,-6.52,1.07e-04,3.03e-07,Poorly soluble,High,Yes,No,No,No,No,Yes,Yes,-5.62,0,0,0,0,0,0.55,1,1,2,3.10
Molecule 26,COc1ccc(cc1)C1C(=O)c2c(C1=O)cccc2,C16H12O3,252.26,19,12,0.12,2,3,0,70.89,43.37,2.07,2.88,2.86,1.76,3.62,2.64,-3.55,7.05e-02,2.79e-04,Soluble,-3.45,8.94e-02,3.54e-04,Soluble,-5.42,9.50e-04,3.77e-06,Moderately soluble,High,Yes,No,Yes,Yes,No,No,No,-5.79,0,0,0,0,0,0.55,1,1,0,2.46
Molecule 27,c1ccc(cc1)CN(c1ccccc1)CC1=NCCN1,C17H19N3,265.35,20,12,0.24,5,1,1,91.17,27.63,2.85,2.57,1.78,2.89,3.50,2.72,-3.22,1.61e-01,6.05e-04,Soluble,-2.80,4.22e-01,1.59e-03,Soluble,-5.98,2.80e-04,1.05e-06,Moderately soluble,High,Yes,No,Yes,Yes,No,Yes,No,-6.09,0,0,0,0,0,0.55,0,0,0,2.97
Molecule 28,Oc1cccc2c1C(=O)c1c(C2)cccc1O,C14H10O3,226.23,17,12,0.07,0,3,2,63.37,57.53,2.26,3.20,2.23,1.60,2.88,2.43,-3.78,3.75e-02,1.66e-04,Soluble,-4.08,1.88e-02,8.32e-05,Moderately soluble,-4.21,1.39e-02,6.14e-05,Moderately soluble,High,Yes,No,Yes,No,No,No,Yes,-5.41,0,0,0,0,0,0.55,0,0,1,2.32
Molecule 29,O=c1cc(n(n1c1ccccc1)C)C,C11H12N2O,188.23,14,11,0.18,1,1,0,56.26,26.93,2.29,0.38,1.48,2.18,1.52,1.57,-1.76,3.26e+00,1.73e-02,Very soluble,-0.51,5.80e+01,3.08e-01,Very soluble,-2.79,3.09e-01,1.64e-03,Soluble,High,Yes,No,Yes,No,No,No,No,-7.18,0,0,0,0,1,0.55,0,0,1,1.88
Molecule 30,O=C(c1ccccc1Nc1ccnc2c1ccc(c2)C(F)(F)F)OCCN1CCN(CC1)c1cccc(c1)C(F)(F)F,C30H26F6N4O2,588.54,42,22,0.27,10,10,1,153.16,57.70,4.08,7.53,8.54,4.39,6.14,6.14,-7.96,6.45e-06,1.10e-08,Poorly soluble,-8.58,1.56e-06,2.65e-09,Poorly soluble,-10.55,1.65e-08,2.81e-11,Insoluble,Low,No,Yes,No,Yes,No,Yes,Yes,-4.54,2,3,0,1,1,0.17,0,0,3,3.77
Molecule 31,CNC(=O)c1ccc(cc1F)N1C(=S)N(C(=O)C21CCC2)c1cnc(c(c1)C(F)(F)F)C#N,C21H15F4N5O2S,477.43,33,12,0.29,5,8,1,118.94,121.42,2.68,2.98,4.34,1.93,4.44,3.28,-4.62,1.15e-02,2.42e-05,Moderately soluble,-5.19,3.06e-03,6.41e-06,Moderately soluble,-6.33,2.23e-04,4.67e-07,Poorly soluble,High,No,No,No,Yes,Yes,No,Yes,-7.10,0,0,0,0,0,0.55,0,1,1,3.88
Molecule 32,COc1ccc(cc1)n1nc(c2c1C(=O)N(CC2)c1ccc(cc1)N1CCCCC1=O)C(=O)N,C25H25N5O4,459.50,34,17,0.28,5,5,1,132.70,110.76,3.60,2.24,1.94,2.03,1.95,2.35,-4.14,3.33e-02,7.24e-05,Moderately soluble,-4.20,2.89e-02,6.29e-05,Moderately soluble,-5.70,9.25e-04,2.01e-06,Moderately soluble,High,No,Yes,No,Yes,Yes,Yes,Yes,-7.51,0,1,0,0,0,0.55,0,0,1,3.48
Molecule 33,CN1CCc2c3C1Cc1ccc(c(c1c3ccc2)O)O,C17H17NO2,267.32,20,12,0.29,0,3,2,83.02,43.70,2.57,2.30,2.14,2.43,2.89,2.47,-3.39,1.09e-01,4.07e-04,Soluble,-2.86,3.73e-01,1.39e-03,Soluble,-4.36,1.16e-02,4.36e-05,Moderately soluble,High,Yes,Yes,Yes,No,No,Yes,No,-6.30,0,0,0,0,0,0.55,1,1,0,3.26
Molecule 34,Nc1cc(Cl)c(c(c1)Cl)NC1=NCCN1,C9H10Cl2N4,245.11,15,6,0.22,2,1,3,71.40,62.44,1.47,0.87,1.00,1.93,2.35,1.53,-2.07,2.08e+00,8.48e-03,Soluble,-1.77,4.21e+00,1.72e-02,Very soluble,-4.24,1.40e-02,5.71e-05,Moderately soluble,High,Yes,Yes,No,No,No,No,No,-7.18,0,0,0,0,0,0.55,0,1,1,2.89
Molecule 35,CCOc1cc(ccc1OC)C(N1C(=O)c2c(C1=O)c(ccc2)N=C(O)C)CS(=O)(=O)C,C22H24N2O7S,460.50,32,12,0.32,8,8,1,123.16,130.95,2.92,1.82,3.46,1.57,2.98,2.55,-3.59,1.18e-01,2.56e-04,Soluble,-4.19,2.97e-02,6.46e-05,Moderately soluble,-5.78,7.71e-04,1.67e-06,Moderately soluble,High,No,Yes,Yes,Yes,Yes,No,Yes,-7.82,0,0,0,0,0,0.55,0,3,2,4.12
Molecule 36,Fc1ccc(cc1)C1C(OCCN1Cc1n[nH]c(=O)[nH]1)OC(c1cc(cc(c1)C(F)(F)F)C(F)(F)F)C,C23H21F7N4O3,534.43,37,17,0.39,8,12,2,118.82,83.24,3.09,4.20,6.50,4.05,5.77,4.72,-5.61,1.31e-03,2.45e-06,Moderately soluble,-5.66,1.18e-03,2.20e-06,Moderately soluble,-7.94,6.09e-06,1.14e-08,Poorly soluble,Low,No,Yes,No,No,No,Yes,Yes,-6.58,1,2,0,1,1,0.55,0,0,3,4.57
Molecule 37,C=CCC(C(=O)NC(=O)N)C(C)C,C9H16N2O2,184.24,13,0,0.56,6,2,2,51.20,72.19,0.78,1.71,1.03,1.15,0.53,1.04,-1.66,4.00e+00,2.17e-02,Very soluble,-2.84,2.65e-01,1.44e-03,Soluble,-1.19,1.18e+01,6.41e-02,Soluble,High,No,No,No,No,No,No,No,-6.21,0,0,0,0,1,0.55,0,1,1,2.14
Molecule 38,Oc1ccc(cc1)CCCCNCC(c1ccc(c(c1)O)O)O,C18H23NO4,317.38,23,12,0.33,8,5,5,89.96,92.95,2.59,0.94,2.12,1.64,2.71,2.00,-2.26,1.75e+00,5.52e-03,Soluble,-2.48,1.05e+00,3.32e-03,Soluble,-4.72,6.06e-03,1.91e-05,Moderately soluble,High,No,Yes,No,No,No,Yes,No,-7.57,0,0,0,0,0,0.55,1,1,1,2.65
Molecule 39,OCC1OC(Oc2ccc(cc2)O)C(C(C1O)O)O,C12H16O7,272.25,19,6,0.50,3,7,5,62.61,119.61,1.07,-1.35,-1.43,-1.49,-1.22,-0.88,-0.71,5.27e+01,1.94e-01,Very soluble,-0.66,5.93e+01,2.18e-01,Very soluble,0.36,6.18e+02,2.27e+00,Soluble,High,No,No,No,No,No,No,No,-8.92,0,1,0,0,0,0.55,0,0,0,4.18
Molecule 40,O=CNc1cc(ccc1O)C(CNC(Cc1ccc(cc1)OC)C)O,C19H24N2O4,344.40,25,12,0.32,9,5,4,97.50,90.82,2.35,1.84,1.71,1.79,2.63,2.06,-2.90,4.38e-01,1.27e-03,Soluble,-3.37,1.48e-01,4.29e-04,Soluble,-5.20,2.16e-03,6.28e-06,Moderately soluble,High,No,Yes,No,No,No,Yes,No,-7.09,0,0,0,0,0,0.55,0,2,1,3.08
Molecule 41,NC(=N)NCCCC(C(=O)N1CCC(CC1C(=O)O)C)NS(=O)(=O)c1cccc2c1NCC(C2)C,C23H36N6O5S,508.63,35,6,0.61,11,7,6,140.50,186.09,1.68,1.72,1.04,0.48,-0.00,0.98,-3.48,1.69e-01,3.33e-04,Soluble,-5.24,2.90e-03,5.70e-06,Moderately soluble,-4.25,2.88e-02,5.66e-05,Moderately soluble,Low,No,Yes,No,No,No,No,No,-8.18,3,3,2,1,2,0.17,0,2,2,5.12
Molecule 42,O=C1CCc2c(N1)cc(cc2)OCCCCN1CCN(CC1)c1cccc(c1Cl)Cl,C23H27Cl2N3O2,448.39,30,12,0.43,7,3,1,133.26,44.81,4.28,4.64,3.53,3.65,4.96,4.21,-5.38,1.88e-03,4.20e-06,Moderately soluble,-5.31,2.21e-03,4.93e-06,Moderately soluble,-7.93,5.21e-06,1.16e-08,Poorly soluble,High,Yes,Yes,No,Yes,No,Yes,No,-5.74,0,1,0,0,0,0.55,0,0,2,3.15
Molecule 43,CCCCCCCCCCCC(=O)OCN1C(=O)CCc2c1cc(OCCCCN1CCN(CC1)c1cccc(c1Cl)Cl)cc2,C36H51Cl2N3O4,660.71,45,12,0.61,20,5,0,197.13,62.32,6.72,9.97,7.53,5.63,8.94,7.76,-9.09,5.31e-07,8.04e-10,Poorly soluble,-11.21,4.11e-09,6.23e-12,Insoluble,-11.48,2.16e-09,3.27e-12,Insoluble,Low,No,Yes,No,No,No,No,No,-3.25,2,4,1,1,3,0.17,0,0,3,5.13
Molecule 44,NC(=O)CS(=O)C(c1ccccc1)c1ccccc1,C15H15NO2S,273.35,19,12,0.13,5,2,1,76.69,79.37,1.46,1.72,2.55,2.04,1.85,1.92,-2.76,4.80e-01,1.75e-03,Soluble,-3.00,2.72e-01,9.94e-04,Soluble,-4.97,2.90e-03,1.06e-05,Moderately soluble,High,No,Yes,No,No,No,No,Yes,-6.75,0,0,0,0,0,0.55,0,0,0,3.10
Molecule 45,COC1OC2OC3(C)CCC4C2(C(C1C)CCC4C)OO3,C16H26O5,298.37,21,0,1.00,1,5,0,76.07,46.15,3.19,3.53,2.84,2.60,1.75,2.78,-3.85,4.24e-02,1.42e-04,Soluble,-4.18,1.96e-02,6.55e-05,Moderately soluble,-2.04,2.75e+00,9.20e-03,Soluble,High,Yes,No,Yes,No,No,No,No,-5.61,0,0,0,0,0,0.55,0,1,1,6.65
Molecule 46,CCOC1OC2OC3(C)CCC4C2(C(C1C)CCC4C)OO3,C17H28O5,312.40,22,0,1.00,2,5,0,80.88,46.15,3.50,3.89,3.23,2.85,2.12,3.12,-4.10,2.51e-02,8.02e-05,Moderately soluble,-4.56,8.66e-03,2.77e-05,Moderately soluble,-2.43,1.15e+00,3.68e-03,Soluble,High,Yes,No,Yes,No,No,No,No,-5.44,0,0,0,0,0,0.55,0,1,1,6.76
Molecule 47,OC(=O)CCC(=O)OC1OC2OC3(C)CCC4C2(C(C1C)CCC4C)OO3,C19H28O8,384.42,27,0,0.89,5,8,1,92.46,100.52,2.93,1.88,2.60,2.29,1.37,2.22,-3.08,3.21e-01,8.36e-04,Soluble,-3.61,9.37e-02,2.44e-04,Soluble,-1.73,7.22e+00,1.88e-02,Soluble,High,No,No,No,No,No,No,No,-7.31,0,0,0,0,0,0.56,0,1,1,6.67
Molecule 48,CCCNC(C(=Nc1c(C)csc1C(=O)OC)O)C,C13H20N2O3S,284.37,19,5,0.54,7,5,2,78.18,99.16,3.06,2.76,2.82,1.48,3.54,2.73,-3.07,2.39e-01,8.42e-04,Soluble,-4.50,9.04e-03,3.18e-05,Moderately soluble,-3.33,1.33e-01,4.69e-04,Soluble,High,No,No,Yes,Yes,No,No,No,-6.08,0,0,0,0,0,0.55,0,2,0,3.91
Molecule 49,COc1ccc(cc1)c1sc2c(c1Oc1ccc(cc1)OCCN1CCCCC1)ccc(c2)O,C28H29NO4S,475.60,34,21,0.29,8,5,1,142.32,79.40,4.96,6.60,6.56,3.81,6.66,5.72,-6.88,6.33e-05,1.33e-07,Poorly soluble,-8.07,4.07e-06,8.56e-09,Poorly soluble,-8.79,7.68e-07,1.61e-09,Poorly soluble,Low,No,Yes,No,Yes,No,Yes,No,-4.52,0,2,0,1,1,0.55,0,0,3,3.90
Molecule 50,OCC(C1OC(=O)C(=C1O)O)O,C6H8O6,176.12,12,0,0.50,2,6,4,35.12,107.22,0.39,-1.64,-1.41,-2.60,-1.15,-1.28,0.23,3.01e+02,1.71e+00,Highly soluble,-0.10,1.40e+02,7.93e-01,Very soluble,1.49,5.46e+03,3.10e+01,Soluble,High,No,No,No,No,No,No,No,-8.54,0,2,0,0,1,0.56,0,0,1,3.47
Molecule 51,Clc1ccc2c(c1)C1CN(CC1c1c(O2)cccc1)C,C17H16ClNO,285.77,20,12,0.29,0,2,0,84.90,12.47,3.15,3.77,3.88,3.81,3.70,3.66,-4.43,1.06e-02,3.71e-05,Moderately soluble,-3.73,5.38e-02,1.88e-04,Soluble,-5.63,6.70e-04,2.34e-06,Moderately soluble,High,Yes,Yes,Yes,No,No,Yes,No,-5.37,0,0,0,0,0,0.55,0,0,1,3.45
Molecule 52,NC(=O)CC(C(=O)O)N,C4H8N2O3,132.12,9,0,0.50,3,4,3,28.73,106.41,-0.32,-3.41,-1.73,-3.99,-1.73,-2.24,1.69,6.43e+03,4.87e+01,Highly soluble,1.75,7.48e+03,5.66e+01,Highly soluble,1.10,1.65e+03,1.25e+01,Soluble,High,No,No,No,No,No,No,No,-9.53,0,4,0,0,3,0.55,0,0,1,1.72
Molecule 53,OC(=O)CC(C(=O)O)N,C4H7NO4,133.10,9,0,0.50,3,5,3,27.59,100.62,-0.14,-3.89,-1.13,-3.59,-1.49,-2.05,1.98,1.28e+04,9.63e+01,Highly soluble,2.37,3.14e+04,2.36e+02,Highly soluble,1.31,2.73e+03,2.05e+01,Soluble,High,No,No,No,No,No,No,No,-9.87,0,4,0,0,3,0.56,0,0,1,1.80
Molecule 54,COc1ccc(cc1)CCN1CCC(CC1)Nc1nc2c(n1Cc1ccc(cc1)F)cccc2,C28H31FN4O,458.57,34,21,0.32,8,4,1,139.26,42.32,4.48,5.97,5.20,4.46,4.95,5.01,-6.37,1.94e-04,4.23e-07,Poorly soluble,-6.63,1.06e-04,2.32e-07,Poorly soluble,-9.15,3.22e-07,7.03e-10,Poorly soluble,High,Yes,Yes,No,No,Yes,Yes,Yes,-4.86,1,1,0,0,1,0.55,0,0,3,3.77
Molecule 55,C=CC1CC1(NC(=O)C1CC(CN1C(=O)C(C(C)(C)C)NC(=O)OC(C)(C)C)Oc1ncc(c2c1cc(Cl)cc2)OC)C(=O)NS(=O)(=O)C1CC1,C35H46ClN5O9S,748.29,51,10,0.57,18,10,3,194.56,190.71,4.13,4.93,4.49,1.36,3.43,3.67,-6.54,2.15e-04,2.87e-07,Poorly soluble,-8.67,1.59e-06,2.13e-09,Poorly soluble,-7.37,3.18e-05,4.26e-08,Poorly soluble,Low,No,Yes,No,No,Yes,No,Yes,-7.36,2,3,2,1,3,0.17,0,1,3,6.52
Molecule 56,Fc1ccccc1c1onc(n1)c1cccc(c1)C(=O)O,C15H9FN2O3,284.24,21,17,0.00,3,6,1,72.09,76.22,2.45,3.09,3.66,3.08,3.19,3.09,-3.95,3.19e-02,1.12e-04,Soluble,-4.36,1.25e-02,4.38e-05,Moderately soluble,-5.55,8.03e-04,2.82e-06,Moderately soluble,High,Yes,No,Yes,Yes,No,No,No,-5.84,0,0,0,0,0,0.56,0,0,0,2.85
Molecule 57,COC(=O)NC(C(C)(C)C)C(=O)NN(Cc1ccc(cc1)c1ccccn1)CC(C(Cc1ccccc1)NC(=O)C(C(C)(C)C)NC(=O)OC)O,C38H52N6O7,704.86,51,18,0.45,22,9,5,193.76,171.22,3.56,5.60,4.06,1.76,4.11,3.82,-6.55,2.00e-04,2.84e-07,Poorly soluble,-8.96,7.77e-07,1.10e-09,Poorly soluble,-9.46,2.47e-07,3.50e-10,Poorly soluble,Low,No,Yes,No,No,No,No,Yes,-6.62,2,3,2,1,4,0.17,0,1,3,6.24
Molecule 58,OC(COc1ccc(cc1)CC(=O)N)CNC(C)C,C14H22N2O3,266.34,19,6,0.50,8,4,3,73.61,84.58,2.02,0.16,0.45,0.69,1.52,0.97,-1.30,1.34e+01,5.04e-02,Very soluble,-1.49,8.55e+00,3.21e-02,Very soluble,-3.29,1.36e-01,5.11e-04,Soluble,High,No,No,No,No,No,No,No,-7.81,0,0,0,0,0,0.55,0,0,1,2.51
Molecule 59,CNCCC(c1ccccc1)Oc1ccccc1C,C17H21NO,255.35,19,12,0.29,6,2,1,79.61,21.26,3.19,3.71,3.40,3.43,4.03,3.55,-3.83,3.76e-02,1.47e-04,Soluble,-3.85,3.63e-02,1.42e-04,Soluble,-6.34,1.16e-04,4.54e-07,Poorly soluble,High,Yes,No,Yes,No,No,Yes,No,-5.22,0,0,0,0,0,0.55,0,0,1,2.49
Molecule 60,OC(CC(CC(=O)O)O)CCn1c(C(C)C)c(c(c1c1ccc(cc1)F)c1ccccc1)C(=O)Nc1ccccc1,C33H35FN2O5,558.64,41,23,0.27,13,6,4,158.26,111.79,3.81,4.96,6.54,3.48,6.15,4.99,-5.99,5.78e-04,1.03e-06,Moderately soluble,-7.05,5.03e-05,9.00e-08,Poorly soluble,-9.13,4.17e-07,7.46e-10,Poorly soluble,Low,No,Yes,No,Yes,No,Yes,Yes,-6.19,1,4,1,1,0,0.56,0,0,3,4.95
Molecule 61,NCCCC(C(=O)NCC(=O)N)NC(=O)C1CCCN1C(=O)C1CSSCCC(=O)NC(Cc2ccc(cc2)OCC)C(=O)NC(C(=O)NC(C(=O)NC(C(=O)N1)CC(=O)N)C(O)C)C(CC)C,C43H67N11O12S2,994.19,68,6,0.63,21,13,11,274.38,416.27,2.45,-1.89,-5.33,-4.35,-0.37,-1.90,-3.49,3.20e-01,3.22e-04,Soluble,-6.33,4.63e-04,4.66e-07,Poorly soluble,-6.94,1.14e-04,1.15e-07,Poorly soluble,Low,No,Yes,No,No,No,No,No,-13.71,3,4,2,1,5,0.17,0,1,2,8.56
Molecule 62,Clc1ccc(cc1)C1CCC(CC1)C1=C(O)C(=O)c2c(C1=O)cccc2,C22H19ClO3,366.84,26,12,0.27,2,3,1,102.04,54.37,3.54,5.68,5.51,3.28,5.19,4.64,-5.90,4.59e-04,1.25e-06,Moderately soluble,-6.59,9.49e-05,2.59e-07,Poorly soluble,-6.97,3.97e-05,1.08e-07,Poorly soluble,High,Yes,No,Yes,Yes,Yes,No,Yes,-4.50,0,0,0,0,1,0.56,1,0,2,3.97
Molecule 63,OCC(c1ccccc1)C(=O)OC1CC2CCC(C1)N2C,C17H23NO3,289.37,21,6,0.59,5,4,1,84.51,49.77,2.85,1.83,1.55,2.02,2.03,2.06,-2.67,6.21e-01,2.15e-03,Soluble,-2.50,9.25e-01,3.20e-03,Soluble,-2.93,3.41e-01,1.18e-03,Soluble,High,Yes,No,No,No,No,Yes,No,-6.77,0,0,0,0,0,0.55,0,0,0,4.33
Molecule 64,OCC1OC(S)C(C(C1O)O)O,C6H12O5S,196.22,12,0,1.00,1,5,4,42.50,128.95,0.78,-2.27,-2.28,-2.35,-1.54,-1.53,0.44,5.40e+02,2.75e+00,Highly soluble,0.10,2.45e+02,1.25e+00,Highly soluble,1.92,1.65e+04,8.39e+01,Soluble,Low,No,Yes,No,No,No,No,No,-9.11,0,1,0,0,2,0.55,0,1,1,4.17
Molecule 65,OCC1CCCN1c1ncc(c(n1)NCc1ccc(c(c1)Cl)OC)C(=O)NCc1ncccn1,C23H26ClN7O3,483.95,34,18,0.35,10,7,3,131.01,125.39,3.66,2.58,1.56,0.89,2.44,2.22,-4.20,3.07e-02,6.34e-05,Moderately soluble,-4.86,6.65e-03,1.38e-05,Moderately soluble,-7.43,1.79e-05,3.70e-08,Poorly soluble,High,No,Yes,No,Yes,Yes,Yes,Yes,-7.42,0,2,0,0,0,0.55,0,0,2,3.81
Molecule 66,OC(=O)C1CCN(CC1)c1ncc(cc1Cl)C(=O)Nc1sc(c(n1)c1scc(c1)Cl)N1CCN(CC1)C1CCCCC1,C29H34Cl2N6O3S2,649.65,42,16,0.52,8,6,2,181.67,158.38,4.29,3.96,5.25,3.32,5.78,4.52,-6.12,4.97e-04,7.65e-07,Poorly soluble,-6.99,6.70e-05,1.03e-07,Poorly soluble,-7.17,4.36e-05,6.71e-08,Poorly soluble,Low,No,Yes,No,No,Yes,No,Yes,-7.45,1,3,1,1,2,0.55,0,0,3,5.54
Molecule 67,NC(=O)C1CCC2CN1C(=O)N2OS(=O)(=O)O,C7H11N3O6S,265.24,17,0,0.71,3,6,2,60.27,138.62,-0.18,-1.83,-1.21,-1.15,-3.59,-1.59,-0.13,1.95e+02,7.35e-01,Very soluble,-0.56,7.25e+01,2.73e-01,Very soluble,1.68,1.26e+04,4.74e+01,Soluble,Low,No,No,No,No,No,No,No,-9.22,0,1,0,1,0,0.56,0,1,0,4.43
Molecule 68,COc1ccc(cc1)C(=O)CC(=O)c1ccc(cc1)C(C)(C)C,C20H22O3,310.39,23,12,0.30,6,3,0,92.11,43.37,3.00,4.76,4.45,3.09,5.05,4.07,-4.75,5.48e-03,1.76e-05,Moderately soluble,-5.40,1.23e-03,3.97e-06,Moderately soluble,-6.54,8.99e-05,2.90e-07,Poorly soluble,High,Yes,No,Yes,Yes,No,Yes,Yes,-4.81,0,0,0,0,0,0.55,0,1,1,2.00
Molecule 69,CNC(=O)c1ccccc1Sc1ccc2c(c1)[nH]nc2C=Cc1ccccn1,C22H18N4OS,386.47,28,21,0.05,6,3,2,112.82,95.97,2.62,4.17,4.42,3.12,4.80,3.82,-5.02,3.67e-03,9.50e-06,Moderately soluble,-5.89,4.94e-04,1.28e-06,Moderately soluble,-8.09,3.11e-06,8.05e-09,Poorly soluble,High,No,No,Yes,Yes,Yes,Yes,Yes,-5.70,0,0,0,0,0,0.55,0,0,2,3.11
Molecule 70,OCC1OC(C(C1O)O)n1cnc(nc1=O)N,C8H12N4O5,244.20,17,6,0.62,2,7,4,53.64,143.72,0.62,-2.17,-3.48,-2.98,-2.72,-2.15,-0.12,1.87e+02,7.65e-01,Very soluble,-0.32,1.18e+02,4.81e-01,Very soluble,1.38,5.90e+03,2.42e+01,Soluble,Low,No,No,No,No,No,No,No,-9.33,0,1,1,1,1,0.55,0,0,1,3.77
Molecule 71,CN1CCC(=C2c3ccccc3CCc3c2nccc3)CC1,C20H22N2,290.40,22,12,0.35,0,2,0,95.36,16.13,3.12,3.59,3.33,3.39,4.48,3.58,-4.31,1.44e-02,4.95e-05,Moderately soluble,-3.62,7.04e-02,2.43e-04,Soluble,-6.45,1.04e-04,3.57e-07,Poorly soluble,High,Yes,Yes,Yes,No,No,Yes,No,-5.52,0,0,0,0,0,0.55,0,0,1,3.31
Molecule 72,OC(=O)CCCCCCCC(=O)O,C9H16O4,188.22,13,0,0.78,8,4,2,48.92,74.60,1.44,1.57,1.89,1.25,1.29,1.49,-1.47,6.41e+00,3.40e-02,Very soluble,-2.75,3.37e-01,1.79e-03,Soluble,-1.46,6.48e+00,3.44e-02,Soluble,High,Yes,No,No,No,No,No,No,-6.33,0,0,0,0,1,0.56,0,0,2,1.57
Molecule 73,CN1CCCC(CC1)n1nc(Cc2ccc(cc2)Cl)c2c(c1=O)cccc2,C22H24ClN3O,381.90,27,16,0.36,3,3,0,115.27,38.13,3.79,4.37,3.92,4.28,4.38,4.15,-5.20,2.40e-03,6.29e-06,Moderately soluble,-4.89,4.96e-03,1.30e-05,Moderately soluble,-7.04,3.44e-05,9.02e-08,Poorly soluble,High,Yes,No,No,Yes,Yes,No,Yes,-5.53,1,0,0,0,0,0.55,0,0,2,3.62
Molecule 74,CCOc1nc2c(n1Cc1ccc(cc1)c1ccccc1c1noc(=O)[nH]1)c(ccc2)C(=O)OCc1oc(=O)oc1C,C30H24N4O8,568.53,42,31,0.17,10,10,1,149.87,155.59,4.20,4.94,4.55,2.94,5.51,4.43,-6.36,2.46e-04,4.33e-07,Poorly soluble,-7.94,6.46e-06,1.14e-08,Poorly soluble,-10.44,2.07e-08,3.64e-11,Insoluble,Low,No,No,Yes,Yes,Yes,No,No,-6.26,2,2,1,1,1,0.17,0,0,3,4.32
Molecule 75,CCC1OC(=O)C(C)C(OC2OC(C)C(C(C2)(C)OC)O)C(C)C(OC2OC(C)CC(C2O)N(C)C)C(CC(CN(C(C(C1(C)O)O)C)C)C)(C)O,C38H72N2O12,748.98,52,0,0.97,7,14,5,200.78,180.08,5.32,4.02,1.52,-0.44,0.24,2.13,-6.55,2.09e-04,2.79e-07,Poorly soluble,-7.50,2.34e-05,3.13e-08,Poorly soluble,-2.22,4.48e+00,5.98e-03,Soluble,Low,No,Yes,No,No,No,No,No,-8.01,2,3,1,1,3,0.17,0,0,2,8.91
Molecule 76,O=C(C(c1ccccc1)NC(=O)N1CCNC1=O)NC1C(=O)N2C1SC(C2C(=O)O)(C)C,C20H23N5O6S,461.49,32,6,0.45,8,6,4,124.48,173.45,0.85,0.07,-1.37,0.87,-0.99,-0.11,-2.36,2.03e+00,4.40e-03,Soluble,-3.27,2.50e-01,5.42e-04,Soluble,-2.58,1.21e+00,2.63e-03,Soluble,Low,No,Yes,No,No,No,No,No,-9.07,1,1,1,1,1,0.11,0,0,2,4.68
Molecule 77,CC1C(NC(=O)C(=NOC(C(=O)O)(C)C)c2csc(n2)N)C(=O)N1S(=O)(=O)O,C13H17N5O8S2,435.43,28,5,0.46,8,10,4,99.76,238.20,0.68,0.27,-0.46,-1.30,-1.70,-0.50,-2.31,2.11e+00,4.85e-03,Soluble,-4.83,6.39e-03,1.47e-05,Moderately soluble,-0.19,2.82e+02,6.49e-01,Soluble,Low,No,Yes,No,No,No,No,No,-8.76,1,1,1,1,1,0.11,0,3,2,4.38
Molecule 78,CCOC(=O)OC(OC(=O)C1N2C(=O)C(C2SC1(C)C)NC(=O)C(c1ccccc1)N)C,C21H27N3O7S,465.52,32,6,0.52,11,8,2,118.87,162.56,2.73,2.67,0.59,1.12,0.66,1.56,-3.82,7.03e-02,1.51e-04,Soluble,-5.74,8.56e-04,1.84e-06,Moderately soluble,-3.08,3.85e-01,8.28e-04,Soluble,Low,No,Yes,No,No,No,No,Yes,-7.24,0,0,2,1,1,0.55,0,2,2,5.04
Molecule 79,NCCCC1NC(=O)C(CCCCNC(=O)C(CC(=O)N)NC(=O)C(NC(=O)C(NC(=O)C(NC(=O)C(NC1=O)C(CC)C)Cc1ccccc1)Cc1nc[nH]c1)CC(=O)O)NC(=O)C(C(CC)C)NC(=O)C(NC(=O)C(NC(=O)C1CSC(=N1)C(C(CC)C)N)CC(C)C)CCC(=O)O,C66H103N17O16S,1422.69,100,11,0.64,35,20,17,399.90,556.17,2.68,-4.09,-4.72,-5.70,2.70,-1.83,-3.86,1.98e-01,1.40e-04,Soluble,-6.99,1.47e-04,1.03e-07,Poorly soluble,-12.08,1.18e-09,8.28e-13,Insoluble,Low,No,Yes,No,No,No,No,No,-17.88,3,4,2,1,6,0.17,0,0,2,10.00
Molecule 80,NCC(c1ccc(cc1)Cl)CC(=O)O,C10H12ClNO2,213.66,14,6,0.30,4,3,2,55.32,63.32,1.66,-0.96,1.86,1.96,1.87,1.28,-0.61,5.21e+01,2.44e-01,Very soluble,0.12,2.79e+02,1.30e+00,Highly soluble,-2.89,2.73e-01,1.28e-03,Soluble,High,Yes,No,No,No,No,No,No,-8.28,0,0,0,0,0,0.55,0,0,1,1.81
Molecule 81,COC(=O)OCOc1c(=O)ccn2c1C(=O)N1CCOCC1N2C1c2ccccc2SCc2c1ccc(c2F)F,C27H23F2N3O7S,571.55,40,18,0.30,6,9,0,144.58,124.84,3.68,3.79,2.99,3.04,2.54,3.21,-5.71,1.12e-03,1.96e-06,Moderately soluble,-6.11,4.48e-04,7.84e-07,Poorly soluble,-6.28,2.99e-04,5.24e-07,Poorly soluble,High,No,Yes,No,No,Yes,Yes,Yes,-7.10,1,2,0,0,0,0.55,0,1,2,5.23
Molecule 82,OC(=O)CCNC(=O)c1ccc(cc1)N=Nc1ccc(c(c1)C(=O)O)O,C17H15N3O6,357.32,26,12,0.12,8,8,4,90.42,148.65,1.73,2.20,2.71,1.03,1.98,1.93,-3.25,1.99e-01,5.56e-04,Soluble,-4.96,3.96e-03,1.11e-05,Moderately soluble,-3.95,4.02e-02,1.12e-04,Soluble,Low,No,No,No,No,No,No,No,-6.92,0,0,1,1,0,0.56,1,1,2,2.47
Molecule 83,N#CCC1(CN(C1)S(=O)(=O)CC)n1ncc(c1)c1ncnc2c1cc[nH]2,C16H17N7O2S,371.42,26,14,0.38,5,7,1,98.51,128.94,1.49,-0.46,1.80,-0.58,0.61,0.57,-1.92,4.45e+00,1.20e-02,Very soluble,-1.78,6.14e+00,1.65e-02,Very soluble,-4.38,1.56e-02,4.20e-05,Moderately soluble,High,No,Yes,No,No,No,No,No,-8.89,0,0,0,0,0,0.55,0,0,1,3.07
Molecule 84,Oc1ccc2c(c1)c(C)c(n2Cc1ccc(cc1)OCCN1CCCCCC1)c1ccc(cc1)O,C30H34N2O3,470.60,35,21,0.33,7,4,2,146.97,57.86,4.06,6.12,5.95,3.67,5.58,5.07,-6.60,1.19e-04,2.54e-07,Poorly soluble,-7.12,3.59e-05,7.64e-08,Poorly soluble,-8.54,1.35e-06,2.88e-09,Poorly soluble,High,No,Yes,No,Yes,No,Yes,No,-4.83,0,2,0,1,1,0.55,0,0,2,3.48
Molecule 85,CCC(=O)OC1(C(C)CC2C1(C)CC(O)C1(C2CCC2=CC(=O)C=CC12C)Cl)C(=O)COC(=O)CC,C28H37ClO7,521.04,36,0,0.71,8,7,1,135.79,106.97,3.39,3.05,4.09,2.79,4.65,3.59,-4.46,1.79e-02,3.44e-05,Moderately soluble,-4.96,5.68e-03,1.09e-05,Moderately soluble,-5.12,3.99e-03,7.66e-06,Moderately soluble,High,No,Yes,No,No,No,No,Yes,-7.31,1,3,0,0,0,0.55,0,2,2,6.08
Molecule 86,COc1nc2ccc(cc2cc1C(C(c1cccc2c1cccc2)(CCN(C)C)O)c1ccccc1)Br,C32H31BrN2O2,555.50,37,26,0.22,8,4,1,155.36,45.59,4.72,7.21,7.02,5.08,7.18,6.24,-7.82,8.44e-06,1.52e-08,Poorly soluble,-7.99,5.68e-06,1.02e-08,Poorly soluble,-11.59,1.44e-09,2.59e-12,Insoluble,Low,No,Yes,Yes,No,No,Yes,Yes,-4.57,2,3,0,1,1,0.17,0,0,3,4.39
Molecule 87,ONC(=O)C=Cc1cccc(c1)S(=O)(=O)Nc1ccccc1,C15H14N2O4S,318.35,22,12,0.00,6,4,3,82.18,103.88,0.61,1.66,2.79,1.55,0.72,1.47,-2.87,4.32e-01,1.36e-03,Soluble,-3.46,1.12e-01,3.51e-04,Soluble,-4.39,1.31e-02,4.10e-05,Moderately soluble,High,No,No,No,No,No,No,No,-7.06,0,0,0,0,0,0.55,0,3,0,2.94
Molecule 88,CCCCC(COc1ccc(c(c1)O)c1nc(nc(n1)c1ccc(cc1)OC)c1ccc(cc1O)OCC(CCCC)CC)CC,C38H49N3O5,627.81,46,24,0.45,18,8,2,186.96,106.82,7.11,10.42,9.48,4.27,9.51,8.16,-9.50,2.01e-07,3.20e-10,Poorly soluble,-12.61,1.55e-10,2.47e-13,Insoluble,-12.64,1.43e-10,2.28e-13,Insoluble,Low,No,Yes,Yes,Yes,No,No,No,-2.73,2,4,1,1,3,0.17,0,0,3,5.48
Molecule 89,CCOC(=O)C(NC1CCc2c(N(C1=O)CC(=O)O)cccc2)CCc1ccccc1,C24H28N2O5,424.49,31,12,0.38,10,6,2,120.24,95.94,3.32,1.26,2.19,2.23,3.14,2.43,-2.89,5.44e-01,1.28e-03,Soluble,-2.87,5.68e-01,1.34e-03,Soluble,-6.09,3.47e-04,8.18e-07,Poorly soluble,High,No,Yes,No,No,No,Yes,Yes,-7.99,0,0,0,0,0,0.55,0,0,2,4.00
Molecule 90,ClCCN(c1ccc2c(c1)nc(n2C)CCCC(=O)O)CCCl,C16H21Cl2N3O2,358.26,23,9,0.50,9,3,1,95.57,58.36,2.69,2.89,3.26,2.47,3.33,2.93,-3.58,9.48e-02,2.65e-04,Soluble,-3.78,6.00e-02,1.68e-04,Soluble,-5.20,2.24e-03,6.27e-06,Moderately soluble,High,Yes,No,No,Yes,No,Yes,No,-6.43,0,0,0,0,0,0.56,0,1,2,2.64
Molecule 91,OC(=O)COc1nn(c2c1cccc2)Cc1ccccc1,C16H14N2O3,282.29,21,15,0.12,5,4,1,78.55,64.35,1.85,3.06,2.55,2.57,2.14,2.43,-3.72,5.42e-02,1.92e-04,Soluble,-4.08,2.36e-02,8.36e-05,Moderately soluble,-4.52,8.47e-03,3.00e-05,Moderately soluble,High,Yes,No,Yes,Yes,No,No,No,-5.85,0,0,0,0,0,0.56,0,0,0,2.57
Molecule 92,O=S1(=O)NC(Cc2ccccc2)Nc2c1cc(c(c2)C(F)(F)F)S(=O)(=O)N,C15H14F3N3O4S2,421.41,27,12,0.20,4,9,3,96.86,135.12,1.27,1.19,3.99,1.27,0.78,1.70,-3.27,2.28e-01,5.40e-04,Soluble,-3.62,1.00e-01,2.38e-04,Soluble,-5.75,7.58e-04,1.80e-06,Moderately soluble,Low,No,Yes,No,No,No,No,No,-8.03,0,0,0,1,0,0.55,0,0,1,3.86
Molecule 93,O=CN(C(=C(SC(=O)c1ccccc1)CCOP(=O)(O)O)C)Cc1cnc([nH]c1=N)C,C19H23N4O6PS,466.45,31,12,0.26,11,8,4,116.28,191.78,0.64,-0.36,2.31,0.27,2.09,0.99,-2.07,4.01e+00,8.60e-03,Soluble,-3.21,2.91e-01,6.24e-04,Soluble,-4.11,3.61e-02,7.74e-05,Moderately soluble,Low,No,Yes,No,No,No,No,No,-9.40,0,0,2,1,1,0.11,0,3,2,4.19
Molecule 94,CC(=O)Nc1ccc(cc1)OC(=O)c1ccccc1OC(=O)C,C17H15NO5,313.30,23,12,0.12,7,5,1,83.65,81.70,2.71,2.15,2.60,2.66,2.52,2.53,-3.06,2.72e-01,8.69e-04,Soluble,-3.50,9.95e-02,3.18e-04,Soluble,-5.05,2.79e-03,8.91e-06,Moderately soluble,High,No,No,Yes,Yes,No,No,No,-6.68,0,0,0,0,0,0.55,0,1,0,2.16
Molecule 95,OC(=O)C(c1ccc2c(c1)nc(o2)c1ccc(cc1)Cl)C,C16H12ClNO3,301.72,21,15,0.12,3,4,1,80.81,63.33,2.81,3.23,4.34,3.10,3.98,3.49,-4.08,2.53e-02,8.39e-05,Moderately soluble,-4.23,1.76e-02,5.85e-05,Moderately soluble,-5.84,4.31e-04,1.43e-06,Moderately soluble,High,Yes,No,Yes,Yes,Yes,No,No,-5.85,0,0,0,0,0,0.56,0,0,0,3.18
Molecule 96,Fc1ccc(cc1)C(=O)CCCN1CCC(CC1)n1c(O)nc2c1cccc2,C22H24FN3O2,381.44,28,15,0.36,6,5,1,111.04,58.36,3.28,3.68,4.22,3.11,3.56,3.57,-4.52,1.14e-02,2.99e-05,Moderately soluble,-4.60,9.68e-03,2.54e-05,Moderately soluble,-5.90,4.79e-04,1.26e-06,Moderately soluble,High,Yes,Yes,Yes,Yes,Yes,Yes,Yes,-6.01,0,0,0,0,0,0.55,0,0,2,3.19
Molecule 97,OCC(C(=O)NNCc1ccc(c(c1O)O)O)N,C10H15N3O5,257.24,18,6,0.30,6,7,7,61.57,148.07,0.72,-1.27,-1.91,-1.47,-1.64,-1.11,-0.49,8.41e+01,3.27e-01,Very soluble,-1.34,1.17e+01,4.54e-02,Very soluble,-0.65,5.72e+01,2.22e-01,Soluble,Low,No,No,No,No,No,No,No,-8.77,1,1,1,1,1,0.55,2,1,0,2.72
Molecule 98,CN1C2CCC1CC(C2)OC(c1ccccc1)c1ccccc1,C21H25NO,307.43,23,12,0.43,4,2,0,98.02,12.47,3.56,4.48,3.71,3.69,3.84,3.86,-4.69,6.27e-03,2.04e-05,Moderately soluble,-4.46,1.06e-02,3.45e-05,Moderately soluble,-5.66,6.74e-04,2.19e-06,Moderately soluble,High,Yes,No,No,No,No,Yes,No,-4.99,0,0,0,0,0,0.55,0,0,1,4.32
Molecule 99,CCc1oc2c(c1C(=O)c1cc(I)c(c(c1)I)O)cccc2,C17H12I2O3,518.08,22,15,0.12,3,3,1,103.32,50.44,3.30,5.57,5.14,3.65,6.13,4.76,-6.87,7.02e-05,1.36e-07,Poorly soluble,-6.39,2.11e-04,4.07e-07,Poorly soluble,-7.67,1.11e-05,2.14e-08,Poorly soluble,High,Yes,No,Yes,Yes,Yes,No,No,-5.51,1,1,0,0,1,0.55,0,1,2,3.24
Molecule 100,CCOC(=O)c1ccc(cc1)N,C9H11NO2,165.19,12,6,0.22,3,2,1,46.93,52.32,1.89,1.86,1.45,1.64,1.31,1.63,-2.21,1.02e+00,6.19e-03,Soluble,-2.58,4.34e-01,2.63e-03,Soluble,-2.51,5.09e-01,3.08e-03,Soluble,High,Yes,No,No,No,No,No,No,-5.99,0,0,0,0,1,0.55,0,1,1,1.22
