SMILES	MOL_WEIGHT	LOGP	#ROTATABLE_BONDS	#ACCEPTORS	#DONORS	SURFACE_AREA	Water solubility	Caco2 permeability	Intestinal absorption (human)	Skin Permeability	P-glycoprotein substrate	P-glycoprotein I inhibitor	P-glycoprotein II inhibitor	VDss (human)	Fraction unbound (human)	BBB permeability	CNS permeability	CYP2D6 substrate	CYP3A4 substrate	CYP1A2 inhibitior	CYP2C19 inhibitior	CYP2C9 inhibitior	CYP2D6 inhibitior	CYP3A4 inhibitior	Total Clearance	Renal OCT2 substrate	AMES toxicity	Max. tolerated dose (human)	hERG I inhibitor	hERG II inhibitor	Oral Rat Acute Toxicity (LD50)	Oral Rat Chronic Toxicity (LOAEL)	Hepatotoxicity	Skin Sensitisation	<i>T.Pyriformis</i> toxicity	Minnow toxicity
CC(C)=CCCc(c(O)c(c(Oc(cc1O)c2cc1O)c1)C2=O)c1O	342.347	3.6674	3	6	4	142.438	-3.435	0.619	81.161	-2.735	Yes	No	No	0.095	0.034	-1.302	-2.356	No	No	Yes	Yes	Yes	No	No	0.352	No	Yes	0.646	No	Yes	2.01	2.539	No	No	0.321	0.035
CC(C)=CCc(c(O[C@@H](CC1=O)c2ccccc2)c1c(OC)c1)c1O	338.403	4.616	4	4	1	147.260	-4.872	1.573	93.243	-2.775	No	Yes	No	-0.079	0.014	0.652	-1.861	No	Yes	Yes	Yes	Yes	No	Yes	0.248	No	No	0.534	No	No	2.231	2.431	No	No	0.417	0.181
CC(C)(CCC1)[C@](C)(CC2)[C@@]1(C)[C@@H]([C@H](C=C(C1)C=O)OO[C@H]1O)C2=C	348.483	4.3395	2	4	1	150.754	-5.288	1.34	98.947	-3.194	Yes	Yes	No	0.192	0.085	-0.063	-2.79	No	No	No	No	No	No	No	0.961	Yes	No	-0.152	No	No	1.932	1.917	No	No	0.537	-0.265
C=C[C@](COC1=O)([C@H]([C@@H]([C@@H](C2)[C@@H]3OC(CCO)=O)OC2=O)C1=C)[C@H]3O	352.339	-0.5116	4	8	2	143.595	-3.239	0.563	69.644	-3.117	Yes	No	No	0.021	0.512	-0.808	-3.108	No	No	No	No	No	No	No	0.395	No	Yes	0.308	No	No	2.03	2.561	No	No	0.294	4.072
Cc(c(O)c(c(OC(Oc(cc1)cc(O)c1O)=C1OC)c2)C1=O)c2O	346.291	2.72472	3	8	4	140.270	-3.604	0.79	72.375	-2.735	Yes	No	No	0.539	0.077	-1.615	-3.502	No	No	Yes	No	No	No	No	0.7	No	No	0.565	No	No	2.168	2.369	No	No	0.288	2.163
COc1cc(C(Oc(cc(cc2O)O)c2C2=O)=C2O)cc(OC)c1O	346.291	2.2996	3	8	4	140.270	-3.255	0.01	70.345	-2.735	Yes	No	No	0.704	0.063	-1.455	-3.492	No	No	Yes	No	No	No	No	0.572	No	No	0.666	No	Yes	2.312	3.13	No	No	0.295	1.607
C[C@@](CC[C@@H]1[C@]2(C)C=O)([C@H]1C=C1C(c3c4ccc(O)c3)=O)O[C@]12C4=O	338.359	2.4703	1	5	1	144.220	-3.809	1.295	97.28	-3.693	Yes	Yes	No	0.577	0.202	-0.204	-2.23	No	Yes	No	No	No	No	No	-0.052	No	No	-0.476	No	No	2.24	1.977	No	No	0.391	1.505
COc1c([C@H](Cc(cc(cco2)c2c2)c2O2)C2=O)cc2OCOc2c1	338.315	3.4154	2	6	0	142.393	-4.402	1.124	100	-2.72	No	Yes	Yes	-0.133	0.124	-0.678	-2.073	No	Yes	Yes	Yes	Yes	No	No	0.464	No	Yes	0.096	No	Yes	2.956	1.33	No	No	0.39	-0.363
COc(cc1OCOc1c1)c1C1=Cc(cc(cco2)c2c2)c2OC1=O	336.299	3.9435	2	6	0	140.677	-4.137	1.122	99.554	-2.722	No	No	Yes	0.08	0.244	-0.734	-2.028	No	Yes	Yes	Yes	Yes	No	Yes	0.72	No	Yes	0.294	No	Yes	2.429	1.013	No	No	0.296	-1.201
CC(C)([C@@H]12)[C@@H]2Oc2c1c(O[C@@H](CC1=O)c3ccccc3)c1c(OC)c2	336.387	4.2861	2	4	0	146.258	-4.5	1.431	97.702	-2.756	No	Yes	No	-0.106	0.017	0.438	-1.599	No	Yes	Yes	Yes	Yes	No	Yes	0.179	No	No	0.672	No	No	2.55	1.843	No	No	0.366	0.172
CC(C)([C@H](C1)O)Oc2c1cc([C@@H]([C@@H]1CC3)Oc4c1ccc(O)c4)c3c2	338.403	3.6301	0	4	2	146.571	-3.998	1.294	93.045	-2.816	Yes	Yes	No	0.218	0.07	-0.213	-1.821	No	Yes	Yes	Yes	Yes	No	Yes	0.498	No	Yes	-0.486	No	Yes	2.406	1.304	Yes	No	0.429	0.27
COc1c2OC[C@@H]3c(cc4OCOc4c4)c4O[C@@H]3c2cc2c1occ2	338.315	3.7798	1	6	0	142.339	-3.9	1.369	99.774	-2.736	No	No	Yes	-0.262	0.132	-0.026	-2.108	No	Yes	Yes	Yes	Yes	No	No	0.347	No	Yes	0.34	No	Yes	3.327	1.364	No	No	0.292	-0.681
CCN(CC)CCCCCCNc1cc(OC)cc2c(C)ccnc12	343.515	4.86592	11	4	1	152.135	-4.143	1.252	91.236	-2.889	Yes	Yes	No	1.55	0.177	-0.017	-1.981	Yes	Yes	Yes	No	No	Yes	Yes	1.295	No	No	-0.042	No	Yes	2.909	1.945	Yes	No	1.38	0.652
NC(c(cc1)ccc1OCCCCCOc(cc1)ccc1C(N)=N)=N	340.427	2.88284	10	4	4	147.321	-3.365	0.973	77.595	-2.762	Yes	No	No	-0.319	0.049	-1.169	-3.115	No	Yes	Yes	Yes	Yes	No	No	0.819	Yes	No	0.891	No	Yes	2.184	2.967	No	No	0.459	-0.498
CC(O[C@H]([C@H]([C@@H](CC1)OC2=O)C2=C)[C@H](COC=O)/C=C\C=C1\C=O)=O	348.351	1.2804	5	7	0	144.850	-2.863	0.32	93.078	-2.671	No	No	No	-0.257	0.474	-0.849	-2.984	No	No	No	No	No	No	No	0.478	No	Yes	0.376	No	No	2.256	1.434	No	No	0.268	3.16
CC(O[C@H]([C@H]([C@@H](CC1)OC2=O)C2=C)[C@@H](COC=O)/C=C\C=C1\C=O)=O	348.351	1.2804	5	7	0	144.850	-2.863	0.32	93.078	-2.671	No	No	No	-0.257	0.474	-0.849	-2.984	No	No	No	No	No	No	No	0.478	No	Yes	0.376	No	No	2.256	1.434	No	No	0.268	3.16
CC(C)=CCc1cc(/C=C/C(c(ccc(O)c2)c2O)=O)cc(O)c1O	340.375	3.9138	5	5	4	145.367	-3.434	0.109	70.813	-2.737	Yes	No	No	0.146	0.195	-1.134	-2.397	No	No	Yes	Yes	Yes	No	No	0.14	No	No	0.345	No	Yes	2.18	2.595	No	No	0.535	0.601
C/C(/[C@@H](C[C@@H]1C2=C)C(C(CCO)=C)=O)=C\CC/C(/C=O)=C/[C@H]1OC2=O	344.407	2.4636	5	5	1	147.295	-3.471	1.17	98.233	-3.017	No	No	No	-0.125	0.333	-0.394	-2.947	No	Yes	No	No	No	No	No	0.573	No	No	0.138	No	No	1.904	1.295	No	No	0.499	1.637
COc1ccc(/C=C/C(c(c(O)cc(OC)c2OC)c2OC)=O)cc1	344.363	3.3227	7	6	1	145.763	-5.128	1.229	93.949	-2.852	No	Yes	No	-0.156	0.086	-0.614	-2.977	No	No	Yes	Yes	Yes	No	Yes	0.284	No	No	1.068	No	No	2.105	1.682	No	No	0.352	-0.732
CC(C)C(O[C@H](C[C@@](C)(/C=C\C(/C(/C)=C/[C@H]1OC2=O)=O)O)[C@H]1C2=C)=O	348.395	1.8783	2	6	1	146.734	-3.376	1.441	97.888	-3.338	No	No	No	-0.078	0.418	-0.485	-2.855	No	No	No	No	No	No	No	1.299	No	No	0.569	No	No	2.458	1.558	No	No	0.391	2.084
CC(C)C(O[C@H](C[C@](C)(/C=C/C(/C(/C)=C\[C@@H]1OC2=O)=O)O)[C@@H]1C2=C)=O	348.395	1.8783	2	6	1	146.734	-3.376	1.441	97.888	-3.338	No	No	No	-0.078	0.418	-0.485	-2.855	No	No	No	No	No	No	No	1.299	No	No	0.569	No	No	2.458	1.558	No	No	0.391	2.084
CC(C)(C(O)=C1C)C(O)=C(CC(C(C(C)=C(C2(C)C)O)=O)=C2O)C1=O	348.395	3.8825	2	6	4	146.038	-3.063	0.669	71.105	-3.07	Yes	No	No	-0.259	0.322	-1.293	-3.646	No	No	No	No	No	No	No	0.867	No	No	-0.013	No	No	3.12	2.133	No	No	0.285	1.91
CC(C)=CCCc(c(O)c(cc1)C(/C=C/c(cc2)ccc2O)=O)c1O	338.403	4.5983	6	4	3	146.938	-3.924	0.77	89.981	-2.779	Yes	Yes	Yes	-0.081	0.062	-0.91	-2.166	No	Yes	Yes	Yes	Yes	No	Yes	0.164	No	No	0.172	No	Yes	2.007	1.8	No	No	0.593	0.11
CC(C)=CCCc(c(O)c(cc1)C(/C=C/c(cc2)ccc2O)=O)c1O	338.403	4.5983	6	4	3	146.938	-3.924	0.77	89.981	-2.779	Yes	Yes	Yes	-0.081	0.062	-0.91	-2.166	No	Yes	Yes	Yes	Yes	No	Yes	0.164	No	No	0.172	No	Yes	2.007	1.8	No	No	0.593	0.11
C[C@H](c1c(cc2)O)NCCc1c2-c(cc1)c(CCC=C2O)c2c1OC	337.419	4.1196	2	4	3	147.324	-3.134	1.244	90.692	-2.749	Yes	No	Yes	1.385	0.205	-0.075	-1.818	Yes	Yes	Yes	No	No	Yes	No	1.02	Yes	No	-0.075	No	Yes	2.594	1.174	Yes	No	0.316	0.989
C[C@@](CO)([C@H](C1)Oc(cc2O)c1c(N(C)c1c3cccc1)c2C3=O)O	341.363	1.4441	2	6	3	143.066	-3.651	0.057	78.467	-2.745	Yes	No	No	-0.028	0.042	-0.83	-2.64	No	Yes	Yes	No	No	No	No	0.497	No	Yes	0.13	No	Yes	2.04	1.58	Yes	No	0.327	2.451
CN(c(c1c2OC)cc3c2OCO3)c(c(OC)c(cc2)OC)c2C1=O	343.335	2.4462	3	7	0	142.772	-4.226	1.437	100	-2.74	No	No	No	-0.156	0.148	-0.856	-3.135	No	Yes	Yes	Yes	No	No	No	0.57	No	Yes	0.651	No	No	2.263	1.173	No	No	0.319	-0.093
CN(c1c2cccc1OC)c(c(OC)c1OCOc1c1OC)c1C2=O	343.335	2.4462	3	7	0	142.772	-4.149	1.413	100	-2.742	No	No	Yes	0.008	0.154	-0.851	-3.061	No	Yes	Yes	Yes	No	No	No	0.25	No	Yes	0.757	No	Yes	2.323	1.145	No	No	0.309	0.616
CN(CC1)[C@@H](Cc(c(-c2c3OC)c4O)ccc4OC)c2c1cc3OC	341.407	3.1701	3	5	1	147.291	-3.816	1.212	96.719	-2.908	Yes	Yes	No	1.129	0.109	0.126	-2.143	No	Yes	Yes	No	No	No	No	1.035	No	Yes	-0.066	No	Yes	2.655	1.705	Yes	No	0.48	0.609
CC(C)([C@H](CC1)[C@](C)(CC2)[C@H](C/C=C(/[C@H](CO3)O)\C3=O)[C@]11OC1)[C@H]2O	350.455	2.203	2	5	2	148.937	-3.9	1.105	96.062	-3.465	No	No	No	0.151	0.317	-0.24	-3.023	No	Yes	No	No	No	No	No	0.743	No	Yes	-0.14	No	No	2.687	2.05	No	No	0.431	1.469
Cc1cc(OC)c([C@@H](COc2c3cc(cco4)c4c2)C3=O)cc1OC	338.359	4.11732	3	5	0	144.650	-4.908	1.384	99.635	-2.707	No	Yes	Yes	-0.078	0.075	0.393	-1.921	No	Yes	Yes	Yes	Yes	No	No	0.568	No	No	0.478	No	Yes	2.726	1.473	No	No	0.517	-0.145
CC(C)(C=C1)Oc(cc2OC=C3c(cc4)ccc4O)c1c(O)c2C3=O	336.343	4.0554	1	5	2	142.968	-3.816	1.175	91.644	-2.758	Yes	No	Yes	0.169	0.064	-0.168	-1.817	No	Yes	Yes	Yes	Yes	Yes	Yes	0.132	No	No	0.189	No	Yes	2.272	0.536	Yes	No	0.436	-0.187
CC(C)(C=C1)Oc(cc2OC=C3c(cc4)ccc4O)c1c(O)c2C3=O	336.343	4.0554	1	5	2	142.968	-3.816	1.175	91.644	-2.758	Yes	No	Yes	0.169	0.064	-0.168	-1.817	No	Yes	Yes	Yes	Yes	Yes	Yes	0.132	No	No	0.189	No	Yes	2.272	0.536	Yes	No	0.436	-0.187
COc1cc(OC[C@@](C2)(c(cc3OC)c2cc3OC)C2=O)c2c(O)c1	342.347	2.4872	3	6	1	144.441	-4.311	1.211	99.014	-2.766	No	No	No	-0.316	0.071	-0.378	-3.089	No	Yes	Yes	Yes	No	No	Yes	0.388	No	No	0.396	No	No	2.432	1.678	No	No	0.325	-0.298
CC(C)(C=C1)Oc2c1c(O[C@@H](CC1=O)c3ccccc3)c1c(OC)c2	336.387	4.5859	2	4	0	146.574	-4.74	1.457	95.604	-2.756	No	Yes	No	-0.182	0.035	0.51	-1.56	No	Yes	Yes	Yes	Yes	No	Yes	0.088	No	No	0.727	No	No	2.447	1.821	No	No	0.37	0.458
CC(C)(CCC1)[C@@H](CC2)[C@@]1(C)[C@H](C/C=C(/[C@H]1OC1)\C(OC)=O)[C@@]21OC1	348.483	3.8863	4	4	0	150.827	-4.882	1.19	100	-3.741	No	Yes	No	0.321	0.108	-0.42	-2.137	No	Yes	No	No	No	No	No	0.73	No	No	-0.211	No	No	2.047	1.865	No	No	0.761	-0.162
CC(C)(CCC1)[C@H](CC2)[C@@]1(C)[C@H](C/C=C(/[C@@H]1OC1)\C(OC)=O)[C@]21OC1	348.483	3.8863	4	4	0	150.827	-4.882	1.19	100	-3.741	No	Yes	No	0.321	0.108	-0.42	-2.137	No	Yes	No	No	No	No	No	0.73	No	No	-0.211	No	No	2.047	1.865	No	No	0.761	-0.162
CC(OCCCCCCCC[C@@H](C#CC#C[C@@H](C=C)OC(C)=O)O)=O	348.439	2.7656	11	5	1	150.326	-3.917	0.933	96.234	-2.922	No	Yes	No	-0.392	0.223	-0.476	-2.997	No	Yes	No	No	No	No	No	1.893	Yes	No	-0.067	No	No	1.5	1.003	No	No	1.299	0.309
CCCCCCCCCCCCCCCCCCCCCCC(O)=O	354.619	8.283	21	1	1	157.724	-5.888	1.067	89.551	-2.718	No	No	Yes	-0.557	0.006	-0.414	-1.434	Yes	Yes	Yes	No	No	No	No	2.001	No	No	-0.896	No	No	1.609	3.71	Yes	Yes	0.3	-2.769
COC(CCCCCCCC(CCCCCCCO[Si](C)(C)C)=O)=O	372.622	5.6513	17	4	0	155.728	-5.84	1.093	92.385	-2.811	No	Yes	Yes	-0.023	0.094	-0.301	-2.882	No	Yes	No	No	No	No	No	1.765	No	No	0.109	No	No	1.928	0.043	No	No	1.398	-1.179
CC(C)CCC[C@@H](C)CCC[C@@H](C)CCC/C(/C)=C/COC(C)=O	338.576	6.9349	14	2	0	150.988	-7.689	1.179	93.275	-2.769	No	No	Yes	0.365	0	0.772	-1.607	No	Yes	Yes	No	No	No	No	1.684	No	No	0.174	No	No	1.622	2.927	No	Yes	1.587	-1.916
C[Si](C)(C)OCCCCCCCCC(CCCCCCC(O)=O)=O	358.595	5.5629	17	3	1	149.043	-4.78	0.397	91.773	-2.548	No	No	No	-0.714	0.117	-0.113	-2.948	No	Yes	No	No	No	No	No	1.678	No	No	-0.946	No	No	1.765	0.111	No	No	0.328	-1.879
C[C@@](CC1)([C@H](C[C@@H]2O)C(C)=O)[C@@H]2[C@H]2[C@H]1[C@@](C)(CC[C@H](C1)N)C1=CC2	331.5	3.4525	1	3	2	145.621	-3.533	0.898	92.772	-3.238	Yes	Yes	No	0.561	0.328	-0.164	-1.809	No	Yes	No	No	No	No	No	0.243	Yes	No	-0.901	No	No	2.549	1.556	Yes	No	0.556	1.3
CO[C@H](C1)C=CC2=CCN(C[C@@H](c3c4)OC)[C@]12c3cc(OC)c4O	329.396	2.5141	3	5	1	141.674	-2.982	1.267	94.37	-3.772	No	No	No	0.954	0.381	0.328	-2.921	No	Yes	No	No	No	No	No	0.993	No	No	-0.236	No	No	2.675	0.832	Yes	No	0.499	1.316
CN(CC1)[C@@H](Cc(cc(c(OC)c2)O)c2-c2c3OC)c2c1cc3O	327.38	2.8671	2	5	2	140.607	-3.535	1.029	96.335	-2.805	Yes	No	No	1.14	0.109	0.125	-2.151	No	Yes	Yes	No	No	No	No	1.039	No	No	0.019	No	Yes	1.738	1.864	No	No	0.417	1.12
Cc1cc(C(Oc(c-2c(cc3O)C(O4)=O)c3OC)=O)c2c4c1OC	328.276	2.52162	2	7	1	133.504	-3.522	-0.005	96.905	-2.749	No	No	Yes	-0.324	0.157	-0.805	-2.332	No	Yes	Yes	Yes	Yes	No	Yes	0.692	No	Yes	0.013	No	Yes	2.016	1.733	Yes	No	0.306	0.529
COc(cc1)cc(C(C(c2c3O)=O)=COc2cc2c3OCO2)c1O	328.276	2.6085	2	7	2	134.790	-3.768	0.613	94.574	-2.737	Yes	No	No	-0.438	0	-0.633	-3.207	No	Yes	Yes	Yes	No	No	Yes	0.51	No	No	0.032	No	Yes	2.186	2.243	No	No	0.298	0.638
COc(c(O)ccc1)c1C(C(c1c2O)=O)=COc1cc1c2OCO1	328.276	2.6085	2	7	2	134.790	-4.066	0.776	83.657	-2.735	Yes	No	Yes	-0.31	0.048	-0.462	-3.32	No	Yes	Yes	Yes	No	No	Yes	0.199	No	No	0.375	No	Yes	2.651	2.007	No	No	0.294	0.228
COc1cc(C[C@@]2(COc3c4c(O)cc(O)c3)C4=O)c2cc1OC	328.32	2.1842	2	6	2	137.757	-4.118	1.176	97.966	-2.752	Yes	No	No	-0.193	0.087	-0.248	-3.177	No	No	Yes	Yes	No	No	Yes	0.383	No	Yes	0.27	No	No	2.482	1.893	No	No	0.336	0.172
CC(C)(C=C1)Oc(cc2O)c1c(Oc(c1c3O)ccc3O)c2C1=O	326.304	3.2472	0	6	3	135.387	-3.871	1.313	85.353	-2.736	Yes	No	No	0.206	0.002	-1.117	-2.123	No	No	Yes	Yes	Yes	No	No	0.496	No	Yes	0.482	No	Yes	1.907	2.606	No	No	0.321	0.109
CC(C)(CC1)Oc2c1cc([C@H](C1)Oc(cc(cc3)O)c3C1=O)cc2	324.376	4.2023	1	4	1	140.579	-4.14	1.348	94.445	-2.907	No	Yes	No	0.158	0	0.301	-1.718	No	Yes	Yes	Yes	Yes	No	Yes	0.6	No	No	0.229	No	No	2.495	2.007	No	No	0.666	-0.091
C[C@H](CC[C@@]1([C@]2(C)CCC[C@]11C)OC1=O)[C@@]2(CCc1cocc1)O	332.44	3.8653	3	4	1	143.117	-3.966	1.416	94.865	-2.817	No	No	No	0.555	0.307	0.171	-2.851	No	Yes	No	No	No	No	Yes	0.728	No	No	-0.705	No	No	1.968	1.447	No	No	0.519	0.649
CN(CCc1cc2c3OCO2)c2c1c3c(cc1OCOc1c1)c1c2	321.332	3.4427	0	5	0	137.816	-3.82	0.857	99.099	-2.734	No	No	Yes	-0.235	0.176	0.13	-1.638	No	Yes	Yes	Yes	Yes	Yes	No	0.167	No	Yes	0.187	No	Yes	2.953	0.932	No	No	0.291	-0.162
CN(c(cccc1)c1C(c1c(c(OC)c2OC)OC)=O)c1c2OC	329.352	2.7261	4	6	0	138.665	-4.315	1.327	99.067	-2.648	Yes	Yes	Yes	-0.113	0.148	0.748	-2.28	No	Yes	Yes	Yes	No	No	No	0.359	No	Yes	0.545	No	Yes	1.953	2.251	Yes	No	0.371	-1.032
CN(c(cccc1)c1C(c1c(c(OC)c2OC)OC)=O)c1c2OC	329.352	2.7261	4	6	0	138.665	-4.315	1.327	99.067	-2.648	Yes	Yes	Yes	-0.113	0.148	0.748	-2.28	No	Yes	Yes	Yes	No	No	No	0.359	No	Yes	0.545	No	Yes	1.953	2.251	Yes	No	0.371	-1.032
CN(c(cccc1)c1C(c1c(c(OC)c2OC)OC)=O)c1c2OC	329.352	2.7261	4	6	0	138.665	-4.315	1.327	99.067	-2.648	Yes	Yes	Yes	-0.113	0.148	0.748	-2.28	No	Yes	Yes	Yes	No	No	No	0.359	No	Yes	0.545	No	Yes	1.953	2.251	Yes	No	0.371	-1.032
CN(C(C1(OC)OC)=C2[C@]1(C(OC)=O)OC)c(cccc1)c1C2=O	333.34	1.0124	4	7	0	138.234	-2.667	0.274	85.778	-2.859	No	No	No	-0.451	0.26	-0.798	-2.965	No	Yes	Yes	No	No	No	No	0.813	No	Yes	0.973	No	No	2.755	1.096	Yes	No	0.319	0.586
CN(C(C1(OC)OC)=C2[C@@]1(C(OC)=O)OC)c(cccc1)c1C2=O	333.34	1.0124	4	7	0	138.234	-2.667	0.274	85.778	-2.859	No	No	No	-0.451	0.26	-0.798	-2.965	No	Yes	Yes	No	No	No	No	0.813	No	Yes	0.973	No	No	2.755	1.096	Yes	No	0.319	0.586
COc(ccc(C(Oc(c1c2O)cc(O)c2OC)=CC1=O)c1)c1O	330.292	2.594	3	7	3	135.476	-3.576	0.496	73.839	-2.736	Yes	No	Yes	-0.066	0.063	-1.305	-3.322	No	No	Yes	No	Yes	No	No	0.624	No	No	0.553	No	Yes	2.331	2.143	No	No	0.332	0.047
COc1cc(O)cc(OC(Oc(cc2)ccc2O)=C2OC)c1C2=O	330.292	3.0137	4	7	2	135.795	-3.532	1.204	91.132	-2.756	Yes	No	Yes	0.003	0.072	-0.604	-3.257	No	No	Yes	No	No	No	No	0.794	No	No	0.402	No	Yes	2.146	2.017	No	No	0.331	1.154
Cc(c(O)c(c(OC(Oc(cc1)ccc1O)=C1O)c2)C1=O)c2OC	330.292	3.01912	3	7	3	135.476	-3.85	0.948	77.034	-2.737	Yes	No	No	0.405	0.084	-1.35	-3.152	No	No	Yes	No	Yes	No	No	0.713	No	No	0.82	No	Yes	2.017	1.952	No	No	0.302	1.644
COc1cc(C(Oc(cc(cc2)O)c2C2=O)=C2O)cc(OC)c1O	330.292	2.594	3	7	3	135.476	-3.44	0.309	82.654	-2.735	Yes	No	Yes	0.681	0.066	-1.186	-3.212	No	No	Yes	No	No	No	No	0.568	No	No	0.619	No	No	2.191	2.386	No	No	0.352	0.912
COc(c(O)ccc1)c1C(C(c1c2OC)=O)=COc1cc(O)c2O	330.292	2.594	3	7	3	135.476	-4.346	0.245	74.505	-2.735	Yes	No	No	-0.567	0	-1.176	-3.471	No	No	Yes	Yes	No	No	No	0.274	No	No	0.719	No	Yes	2.286	2.204	No	No	0.292	0.644
COc(c(O)ccc1)c1C(C(c1c2OC)=O)=COc1cc(O)c2O	330.292	2.594	3	7	3	135.476	-4.346	0.245	74.505	-2.735	Yes	No	No	-0.567	0	-1.176	-3.471	No	No	Yes	Yes	No	No	No	0.274	No	No	0.719	No	Yes	2.286	2.204	No	No	0.292	0.644
COc(cc(c1c2O)OC=C(c(cccc3O)c3OC)C1=O)c2O	330.292	2.594	3	7	3	135.476	-3.604	0.306	80.164	-2.736	Yes	No	No	0.031	0.014	-1.185	-3.299	No	No	Yes	No	No	No	No	0.247	No	No	0.438	No	Yes	2.21	2.135	No	No	0.342	0.859
COc(cc(c1c2O)OC=C(c(cccc3O)c3OC)C1=O)c2O	330.292	2.594	3	7	3	135.476	-3.604	0.306	80.164	-2.736	Yes	No	No	0.031	0.014	-1.185	-3.299	No	No	Yes	No	No	No	No	0.247	No	No	0.438	No	Yes	2.21	2.135	No	No	0.342	0.859
COc(cc(c1c2OC=C(c(cccc3O)c3OC)C1=O)O)c2O	330.292	2.594	3	7	3	135.476	-3.44	-0.025	77.619	-2.735	Yes	No	No	0.467	0.045	-1.024	-3.113	No	No	Yes	No	No	No	No	0.19	No	No	0.528	No	No	2.29	2.457	No	No	0.375	1.246
CC(C)(CCC1)[C@H](CC2)[C@]1(C)[C@@H](Cc1cocc1OC(C)=O)C2=C	330.468	5.5462	3	3	0	145.004	-6.025	1.622	97.986	-2.743	No	Yes	No	0.406	0	0.221	-2.017	No	Yes	No	No	No	No	No	0.884	No	No	0.237	No	No	2.312	2.086	No	No	2.2	-0.88
CC(C)(CCC1)[C@@H](CC2)[C@@]1(C)[C@H](CC1)[C@]2(C)OCC[C@@H]1OC(C)=O	336.516	5.1199	1	3	0	147.409	-5.412	1.2	97.211	-2.894	No	Yes	No	0.378	0.143	0.226	-2.72	No	Yes	No	Yes	No	No	No	0.685	No	No	-0.192	No	No	1.81	1.847	No	No	1.265	0.298
CC(C)(CCC1)[C@@H](CC2)[C@@]1(C)[C@H](CC1)[C@]2(C)OCC[C@@H]1C(OC)=O	336.516	4.9774	1	3	0	147.409	-5.482	1.223	97.822	-2.867	No	Yes	No	0.386	0.129	0.207	-2.57	No	Yes	No	Yes	No	No	Yes	0.666	No	No	-0.17	No	No	1.784	1.877	No	No	1.283	-0.097
CC(C)=CCc(c(O)c1OC)cc2c1Oc(cccc1O)c1C2=O	326.348	3.8747	3	5	2	137.963	-3.987	1.267	96.188	-2.791	Yes	No	Yes	0.319	0.008	-0.073	-2.057	No	Yes	Yes	Yes	Yes	No	Yes	0.307	No	Yes	0.368	No	Yes	1.972	1.826	No	No	0.505	-0.117
CC(/C=C/c(c(O)c1OC)cc2c1Oc(cccc1O)c1C2=O)=C	324.332	3.9553	3	5	2	137.274	-4.006	1.236	95.748	-2.789	Yes	No	Yes	0.305	0.008	-0.075	-2.038	No	Yes	Yes	Yes	Yes	No	Yes	0.302	No	Yes	0.278	No	Yes	1.967	1.814	No	No	0.505	-0.103
CC(C)=CCc(c(O)c(c(Oc(cc1)c2cc1OC)c1)C2=O)c1O	326.348	3.8747	3	5	2	137.963	-4.129	1.083	94.438	-2.853	Yes	Yes	Yes	-0.017	0.06	-0.126	-2.083	No	No	Yes	Yes	Yes	No	Yes	0.357	No	Yes	0.221	No	Yes	1.992	1.637	Yes	No	0.589	-0.274
CC(C)=CCc(c(Oc(cc1)c2cc1OC)c(c(O)c1)C2=O)c1O	326.348	3.8747	3	5	2	137.963	-4.11	1.314	95.122	-2.752	Yes	Yes	Yes	0.113	0.055	-0.29	-2.1	No	No	Yes	Yes	Yes	No	No	0.308	No	Yes	0.527	No	Yes	1.937	1.753	No	No	0.602	-0.216
CC(C)(C=C)c(c(O)c(c(Oc(cc1)c2cc1OC)c1)C2=O)c1O	326.348	3.8296	3	5	2	137.963	-4.254	1.064	94.88	-2.894	Yes	No	No	-0.01	0.092	-0.156	-2.08	No	No	Yes	Yes	Yes	No	Yes	0.416	No	Yes	0.273	No	Yes	2.049	1.601	Yes	No	0.646	-0.317
CC(C)(C=C)c(c(Oc(cc1)c2cc1OC)c(c(O)c1)C2=O)c1O	326.348	3.8296	3	5	2	137.963	-4.092	1.383	95.324	-2.762	Yes	No	Yes	0.191	0.088	-0.291	-2.092	No	No	Yes	Yes	Yes	No	No	0.368	No	Yes	0.576	No	No	2.008	1.745	No	No	0.674	-0.228
COc(cc1)ccc1OC(Oc(cc(cc1)OC)c1C1=O)=C1OC	328.32	3.6111	5	6	0	137.686	-4.409	1.284	96.126	-2.588	No	Yes	Yes	-0.257	0.06	0.274	-2.262	No	Yes	Yes	Yes	Yes	No	No	0.768	Yes	No	0.592	No	No	2.158	1.487	No	No	0.482	-0.052
COc(cc(c1c2O)OC[C@H](Cc(cc3)ccc3O)C1=O)c2OC	330.336	2.549	4	6	2	138.763	-3.538	1.442	92.907	-2.84	Yes	No	No	-0.067	0.037	-0.231	-3.009	No	Yes	No	No	No	No	Yes	0.036	No	No	-0.502	No	Yes	1.815	2.056	No	No	0.417	0.232
CC(C)(C=C)c(c(Oc(cc1O)c2cc1O)c(c(O)c1)C2=O)c1O	328.32	3.2322	2	6	4	136.073	-3.248	0.229	80.476	-2.735	Yes	No	No	0.228	0.073	-1.269	-2.357	No	No	Yes	No	Yes	No	No	0.355	No	Yes	0.703	No	Yes	2.083	2.412	No	No	0.35	0.279
CC(C)(C=C)c(c(Oc(cc1O)c2cc1O)c(c(O)c1)C2=O)c1O	328.32	3.2322	2	6	4	136.073	-3.248	0.229	80.476	-2.735	Yes	No	No	0.228	0.073	-1.269	-2.357	No	No	Yes	No	Yes	No	No	0.355	No	Yes	0.703	No	Yes	2.083	2.412	No	No	0.35	0.279
CC(C)=CCc(c(O)c(c(Oc(cc1O)c2cc1O)c1)C2=O)c1O	328.32	3.2773	2	6	4	136.073	-3.383	0.626	80.451	-2.735	Yes	No	No	0.09	0.041	-1.269	-2.355	No	No	Yes	No	Yes	No	No	0.335	No	Yes	0.657	No	Yes	2.017	2.54	No	No	0.326	0.243
CC(C)(C=C1)Oc(cc2)c1c(O)c2C(/C=C/c(cc1)ccc1O)=O	322.36	4.1781	3	4	2	139.887	-3.937	0.716	90.842	-3.016	Yes	Yes	No	0.148	0.007	0.177	-1.862	No	Yes	Yes	Yes	Yes	No	Yes	-0.026	No	No	-0.456	No	Yes	1.979	1.613	No	No	0.981	-0.462
CC(C)(CCC1)[C@H](CC2)[C@@]1(C)[C@@H]([C@H](C=C(C1)C=O)OO[C@@H]1O)C2=C	334.456	3.9494	2	4	1	144.389	-4.99	1.426	96.821	-3.191	No	Yes	No	0.115	0.116	-0.058	-1.874	No	No	No	No	No	No	No	0.965	Yes	No	-0.196	No	No	1.902	1.901	No	No	0.556	0.177
CC(C)(CC1)Oc2c1cc(/C=C/C(c(ccc(O)c1)c1O)=O)cc2	324.376	4.0975	3	4	2	140.576	-3.993	0.849	91.972	-3.115	Yes	Yes	No	0.056	0.057	0.307	-1.977	No	Yes	Yes	Yes	Yes	No	Yes	0.047	No	No	-0.134	No	Yes	2.116	1.873	No	No	0.992	-0.277
CC(C)(C=C1)Oc2c1cc(/C=C/C(c(ccc(O)c1)c1O)=O)cc2	322.36	4.1781	3	4	2	139.887	-4.01	0.842	91.753	-3.112	Yes	Yes	No	0.055	0.056	0.308	-1.96	No	Yes	Yes	Yes	Yes	No	Yes	0.113	No	No	-0.129	No	Yes	2.121	1.878	No	No	0.992	-0.274
C[C@H](C[C@H]([C@@H]1[C@]2(C)CCC[C@]1(C)CO)O)[C@@]2(CCc1cocc1)O	336.472	3.149	4	4	3	144.436	-3.388	1.129	94.454	-3.2	Yes	Yes	No	0.118	0.281	-0.624	-2.365	No	Yes	No	No	No	No	No	0.956	No	No	-0.098	No	No	2.573	1.651	No	No	1.114	0.415
Oc(c(O)c1)cc(-c(ccc(c2c3)cc4c3OCO4)c2N2)c1C2=O	321.288	2.9744	0	5	3	134.032	-3.695	0.29	96.256	-2.738	Yes	No	No	-0.681	0.064	-0.954	-2.143	No	No	Yes	Yes	No	No	No	0.094	No	Yes	0.197	No	Yes	2.841	0.844	Yes	No	0.288	0.533
COc1ccc([C@H]([C@@H]2CO3)Oc4c2cc2OCOc2c4)c3c1OC	328.32	3.0422	2	6	0	138.342	-4.187	1.341	97.746	-2.738	No	No	No	-0.56	0.067	-0.089	-3.016	No	Yes	Yes	Yes	Yes	No	No	0.333	No	Yes	0.573	No	No	2.891	1.48	No	No	0.308	0.26
CC(C)(C=C1)Oc2c1c(O[C@@H]1c(ccc(O)c3)c3OC[C@@H]11)c1cc2	322.36	4.1861	0	4	1	139.836	-4.033	1.361	95.186	-2.787	No	No	No	0.007	0.082	0.046	-1.595	No	Yes	Yes	Yes	Yes	No	Yes	0.134	No	Yes	-0.156	No	Yes	2.742	1.597	No	No	0.412	-0.011
CC(C)(C=C1)Oc2c1cc([C@@H](COc1c3ccc(O)c1)[C@H]3O1)c1c2	322.36	4.1861	0	4	1	139.836	-4.027	1.341	96.455	-2.832	No	No	No	0.326	0.046	-0.231	-1.762	No	Yes	Yes	Yes	Yes	No	Yes	0.257	No	Yes	-0.057	No	Yes	2.852	1.383	No	No	0.47	-0.115
CC(C)=CCC/C(/C)=C/C[C@](CC(OC)=O)(C[C@@H](C=C1)O)C1=O	320.429	3.5086	7	4	1	138.464	-4.065	1.135	94.909	-2.979	No	Yes	No	0.053	0.231	-0.131	-2.448	No	No	No	No	No	No	No	1.57	No	No	0.385	No	No	1.924	1.996	No	No	1.301	0.38
C[C@H](C[C@H]1[C@@]2([C@H]3C[C@@H](CC4)C5=C)C=NC[C@]1(C)CCC2)[C@@]34[C@@H]5O	313.485	4.2368	0	2	1	140.009	-5.021	1.486	99.4	-2.962	No	Yes	No	0.36	0.016	-0.088	-1.993	No	Yes	Yes	Yes	Yes	No	Yes	0.525	No	No	-0.409	No	Yes	2.315	0.992	Yes	No	0.393	-0.299
CO[C@H](C[C@@]12N3CCc4c1cc1OCOc1c4)C=CC2=CC3=O	311.337	1.9102	1	4	0	133.670	-3.562	1.299	97.81	-3.416	No	No	No	0.44	0.232	-0.191	-2.634	No	Yes	No	No	No	No	No	0.257	No	No	-0.726	No	No	2.901	1.556	Yes	No	0.545	0.783
COc(c(O1)c2-c(c(O3)c4OCOc4c4)c4C1=O)ccc2C3=O	312.233	2.2277	1	7	0	126.453	-3.345	1.143	100	-2.732	No	No	Yes	-0.09	0.289	-0.931	-2.449	No	Yes	Yes	Yes	No	No	Yes	0.654	No	Yes	0.02	No	No	1.865	0.747	Yes	No	0.291	-0.497
OC[C@@H]1Oc2cc(OC[C@@H]3c(ccc(O)c4)c4O[C@@H]33)c3cc2C1	312.321	2.2977	1	5	2	132.590	-3.483	1.233	95.185	-2.833	No	No	No	-0.078	0.111	-0.232	-2.325	No	Yes	Yes	Yes	No	No	Yes	0.323	No	Yes	-0.249	No	Yes	2.588	1.596	No	No	0.428	0.552
C[C@@](CO)([C@@H](CC1)[C@@](C)(CC2)[C@@H](C[C@@H]3[C@H]4[C@@H]3C3=O)[C@@]13C4=O)C2=O	316.397	1.7845	1	4	1	135.558	-3.923	1.049	100	-3.988	Yes	No	No	0.275	0.215	0.134	-2.953	No	Yes	No	No	No	No	No	0.479	No	No	-0.455	No	No	2.645	2.675	No	No	0.348	0.968
CN(c(cccc1)c1C(c1c(c(OC)c2OC)O)=O)c1c2OC	315.325	2.4231	3	6	1	131.981	-3.879	1.326	96.323	-2.732	Yes	No	Yes	-0.254	0.15	-0.593	-2.286	No	Yes	Yes	Yes	No	No	No	0.307	No	Yes	0.578	No	Yes	1.888	2.265	No	No	0.339	-0.751
CN(c(cccc1)c1C(c1c(c(OC)c2OC)O)=O)c1c2OC	315.325	2.4231	3	6	1	131.981	-3.879	1.326	96.323	-2.732	Yes	No	Yes	-0.254	0.15	-0.593	-2.286	No	Yes	Yes	Yes	No	No	No	0.307	No	Yes	0.578	No	Yes	1.888	2.265	No	No	0.339	-0.751
COc(c(O)c(c(OC(c(cc1)cc(O)c1O)=C1)c2)C1=O)c2O	316.265	2.291	2	7	4	128.792	-3.49	0.305	77.41	-2.735	Yes	No	No	0.074	0.067	-1.36	-3.495	No	No	Yes	No	No	No	No	0.567	No	Yes	0.712	No	No	2.409	1.765	No	No	0.31	0.826
COc(cc1)ccc1OC(Oc(cc(cc1O)O)c1C1=O)=C1O	316.265	2.7107	3	7	3	129.111	-3.21	0.36	75.899	-2.735	Yes	No	No	0.145	0	-1.352	-3.304	No	Yes	Yes	No	No	No	No	0.631	No	No	0.428	No	No	2.071	2.891	No	No	0.357	1.11
