SMILES	MOL_WEIGHT	LOGP	#ROTATABLE_BONDS	#ACCEPTORS	#DONORS	SURFACE_AREA	Water solubility	Caco2 permeability	Intestinal absorption (human)	Skin Permeability	P-glycoprotein substrate	P-glycoprotein I inhibitor	P-glycoprotein II inhibitor	VDss (human)	Fraction unbound (human)	BBB permeability	CNS permeability	CYP2D6 substrate	CYP3A4 substrate	CYP1A2 inhibitior	CYP2C19 inhibitior	CYP2C9 inhibitior	CYP2D6 inhibitior	CYP3A4 inhibitior	Total Clearance	Renal OCT2 substrate	AMES toxicity	Max. tolerated dose (human)	hERG I inhibitor	hERG II inhibitor	Oral Rat Acute Toxicity (LD50)	Oral Rat Chronic Toxicity (LOAEL)	Hepatotoxicity	Skin Sensitisation	<i>T.Pyriformis</i> toxicity	Minnow toxicity
C[C@@](CO)([C@@H]1[C@@](C)(CC2)[C@@H](C[C@H]3[C@@H](C4)[C@H]3C3)[C@]34CC1)C2=O	288.431	3.4265	1	2	1	127.235	-4.617	1.535	95.365	-3.022	Yes	Yes	No	0.237	0.091	0.19	-1.313	No	Yes	No	No	No	No	No	0.497	No	No	-0.855	No	No	2.713	1.791	No	No	0.405	0.586
N#C[C@H](c1ccccc1)O[C@@H]([C@@H]([C@H]1O)O)O[C@@H](CO)[C@H]1O	295.291	-0.93222	4	7	4	121.142	-1.097	0.17	50.629	-2.991	No	No	No	-0.663	0.635	-1.189	-3.846	No	No	No	No	No	No	No	0.235	No	Yes	1.486	No	No	2.682	3.596	No	No	0.285	3.074
CC(C)(/C=C/c(c(OC(C=C1)=O)c1c(OC)c1)c1OC)O	290.315	2.5943	4	5	1	121.966	-3.611	1.243	96.285	-2.984	Yes	No	No	0.006	0.303	-0.362	-2.811	No	No	Yes	Yes	No	No	No	0.842	No	Yes	0.815	No	No	2.124	1.447	No	No	0.887	0.619
CC(C)(CCC1)[C@@H](CC2)[C@@]1(C)[C@@H](CC=C(C=O)C=O)C2=C	288.431	4.4995	4	2	0	128.240	-5.696	1.468	100	-2.686	No	Yes	No	0.255	0.003	0.058	-1.734	No	Yes	Yes	No	No	No	No	1.262	No	No	-0.158	No	No	1.701	2.32	Yes	Yes	1.109	-0.862
Cc(c(O)c(C)c(O)c1C(/C=C/c2ccccc2)=O)c1O	284.311	3.31634	3	4	3	122.168	-3.333	1.001	95.449	-2.854	Yes	No	No	-0.448	0.121	-1.014	-2.257	No	No	Yes	Yes	Yes	No	No	0.206	No	Yes	0.409	No	No	2.258	2.12	No	No	0.46	0.463
Oc(ccc(/C=C/CC#Cc(cc1)cc(O)c1O)c1)c1O	282.295	2.964	2	4	4	121.800	-3.335	1.016	87.527	-2.763	Yes	No	No	0.058	0.156	-0.713	-2.203	No	Yes	Yes	Yes	No	No	Yes	0.159	No	No	0.215	No	Yes	1.978	1.574	No	No	0.744	0.14
CC(C)/C=C/[C@H](C/C(/C)=C/CC[C@](C)(C=C)O)OC(C)=O	294.435	4.1839	9	3	1	128.944	-4.62	1.467	93.172	-2.433	No	Yes	No	0.056	0.188	0.048	-2.176	No	No	No	No	Yes	No	No	1.805	No	No	0.34	No	No	1.581	2.341	No	Yes	2.149	0.055
CC(C)CCC[C@@H](C)CCC[C@@H](C)CCC[C@H](C)CCO	298.555	6.444	14	1	1	134.467	-7.584	1.513	90.985	-2.625	No	No	Yes	0.502	0	0.829	-1.62	No	Yes	Yes	No	No	No	No	1.616	No	No	0.184	No	Yes	1.6	1.009	No	Yes	1.829	-1.681
CC(C)CCC[C@@H](C)CCC[C@@H](C)CCC/C(/C)=C/CO	296.539	6.3641	13	1	1	133.778	-7.546	1.52	91.162	-2.569	No	No	Yes	0.478	0	0.811	-1.566	No	Yes	Yes	No	No	No	No	1.686	No	No	0.133	No	Yes	1.603	1.043	No	Yes	1.903	-1.59
CC/C=C(/C)\CCC[C@H](C)CCC[C@H](C)CCCC(C)C	294.567	7.7818	13	0	0	135.348	-8.783	1.431	92.803	-2.618	No	No	Yes	0.658	0	0.97	-1.218	No	Yes	Yes	No	No	No	No	1.694	No	No	0.158	No	Yes	1.551	1.203	No	Yes	1.378	-2.334
CCCCCCCCCCCCCCC[C@H](CC)CCC	296.583	8.294	17	0	0	136.038	-8.661	1.378	90.07	-2.781	No	No	Yes	0.632	0	1.017	-1.254	No	Yes	Yes	No	No	No	No	1.993	No	No	-0.003	No	Yes	1.61	1.118	No	Yes	0.91	-2.512
Nc1nccc(-c(nccc2c3c4cccc3)c2n4O)n1	277.287	2.466	1	6	2	119.018	-2.732	1.203	95.326	-2.737	No	No	No	0.484	0.213	-0.517	-2.301	No	Yes	Yes	No	No	No	Yes	0.51	No	Yes	0.131	No	No	2.635	0.732	Yes	No	0.288	1.255
CN(c(cccc1)c1C(c1c2OC)=O)c1cc1c2OCO1	283.283	2.429	1	5	0	119.816	-4.097	1.303	99.404	-2.58	No	No	Yes	-0.04	0.174	0.842	-2.07	No	Yes	Yes	Yes	No	No	No	0.263	No	Yes	0.151	No	No	1.904	1.729	No	No	0.465	-0.815
CN(c(cccc1)c1C(c1c2OC)=O)c1cc1c2OCO1	283.283	2.429	1	5	0	119.816	-4.097	1.303	99.404	-2.58	No	No	Yes	-0.04	0.174	0.842	-2.07	No	Yes	Yes	Yes	No	No	No	0.263	No	Yes	0.151	No	No	1.904	1.729	No	No	0.465	-0.815
O[C@]1(c2ccccc2)N(CCN2)[C@@H]2Nc2c1cccc2	267.332	1.4943	1	4	3	117.590	-3.131	1.145	90.269	-2.748	Yes	No	No	1.511	0.444	0.081	-1.418	Yes	Yes	Yes	No	No	Yes	No	0.846	Yes	Yes	0.329	No	Yes	2.783	1.428	No	No	0.279	1.201
COc(c1cc2c3OCO2)c(cco2)c2nc1c3OC	273.244	2.7269	2	6	0	113.352	-3.239	1.177	96.72	-2.718	No	No	No	-0.213	0.187	0.076	-2.386	No	Yes	Yes	No	No	No	No	0.523	No	Yes	0.173	No	No	2.65	0.653	Yes	No	0.358	0.608
CN(C1=CC(O)=C(C=CC=C2)C2=N[C@@H]11)c2c1cccc2	262.312	2.061	0	3	1	116.372	-3.111	1.315	97.273	-2.891	No	No	No	0.328	0.13	0.244	-0.944	No	Yes	Yes	Yes	No	No	No	0.457	No	Yes	-0.279	No	Yes	2.501	1.815	No	No	0.829	1.256
CC(C)CCC[C@H](C)CCCCCCC/C(/C)=C/CO	282.512	6.1181	13	1	1	127.413	-7.425	1.507	90.311	-2.547	No	No	Yes	0.448	0.007	0.805	-1.507	No	Yes	Yes	No	No	No	No	1.726	No	No	0.012	No	Yes	1.592	1.094	No	Yes	1.913	-1.393
OCCCCCCCC(CCCCCCCC(O)=O)=O	286.412	3.7037	15	3	2	122.125	-4.129	0.692	91.674	-2.418	No	No	No	-0.824	0.228	-0.545	-3.244	No	Yes	No	No	No	No	No	1.84	No	No	-0.933	No	No	1.511	2.798	No	Yes	0.317	-0.649
OCCCCCCCCC(CCCCCCC(O)=O)=O	286.412	3.7037	15	3	2	122.125	-4.129	0.692	91.674	-2.418	No	No	No	-0.824	0.228	-0.545	-3.244	No	Yes	No	No	No	No	No	1.84	No	No	-0.932	No	No	1.51	2.798	No	Yes	0.317	-0.649
CC(C)(/C=C/c(c(OC(C=C1)=O)c1c(C)c1)c1OC)O	274.316	2.89412	3	4	1	116.852	-3.298	1.29	95.491	-2.82	Yes	No	No	0.051	0.293	-0.012	-2.767	No	No	Yes	Yes	No	No	No	0.883	No	No	0.634	No	No	2.003	1.304	No	No	1.196	0.721
Oc1ccc([C@@H](CC2=O)Oc3c2c(O)cc(O)c3)cc1	272.256	2.5099	1	5	3	114.235	-3.345	1.049	90.141	-2.804	Yes	No	No	-0.417	0.135	-0.85	-2.282	No	No	Yes	Yes	No	No	Yes	0.142	No	No	0.571	No	No	1.997	2.184	No	No	0.448	0.8
Oc(cc1)ccc1C(Oc1c2c(O)cc(O)c1)=CC2=O	270.24	2.5768	1	5	3	112.519	-3.309	1.053	92.085	-2.912	Yes	No	No	-0.306	0.193	-1.02	-2.165	No	No	Yes	Yes	No	No	Yes	0.617	No	No	0.597	No	Yes	2.065	1.766	No	No	0.525	0.451
Oc(cc1)ccc1C(Oc1c2c(O)cc(O)c1)=CC2=O	270.24	2.5768	1	5	3	112.519	-3.309	1.053	92.085	-2.912	Yes	No	No	-0.306	0.193	-1.02	-2.165	No	No	Yes	Yes	No	No	Yes	0.617	No	No	0.597	No	Yes	2.065	1.766	No	No	0.525	0.451
Oc(cc1)ccc1C(Oc1c2c(O)cc(O)c1)=CC2=O	270.24	2.5768	1	5	3	112.519	-3.309	1.053	92.085	-2.912	Yes	No	No	-0.306	0.193	-1.02	-2.165	No	No	Yes	Yes	No	No	Yes	0.617	No	No	0.597	No	Yes	2.065	1.766	No	No	0.525	0.451
C=C[C@@](COC1=O)([C@H](C[C@@H]([C@H]2OC3=O)C3=C)O)[C@H]2C1=C	276.288	0.7504	1	5	1	116.107	-2.634	0.06	75.523	-3.988	No	No	No	0.092	0.513	-0.113	-2.902	No	No	No	No	No	No	No	0.682	No	Yes	0.67	No	No	2.114	1.447	No	No	0.391	2.424
C[C@H](C[C@H]([C@@H]1C2=C)OC2=O)[C@H]([C@H](C[C@H]2O)O)[C@]2(C)[C@H]1O	282.336	0.2329	0	5	3	117.799	-2.676	0.221	45.01	-3.799	Yes	No	No	-0.21	0.58	-0.666	-3.753	No	No	No	No	No	No	No	1.146	No	No	1.046	No	No	1.969	2.58	No	No	0.29	2.515
C=C([C@@H]([C@@H](C[C@H]1C(CO)=CC=C[C@]11CO)O2)[C@H]1O)C2=O	278.304	-0.0678	2	5	3	116.420	-2.654	0.606	65.039	-4.014	No	No	No	-0.176	0.591	-0.595	-3.459	No	No	No	No	No	No	No	0.421	No	No	0.711	No	No	1.802	2.56	No	No	0.246	3
O[C@@H](C1)[C@@H](c(cc2)ccc2O)Oc2c1c(O)cc(O)c2	274.272	1.8405	1	5	4	114.868	-3.194	1.089	89.04	-2.783	Yes	No	No	0.026	0.235	-0.944	-2.465	No	No	Yes	No	No	No	No	0.253	No	No	0.105	No	No	2.076	1.648	No	No	0.723	1.093
Oc(cc1)ccc1C1=COc(cc(cc2O)O)c2C1=O	270.24	2.5768	1	5	3	112.519	-3.636	0.892	89.473	-2.75	Yes	No	No	-0.584	0.059	-0.958	-2.142	No	Yes	Yes	Yes	No	No	Yes	0.216	No	No	0.462	No	No	1.879	1.728	No	No	0.573	1.167
Cc1cc(O)cc(Oc2c3c(O)cc(OC)c2)c1C3=O	272.256	2.67442	1	5	2	113.193	-3.041	0.984	95.697	-2.88	Yes	No	No	0.087	0.201	-0.174	-2.122	No	No	Yes	Yes	Yes	No	No	0.671	No	Yes	0.448	No	No	2.07	1.439	No	No	0.57	0.761
Cc(cc1C(c2cc(O)cc(O)c22)=O)cc(O)c1C2=O	270.24	1.88722	0	5	3	113.283	-3.01	0.441	69.247	-2.768	Yes	No	No	0.115	0.208	-0.84	-2.271	No	No	Yes	No	No	No	No	0.347	No	Yes	0.329	No	No	2.017	2.275	No	No	0.398	1.492
O=C(c1c2cc3OCOc3c1)N1[C@H]3C2=CCC=C3CC1	267.284	2.3569	0	3	0	115.827	-3.221	1.477	95.465	-3.585	No	No	No	0.822	0.303	0.421	-2.603	No	Yes	Yes	No	No	No	No	-0.013	Yes	No	-0.845	No	No	2.452	1.194	No	No	0.7	0.782
COc(cc1c(OC)c(cco2)c2nc1c1)c1OC	259.261	3.0068	3	5	0	109.244	-3.286	1.39	97.493	-2.62	No	No	No	0.023	0.245	0.002	-2.876	No	Yes	Yes	No	No	No	Yes	0.791	No	Yes	0.333	No	No	2.587	0.633	No	No	0.499	0.939
CO[C@@H](c1c(Nc2c3OC)occ1)c2ccc3OC	261.277	3.0896	3	5	1	110.627	-3.188	1.272	93.219	-3.146	No	No	No	0.164	0.195	0.101	-2.221	No	No	Yes	Yes	No	No	No	0.257	No	Yes	0.287	No	No	3.132	0.732	No	No	0.936	0.585
COc1ccc(c(OC)c(cco2)c2n2)c2c1OC	259.261	3.0068	3	5	0	109.244	-3.36	1.378	97.967	-2.594	No	No	No	0.046	0.245	0.586	-2.859	No	Yes	Yes	No	No	No	Yes	0.757	No	Yes	0.302	No	No	2.562	0.66	No	No	0.506	1.022
COc1ccc(c(OC)c(cco2)c2n2)c2c1OC	259.261	3.0068	3	5	0	109.244	-3.36	1.378	97.967	-2.594	No	No	No	0.046	0.245	0.586	-2.859	No	Yes	Yes	No	No	No	Yes	0.757	No	Yes	0.302	No	No	2.562	0.66	No	No	0.506	1.022
COc1ccc(c(OC)c2occc2n2)c2c1OC	259.261	3.0068	3	5	0	109.244	-3.215	1.383	97.586	-2.563	No	No	No	0.018	0.258	0.653	-2.865	No	Yes	Yes	No	No	No	Yes	0.766	No	Yes	0.176	No	No	2.575	0.665	No	No	0.477	1.395
COc(cc(nc12)OC)c1nc1OCCc1c2OC	262.265	1.5905	3	6	0	109.825	-2.125	1.547	99.321	-2.722	No	No	No	-0.327	0.34	1.018	-2.993	No	No	Yes	No	No	No	No	0.744	No	No	1.238	No	No	3.052	1.296	Yes	No	0.294	1.11
C[C@@H]([C@@H](C(c1c2c(O)c3OCOc3c1O)=O)O)C2=O	266.205	0.2025	0	7	3	106.542	-2.315	0.66	48.234	-2.761	Yes	No	No	1.147	0.5	-1.109	-2.994	No	No	No	No	No	No	No	-0.207	No	No	-0.998	No	No	1.785	2.83	No	No	0.294	2.723
Cc(occ1C(c2c3c(O)ccc2OC)=O)c1C3=O	258.229	2.07762	1	5	1	107.968	-3.103	1.303	95.442	-3.172	Yes	No	No	0.09	0.331	-0.281	-2.181	No	No	Yes	No	No	No	No	0.434	No	Yes	0.396	No	No	2.326	1.42	Yes	No	0.932	1.334
Cc1cc(O)cc(Oc2c3c(O)cc(O)c2)c1C3=O	258.229	2.37142	0	5	3	106.509	-2.96	0.966	95.863	-2.75	Yes	No	No	-0.083	0.172	-0.973	-2.203	No	No	Yes	Yes	Yes	No	No	0.604	No	Yes	0.632	No	No	1.971	1.545	No	No	0.436	0.946
C[C@@H]([C@@H](C(c(c1cc2c3OCO2)c3OC)=O)O)C1=O	264.233	0.7999	1	6	1	108.432	-2.589	0.731	76.603	-3.239	No	No	No	0.059	0.421	-0.445	-2.916	No	No	No	No	No	No	No	-0.106	No	No	0.612	No	No	2.032	1.964	No	No	0.535	2.517
OCc(occ1C(c2c3c(O)ccc2O)=O)c1C3=O	260.201	0.9585	1	6	3	106.078	-2.717	-0.34	68.728	-3.007	Yes	No	No	0.301	0.393	-1.036	-2.578	No	No	No	No	No	No	No	0.393	No	No	-0.016	No	No	2.04	1.885	No	No	0.514	2.111
C[C@H]([C@H]([C@@H](C[C@H](C)[C@@H](C1)C2=C(C)C1=O)O1)[C@@H]2O)C1=O	264.321	1.4703	0	4	1	112.372	-2.847	0.641	98.302	-3.924	No	No	No	0.106	0.445	-0.163	-2.91	No	No	No	No	No	No	No	1.074	No	Yes	0.506	No	No	1.858	2.536	No	No	0.604	1.86
C[C@@H]([C@H](CC[C@](C)([C@@H](C1)C2=C(C)C1=O)O)[C@@H]2O1)C1=O	264.321	1.6144	0	4	1	112.372	-2.903	0.71	97.271	-3.727	No	No	No	0.132	0.46	0.056	-2.908	No	No	No	No	No	No	No	1.04	No	No	0.532	No	No	2.036	2.495	No	No	0.428	1.751
Cc(c(O)c1)cc(C2=CCC=C3[C@H]2N2CC3)c1C2=O	253.301	2.64222	0	2	1	111.400	-3.743	1.155	93.558	-3.089	Yes	No	No	0.639	0.28	0.353	-2.191	No	No	No	No	No	No	No	0.107	No	No	-0.506	No	No	2.529	1.699	No	No	1.083	1.705
COC1=Cc(nccc2c3c4cccc3)c2n4C1=O	250.257	2.4473	1	4	0	107.762	-2.642	1.32	100	-2.558	No	No	No	0.386	0.327	0.757	-1.734	No	Yes	Yes	Yes	No	No	No	0.376	No	Yes	-0.372	No	No	2.326	1.513	No	No	0.317	-0.04
CC(C)(C=C)c1c[nH]c2c1ccc(/C=C/C(C)=O)c2	253.345	4.2337	4	1	1	113.389	-4.231	1.583	94.521	-2.461	Yes	No	No	0.647	0.091	0.182	-1.511	No	Yes	Yes	Yes	Yes	No	No	0.507	Yes	Yes	0.565	No	No	2.404	1.763	Yes	Yes	2.193	-0.037
CC(C)(C=C)c1c[nH]c2c1ccc(CC=C(C)C)c2	253.389	5.1402	4	0	1	115.592	-4.912	1.565	93.35	-2.529	Yes	No	No	0.946	0.028	0.593	-1.257	Yes	Yes	Yes	Yes	Yes	Yes	No	0.581	Yes	No	0.692	No	No	2.389	1.802	Yes	Yes	2.148	-0.697
CC(C)=CCC/C(/C)=C/Cc1c[nH]c2c1cccc2	253.389	5.4031	5	0	1	115.592	-5.094	1.552	92.085	-2.569	No	No	No	0.969	0.002	0.633	-1.154	Yes	Yes	Yes	Yes	Yes	Yes	No	0.533	Yes	No	0.816	No	Yes	2.2	1.899	Yes	Yes	2.055	-1.353
CC(C)C[C@@H](C(Nc1cc2ccccc2cc1)=O)N	256.349	3.1517	4	2	2	113.354	-2.844	1.333	89.685	-2.784	Yes	No	No	1.264	0.199	0.097	-2.085	Yes	Yes	Yes	Yes	No	Yes	No	0.828	Yes	No	0.42	No	Yes	2.586	1.437	No	No	0.45	0.037
CC(CCc1cc(O[C@@H](CO)CC2=O)c2c(O)c1)=O	264.277	1.2399	4	5	2	110.370	-2.6	0.31	70.846	-3.373	Yes	No	No	0.141	0.427	0.025	-2.74	No	No	No	No	No	No	No	0.614	No	No	0.734	No	No	1.491	2.048	No	No	0.406	1.418
CC(CCc1cc(O)cc(O[C@@H](CO)C2)c1C2=O)=O	264.277	1.2399	4	5	2	110.370	-2.731	0.634	71.266	-3.401	Yes	No	No	0.236	0.434	-0.282	-2.722	No	No	No	No	No	No	No	0.606	No	No	0.675	No	No	2.116	2.141	No	No	0.646	1.525
CC(C(c(c(C1=O)c(c(OC)c2)OC)c2O)=O)=C1O	264.233	1.6204	2	6	2	108.429	-2.681	0.439	61.449	-2.835	Yes	No	No	0.533	0.466	-0.022	-2.921	No	No	No	No	No	No	No	0.478	No	No	0.169	No	No	1.594	2.898	No	No	0.324	1.907
C=C[C@@H](/C=C/c(cc1)ccc1O)c(cc1)ccc1O	252.313	4.0808	4	2	2	112.522	-3.917	1.596	92.016	-2.756	Yes	No	No	0.434	0.086	0.001	-1.715	No	Yes	Yes	Yes	Yes	Yes	No	0.219	No	No	0.301	No	No	2.174	1.939	No	Yes	0.95	1.018
COc(c(O)cc([C@@H](Cc1ccccc1)O)c1)c1O	260.289	2.3825	4	4	3	111.080	-3.209	1.142	94.875	-2.798	Yes	No	No	0.121	0.211	-0.725	-2.494	No	No	Yes	Yes	No	No	No	0.168	No	Yes	-0.049	No	No	2.325	1.699	No	No	0.673	0.943
CC(C)(CCC1)[C@H]([C@H](C=C2C=O)O)[C@@]1(C)[C@]2(C=O)O	266.337	1.2488	2	4	2	113.059	-2.55	0.578	65.347	-3.232	No	No	No	0.064	0.406	0.009	-2.942	No	No	No	No	No	No	No	1.189	No	No	0.592	No	No	1.993	2.902	No	No	0.404	1.677
CC(C)([C@@H](C1)[C@](C)(C=C2)OO[C@H]1/C(/C)=C/CO)C2=O	266.337	2.1855	2	4	1	113.570	-2.477	1.319	95.591	-3.555	No	No	No	0.016	0.473	-0.05	-2.886	No	No	No	No	No	No	No	1.422	No	No	0.553	No	No	2.178	1.622	No	No	0.527	1.974
CC(C)(CCC1)[C@H](CC=C2C=O)[C@@]1(C)[C@]2(C=O)O	250.338	2.278	2	3	1	108.264	-2.971	1.283	96.521	-3.109	No	No	No	0.138	0.371	0.139	-2.842	No	No	No	No	No	No	No	1.177	No	No	0.427	No	No	1.905	1.936	No	No	0.659	1.155
CC(C)=CCC(C(c(cccc1)c1C1=O)=O)=C1O	242.274	3.234	2	3	1	105.448	-3.503	1.316	92.684	-2.616	No	No	No	0.283	0.188	0.557	-1.93	No	No	Yes	No	No	No	No	0.151	No	No	0.958	No	No	1.895	2.452	No	No	1.414	0.233
CC(C)=CCC(C(c(cccc1)c1C1=O)=O)=C1O	242.274	3.234	2	3	1	105.448	-3.503	1.316	92.684	-2.616	No	No	No	0.283	0.188	0.557	-1.93	No	No	Yes	No	No	No	No	0.151	No	No	0.958	No	No	1.895	2.452	No	No	1.414	0.233
CC(C(c(c(C1=O)c2OC)ccc2OC)=O)=C1O	248.234	1.9148	2	5	1	103.635	-3.034	1.262	95.411	-3.203	No	No	No	0.113	0.387	-0.22	-2.868	No	No	No	No	No	No	No	0.494	No	No	1.102	No	No	2.094	2.548	No	No	0.659	1.519
Oc(cc1)cc(C(c(c(O)ccc2)c2O)=O)c1O	246.218	1.74	2	5	4	102.192	-3.141	-0.388	69.039	-2.737	Yes	No	No	0.169	0.226	-0.999	-2.548	No	No	No	No	No	No	No	0.006	No	No	0.479	No	No	2.121	2.59	No	No	0.646	1.542
Oc(cc1)cc(C(c(c(O)ccc2)c2O)=O)c1O	246.218	1.74	2	5	4	102.192	-3.141	-0.388	69.039	-2.737	Yes	No	No	0.169	0.226	-0.999	-2.548	No	No	No	No	No	No	No	0.006	No	No	0.479	No	No	2.121	2.59	No	No	0.646	1.542
Oc(cc1)cc(C(c(c(O)ccc2)c2O)=O)c1O	246.218	1.74	2	5	4	102.192	-3.141	-0.388	69.039	-2.737	Yes	No	No	0.169	0.226	-0.999	-2.548	No	No	No	No	No	No	No	0.006	No	No	0.479	No	No	2.121	2.59	No	No	0.646	1.542
C[C@@H](C1)Oc(cc(cc2CCC(C)=O)O)c2C1=O	248.278	2.2675	3	4	1	105.576	-2.43	0.949	94.082	-2.942	No	No	No	0.052	0.242	-0.208	-2.355	No	No	Yes	No	No	No	No	0.558	No	No	0.585	No	No	2.329	1.886	No	No	1.224	1.24
C[C@@](C1)([C@H](C(C)=O)c(cc(C)c(O)c2)c2C1=O)O	248.278	1.71062	1	4	2	105.257	-3.176	0.358	97.138	-3.56	Yes	No	No	0.173	0.395	0.017	-2.9	No	No	Yes	No	No	No	No	0.136	No	No	0.745	No	No	2.009	1.773	No	No	0.52	1.63
COC(C=C(/C=C/c(cc1)ccc1O)O1)=CC1=O	244.246	2.5244	3	4	1	103.768	-2.96	1.307	94.428	-2.604	Yes	No	No	0.088	0.234	-0.032	-2.236	No	Yes	Yes	Yes	No	No	No	0.766	No	Yes	0.356	No	No	1.982	1.211	No	No	1.062	1.406
COC(C=C(/C=C/c1cc(O)ccc1)O1)=CC1=O	244.246	2.5244	3	4	1	103.768	-3.069	1.329	95.105	-2.563	Yes	No	No	0.015	0.267	-0.194	-2.258	No	No	Yes	Yes	No	No	No	0.809	No	Yes	0.578	No	No	2.21	1.411	No	No	1.145	0.68
COc(c1c2)c(cco3)c3nc1cc1c2OCO1	243.218	2.7183	1	5	0	101.873	-2.901	1.294	96.088	-2.495	No	No	No	-0.187	0.24	-0.096	-2.126	No	Yes	Yes	No	No	No	No	0.508	No	Yes	-0.324	No	No	2.207	0.494	No	No	0.487	0.473
CN1c(cccc2)c2C=C2N=C(C=CC=C3)C3=C12	232.286	3.8313	0	2	0	104.835	-4.477	1.456	96.766	-2.072	Yes	No	No	0.609	0.043	0.261	-1.457	No	Yes	Yes	Yes	Yes	No	No	0.935	No	Yes	0.099	No	No	2.674	1.075	No	No	1.467	0.725
CN1c(cccc2)c2C=C2C1=Nc1c2cccc1	232.286	3.8313	0	2	0	104.835	-4.706	1.43	97.282	-2.17	Yes	No	No	0.646	0.025	0.302	-1.44	No	Yes	Yes	Yes	Yes	No	No	0.923	No	Yes	0.068	No	No	2.675	1.053	No	No	1.267	0.758
CN1c(cccc2)c2C2=Nc(cccc3)c3C2=C1	232.286	3.8313	0	2	0	104.835	-4.669	1.364	96.138	-2.189	Yes	No	No	0.568	0.021	0.29	-1.428	No	Yes	Yes	Yes	Yes	No	No	1.04	No	Yes	0.099	No	No	2.914	1.069	No	No	1.253	0.95
COc(cc(/C=C/C(OCCCO)=O)cc1)c1O	252.266	1.3396	6	5	2	105.273	-2.136	0.258	92.959	-3.171	Yes	No	No	-0.026	0.371	-0.318	-2.929	No	No	No	No	No	No	No	0.722	No	No	0.713	No	No	1.926	1.93	No	No	0.705	2.239
CC(C)([C@@H](C1)O)OC(Nc2c3cccc2)=C1C3=O	245.278	1.6025	0	3	2	104.221	-2.628	0.063	93.209	-2.978	No	No	No	-0.312	0.226	0.439	-2.285	No	Yes	Yes	No	No	No	No	0.269	No	No	-0.108	No	No	2.437	2.562	No	No	0.457	0.46
Cc(occ1C(c2c3c(O)ccc2O)=O)c1C3=O	244.202	1.77462	0	5	2	101.283	-2.909	1.305	93.871	-3.036	Yes	No	No	0.389	0.346	-0.204	-2.18	No	No	Yes	No	No	No	No	0.371	No	No	-0.076	No	No	2.21	1.844	No	No	0.634	1.684
C[C@](CC1)([C@H](CC2)CC1=O)c1c2cc(C)c(O)c1	244.334	3.27372	0	2	1	108.025	-4.008	1.521	97.549	-2.621	No	No	No	0.596	0.164	0.071	-2.056	No	No	Yes	Yes	No	No	No	0.93	No	No	0.405	No	No	2.053	2.039	No	Yes	1.928	0.361
COc1cccc2c1Oc(cc(cc1)O)c1C2=O	242.23	2.6604	1	4	1	102.034	-3.375	1.27	95.917	-2.76	Yes	No	Yes	-0.16	0.07	0.039	-2.054	No	Yes	Yes	Yes	No	No	No	0.229	No	Yes	0.076	No	No	1.794	1.372	No	No	0.928	0.168
COc1cccc2c1Oc(cc(cc1)O)c1C2=O	242.23	2.6604	1	4	1	102.034	-3.375	1.27	95.917	-2.76	Yes	No	Yes	-0.16	0.07	0.039	-2.054	No	Yes	Yes	Yes	No	No	No	0.229	No	Yes	0.076	No	No	1.794	1.372	No	No	0.928	0.168
COc1cccc2c1Oc(cc(cc1)O)c1C2=O	242.23	2.6604	1	4	1	102.034	-3.375	1.27	95.917	-2.76	Yes	No	Yes	-0.16	0.07	0.039	-2.054	No	Yes	Yes	Yes	No	No	No	0.229	No	Yes	0.076	No	No	1.794	1.372	No	No	0.928	0.168
COc(cc1)cc(Oc2c3cccc2O)c1C3=O	242.23	2.6604	1	4	1	102.034	-3.483	1.172	95.936	-2.826	Yes	No	No	-0.019	0.129	0.025	-2.052	No	Yes	Yes	Yes	No	No	No	0.216	No	Yes	0.03	No	No	1.806	1.308	No	No	0.99	0.096
COc(cc1)cc(Oc2c3cccc2O)c1C3=O	242.23	2.6604	1	4	1	102.034	-3.483	1.172	95.936	-2.826	Yes	No	No	-0.019	0.129	0.025	-2.052	No	Yes	Yes	Yes	No	No	No	0.216	No	Yes	0.03	No	No	1.806	1.308	No	No	0.99	0.096
CN(c1c2cccc1)c1cccc(O)c1C2=O	225.247	2.3973	0	3	1	97.545	-4.055	1.499	96.166	-2.77	Yes	No	No	-0.001	0.148	0.449	-1.557	No	Yes	Yes	No	No	No	No	0.288	No	Yes	0.363	No	No	1.691	1.542	No	No	1.188	0.529
C[C@H]([C@H](CCCC1)[C@@H]1[C@@]1(C)C2)C=CC1=CC2=O	230.351	3.9042	0	1	0	103.978	-5.07	1.51	96.49	-2.126	No	No	No	0.564	0.175	0.66	-1.929	No	Yes	Yes	Yes	No	No	No	1.108	No	No	-0.304	No	No	1.53	1.224	No	Yes	1.506	0.521
Oc(cc1)cc(Oc2c3cccc2O)c1C3=O	228.203	2.3574	0	4	2	95.350	-3.509	0.926	92.752	-2.851	Yes	No	No	-0.125	0.174	-0.13	-2.002	No	No	Yes	No	No	No	No	0.149	No	Yes	0.088	No	No	1.751	1.401	No	No	1.23	0.928
Oc1cccc(Oc2c3cccc2O)c1C3=O	228.203	2.3574	0	4	2	95.350	-3.533	0.901	93.484	-2.849	Yes	No	No	-0.091	0.181	-0.137	-2.014	No	No	Yes	No	No	No	No	0.085	No	Yes	0.083	No	No	1.754	1.413	No	No	1.208	0.829
Oc(cc1)cc2c1Oc(cccc1O)c1C2=O	228.203	2.3574	0	4	2	95.350	-3.398	0.93	92.959	-2.891	Yes	No	No	-0.169	0.171	-0.144	-2.002	No	No	Yes	No	No	No	No	0.114	No	Yes	0.261	No	No	1.732	1.459	No	No	1.102	0.78
CC(C)[C@@H](CCC([C@H](CC1)O)=C)/C=C/[C@@]1(C)O	238.371	3.0569	1	2	2	105.052	-3.079	1.609	93.138	-3	No	No	No	-0.001	0.433	0.382	-2.77	No	No	No	No	No	No	No	1.349	No	No	0.731	No	No	1.582	2.012	No	Yes	0.695	1.251
CC(C)[C@H](CCC([C@H](CC1)O)=C)/C=C/[C@@]1(C)O	238.371	3.0569	1	2	2	105.052	-3.079	1.609	93.138	-3	No	No	No	-0.001	0.433	0.382	-2.77	No	No	No	No	No	No	No	1.349	No	No	0.731	No	No	1.582	2.012	No	Yes	0.695	1.251
CCCOC(/C=C/c(cc1)cc(OC)c1O)=O	236.267	2.3672	5	4	1	100.479	-2.586	1.238	94.349	-2.746	No	No	No	0.08	0.336	0.258	-2.475	No	No	Yes	No	No	No	No	0.674	No	No	1.115	No	No	1.943	2.149	No	No	1.278	0.617
CC(C(c(c(C1=O)c2O)ccc2OC)=O)=C1O	234.207	1.6118	1	5	2	96.951	-2.713	0.312	94.706	-3.334	Yes	No	No	0.247	0.4	0.019	-2.908	No	No	No	No	No	No	No	0.451	No	No	0.895	No	No	1.621	2.354	No	No	0.437	1.317
C[C@@H](CC[C@]1(C)[C@@H](C=O)C(C=O)=CC[C@@H]11)C1=C	232.323	2.9391	2	2	0	102.781	-3.637	1.466	98.886	-2.694	No	No	No	0.263	0.284	0.326	-2.163	No	No	No	No	No	No	No	0.096	Yes	No	0.264	No	No	1.773	1.953	No	Yes	0.989	0.919
CC(C)(CCC1)[C@H]2[C@@]1(C)[C@H](C=O)C(C=O)=CC2	234.339	3.1631	2	2	0	103.470	-3.866	1.548	97.628	-2.675	No	No	No	0.264	0.274	0.324	-2.135	No	No	No	Yes	No	No	No	1.081	Yes	No	0.338	No	No	1.819	2.06	No	Yes	1.014	0.776
CC(C)(CCC1)[C@H]2[C@@]1(C)[C@@H](C=O)C(C=O)=CC2	234.339	3.1631	2	2	0	103.470	-3.866	1.548	97.628	-2.675	No	No	No	0.264	0.274	0.324	-2.135	No	No	No	Yes	No	No	No	1.081	Yes	No	0.338	No	No	1.819	2.06	No	Yes	1.014	0.776
CC(C)C(C[C@@H]1[C@](C)(CC2)O)=CC[C@@]1(C)[C@H]2O	238.371	2.8908	1	2	2	104.736	-3.249	1.499	94.05	-3.076	No	No	No	0.1	0.369	0.372	-2.661	No	No	No	No	No	No	No	1.089	No	No	0.855	No	No	1.795	2.014	No	Yes	0.754	1.114
CC(C)C(C[C@@H]1[C@](C)(CC2)O)=CC[C@@]1(C)[C@H]2O	238.371	2.8908	1	2	2	104.736	-3.249	1.499	94.05	-3.076	No	No	No	0.1	0.369	0.372	-2.661	No	No	No	No	No	No	No	1.089	No	No	0.855	No	No	1.795	2.014	No	Yes	0.754	1.114
CC(C)([C@@H]1[C@@](C)(C=C2)OO[C@H](CCO)C1)C2=O	240.299	1.6293	2	4	1	101.529	-1.949	1.262	95.963	-3.726	No	No	No	0.013	0.549	-0.191	-2.922	No	No	No	No	No	No	No	1.365	No	No	0.64	No	No	2.158	2.421	No	No	0.247	2.289
O=C(C=C1)n2c3c1nccc3c1c2cccc1	220.231	2.4387	0	3	0	96.284	-3.438	1.421	98.885	-2.499	Yes	No	No	0.139	0.385	0.67	-1.676	No	Yes	Yes	No	No	Yes	No	0.345	No	Yes	-0.25	No	No	2.299	1.519	No	No	0.399	-0.062
c(cc1)cc2c1[nH]c1cc3ccccc3nc12	218.259	3.8693	0	1	1	97.905	-4.873	1.598	94.421	-2.599	Yes	No	No	0.144	0.18	0.227	-1.371	No	Yes	Yes	Yes	No	No	No	0.795	No	No	-0.391	No	No	2.41	1.226	No	No	0.761	0.238
