SMILES	MOL_WEIGHT	LOGP	#ROTATABLE_BONDS	#ACCEPTORS	#DONORS	SURFACE_AREA	Water solubility	Caco2 permeability	Intestinal absorption (human)	Skin Permeability	P-glycoprotein substrate	P-glycoprotein I inhibitor	P-glycoprotein II inhibitor	VDss (human)	Fraction unbound (human)	BBB permeability	CNS permeability	CYP2D6 substrate	CYP3A4 substrate	CYP1A2 inhibitior	CYP2C19 inhibitior	CYP2C9 inhibitior	CYP2D6 inhibitior	CYP3A4 inhibitior	Total Clearance	Renal OCT2 substrate	AMES toxicity	Max. tolerated dose (human)	hERG I inhibitor	hERG II inhibitor	Oral Rat Acute Toxicity (LD50)	Oral Rat Chronic Toxicity (LOAEL)	Hepatotoxicity	Skin Sensitisation	<i>T.Pyriformis</i> toxicity	Minnow toxicity
C[C@H](CC1)[C@](C)(CCc2cocc2)[C@H]2[C@@]1(C)C(C(O)=O)=CCC2	316.441	5.0757	4	2	1	138.319	-3.861	1.461	95.98	-2.243	No	No	No	-0.533	0.064	0.171	-1.726	No	Yes	No	No	No	No	No	0.994	No	No	0.565	No	No	2.285	2.085	Yes	No	0.308	-0.375
CC(C)(CCC1)[C@@H](CC2)[C@@]1(C)[C@H](CC1)[C@]2(C)OCC[C@@H]1C(O)=O	322.489	4.889	1	2	1	140.725	-3.836	1.444	96.201	-2.428	No	No	No	-0.303	0.163	-0.038	-2.707	No	Yes	No	No	No	No	No	0.602	No	No	0.354	No	No	2.002	2.089	No	No	0.314	0.193
C[C@](CO)([C@@H](CC1)[C@](C)(CC2=O)[C@@H](CC3)[C@@H]1C[C@]3(C)C=C)[C@H]2O	320.473	3.3436	2	3	2	139.716	-4.007	1.471	96.457	-3.441	Yes	Yes	No	-0.288	0.087	0.266	-1.934	No	Yes	No	No	No	No	No	0.803	No	No	-0.717	No	No	2.308	1.777	No	No	0.627	0.498
CC(C)(CCC1)[C@H](CC2)[C@@]1(C)[C@@H](C/C=C(/CC=O)\C=O)[C@]21OC1	318.457	4.1024	5	3	0	139.403	-4.991	1.418	100	-3.234	No	Yes	No	0.3	0.083	-0.346	-2.334	No	Yes	No	Yes	No	No	No	0.843	No	No	-0.243	No	No	2.622	2.2	No	No	0.856	-0.085
CC(C)(CCC1)[C@H](CC2)[C@@]1(C)[C@@H](CC=C(C[C@H]1O)C=O)[C@]12C=O	318.457	3.6943	2	3	1	139.083	-4.608	1.388	97.915	-2.991	No	Yes	No	0.197	0.114	0.057	-1.91	No	Yes	No	No	No	No	Yes	0.78	No	No	-0.066	No	No	1.839	1.923	No	No	0.806	0.146
CC(C)(CCC1)[C@H](CC2)[C@@]1(C)[C@H](CC=C(C[C@H]1O)C=O)[C@]12C=O	318.457	3.6943	2	3	1	139.083	-4.608	1.388	97.915	-2.991	No	Yes	No	0.197	0.114	0.057	-1.91	No	Yes	No	No	No	No	Yes	0.78	No	No	-0.066	No	No	1.839	1.923	No	No	0.806	0.146
CC(C)(CCC1)[C@H](CC2)[C@@]1(C)[C@@H](CC=C(C[C@@H]1O)C=O)[C@]12C=O	318.457	3.6943	2	3	1	139.083	-4.608	1.388	97.915	-2.991	No	Yes	No	0.197	0.114	0.057	-1.91	No	Yes	No	No	No	No	Yes	0.78	No	No	-0.066	No	No	1.839	1.923	No	No	0.806	0.146
CC(C)(CCC1)[C@H](CC2)[C@@]1(C)[C@H](CC=C(C[C@@H]1O)C=O)[C@]12C=O	318.457	3.6943	2	3	1	139.083	-4.608	1.388	97.915	-2.991	No	Yes	No	0.197	0.114	0.057	-1.91	No	Yes	No	No	No	No	Yes	0.78	No	No	-0.066	No	No	1.839	1.923	No	No	0.806	0.146
CC(C)=CCc(c(Oc1c2c(O)ccc1O)c1C2=O)ccc1O	312.321	3.5717	2	5	3	131.279	-3.564	0.887	96.034	-2.735	Yes	No	Yes	0.202	0.051	-0.964	-2.037	No	No	Yes	Yes	Yes	No	No	0.128	No	Yes	0.546	No	Yes	2.037	2.172	No	No	0.405	-0.037
COc(c(O)c(C([C@@H](Cc(cc1)ccc1O)CO1)=O)c1c1)c1O	316.309	2.246	3	6	3	132.079	-3.652	0.517	72.946	-2.761	Yes	No	No	0.103	0.088	-0.899	-3.153	No	Yes	Yes	No	No	No	Yes	0.034	No	Yes	-0.354	No	No	2.123	1.949	No	No	0.363	1.315
CC(C)(CC1)C[C@H](CC2)[C@@]1(C)[C@@H](Cc1c(CC=O)occ1)C2=C	314.469	5.3623	4	2	0	139.890	-6.563	1.633	97.332	-2.48	No	Yes	No	0.786	0	0.402	-1.915	No	Yes	Yes	No	No	No	No	0.792	No	No	0.198	No	Yes	2.298	0.916	No	No	2.277	-0.279
C[C@@](C1)([C@@H](C(C)=O)c2cc3cc(OC)cc(C)c3cc2C1=O)O	312.365	3.16682	2	4	1	134.623	-4.271	1.237	97.961	-2.9	Yes	Yes	No	0.175	0.092	-0.513	-2.081	No	Yes	Yes	Yes	No	No	No	0.417	No	No	0.457	No	No	2.154	1.455	No	No	1.32	0.779
CC(C)/C=C/c(c(O)cc(-c1cc(ccc(O)c2)c2o1)c1)c1O	310.349	4.8858	3	4	3	133.482	-3.836	0.923	88.831	-2.742	Yes	No	Yes	-0.09	0.054	-0.937	-1.822	No	No	Yes	Yes	Yes	No	Yes	0.389	No	No	0.545	No	Yes	2.197	1.311	No	No	0.426	-0.333
OC[C@@H]([C@H]([C@H]([C@@]1([C@@H](C2)c(cc3)ccc3O)OC2=O)O)OC1=O)O	324.285	-1.199	3	8	4	130.431	-2.332	0.459	56.558	-2.778	No	No	No	0.173	0.631	-0.929	-3.748	No	No	No	No	No	No	No	0.023	No	No	-0.16	No	No	1.571	2.79	No	No	0.311	4.139
COc(c(O)c(c(Oc1c2c(O)cc(O)c1OC)c1)C2=O)c1O	320.253	1.7858	2	8	4	127.895	-3.748	-0.413	71.532	-2.735	Yes	No	No	0.27	0.099	-1.455	-3.64	No	No	Yes	No	No	No	No	0.598	No	Yes	0.661	No	No	2.117	2.612	No	No	0.287	0.964
CC(C)CCC[C@@H](C)CCC[C@@H](C)CCC[C@](C)(CC(O)=O)O	328.537	5.6512	14	2	2	143.423	-5.365	1.531	91.041	-2.55	No	No	No	-0.687	0.07	0.052	-2.684	No	No	No	No	No	No	No	1.494	No	No	-0.255	No	No	1.573	2.945	No	No	0.34	-1.688
CO[C@H](C1)C=CC2=CCN(CCc3c4)[C@]12c3cc(OC)c4OC	313.397	2.6721	3	4	0	136.879	-3.045	1.916	95.912	-3.18	No	No	No	0.925	0.327	0.293	-2.606	No	Yes	No	No	No	No	No	1.074	Yes	No	-0.417	No	No	3.06	1.28	No	No	0.892	1.242
CN(c(c1c2OC)cc3c2OCO3)c(c(OC)ccc2)c2C1=O	313.309	2.4376	2	6	0	131.294	-3.983	1.295	100	-2.711	No	No	Yes	-0.128	0.151	0.414	-2.316	No	Yes	Yes	Yes	No	No	No	0.295	No	Yes	0.4	No	No	2.23	1.189	No	No	0.391	-0.116
CC(C)=CCc(c(O[C@@H]1c(cccc2)c2OC[C@@H]11)c1cc1)c1O	308.377	4.5106	2	3	1	135.728	-4.618	1.277	95.758	-2.802	Yes	No	No	0.368	0	0.021	-1.702	No	Yes	Yes	Yes	Yes	No	Yes	0.22	No	Yes	-0.179	No	No	2.48	1.806	No	No	0.715	-0.378
CC(C)=CCc(cc1)cc2c1OC[C@@H]1c(ccc(O)c3)c3O[C@@H]12	308.377	4.5106	2	3	1	135.728	-5.336	1.538	94.823	-2.891	Yes	No	No	0.42	0.033	0.002	-1.504	No	Yes	Yes	Yes	Yes	No	Yes	0.181	No	No	0.23	No	Yes	2.231	1.804	No	No	1.05	-0.028
CC(C)(CCC1)[C@H](CC2)[C@@]1(C)[C@H](C/C=C(\CCO1)/C1=O)[C@]21OC1	318.457	4.2614	2	3	0	139.349	-5.079	1.779	100	-3.67	No	Yes	No	0.419	0.093	-0.144	-2.428	No	Yes	No	No	No	No	No	0.644	No	No	-0.255	No	No	1.829	2.029	No	No	1.029	-0.174
CC(C)(CCC1)[C@H](CC2)[C@@]1(C)[C@@H](C/C=C(\CCO1)/C1=O)[C@@]21OC1	318.457	4.2614	2	3	0	139.349	-5.079	1.779	100	-3.67	No	Yes	No	0.419	0.093	-0.144	-2.428	No	Yes	No	No	No	No	No	0.644	No	No	-0.255	No	No	1.829	2.029	No	No	1.029	-0.174
CC(C)([C@H]1[C@@](C)(CC2)[C@@H](CC[C@@H](C3)[C@@](CO)(C4)O)[C@@]34CC1)[C@H]2O	322.489	3.1134	1	3	3	140.033	-3.931	1.287	95.902	-3.554	Yes	No	No	-0.118	0.124	-0.175	-2.09	No	Yes	No	No	No	No	No	0.606	No	No	-0.642	No	No	2.354	1.875	No	No	0.62	0.825
C[C@H]([C@H](CC1)[C@H](C2)[C@@](C)([C@H](CCC3(C)C)O)[C@]13O)c1c2occ1	318.457	3.8837	0	3	2	138.636	-4.752	1.362	95.512	-3.482	No	Yes	No	0.198	0.15	0.251	-3.176	No	Yes	No	Yes	No	No	Yes	0.69	No	No	-0.137	No	No	2.589	1.754	No	No	1.006	0.603
C[C@@H]([C@H]([C@@H]12)C([C@@H]3OC3(C)C)=O)O[C@H]2c(c(C)ccc2)c2OC1=O	316.353	2.35272	2	5	0	134.457	-3.464	1.251	98.571	-3.194	No	Yes	No	0.227	0.228	-0.371	-2.302	No	Yes	Yes	Yes	No	No	No	0.913	No	Yes	0.113	No	No	2.328	1.238	No	No	0.663	-0.587
C[C@H]([C@H]([C@@H]12)C([C@@H]3OC3(C)C)=O)O[C@H]2c(c(C)ccc2)c2OC1=O	316.353	2.35272	2	5	0	134.457	-3.464	1.251	98.571	-3.194	No	Yes	No	0.227	0.228	-0.371	-2.302	No	Yes	Yes	Yes	No	No	No	0.913	No	Yes	0.113	No	No	2.328	1.238	No	No	0.663	-0.587
C[C@]1(CC[C@@H]2O[C@H]2C[C@H]2O)O[C@@H]1C[C@H](CC1=O)C(C)(C)[C@H]2C1=C	320.429	2.6338	0	4	1	137.778	-3.49	1.297	97.318	-3.344	No	No	No	0.351	0.374	0.132	-2.798	No	No	No	No	No	No	No	0.745	No	No	-0.114	No	No	2.642	1.143	No	No	0.402	2.124
C(Oc1cc2c3)Oc1cc2c1c2c3NCCc2cc2c1OCO2	307.305	3.4184	0	5	1	131.241	-3.779	1.288	94.24	-2.764	No	No	Yes	-0.272	0.02	-0.139	-1.581	No	Yes	Yes	Yes	No	No	No	0.084	No	Yes	-0.352	No	Yes	2.859	0.857	No	No	0.301	0.568
C1Oc2cc(O[C@@H]3c(cc(cco4)c4c4)c4OC[C@H]33)c3cc2O1	308.289	3.7712	0	5	0	130.861	-4.046	1.352	98.151	-2.709	No	No	Yes	-0.123	0.133	0.077	-1.784	No	Yes	Yes	Yes	Yes	No	No	0.307	No	Yes	-0.046	No	No	2.79	1.02	No	No	0.335	-0.448
COc(cc(C/C=C/CC(c(ccc(O)c1)c1O)=O)cc1)c1O	314.337	3.1837	6	5	3	133.646	-3.429	1.191	89.762	-2.78	Yes	No	No	0.156	0.138	-0.971	-2.524	No	No	Yes	Yes	Yes	No	Yes	0.223	No	No	-0.078	No	Yes	2.125	2.131	No	No	0.77	-0.509
Oc1c(C=O)c(O)c(C(/C=C/c2ccccc2)=O)c(O)c1C=O	312.277	2.3245	5	6	3	130.491	-4.004	1.011	72.687	-3.028	Yes	No	No	-0.438	0.099	-1.084	-3.182	No	No	No	No	No	No	No	-0.068	No	No	0.531	No	No	1.934	1.81	No	No	0.514	0.082
CC(OC(C=C1)=C[C@H](COC(Cc2ccccc2)=O)OC1=O)=O	316.309	1.7009	5	6	0	132.886	-2.489	0.857	98.814	-3.054	No	No	No	-0.371	0.274	-0.672	-3.104	No	Yes	No	No	No	No	No	0.716	No	Yes	0.525	No	No	2.376	1.951	No	No	0.563	1.507
OC[C@H]([C@H]([C@H]([C@H]1O)O)O)O[C@H]1OC(c(cc1O)cc(O)c1O)=O	332.261	-2.2399	3	10	7	128.928	-2.224	-0.593	22.883	-2.735	Yes	No	No	-0.093	0.594	-1.913	-5.244	No	No	No	No	No	No	No	0.62	No	No	0.426	No	No	2.736	3.542	Yes	No	0.285	4.391
CC(C)(CC1)C[C@H](CC2)[C@@]1(C)[C@@H](/C=C(/CC(O)=O)\C=O)C2=C	304.43	4.3852	4	2	1	133.035	-4.076	1.432	98.691	-2.59	No	No	No	-0.8	0.035	-0.035	-1.943	No	Yes	No	No	No	No	No	1.048	No	No	0.013	No	No	2.115	2.219	No	No	0.311	-0.172
CC(C)(C=C)C(C(OC(/C=C/c1ccccc1)=C1)=O)=C1OC	296.366	4.2824	5	3	0	130.109	-4.431	1.906	96.223	-2.23	No	No	No	0.262	0.036	0.426	-1.461	No	Yes	Yes	Yes	Yes	No	No	0.965	No	No	0.62	No	No	2.015	1.973	Yes	No	2.43	0.077
CC(C)(CCC1)[C@H]([C@@H](C=C2C=O)OC(C)=O)[C@@]1(C)[C@]2(C=O)O	308.374	1.8196	3	5	1	130.269	-3	1.133	97.633	-3.179	No	No	No	-0.105	0.362	-0.287	-2.931	No	No	No	No	No	No	No	1.179	No	Yes	0.303	No	No	2.006	1.252	No	No	0.435	1.641
O[C@@H](CO[C@H](COC(c(cc1O)cc(O)c1O)=O)[C@H]1O)[C@H]1O	316.262	-1.5583	3	9	6	124.134	-1.734	0.065	33.397	-2.736	Yes	No	No	0.138	0.659	-1.435	-4.818	No	No	No	No	No	No	No	0.587	No	No	-0.042	No	No	2.397	3.273	Yes	No	0.285	3.208
CC(OC(C=C1)=C[C@H](COC(c2ccccc2)=O)OC1=O)=O	302.282	1.772	4	6	0	126.521	-2.555	1.275	97.652	-3.073	No	No	No	-0.395	0.311	-0.659	-3.084	No	Yes	No	No	No	No	No	0.772	No	Yes	0.698	No	No	2.538	1.933	No	No	0.461	1.887
CC(C)(CCC1)[C@H](CC2)[C@@]1(C)[C@@H](C/C=C(/CC=O)\C=O)C2=C	302.458	4.8896	5	2	0	134.605	-5.971	1.626	99.766	-2.708	No	Yes	No	0.208	0	-0.016	-1.696	No	Yes	Yes	No	No	No	No	1.209	No	No	-0.279	No	No	1.693	2.404	Yes	Yes	1.021	-0.775
O=C(C[C@@]1(CC2)C=CCN3[C@@]11[C@H]2[C@H]2CC3)N1c1c2cccc1	292.382	2.8887	0	2	0	130.138	-3.87	1.626	95.6	-2.917	No	Yes	No	1.335	0.225	0.214	-2.096	Yes	Yes	No	No	No	Yes	No	0.722	Yes	No	-0.692	No	Yes	2.872	1.241	No	No	0.755	0.987
CCCCCCCCC[C@@H](C#CC#C[C@@H](CC)OC(C)=O)O	306.446	3.8365	10	3	1	135.376	-5.167	1.487	94.305	-2.631	No	Yes	No	0.023	0.155	-0.292	-1.968	No	Yes	Yes	No	No	No	No	1.859	No	No	-0.076	No	No	1.47	2.331	No	Yes	1.947	-0.192
CCCCCCCCC[C@@H](C#CC#C[C@@H](C=C)OC(C)=O)O	304.43	3.6125	10	3	1	134.686	-5.05	1.48	94.781	-2.636	No	Yes	No	0.017	0.165	-0.293	-1.968	No	Yes	Yes	No	No	No	No	1.921	No	No	-0.079	No	No	1.427	2.288	No	Yes	1.944	-0.113
CO[C@H](C1)C=CC2=CCN(CCc3c4)[C@]12c3cc(OC)c4O	299.37	2.3691	2	4	1	130.195	-3.191	1.869	94.735	-3.474	No	No	No	1.004	0.405	0.249	-2.69	No	Yes	No	No	No	No	No	1.051	No	No	-0.293	No	No	2.791	1.103	No	No	0.723	1.634
C[C@](CCc1c2C)(c1cc(C(c1c3cccc1)=O)c2C3=O)O	292.334	2.92412	0	3	1	128.149	-3.973	1.234	97.792	-2.777	Yes	No	No	0.429	0.101	0.254	-1.792	No	Yes	Yes	Yes	No	No	No	0.054	No	No	0.202	No	Yes	2.004	1.832	No	No	1.097	1.238
C[C@@](CC1)(Cc2c1ccc(C(c1c3cccc1)=O)c2C3=O)O	292.334	2.7017	0	3	1	128.149	-3.968	1.222	98.832	-2.774	Yes	No	No	0.485	0.097	0.245	-1.847	No	Yes	Yes	Yes	No	No	No	0.134	No	Yes	0.157	No	No	1.949	1.816	No	No	1.046	0.805
C[C@@H](C1)[C@@H](CC2)[C@H]1[C@@H](CC1)[C@@H]2[C@](C)(CCC2)[C@H]1[C@]2(C)C(O)=O	304.474	4.9759	1	1	1	134.606	-3.472	1.618	100	-2.701	No	No	No	-0.792	0.053	-0.011	-1.609	No	Yes	Yes	No	No	No	No	0.518	No	No	-0.146	No	No	2.097	2.38	Yes	No	0.286	-0.714
C[C@@](CCC1)([C@@H](CC[C@@H]2[C@H]3C4)[C@]1(C)C2=CC[C@@H]3C4=C)C(O)=O	300.442	4.8161	1	1	1	133.226	-3.263	1.61	100	-2.709	No	No	No	-0.845	0.062	0.029	-1.906	No	Yes	Yes	No	No	No	No	0.558	No	No	-0.071	No	No	2.075	2.377	Yes	No	0.285	-0.464
COc(c1c2cco1)cc1c2OC(c2ccccc2)=CC1=O	292.29	4.2148	2	4	0	125.091	-4.944	1.368	97.757	-2.565	No	No	Yes	0.211	0.265	0.332	-1.63	No	Yes	Yes	Yes	No	No	No	0.392	No	Yes	0.045	No	No	2.384	1.56	No	No	0.366	-0.96
COc1cc(occ2)c2c(OC(c2ccccc2)=C2)c1C2=O	292.29	4.2148	2	4	0	125.091	-4.932	1.378	99.648	-2.573	No	No	Yes	0.243	0.279	0.186	-1.656	No	Yes	Yes	Yes	No	Yes	Yes	0.481	Yes	Yes	0.059	No	No	2.404	1.666	No	No	0.364	-1.059
CC(C)CCC[C@@H](C)CCC[C@@H](C)CCC[C@@]1(C)O[C@@H]1CO	312.538	5.5753	13	2	1	138.575	-6.554	1.613	92.048	-4.549	No	No	No	0.427	0.049	0.045	-2.06	No	Yes	Yes	No	No	No	No	1.401	No	No	0.131	No	No	1.529	2.732	No	Yes	2.191	-1.084
CC(C)=CCC/C(/C)=C/C[C@](CC(O)=O)(C[C@@H](C=C1)O)C1=O	306.402	3.4202	7	3	2	131.780	-3.212	1.072	95.825	-2.203	No	No	No	-0.743	0.254	-0.256	-2.517	No	No	No	No	No	No	No	1.476	No	No	-0.126	No	No	1.725	2.183	No	No	0.259	0.67
CO[C@H](C1)C=CC2=CCN(CCc3c4)[C@]12c3cc1c4OCO1	297.354	2.3836	1	4	0	129.509	-3.002	2.034	95.679	-3.097	No	No	No	0.968	0.342	0.212	-2.557	No	Yes	No	No	No	No	No	1.091	Yes	No	-0.69	No	No	2.967	1.158	Yes	No	0.695	0.948
COc(cc1)cc(C2)c1-c1c3OCOc3cc3c1[C@@H]2NCC3	295.338	2.8338	1	4	1	128.551	-2.724	0.905	93.248	-2.782	Yes	No	No	0.926	0.306	0.317	-1.956	No	Yes	Yes	No	No	Yes	Yes	1.052	No	Yes	-0.121	No	Yes	3.602	1.149	Yes	No	0.285	0.406
C[C@]1(C2)[C@@H](C3)[C@H]1C[C@@]2(CC1)[C@H]3[C@@](C)(CC2)[C@@H]1[C@@](C)(CO)[C@@H]2O	304.474	3.6084	1	2	2	134.232	-4.392	1.544	93.883	-3.223	No	No	No	0.158	0.122	0.186	-2.34	No	Yes	No	No	No	No	No	0.436	No	No	-0.657	No	Yes	2.063	1.841	Yes	No	0.394	0.573
CN(c(cccc1)c1C(c1c2OC)=O)c1cc(OC)c2OC	299.326	2.7175	3	5	0	127.186	-4.17	1.327	99.08	-2.573	No	No	Yes	-0.056	0.143	0.797	-2.138	No	Yes	Yes	Yes	No	No	No	0.429	No	Yes	0.516	No	No	1.909	2.282	Yes	No	0.449	-1.242
CN(c(cccc1)c1C(c1c2OC)=O)c1cc(OC)c2OC	299.326	2.7175	3	5	0	127.186	-4.17	1.327	99.08	-2.573	No	No	Yes	-0.056	0.143	0.797	-2.138	No	Yes	Yes	Yes	No	No	No	0.429	No	Yes	0.516	No	No	1.909	2.282	Yes	No	0.449	-1.242
C[C@H](c1ccccc1)N(CC1)CCN1[C@H](C)c1ccccc1	294.442	4.1264	4	2	0	133.922	-3.295	1.6	88.04	-2.673	Yes	Yes	No	1.886	0.431	1.106	-1.381	Yes	Yes	Yes	No	No	Yes	No	0.801	Yes	Yes	-0.154	No	Yes	3.274	0.925	Yes	Yes	0.24	1.178
Oc(cc1O)cc(OC(c(cc2)cc(O)c2O)=C2O)c1C2=O	302.238	1.988	1	7	5	122.108	-3.203	0.16	74.679	-2.735	Yes	No	No	0.264	0.103	-1.45	-3.348	No	No	Yes	No	No	No	No	0.508	No	No	0.82	No	No	2.456	2.787	No	No	0.351	1.865
Oc(cc1O)cc(OC(c(cc2)cc(O)c2O)=C2O)c1C2=O	302.238	1.988	1	7	5	122.108	-3.203	0.16	74.679	-2.735	Yes	No	No	0.264	0.103	-1.45	-3.348	No	No	Yes	No	No	No	No	0.508	No	No	0.82	No	No	2.456	2.787	No	No	0.351	1.865
COc(cc1O)cc(Oc(c(O)c2O)c3cc2OC)c1C3=O	304.254	2.0802	2	7	3	123.101	-3.575	1.105	80.288	-2.735	Yes	No	No	0.172	0.029	-1.326	-3.385	No	No	Yes	No	No	No	No	0.675	No	Yes	0.81	No	No	1.876	2.375	No	No	0.32	-0.012
CC(CCc(cc1)c(C)c(C(c2c3cccc2)=O)c1C3=O)=O	292.334	3.29202	3	3	0	128.522	-4.254	1.336	100	-2.417	No	No	No	0.541	0.047	0.075	-1.937	No	Yes	Yes	Yes	Yes	No	No	0.289	No	Yes	0.355	No	No	2.046	2.102	Yes	No	1.648	-0.156
COc1ccc([C@H](CC2=O)Oc3c2c(O)cc(OC)c3)cc1	300.31	3.1159	3	5	1	127.604	-3.961	1.249	94.593	-2.766	No	No	No	-0.464	0.123	0.237	-2.213	No	No	Yes	Yes	No	No	No	0.257	No	Yes	0.792	No	No	2.284	1.879	No	No	0.434	-0.162
C=C[C@@H]([C@](C[C@H]([C@H]([C@H]1O)C2=C)OC2=O)([C@H]1C1=C)C=C)OC1=O	302.326	1.305	2	5	1	128.147	-2.824	0.459	84.395	-3.748	No	No	No	-0.031	0.401	-0.245	-2.911	No	No	No	No	No	No	No	0.722	No	No	0.164	No	No	2.401	2.06	No	No	0.475	2.392
COc(cc1)cc2c1Oc1cc(O)c(CC=C)c(O)c1C2=O	298.294	3.0945	3	5	2	125.233	-3.706	1.058	95.525	-2.782	Yes	No	No	-0.294	0.098	-0.266	-2.272	No	No	Yes	Yes	Yes	No	No	0.373	No	Yes	0.794	No	Yes	1.807	0.952	No	No	0.604	-0.95
COc(cc1)cc2c1Oc(c(CC=C)c(cc1O)O)c1C2=O	298.294	3.0945	3	5	2	125.233	-3.679	1.144	93.663	-2.771	Yes	No	No	-0.223	0.003	-0.329	-2.295	No	Yes	Yes	Yes	Yes	No	Yes	0.356	No	Yes	0.37	No	Yes	1.762	1.362	No	No	0.692	-0.306
COc1cc(OC[C@H](Cc(cc2)ccc2O)C2=O)c2c(O)c1	300.31	2.5404	3	5	2	127.284	-3.409	1.126	94.549	-2.857	Yes	No	No	0.041	0.091	-0.101	-2.358	No	No	Yes	Yes	No	No	Yes	0.158	No	Yes	0.006	No	No	2.02	1.753	No	No	0.608	0.206
COc1ccc(C[C@@H](COc2c3c(O)cc(O)c2)C3=O)cc1	300.31	2.5404	3	5	2	127.284	-3.788	0.983	95.268	-2.834	Yes	No	No	-0.283	0.096	-0.191	-2.395	No	No	Yes	Yes	Yes	No	Yes	0.186	No	Yes	0.362	No	No	2.227	1.898	No	No	0.509	0.085
O[C@](Cc(cc1)ccc1O)(COc1c2c(O)cc(O)c1)C2=O	302.282	1.3523	2	6	4	125.394	-3.028	-0.281	69.609	-2.817	Yes	No	No	0.134	0.182	-1	-3.274	No	No	No	No	No	No	No	0.141	No	Yes	-0.026	No	No	2.089	1.818	No	No	0.567	2.533
COc1ccc([C@](COc2c3c(O)cc(O)c2)(C3=O)O)cc1	302.282	1.5693	2	6	3	125.714	-3.507	-0.039	66.757	-2.743	Yes	No	No	0.092	0.13	-1.012	-3.276	No	No	Yes	No	No	No	Yes	0.157	No	Yes	0.796	No	No	2.083	2.758	No	No	0.318	0.764
COc(c(O)cc(C1=COc(cc(cc2)O)c2C1=O)c1)c1O	300.266	2.5854	2	6	3	123.998	-3.642	0.551	80.446	-2.738	Yes	No	No	-0.118	0.022	-1.047	-2.411	No	No	Yes	Yes	No	No	No	0.559	No	No	0.53	No	Yes	2.426	1.549	No	No	0.346	0.143
Oc(cc1CC(c(cc2)cc(O)c2O)=C2O)cc(O)c1C2=O	300.266	2.2171	1	6	5	124.386	-3.239	-0.182	74.768	-2.736	Yes	No	No	0.37	0.26	-1.199	-3.14	No	No	No	No	No	No	No	-0.002	No	No	0.368	No	No	2.147	2.769	No	No	0.506	2.571
COc(cc1)ccc1OC(Oc(cc(cc1)O)c1C1=O)=C1O	300.266	3.0051	3	6	2	124.317	-3.306	1.27	91.935	-2.745	Yes	No	No	0.139	0	-0.156	-2.304	No	Yes	Yes	Yes	Yes	No	No	0.63	No	No	0.359	No	No	2.03	2.116	No	No	0.48	0.656
Oc1ccc(C[C@@H](COc(c2c3O)cc(O)c3O)C2=O)cc1	302.282	1.943	2	6	4	125.394	-3.045	0.323	63.083	-2.773	Yes	No	No	-0.376	0.071	-1.207	-3.343	No	No	No	No	No	No	Yes	-0.016	No	No	0.402	No	No	1.843	3.079	No	No	0.334	1.05
Oc1cc(OC[C@H](Cc(cc2)cc(O)c2O)C2=O)c2c(O)c1	302.282	1.943	2	6	4	125.394	-3.1	0.195	76.963	-2.769	Yes	No	No	0.084	0.145	-0.922	-3.253	No	No	No	No	No	No	No	0.035	No	No	0.187	No	No	1.831	2.03	No	No	0.48	1.182
CC(C)([C@H]1O)[C@H](C=C[C@@H](CC2)[C@@]3(C)C[C@@]2(C)C=C)C3=C[C@@H]1O	302.458	3.8591	1	2	2	134.175	-4.688	1.774	95.149	-3.175	Yes	Yes	No	0.152	0.134	0.298	-1.877	No	No	No	No	No	No	No	0.837	Yes	No	0.037	No	No	2.463	1.862	No	No	1.242	0.726
C[C@@](CO)(CC(C1)=O)[C@@H](CC2)[C@@]1(C)[C@@H](CC1)[C@@H]2C[C@]1(C)C=C	304.474	4.3728	2	2	1	134.922	-3.972	1.326	97.175	-2.706	No	Yes	No	-0.071	0	-0.09	-1.388	No	Yes	No	No	No	No	No	0.728	No	No	-0.275	No	No	2.403	1.923	No	No	0.64	0.574
C[C@@](CO)([C@H]1[C@](C)(CC2)[C@@H](CC[C@@](C)(C3)C=C)C3=CC1)[C@@H]2O	304.474	4.0847	2	2	2	134.865	-4.559	1.456	95.81	-3.152	Yes	Yes	No	0.149	0.118	0.245	-2.006	No	No	No	No	No	No	No	0.887	No	No	-0.065	No	No	2.318	1.975	No	No	1.208	0.334
CC(C)([C@H](CC1)[C@@H](CC2=O)[C@](C)(CC3)[C@H]1C[C@]3(C)C=C)[C@H]2O	304.474	4.3712	1	2	1	134.922	-5.247	1.862	96.768	-2.948	No	Yes	No	0.316	0.017	0.16	-2.112	No	Yes	No	Yes	No	No	No	0.708	Yes	No	-0.021	No	Yes	1.86	2.08	Yes	No	1.469	-0.093
COc(c1c(cc2)occ1)c2C(/C=C(/c1ccccc1)\O)=O	294.306	4.2232	4	4	1	126.804	-4.178	1.339	92.33	-2.663	Yes	No	Yes	0.132	0.002	0.164	-1.882	No	Yes	Yes	Yes	Yes	No	Yes	0.277	Yes	No	-0.006	No	Yes	2.036	1.246	No	No	1.175	-0.915
CC/C=C/CC[C@@H](CCC1=C2)CN1c(cccc1)c1C2=O	281.399	4.3103	4	2	0	125.658	-4.789	1.698	96.029	-2.105	Yes	No	No	0.804	0.048	0.364	-1.829	No	Yes	Yes	Yes	Yes	No	No	1.309	No	No	0.114	No	No	1.992	0.812	Yes	No	2.614	-0.456
CN(c(cccc1)c1C(c1c2O)=O)c1cc(OC)c2OC	285.299	2.4145	2	5	1	120.502	-3.787	1.222	96.493	-2.786	Yes	No	Yes	-0.245	0.09	1.007	-2.146	No	Yes	Yes	Yes	No	No	No	0.379	No	Yes	0.466	No	Yes	1.848	2.796	Yes	No	0.397	-1.299
Oc(cc1CC(c(cc2)cc(O)c2O)=C2)cc(O)c1C2=O	284.267	2.3314	1	5	4	119.591	-3.317	0.159	83.176	-2.767	Yes	No	No	0.101	0.236	-0.919	-2.356	No	No	Yes	No	No	No	No	-0.098	No	No	0.186	No	No	2.022	2.015	No	No	0.74	1.887
COc(cc1)ccc1C(Oc1c2c(O)cc(O)c1)=CC2=O	284.267	2.8798	2	5	2	119.203	-3.23	1.078	95.13	-2.838	Yes	No	No	-0.188	0.151	-0.37	-2.213	No	No	Yes	Yes	Yes	Yes	Yes	0.693	No	No	0.617	No	Yes	2.256	1.572	No	No	0.523	-0.483
COc(ccc(C1=COc(cc(cc2)O)c2C1=O)c1)c1O	284.267	2.8798	2	5	2	119.203	-3.583	1.109	94.84	-2.747	Yes	No	No	-0.056	0.036	-0.179	-2.145	No	Yes	Yes	Yes	Yes	No	Yes	0.197	No	No	0.114	No	Yes	2.201	1.208	No	No	0.518	-0.139
COc(cc1O)cc(OC=C2c(cc3)ccc3O)c1C2=O	284.267	2.8798	2	5	2	119.203	-3.412	1.05	92.721	-2.806	Yes	No	No	-0.225	0.08	-0.177	-2.182	No	No	Yes	Yes	Yes	No	Yes	0.335	No	No	0.114	No	Yes	2.494	1.357	No	No	0.505	-0.156
CC(C)([C@H]1[C@@](C)(CC2)[C@@H](CC[C@@](C)(C3)C=C)C3=CC1)[C@H]2O	288.475	5.1123	1	1	1	130.071	-5.778	1.543	94.741	-2.358	No	Yes	No	0.657	0.068	0.653	-2.247	No	Yes	No	Yes	No	No	No	0.78	No	No	0.053	No	No	1.674	1.127	No	No	1.745	-0.102
Oc(cc1O)cc(OC(c(cc2)cc(O)c2O)=C2)c1C2=O	286.239	2.2824	1	6	4	117.313	-3.272	0.476	83.782	-2.765	Yes	No	No	-0.215	0.112	-1.201	-2.433	No	No	Yes	No	Yes	No	Yes	0.583	No	No	0.471	No	No	2.253	1.937	No	No	0.428	1.147
Oc(cc1O)cc(OC(c(cc2)cc(O)c2O)=C2)c1C2=O	286.239	2.2824	1	6	4	117.313	-3.272	0.476	83.782	-2.765	Yes	No	No	-0.215	0.112	-1.201	-2.433	No	No	Yes	No	Yes	No	Yes	0.583	No	No	0.471	No	No	2.253	1.937	No	No	0.428	1.147
Oc(cc1)ccc1C(Oc(c1c2O)cc(O)c2O)=CC1=O	286.239	2.2824	1	6	4	117.313	-3.161	0.222	69.132	-2.743	Yes	No	No	-0.36	0.131	-1.385	-2.499	No	No	Yes	No	No	No	No	0.524	No	No	0.714	No	Yes	2.247	3.017	No	No	0.372	0.854
O[C@H](C1)[C@@H](c(cc2)cc(O)c2O)Oc2c1c(O)cc(O)c2	290.271	1.5461	1	6	5	119.662	-3.088	-0.482	65.904	-2.737	Yes	No	No	0.121	0.236	-1.193	-3.352	No	No	No	No	No	No	No	0.204	No	No	0.314	No	No	2.14	1.886	No	No	0.464	1.287
O[C@@H](C1)[C@@H](c(cc2)cc(O)c2O)Oc2c1c(O)cc(O)c2	290.271	1.5461	1	6	5	119.662	-3.088	-0.482	65.904	-2.737	Yes	No	No	0.121	0.236	-1.193	-3.352	No	No	No	No	No	No	No	0.204	No	No	0.314	No	No	2.14	1.886	No	No	0.464	1.287
O[C@@H](C1)[C@@H](c(cc2)cc(O)c2O)Oc2c1c(O)cc(O)c2	290.271	1.5461	1	6	5	119.662	-3.088	-0.482	65.904	-2.737	Yes	No	No	0.121	0.236	-1.193	-3.352	No	No	No	No	No	No	No	0.204	No	No	0.314	No	No	2.14	1.886	No	No	0.464	1.287
O[C@@H](C1)[C@@H](c(cc2)cc(O)c2O)Oc2c1c(O)cc(O)c2	290.271	1.5461	1	6	5	119.662	-3.088	-0.482	65.904	-2.737	Yes	No	No	0.121	0.236	-1.193	-3.352	No	No	No	No	No	No	No	0.204	No	No	0.314	No	No	2.14	1.886	No	No	0.464	1.287
O[C@@H](C1)[C@@H](c(cc2)cc(O)c2O)Oc2c1c(O)cc(O)c2	290.271	1.5461	1	6	5	119.662	-3.088	-0.482	65.904	-2.737	Yes	No	No	0.121	0.236	-1.193	-3.352	No	No	No	No	No	No	No	0.204	No	No	0.314	No	No	2.14	1.886	No	No	0.464	1.287
CC(C)(CCC1)[C@@H](CC2)[C@@]1(C)[C@H](CC1)[C@]2(C)OCC[C@@H]1O	294.479	4.5491	0	2	1	130.198	-4.895	1.654	95.146	-2.733	No	Yes	No	0.496	0.2	0.479	-2.68	No	No	No	Yes	No	No	No	0.744	Yes	No	-0.03	No	No	1.818	2.001	No	Yes	1.405	0.525
CC(C)(CCC1)[C@@H](CC2)[C@@]1(C)[C@H](CC1)[C@]2(C)OCC[C@@H]1O	294.479	4.5491	0	2	1	130.198	-4.895	1.654	95.146	-2.733	No	Yes	No	0.496	0.2	0.479	-2.68	No	No	No	Yes	No	No	No	0.744	Yes	No	-0.03	No	No	1.818	2.001	No	Yes	1.405	0.525
CC(C)(CCC1)[C@@H](CC2)[C@@]1(C)[C@H](CC1)[C@]2(C)OCCC1=O	292.463	4.7573	0	2	0	129.566	-5.244	1.668	97.624	-2.519	No	Yes	No	0.482	0.174	0.495	-2.507	No	Yes	No	Yes	No	No	No	0.713	Yes	No	-0.072	No	No	1.704	2.001	No	Yes	1.409	0.257
CC(C)CCC(c(c(O)cc(O)c1CC=C(C)C)c1O)=O	292.375	3.931	6	4	3	125.300	-2.947	1.2	90.905	-2.858	Yes	No	No	-0.243	0.236	-1.157	-2.398	No	No	No	No	No	No	No	0.951	No	No	-0.058	No	Yes	2.074	3.124	No	No	0.368	-0.349
O=C(c(cccc1)c1-c1c23)c2nccc3cc2c1OCO2	275.263	3.1749	0	4	0	119.497	-4.61	1.353	99.159	-2.556	No	No	No	0.126	0.237	0.507	-1.573	No	Yes	Yes	Yes	No	No	No	0.079	No	Yes	-0.153	No	No	2.144	1.724	No	No	0.423	0.268
O[C@H]([C@H]([C@@H](C(CC1)=C2)N1Cc1c3)c1cc1c3OCO1)[C@H]2O	287.315	0.7486	0	5	2	121.943	-1.952	0.606	68.529	-3.476	No	No	No	0.563	0.527	-0.102	-2.597	No	Yes	No	No	No	No	No	1.024	Yes	No	-0.078	No	No	3.118	0.932	Yes	No	0.528	2.03
