SMILES	MOL_WEIGHT	LOGP	#ROTATABLE_BONDS	#ACCEPTORS	#DONORS	SURFACE_AREA	Water solubility	Caco2 permeability	Intestinal absorption (human)	Skin Permeability	P-glycoprotein substrate	P-glycoprotein I inhibitor	P-glycoprotein II inhibitor	VDss (human)	Fraction unbound (human)	BBB permeability	CNS permeability	CYP2D6 substrate	CYP3A4 substrate	CYP1A2 inhibitior	CYP2C19 inhibitior	CYP2C9 inhibitior	CYP2D6 inhibitior	CYP3A4 inhibitior	Total Clearance	Renal OCT2 substrate	AMES toxicity	Max. tolerated dose (human)	hERG I inhibitor	hERG II inhibitor	Oral Rat Acute Toxicity (LD50)	Oral Rat Chronic Toxicity (LOAEL)	Hepatotoxicity	Skin Sensitisation	<i>T.Pyriformis</i> toxicity	Minnow toxicity
CC(C)CNC(/C=C/C=C/CCCCO)=O	225.332	2.0336	8	2	2	98.245	-2.782	1.382	92.084	-2.275	No	No	No	-0.042	0.347	-0.021	-2.776	No	No	No	No	No	No	No	0.721	Yes	Yes	0.323	No	No	2.066	2.92	No	Yes	1.692	0.879
C[C@@](CC/C=C(\C)/CCC=C(C)C)(C=C)O	222.372	4.3963	7	1	1	100.574	-5.162	1.509	92.352	-1.483	No	No	No	0.374	0.227	0.662	-2.11	No	No	No	No	No	No	No	1.739	No	No	0.388	No	No	1.628	1.202	No	Yes	2.284	0.097
C[C@](CCC=C)(/C=C(\C)/CCC=C(C)C)O	222.372	4.3963	7	1	1	100.574	-5.16	1.51	92.345	-1.482	No	No	No	0.374	0.226	0.66	-2.103	No	No	No	No	No	No	No	1.742	No	No	0.381	No	No	1.63	1.211	No	Yes	2.285	0.082
CC(C)=CCC/C(/C)=C/CC/C(/C)=C/CO	222.372	4.3979	7	1	1	100.574	-5.319	1.523	92.876	-1.497	No	No	No	0.371	0.197	0.684	-1.96	No	No	No	No	No	No	No	1.754	No	No	0.479	No	No	1.619	1.233	No	Yes	2.337	-0.089
O=C(c1c2cccc1)c(ccnc1)c1C2=O	209.204	1.857	0	3	0	91.755	-2.287	1.302	99.065	-2.296	No	No	No	-0.195	0.224	0.232	-1.615	No	Yes	Yes	Yes	No	No	No	0.142	No	No	-0.379	No	No	1.995	2.469	No	No	1.065	1.965
Cc1nccc2c1[nH]c1c2ccc(OC)c1	212.252	3.03312	1	2	1	93.067	-3.036	1.363	94.641	-2.813	No	No	No	0.493	0.234	0.324	-1.555	No	No	Yes	No	No	No	No	0.662	No	Yes	0.127	No	No	2.544	1.599	No	No	0.667	-0.468
C[C@H](CC[C@H]1C(C)=C2O[C@]11CCC2)[C@H]1OC	222.328	3.2744	1	2	0	98.003	-3.404	1.626	96.902	-2.579	No	No	No	0.438	0.445	0.625	-2.94	No	No	No	No	No	No	No	1.11	No	No	0.275	No	No	1.812	1.848	No	Yes	0.703	1.321
COc1c(cco2)c2cc(O2)c1C=CC2=O	216.192	2.5478	1	4	0	90.034	-2.661	1.28	99.507	-2.387	No	No	No	-0.167	0.311	0.201	-2.785	No	No	Yes	Yes	No	Yes	Yes	0.764	No	Yes	-0.543	No	No	2.084	1.707	No	No	0.412	0.139
C[C@@H](/C=C/[C@@](C(C)(C)C1)(C(C)=CC1=O)O)O	224.3	1.5998	2	3	2	96.484	-1.881	1.242	94.739	-3.947	No	No	No	0.019	0.525	-0.093	-2.912	No	No	No	No	No	No	No	1.355	No	No	0.8	No	No	1.847	2.664	No	No	0.245	2.052
CC#CC#CC#Cc(cc(cc1)Cl)c1OC	228.678	2.7268	1	1	0	100.765	-4.303	1.73	97.406	-1.523	No	No	No	0.412	0.112	0.701	-1.22	No	Yes	Yes	No	No	No	No	-0.106	No	No	0.375	No	No	1.682	1.203	No	Yes	2.398	0.36
CC(C)[C@H](CC/C(/C)=C\CC1)/C=C/[C@]1(C)O	222.372	4.0861	1	1	1	100.258	-4.079	1.517	92.893	-1.94	No	No	No	0.33	0.359	0.532	-2.518	No	No	No	Yes	No	No	No	1.305	No	No	0.508	No	No	1.718	1.244	No	Yes	1.442	0.908
CCCOC(/C=C/c(cc1)cc(O)c1O)=O	222.24	2.0642	4	4	2	93.795	-1.95	1.008	92.92	-2.968	Yes	No	No	0.094	0.44	0.18	-2.57	No	No	No	No	No	No	No	0.578	No	Yes	0.583	No	No	1.872	2.079	No	No	0.969	0.769
COc1c(cco2)c2nc2ccccc12	199.209	2.9896	1	3	0	86.287	-2.775	1.647	96.304	-2.346	No	No	No	0.115	0.264	0.418	-1.704	No	No	Yes	No	No	No	No	0.76	No	Yes	-0.014	No	No	2.077	1.821	No	No	0.542	0.084
COc(cc1)cc2c1c(ccnc1)c1[nH]2	198.225	2.7247	1	2	1	86.702	-3.298	1.539	94.491	-2.797	Yes	No	No	0.452	0.247	0.602	-1.967	No	No	Yes	No	No	Yes	Yes	0.629	No	Yes	-0.365	No	No	2.756	1.14	No	No	0.508	1.522
CC(C)=CCc1cc(NC(C2)=O)c2cc1	201.269	2.6899	2	1	1	90.002	-3.41	1.262	95.159	-2.037	No	No	No	0.513	0.265	0.31	-1.823	No	No	Yes	No	No	No	No	0.15	No	No	0.519	No	No	2.231	1.798	No	Yes	1.868	0.789
C[C@H]([C@@H](C)Oc1c2c(O)cc(O)c1)C2=O	208.213	1.6975	0	4	2	87.114	-2.234	0.201	94.432	-3.478	Yes	No	No	-0.003	0.426	-0.014	-3.25	No	No	No	No	No	No	No	0.196	No	No	0.145	No	No	2.099	2.172	No	No	0.603	1.459
CC#CC#CC#Cc(cc(cc1)Cl)c1O	214.651	2.4238	0	1	1	94.081	-2.864	1.68	94.598	-1.797	No	No	No	0.436	0.188	0.504	-1.304	No	Yes	Yes	No	No	No	No	-0.259	No	No	0.637	No	No	1.954	1.297	No	Yes	1.857	0.751
C[C@H]1O[C@@H]1c1nc2ccccc2cc1	185.226	2.6946	1	2	0	82.535	-2.342	1.637	96.876	-2.575	No	No	No	0.174	0.257	0.101	-2.35	No	No	Yes	No	No	No	No	0.713	No	Yes	0.382	No	No	1.745	2.124	No	No	0.623	0.32
O=C(C=C1)Oc2c1cc(cco1)c1c2	186.166	2.5392	0	3	0	78.555	-2.684	1.336	97.211	-2.258	Yes	No	No	-0.316	0.298	0.462	-1.696	No	No	Yes	Yes	Yes	Yes	Yes	0.738	No	No	-0.458	No	No	1.744	1.025	No	No	0.741	1.461
CC(/C=C/c1cc([nH]cc2)c2cc1)=O	185.226	2.7701	2	1	1	82.254	-2.573	1.632	93.762	-2.152	No	No	No	0.224	0.277	0.348	-1.903	No	No	Yes	No	No	No	No	0.324	Yes	No	0.373	No	No	2.132	1.811	No	Yes	0.991	0.663
CC(C)=CCc1cc([nH]cc2)c2cc1	185.27	3.6766	2	0	1	84.457	-3.416	1.539	93.04	-1.934	No	No	No	0.536	0.202	0.449	-1.705	No	No	Yes	Yes	No	No	No	0.406	Yes	No	0.545	No	No	2.223	1.895	No	Yes	1.239	0.196
CC(/C=C/c1cc([nH]cc2)c2cc1)=C	183.254	3.7572	2	0	1	83.768	-3.456	1.528	92.608	-1.937	No	No	No	0.544	0.203	0.444	-1.701	No	No	Yes	Yes	No	No	No	0.403	Yes	No	0.471	No	No	2.19	1.906	No	Yes	1.267	0.242
CC(C(c1c2c(O)ccc1)=O)=CC2=O	188.182	1.7175	0	3	1	80.678	-2.101	1.211	94.822	-2.479	No	No	No	0.097	0.419	0.545	-2.783	No	No	Yes	No	No	No	No	0.12	No	Yes	0.617	No	No	1.939	2.753	No	No	1.078	1.389
COc(c(O)c1)cc(C=C2)c1OC2=O	192.17	1.5072	1	4	1	79.352	-2.044	1.197	96.356	-2.656	No	No	No	-0.167	0.39	-0.253	-2.882	No	No	Yes	No	No	No	No	0.783	No	No	0.705	No	No	2.411	2.717	No	No	0.608	1.159
COc(ccc(/C=C/C=O)c1)c1OC	192.214	1.9159	4	3	0	82.955	-2.403	1.63	96.789	-2.634	No	No	No	-0.052	0.29	0.187	-2.017	No	No	Yes	No	No	No	No	0.25	No	No	1.099	No	No	1.867	2.43	No	Yes	0.772	1.598
Cc(ccc(/C=C/C(O)=O)c1)c1OC	192.214	2.10142	3	2	1	82.636	-2.473	1.257	96.403	-2.165	No	No	No	-1.08	0.336	-0.001	-1.982	No	No	No	No	No	No	No	0.788	No	No	1.048	No	No	2.173	2.727	No	No	0.185	1.498
C=CC#CC#CC1=CC=C(C#C)SS1	214.314	2.9752	0	2	0	92.323	-4.72	1.446	96.693	-1.371	No	No	No	0.348	0.308	0.776	-1.675	No	No	No	No	No	No	No	-0.257	No	No	0.156	No	No	1.741	1.216	No	Yes	2.03	0.581
COc(cc(CC=C)cc1O)c1O	180.203	1.8349	3	3	2	76.904	-1.845	1.214	93.083	-3.125	Yes	No	No	0.324	0.455	0.218	-2.464	No	No	Yes	No	No	No	No	0.256	No	No	0.754	No	No	1.992	2.182	No	No	0.704	1.572
COc1cc(C=O)cc(OC)c1O	182.175	1.2219	3	4	1	75.709	-2.237	1.186	89.974	-2.958	No	No	No	0.077	0.514	-0.236	-2.9	No	No	No	No	No	No	No	0.659	No	No	1.32	No	No	1.847	2.217	No	No	-0.024	2.172
CCCc1nc2ccccc2cc1	171.243	3.1873	2	1	0	78.428	-2.92	1.552	96.771	-1.819	No	No	No	0.326	0.227	0.44	-1.893	No	No	Yes	Yes	No	No	No	0.337	No	No	0.638	No	No	2.147	1.361	No	Yes	0.542	0.162
C/C=C/c1nc2ccccc2cc1	169.227	3.2679	1	1	0	77.738	-3.043	1.558	96.582	-1.812	No	No	No	0.279	0.221	0.393	-1.84	No	No	Yes	Yes	No	No	No	0.824	No	No	0.607	No	No	2.147	2.339	No	Yes	0.578	0.213
COc1cc(OC(CC2)=O)c2cc1	178.187	1.5468	1	3	0	76.274	-2.48	1.106	98.397	-2.513	No	No	No	-0.089	0.389	-0.125	-2.256	No	No	Yes	No	No	No	No	0.345	No	No	1.054	No	No	1.922	2.51	No	Yes	0.601	1.575
C=CCSS/C=C/C[S@](CC=C)=O	234.411	3.0022	8	3	0	90.610	-3.92	1.523	94.911	-1.757	No	No	No	0.135	0.388	0.7	-2.16	No	No	No	No	No	No	No	0.538	No	No	0.379	No	No	2.367	0.965	No	Yes	2.389	0.083
CC(C)=CCC/C(/C)=C/CCO	168.28	3.0615	5	1	1	75.804	-3.446	1.51	93.123	-1.405	No	No	No	0.229	0.385	0.647	-2.124	No	No	No	No	No	No	No	0.529	No	No	0.798	No	No	1.702	2.122	No	Yes	1.104	0.848
Oc1cc(OC(CC2)=O)c2cc1	164.16	1.2438	0	3	1	69.590	-1.731	1.222	79.721	-2.813	No	No	No	-0.094	0.447	-0.189	-2.333	No	No	Yes	No	No	No	No	0.281	No	No	1.018	No	No	1.82	2.799	No	No	0.356	1.852
OC(/C=C/c(cc1)ccc1O)=O	164.16	1.49	2	2	2	69.587	-1.661	1.167	92.665	-2.705	No	No	No	-0.97	0.484	-0.213	-2.387	No	No	No	No	No	No	No	0.662	No	No	1.126	No	No	1.999	2.203	No	No	0.219	1.634
OC(/C=C/c(cc1)ccc1O)=O	164.16	1.49	2	2	2	69.587	-1.661	1.167	92.665	-2.705	No	No	No	-0.97	0.484	-0.213	-2.387	No	No	No	No	No	No	No	0.662	No	No	1.126	No	No	1.999	2.203	No	No	0.219	1.634
OC(c(cc1O)cc(O)c1O)=O	170.12	0.5016	1	4	4	67.135	-1.962	-0.106	38.653	-2.735	Yes	No	No	-0.968	0.598	-1.225	-4.125	No	No	No	No	No	No	No	0.577	No	No	1.274	No	No	1.757	3.017	No	No	0.285	1.41
COc(cc(CC=C)cc1)c1O	164.204	2.1293	3	2	1	72.109	-2.004	1.587	93.514	-2.299	No	No	No	0.458	0.393	0.471	-2.012	No	No	Yes	No	No	No	No	0.288	No	No	0.773	No	No	2.129	2.297	No	Yes	0.56	1.515
CC1(C)O[C@H]1C(/C=C(\C)/C=C)=O	166.22	1.8652	3	2	0	72.914	-1.719	1.576	97.721	-3.338	No	No	No	0.068	0.562	0.44	-2.66	No	No	No	No	No	No	No	0.195	No	Yes	0.679	No	No	1.805	2.305	No	Yes	0.186	1.827
COC([C@@](C=CCC1)(C1=O)O)=O	170.164	-0.1904	1	4	1	69.829	-0.263	0.7	88.797	-4.034	No	No	No	-0.156	0.76	-0.331	-2.994	No	No	No	No	No	No	No	0.539	No	Yes	1.142	No	No	2.01	2.528	No	No	-0.707	3.016
CC(C)=C(CCC(C)=C1)C1=O	150.221	2.632	0	1	0	67.800	-2.526	1.52	96.917	-2.187	Yes	No	No	0.177	0.517	0.557	-2.411	No	No	No	No	No	No	No	0.156	No	No	0.815	No	No	1.828	2.116	No	Yes	0.346	1.475
OC(c(cc1)cc(O)c1O)=O	154.121	0.796	1	3	3	62.341	-1.632	0.614	74.568	-2.735	No	No	No	-0.962	0.649	-0.861	-3.33	No	No	No	No	No	No	No	0.569	No	Yes	1.449	No	No	1.852	2.292	No	No	0.271	1.827
CC(C)=CC(CC(C=C)=C)=O	150.221	2.654	4	1	0	68.116	-2.933	1.514	96.623	-1.641	No	No	No	0.14	0.467	0.63	-2.176	No	No	No	No	No	No	No	0.466	No	No	0.705	No	No	1.666	2.08	No	Yes	0.764	1.029
CC(C)=CCC/C(/C)=C/C=O	152.237	2.878	4	1	0	68.806	-3.326	1.521	95.996	-2.436	No	No	No	0.165	0.42	0.641	-2.006	No	No	No	No	No	No	No	0.376	No	No	0.737	No	No	1.877	2.149	No	Yes	1.036	0.857
CC(C)=CCC/C(/C)=C\C=O	152.237	2.878	4	1	0	68.806	-3.326	1.521	95.996	-2.436	No	No	No	0.165	0.42	0.641	-2.006	No	No	No	No	No	No	No	0.376	No	No	0.737	No	No	1.877	2.149	No	Yes	1.036	0.857
O=Cc(cc1)cc2c1[nH]cc2	145.161	1.9804	1	1	1	63.849	-1.69	1.617	93.469	-2.047	No	No	No	0.167	0.414	0.481	-2.181	No	No	Yes	No	No	No	No	0.605	No	No	0.199	No	No	2.203	1.882	Yes	Yes	0.276	1.446
OCC1=CC=C2C1=COC=C2	148.161	1.8767	1	2	1	64.421	-2.13	1.465	92.948	-2.368	No	No	No	0.252	0.51	0.274	-2.401	No	No	No	No	No	No	No	0.35	No	No	0.562	No	No	2.021	1.856	Yes	Yes	0.014	1.904
CC(C)=CCCC(C=C)=C	136.238	3.475	4	0	0	63.955	-4.497	1.405	94.696	-1.043	No	No	No	0.363	0.386	0.786	-1.902	No	No	No	No	No	No	No	0.438	No	No	0.67	No	No	1.679	2.415	No	No	0.894	0.736
Oc(ccc(C=O)c1)c1O	138.122	0.9103	1	3	2	57.546	-0.755	1.134	77.745	-3.251	No	No	No	-0.036	0.589	-0.306	-2.901	No	No	No	No	No	No	No	0.552	No	No	0.739	No	No	1.865	2.149	No	No	-0.17	2.336
OCc(cccc1)c1O	124.139	0.8845	1	2	2	53.385	-0.265	1.697	80.131	-2.588	No	No	No	0.113	0.554	-0.238	-2.219	No	No	No	No	No	No	No	0.286	No	No	0.558	No	No	2.076	2.152	No	Yes	-0.287	2.177
Oc(cccc1)c1O	110.112	1.0978	0	2	2	47.020	-0.241	1.701	80.118	-2.572	No	No	No	0.059	0.544	-0.278	-2.12	No	No	No	No	No	No	No	0.151	No	No	0.61	No	No	2.144	2.172	No	Yes	-0.136	2.191
CC1=CCCCC1	96.173	2.5067	0	0	0	45.233	-2.324	1.384	96.014	-2.121	Yes	No	No	0.292	0.601	0.333	-2.517	No	No	No	No	No	No	No	0.207	No	No	0.924	No	No	2.05	2.214	No	Yes	-0.232	1.82
CCCOC(C)=O	102.133	0.9595	2	2	0	43.474	-0.143	1.614	100	-2.851	No	No	No	-0.183	0.713	0.057	-2.577	No	No	No	No	No	No	No	0.465	No	No	1.104	No	No	1.922	2.323	No	Yes	-0.724	2.269
