SMILES	MOL_WEIGHT	LOGP	#ROTATABLE_BONDS	#ACCEPTORS	#DONORS	SURFACE_AREA	Water solubility	Caco2 permeability	Intestinal absorption (human)	Skin Permeability	P-glycoprotein substrate	P-glycoprotein I inhibitor	P-glycoprotein II inhibitor	VDss (human)	Fraction unbound (human)	BBB permeability	CNS permeability	CYP2D6 substrate	CYP3A4 substrate	CYP1A2 inhibitior	CYP2C19 inhibitior	CYP2C9 inhibitior	CYP2D6 inhibitior	CYP3A4 inhibitior	Total Clearance	Renal OCT2 substrate	AMES toxicity	Max. tolerated dose (human)	hERG I inhibitor	hERG II inhibitor	Oral Rat Acute Toxicity (LD50)	Oral Rat Chronic Toxicity (LOAEL)	Hepatotoxicity	Skin Sensitisation	<i>T.Pyriformis</i> toxicity	Minnow toxicity
CC(C)=CCCc(c(O)c(CCC=C(C)C)c(Oc(c(O)c1OC)c2cc1OC)c1C2=O)c1O	468.546	5.8778	8	7	3	198.101	-4.545	0.823	86.882	-2.735	Yes	Yes	Yes	0.186	0	-1.38	-2.927	No	No	No	Yes	Yes	No	Yes	0.178	No	No	0.196	No	Yes	1.99	2.823	No	No	0.291	-1.121
OC[C@@H]([C@@H]([C@H]([C@@H]1O)O)O)O[C@@H]1O/C(/CC#Cc(cc1)cc(O)c1O)=C(\c(cc1)cc(O)c1O)/O	476.434	-0.0061	5	11	9	193.182	-2.857	-0.165	16.048	-2.74	Yes	No	No	-0.894	0.511	-1.927	-4.04	No	Yes	No	No	No	No	No	0.166	No	No	0.079	No	No	3.098	3.018	No	No	0.285	3.982
O[C@@H]([C@@H](COC(c(cc1O)cc(O)c1O)=O)O[C@H]([C@@H]1O)OC(c(cc2O)cc(O)c2O)=O)[C@@H]1O	484.366	-1.2584	5	14	9	189.214	-2.899	-1.483	19.152	-2.735	Yes	No	No	0.661	0.313	-2.605	-5.065	No	No	No	No	No	No	No	0.545	No	No	0.513	No	No	2.582	5.19	No	No	0.285	3.935
CC(C)=CCC/C(/C)=C/Cc(c(O)c(CC=C(C)C)c(Oc1c2c(O)ccc1O)c1C2=O)c1O	464.558	6.5125	7	6	4	198.343	-3.398	0.605	83.467	-2.735	Yes	Yes	Yes	0.142	0.062	-1.304	-1.964	No	No	Yes	Yes	Yes	No	No	0.106	No	No	0.465	No	Yes	2.126	2.563	Yes	No	0.289	-1.233
CC(C)=CCC/C(/C)=C/Cc(c1c(cc2O)Oc3cc(O)c(CC=C(C)C)c(O)c3C1=O)c2O	464.558	6.5125	7	6	4	198.343	-3.516	0.709	85.689	-2.735	Yes	Yes	Yes	-0.299	0	-1.304	-2.041	No	Yes	Yes	Yes	Yes	No	No	0.078	No	No	0.623	No	Yes	2.032	2.391	Yes	No	0.293	-1.623
CC(OC[C@H](Cc1ccccc1)NC([C@@H](Cc1ccccc1)NC(c1ccccc1)=O)=O)=O	444.531	3.3183	10	4	2	193.528	-4.177	1.051	94.173	-2.735	Yes	Yes	Yes	0.08	0	-0.325	-2.578	No	Yes	No	Yes	Yes	No	Yes	0.561	No	No	-0.258	No	Yes	2.115	1.661	Yes	No	0.378	1.002
COC1=C(c(cc2)ccc2O)Oc(cc(cc2O)OC[C@H]([C@H]([C@@H]([C@H](C=O)O)O)O)O)c2C1=O	462.407	-0.0989	9	11	6	185.845	-3.029	0.008	37.211	-2.735	Yes	No	Yes	0.333	0.123	-1.804	-4.341	No	No	No	No	No	No	No	0.729	No	No	0.47	No	Yes	2.547	3.502	No	No	0.285	4.365
C[C@@](Cc1cc2cc(OC/C=C(\C)/CCC=C(C)C)cc(O)c2c(O)c11)(CC1=O)OC(C)=O	452.547	5.7732	7	6	2	194.071	-5.15	0.987	91.853	-2.827	Yes	Yes	Yes	0.409	0.032	-0.427	-2.639	No	No	No	Yes	Yes	No	Yes	0.375	No	No	0.344	No	No	2.006	2.006	No	No	0.383	-1.476
C/C=C(\C)/CCc(c(OC(c(ccc(O)c1)c1O)=CC1=O)c1c(O)c1CCC=C(C)C)c1O	450.531	6.08	7	6	4	192.314	-3.42	0.372	87.458	-2.735	Yes	Yes	Yes	-0.254	0.042	-1.364	-2.038	No	No	No	Yes	Yes	No	No	0.168	No	No	0.62	No	Yes	2.597	1.542	Yes	No	0.294	-0.607
C[C@H](C[C@H]([C@@](C)(CCC1)C(N(CCOC(C)=O)C2)=O)[C@@]12[C@H]1C[C@@H](CC2)C3=C)[C@@]12[C@@H]3OC(C)=O	457.611	4.1285	4	5	0	196.980	-5.378	0.898	100	-3.192	Yes	Yes	Yes	-0.381	0	-0.09	-2.114	No	Yes	No	No	No	No	No	0.392	No	No	-0.827	No	No	3.363	0.984	No	No	0.314	-0.243
CC(C)(CC[C@]12CO)C[C@H]2C2=CC[C@@H]([C@@](C)(CC3)[C@@H](CC4)C(C)(C)[C@H]3O)[C@]4(C)[C@]2(C)C[C@H]1O	458.727	6.1121	1	3	3	201.987	-6.049	1.382	93.263	-3.225	Yes	Yes	Yes	-0.133	0	-0.019	-1.333	No	Yes	No	No	No	No	No	0.09	No	No	-1.014	No	No	3.585	1.69	No	No	0.396	-0.081
CC(C)(CC[C@]12CO)C[C@H]2C2=CC[C@@H]([C@@](C)(CC3)[C@@H](CC4)C(C)(C)[C@H]3O)[C@]4(C)[C@]2(C)CC1=O	456.711	6.3203	1	3	2	201.354	-6.297	1.399	94.231	-3.154	Yes	Yes	Yes	0.128	0	0.019	-1.177	No	Yes	No	No	No	No	No	0.037	No	No	-0.908	No	No	3.396	1.683	Yes	No	0.435	-0.349
C[C@H](CC1)[C@H](C)[C@@H]2C3=CC[C@H]([C@@](C)(CC4)[C@@H](CC5)C(C)(C)[C@H]4O)[C@]5(C)[C@]3(C)CC[C@]12C(O)=O	456.711	7.0895	1	2	2	201.354	-3.109	1.312	100	-2.726	No	No	No	-1.019	0	-0.203	-1.15	No	Yes	No	No	No	No	No	0.083	No	No	0.508	No	No	2.67	2.127	Yes	No	0.285	-1.036
CC(C)([C@@H](CC1)[C@](C)(CC2)[C@H](CC3)[C@]1(C)[C@](C)(CC1)[C@@H]3[C@H]([C@H](CC3)C(C)=C)[C@@]13C(O)=O)[C@@H]2O	456.711	7.0895	2	2	2	201.354	-2.978	1.216	100	-2.734	No	No	No	-1.165	0	-0.401	-1.357	No	Yes	No	No	No	No	No	0.116	No	No	0.386	No	No	2.392	2.335	Yes	No	0.285	-1.908
CC(C)(CC1)C[C@@H]2C3=CC[C@H]([C@@](C)(CC4)[C@@H](CC5)C(C)(C)[C@H]4O)[C@]5(C)[C@]3(C)CC[C@]12C(O)=O	456.711	7.2336	1	2	2	201.354	-3.055	1.313	100	-2.728	No	No	No	-1.054	0	-0.165	-1.115	No	Yes	No	No	No	No	No	-0.081	No	No	0.572	No	No	2.689	2.112	Yes	No	0.285	-1.163
CC(C)([C@@H](CC1)[C@](C)(CC2)C(CC3)=C1[C@]1(C)[C@]3(C)[C@H](C[C@](C)(CC3)C(O)=O)[C@@]3(C)CC1)[C@@H]2O	456.711	7.3777	1	2	2	201.354	-4.026	1.322	99.912	-2.68	No	No	Yes	-0.589	0	-0.01	-1.055	No	Yes	No	No	No	No	No	-0.036	No	No	0.755	No	No	2.418	2.058	Yes	No	0.287	-1.29
C[C@@](CC[C@@H]1C(C)=C)(CC2)[C@@H]1[C@@](C)(CC1)[C@H]2[C@@H](CC2)[C@@H]1[C@@](C)(CC1)[C@H]2C(C)(C)[C@H]1OC(C)=C	452.767	9.1926	3	1	0	204.758	-6.134	1.231	99.772	-2.726	No	No	Yes	0.026	0	0.841	-1.809	No	Yes	No	No	No	No	No	0.157	No	No	-0.162	No	Yes	2.563	0.824	No	No	0.304	-2.668
CC(C)(CC1)C[C@@H]([C@](C)(CC[C@@H]([C@@]2(C)CC[C@H]3[C@](C)(CC4)O)[C@@]3(C)[C@@H]4O)C2=CC2)[C@@]12C(O)=O	458.683	5.9584	1	3	3	199.783	-3.039	0.947	100	-2.729	No	No	Yes	-1.344	0	-0.636	-1.564	No	Yes	No	No	No	No	No	0.009	No	No	0.552	No	No	2.803	2.155	No	No	0.285	-0.579
CC(C)(CC1)C[C@@H]([C@](C)(CC[C@H]([C@@]2(C)CC[C@@H]3O)[C@@]4(C)CC[C@H]2[C@@]3(C)O)C4=CC2)[C@@]12C(O)=O	458.683	5.9584	1	3	3	199.783	-3.029	0.978	100	-2.732	No	No	Yes	-1.352	0	-0.64	-1.523	No	Yes	No	No	No	No	No	0.006	No	No	0.587	No	No	3.008	2.098	No	No	0.285	-0.389
CC(C)([C@H](CC1)[C@](C)(CC2)[C@@H](CC3)[C@]1(C)[C@](C)(CC1)[C@H]3[C@@H]([C@@H](CC3)C(C)=O)[C@@]13C(O)=O)[C@H]2O	458.683	6.1024	2	3	2	199.840	-3.054	0.755	100	-2.731	No	No	No	-1.238	0	-0.023	-1.635	No	Yes	No	No	No	No	No	0.124	No	No	0.419	No	No	2.361	2.161	Yes	No	0.285	-1.249
C[C@](CC[C@](C)(C1)C(O)=O)(CC2)[C@@H]1[C@](C)(CC[C@@]13C)[C@@]2(C)C3=CC=C(C(C)=C2O)C1=CC2=O	450.619	6.6977	1	3	2	197.082	-4.155	0.739	100	-2.719	Yes	No	Yes	-0.986	0	0.331	-1.184	No	Yes	No	No	No	No	No	-0.09	No	No	-0.336	No	No	3.25	2.095	Yes	No	0.287	-1.061
CN([C@H](C[C@@H](C=C1)OC)[C@@]1([C@@H]1N(CCc(cc2)ccc2O)C2)c3c2cc2OCOc2c3)C1=O	448.519	2.6011	4	6	1	192.701	-3.9	1.139	94.253	-2.767	Yes	Yes	Yes	1.05	0.082	-0.785	-2.426	No	Yes	No	Yes	No	No	Yes	1.006	Yes	No	-0.97	No	Yes	2.849	0.864	No	No	0.292	2.525
CCN(CC[C@H]12)[C@H](CCCc3nccc4c3n(C)c(cc3)c4cc3O)[C@H]2Nc2c1cccc2	440.591	5.4269	5	5	2	194.597	-4.217	1.423	92.203	-2.743	Yes	Yes	Yes	1.229	0.018	0.087	-1.739	Yes	Yes	Yes	Yes	Yes	Yes	Yes	1.027	No	Yes	0.313	No	Yes	2.047	1.016	Yes	No	0.295	-1.358
CC(C)([C@@H](C[C@H]([C@](C)([C@H]1CC[C@@]2(C)[C@H](c3cocc3)O3)[C@]22O[C@@H]2C3=O)O)[C@]1(C)[C@H](C1)O)[C@@H]1O	460.567	2.9765	1	7	3	193.997	-4.779	0.614	89.518	-3.071	Yes	No	No	-0.036	0.249	-0.845	-3.358	No	Yes	No	No	No	No	No	0.225	No	No	-0.49	No	No	3.557	2.114	No	No	0.294	1.842
CC(C)(C[C@H]1[C@]2(CC3)OC[C@]11CC[C@@]2(C)[C@](C)(CC2)[C@@H]3[C@@](C)(CC3)[C@@H]2C(C)(C)[C@H]3O)CC1=O	456.711	6.5607	0	3	1	201.357	-5.971	1.351	96.866	-3.321	No	Yes	Yes	0.514	0	-0.173	-3.109	No	Yes	No	No	No	No	No	-0.098	Yes	No	-0.306	No	Yes	1.809	1.47	No	No	0.36	-0.044
CC(C)(C[C@H]1[C@]2(CC3)OC[C@@]11CC[C@@]2(C)[C@](C)(CC2)[C@@H]3[C@@](C)(CC3)[C@@H]2C(C)(C)C3=O)CC1=O	454.695	6.7689	0	3	0	200.724	-6.136	1.362	99.344	-3.166	No	Yes	Yes	0.515	0	-0.141	-2.936	No	Yes	No	No	No	No	No	-0.15	Yes	No	-0.231	No	Yes	1.662	1.47	No	No	0.361	-0.313
CC(C)(C[C@H]1[C@]2(CC3)OC[C@]11CC[C@@]2(C)[C@](C)(CC2)[C@@H]3[C@@](C)(CC3)[C@@H]2C(C)(C)[C@H]3O)C[C@@H]1O	458.727	6.3525	0	3	2	201.990	-5.774	1.34	94.388	-3.443	Yes	Yes	Yes	0.512	0	-0.205	-2.759	No	Yes	No	No	No	No	No	-0.044	Yes	No	-0.376	No	Yes	1.953	1.477	Yes	No	0.351	0.224
C[C@H](CC1)[C@@H](C)[C@@H]2C3=CC[C@@](C4)([C@@]4(CC4)[C@H](CC5)C(C)(C)[C@@H]4O)[C@]5(C)[C@]3(C)CC[C@@]12C(C)=C	450.751	8.335	1	1	1	203.432	-6.428	1.347	98.783	-2.761	No	Yes	Yes	0.149	0	0.74	-1.664	No	Yes	No	No	No	No	No	0.051	No	No	-0.006	No	Yes	3.036	1.034	No	No	0.313	-1.754
CC[C@@H](C)C(O[C@H]([C@@H]([C@@H](/C=C(\COC(C)=O)/C/C=C1/C=O)OCC2=O)C2=C)[C@@H]1OC(C)=O)=O	462.495	2.0348	7	9	0	192.314	-4.199	0.918	100	-2.571	No	Yes	No	-0.381	0.339	-1.278	-3.006	No	Yes	No	No	No	No	No	1.569	No	No	0.691	No	No	2.184	1.726	No	No	0.274	3.42
CC(C)C(c(c(O)c(C[C@](C)(C(O)=C1C)C(O)=C(C(C(C)C)=O)C1=O)c(O)c1C)c1OC)=O	460.523	4.25422	7	8	4	192.755	-3.44	0.256	58.131	-2.735	Yes	Yes	No	0.556	0.141	-1.643	-2.959	No	No	No	No	No	No	No	0.48	No	No	0.18	No	Yes	3.583	2.837	No	No	0.285	-0.195
CC(C)(C=C1)Oc(cc2O)c1c(OC(c(cc(c(O)c1)O)c1O)=C1CCC=C(C)C)c2C1=O	450.487	5.3654	4	7	4	190.056	-3.806	1.235	89.305	-2.735	Yes	Yes	Yes	-0.355	0	-1.562	-2.831	No	Yes	No	Yes	Yes	No	No	-0.188	No	No	0.548	No	Yes	2.405	2.568	No	No	0.29	-1.16
CC(C)(C=C1)Oc(c(CCC=C(C)C)c2O)c1c(Oc(c(O)c1OC)c3cc1OC)c2C3=O	452.503	5.4576	5	7	2	191.049	-4.99	1.796	95.961	-2.736	Yes	Yes	Yes	0.124	0	-0.306	-2.878	No	Yes	No	Yes	Yes	No	Yes	-0.083	No	Yes	0.114	No	Yes	2.039	2.206	No	No	0.29	-0.837
CC(C)(C=Cc1c2O)Oc1c(CCC=C(C)C)c(Oc(c(O)c1OC)c3cc1OC)c2C3=O	452.503	5.4576	5	7	2	191.049	-4.917	1.493	95.732	-2.736	Yes	Yes	Yes	0.141	0	-0.205	-2.791	No	Yes	No	Yes	Yes	No	Yes	-0.065	No	No	-0.286	No	Yes	2.009	2.352	No	No	0.288	-0.938
C[C@@](CCC=C(C)C)(C=C1)Oc2c1c(O)c(C([C@H](CO1)c(ccc(OC)c3O)c3O)=O)c1c2	452.503	5.0816	5	7	3	192.092	-4.791	1.044	85.699	-2.735	Yes	Yes	Yes	0.206	0	-1.117	-3.034	No	Yes	No	No	Yes	No	No	0.079	No	No	-0.072	No	No	2.276	2.601	No	No	0.286	-1.221
C[C@](CCC=C(C)C)(C=C1)Oc2c1c(OC[C@H](c(ccc(OC)c1O)c1O)C1=O)c1c(O)c2	452.503	5.0816	5	7	3	192.092	-4.486	0.912	85.726	-2.735	Yes	Yes	No	0.267	0.014	-1.075	-3.029	No	No	No	No	No	No	No	0.055	No	No	0.32	No	No	2.253	2.424	No	No	0.285	-0.998
C[C@H]([C@H]([C@@H]([C@@H]1O)O)O)O[C@H]1OC1=C(c(cc2)cc(OC)c2O)Oc(cc(cc2O)O)c2C1=O	462.407	0.7917	4	11	6	185.791	-3.242	0.029	53.085	-2.735	Yes	No	No	-0.346	0.07	-1.941	-4.67	No	Yes	No	No	No	No	No	0.609	No	No	0.291	No	Yes	2.934	2.803	No	No	0.285	4.106
C[C@@H](CC/C=C(\C)/CO)[C@H](CC1)[C@](C)(C2)[C@@]1(C)C(CC[C@H](C1(C)C)[C@]3(C)CC[C@@H]1O)=C3C2=O	456.711	6.6305	5	3	2	201.670	-6.582	1.358	93.701	-3.279	Yes	Yes	Yes	0.169	0	-0.392	-1.542	No	Yes	No	No	No	No	No	0.416	No	No	-1.386	No	No	3.045	1.978	Yes	No	0.68	-0.195
C[C@@H](CC/C=C(\C)/CO)[C@H](CC1)[C@](C)(CC[C@@H]23)[C@@]1(C)C2=CC[C@H](C(C)(C)[C@H](C1)O)[C@]3(C)[C@@H]1O	458.727	6.2782	5	3	3	202.303	-6.201	1.249	96.261	-3.197	Yes	Yes	Yes	-0.317	0	-0.385	-1.76	No	Yes	No	No	No	No	No	0.53	No	No	-1.064	No	No	3.643	2.185	Yes	No	0.469	-0.236
CC(C)C(C1=O)=CC2=CC=C(C(C)(C)C[C@H](C3)OC(c(cc4)cc(O)c4O)=O)[C@@]3(C)C2=C1O	450.531	5.2931	3	6	3	193.139	-3.953	0.764	84.244	-2.956	Yes	Yes	Yes	0.424	0.084	-0.976	-2.558	No	Yes	No	No	No	No	No	-0.007	No	No	-0.766	No	No	1.914	2.291	No	No	0.362	-0.333
CC(C)C(C1=O)=CC2=CC=C([C@@](C)(COC(c(cc3)cc(O)c3O)=O)CCC3)[C@@]3(C)C2=C1O	450.531	5.2947	4	6	3	193.139	-3.999	0.59	97.783	-2.872	Yes	Yes	Yes	0.125	0	-0.981	-2.516	No	Yes	No	No	No	No	Yes	0.086	No	No	-0.514	No	No	1.853	2.415	No	No	0.33	-0.406
COc(cc(cc1O)C(O[C@H](C2)[C@@H](c(cc3)cc(O)c3O)Oc3c2c(O)cc(O)c3)=O)c1O	456.403	2.8306	4	10	6	186.632	-3.122	-0.209	63.905	-2.735	Yes	No	Yes	-0.106	0.053	-1.886	-3.834	No	No	No	No	Yes	No	Yes	-0.067	No	No	0.548	No	Yes	2.771	2.763	No	No	0.285	3.155
CC(C)C(CC[C@@H](C)[C@@H](CC1)[C@@](C)(CC2)[C@]1(C)[C@H](CC[C@@H]1C(C)(C)C3=O)[C@H]2[C@@]1(C)C=C3O)=C	454.739	8.5308	5	2	1	203.241	-6.696	1.341	96.561	-2.786	No	Yes	Yes	-0.159	0	-0.121	-1.641	No	Yes	No	No	No	No	No	0.225	No	No	-0.202	No	Yes	2.394	2.613	Yes	No	0.375	-2.691
OC[C@@H]([C@@H]([C@H]([C@@H]1O)O)O)O[C@@H]1OC1=C(c(cc2)cc(O)c2O)Oc(cc(cc2O)O)c2C1=O	464.379	-0.5389	4	12	8	183.901	-3.077	-1.148	38.847	-2.735	Yes	No	No	-0.093	0.109	-2.178	-5.094	No	Yes	No	No	No	No	No	0.584	No	No	0.537	No	Yes	2.903	2.646	No	No	0.285	5.417
OC[C@@H]([C@@H]([C@H]([C@@H]1O)O)O)O[C@@H]1OC1=C(c(cc2)cc(O)c2O)Oc(cc(cc2O)O)c2C1=O	464.379	-0.5389	4	12	8	183.901	-3.077	-1.148	38.847	-2.735	Yes	No	No	-0.093	0.109	-2.178	-5.094	No	Yes	No	No	No	No	No	0.584	No	No	0.537	No	Yes	2.903	2.646	No	No	0.285	5.417
OC[C@@H]([C@@H]([C@H]([C@@H]1O)O)O)O[C@@H]1Oc(c(O)c(cc1OC(c(cc2)ccc2O)=C2O)O)c1C2=O	464.379	-0.5389	4	12	8	183.901	-3.17	0.261	43.906	-2.735	Yes	No	No	0.436	0.03	-2.009	-4.92	No	No	No	No	No	No	No	0.571	No	No	0.707	No	Yes	3.041	3.874	No	No	0.285	4.995
CC(C)C(C1=O)=CC2=CC=C(C(C)(C)[C@H](CC3)OC(/C=C/c4ccccc4)=O)[C@@]3(C)C2=C1O	444.571	6.2815	4	4	1	195.590	-6.593	0.668	92.476	-3.204	No	Yes	Yes	0.332	0	0.111	-1.404	No	Yes	No	Yes	No	No	No	0.327	No	No	-0.108	No	No	2.28	1.582	No	No	0.782	-1.859
CC(c(c(O)c(c(OC)c1)-c(c(C(c2cccc(O)c22)=O)c3C2=O)c(C)cc3O)c1OC)=O	448.427	3.77402	4	8	3	188.189	-4.544	0.29	82.079	-2.735	Yes	No	Yes	-0.634	0.089	-1.307	-3.224	No	No	No	No	Yes	No	Yes	0.154	No	No	0.463	No	Yes	2.134	2.149	No	No	0.285	1.007
CC(C)([C@@H](CC/C(/C)=C/CC/C(/C)=C/CC/C=C(\C)/CC[C@@H]([C@](C)(COC(C)=O)O)O)O)O	468.675	4.7529	16	6	4	200.611	-4.951	0.542	62.17	-2.785	Yes	Yes	Yes	-0.427	0.188	-1.096	-3.298	No	No	No	No	No	No	No	1.68	No	No	0.549	No	No	1.835	1.892	Yes	No	0.3	0.054
C[C@H](C1)N(C)[C@H](C)c(c(OC)c2-c(c3cccc(OC)c3c(OC)c3)c3OC)c1cc2O	437.536	5.1842	5	6	1	188.822	-5.053	1.856	97.503	-2.741	Yes	Yes	Yes	0.528	0.08	-0.06	-1.955	No	Yes	No	Yes	Yes	No	No	0.689	No	No	0.009	No	Yes	2.538	1.475	No	No	0.309	1.429
C[C@@H](C1)N(C)[C@H](C)c(c(OC)c2)c1c(-c(c1cccc(OC)c11)c(C)cc1OC)c2OC	435.564	5.78702	5	5	0	190.393	-5.633	1.005	97.764	-2.773	Yes	Yes	Yes	1.083	0.177	-0.216	-0.987	No	Yes	No	No	Yes	No	Yes	0.734	No	Yes	0.235	No	Yes	3.362	1.007	No	No	0.359	-1.12
C[C@@H](C1)N(C)[C@H](C)c(c(OC)c2)c1c(-c(c1cccc(OC)c11)c(C)cc1OC)c2OC	435.564	5.78702	5	5	0	190.393	-5.633	1.005	97.764	-2.773	Yes	Yes	Yes	1.083	0.177	-0.216	-0.987	No	Yes	No	No	Yes	No	Yes	0.734	No	Yes	0.235	No	Yes	3.362	1.007	No	No	0.359	-1.12
C[C@@H](C1)N[C@@H](C)c(c(OC)c2)c1c(-c(c1cc(C)cc(OC)c11)c(C)cc1OC)c2OC	435.564	5.75324	5	5	1	190.183	-5.645	0.995	97.73	-2.785	Yes	Yes	Yes	1.093	0.18	-0.332	-0.985	No	Yes	No	No	Yes	No	Yes	0.711	No	No	0.171	No	Yes	3.34	1.094	No	No	0.371	-0.931
C[C@@H](C1)N[C@H](C)c(c(OC)c2)c1c(-c(c1cc(C)cc(OC)c11)c(C)cc1OC)c2OC	435.564	5.75324	5	5	1	190.183	-5.645	0.995	97.73	-2.785	Yes	Yes	Yes	1.093	0.18	-0.332	-0.985	No	Yes	No	No	Yes	No	Yes	0.711	No	No	0.171	No	Yes	3.34	1.094	No	No	0.371	-0.931
C[C@@H](C1)N=C(C)c(c(OC)c2)c1c(-c(c1cc(C)cc(OC)c11)c(C)cc1OC)c2OC	433.548	5.91164	5	5	0	189.528	-6.425	1.006	100	-2.689	No	Yes	Yes	0.45	0.145	-0.388	-1.664	No	Yes	No	Yes	Yes	No	Yes	0.597	No	No	0.111	No	No	3.207	1.101	No	No	0.377	-1.546
CC(C)(C=Cc1c2O)Oc1c(CC=C(C)C)c(Oc(c(O)c1OC)c3cc1OC)c2C3=O	438.476	5.0675	4	7	2	184.684	-4.772	1.494	94.85	-2.736	Yes	Yes	Yes	0.123	0	-0.194	-2.846	No	Yes	No	Yes	Yes	No	Yes	0.271	No	No	-0.23	No	Yes	2.023	2.373	No	No	0.289	-0.139
OC[C@@H]([C@@H]([C@H]([C@@H]1O)O)O)O[C@@H]1Oc(cc1O)cc(OC(c(cc2)cc(O)c2O)=C2)c1C2=O	448.38	-0.2445	4	11	7	179.107	-3.549	0.286	42.356	-2.735	Yes	No	No	-0.203	0.011	-2.023	-4.772	No	No	No	No	No	No	No	0.704	No	No	0.743	No	Yes	3.145	3.266	No	No	0.285	3.173
OC[C@@H]([C@@H]([C@H]([C@@H]1O)O)O)O[C@@H]1c(cc(cc1)C(Oc2c3c(O)cc(O)c2O)=CC3=O)c1O	448.38	-0.2027	3	11	8	178.788	-3.017	-0.779	30.49	-2.735	Yes	No	No	0.316	0.071	-2.343	-4.68	No	No	No	No	No	No	No	0.577	No	Yes	0.779	No	No	2.873	3.472	No	No	0.285	4.831
OC[C@@H]([C@@H]([C@H]([C@@H]1O)O)O)O[C@@H]1c(cc(cc1)C(Oc2c3c(O)cc(O)c2O)=CC3=O)c1O	448.38	-0.2027	3	11	8	178.788	-3.017	-0.779	30.49	-2.735	Yes	No	No	0.316	0.071	-2.343	-4.68	No	No	No	No	No	No	No	0.577	No	Yes	0.779	No	No	2.873	3.472	No	No	0.285	4.831
C[C@@H]([C@H]([C@@H]([C@@H]1O)O)O)O[C@@H]1OC1=C(c(cc2)cc(O)c2O)Oc(cc(cc2O)O)c2C1=O	448.38	0.4887	3	11	7	179.107	-3.113	-1.06	48.474	-2.735	Yes	No	No	-0.149	0.094	-2.072	-4.769	No	Yes	No	No	No	No	No	0.548	No	No	0.523	No	Yes	2.906	2.596	No	No	0.285	4.937
C[C@@](CCC1)([C@@H](Cc2c(C)ccc(C(C(C)=C3O)=O)c2C3=O)C(CC2)=C)[C@H]2[C@]1(C)C(O)=O	436.548	5.61202	3	4	2	188.772	-3.712	0.67	73.203	-2.719	Yes	No	No	-0.964	0	-0.2	-1.641	No	Yes	No	No	No	No	No	0.288	No	No	-0.291	No	No	3.085	0.505	No	No	0.285	-1.641
CC(C)C(C1=O)=CC2=CC=C(C(C)(C)C[C@H](C3)OC(c(cc4)ccc4O)=O)[C@@]3(C)C2=C1O	434.532	5.5875	3	5	2	188.344	-5.026	0.785	88.761	-3.142	Yes	Yes	Yes	0.442	0	-0.099	-1.601	No	Yes	No	Yes	No	No	Yes	0.151	No	No	-0.606	No	No	2.013	0.739	No	No	0.63	-0.411
CC(C)C(C1=O)=CC2=CC=C([C@@](C)(COC(c(cc3)ccc3O)=O)CCC3)[C@@]3(C)C2=C1O	434.532	5.5891	4	5	2	188.344	-5.083	0.797	90.347	-2.972	Yes	Yes	Yes	0.199	0	-0.164	-1.676	No	Yes	No	Yes	Yes	No	Yes	0.242	No	No	-0.284	No	No	1.902	2.256	No	No	0.504	-0.992
CC1(C)Oc2c(CC=C(C)C)c(O[C@@H]([C@H](C3=O)O)c(cc4)ccc4O)c3c(OC)c2C=C1	436.504	4.771	4	6	2	187.297	-5.043	1.325	93.096	-2.771	Yes	Yes	Yes	-0.029	0	0.031	-2.836	No	Yes	No	Yes	Yes	No	Yes	0.356	No	No	-0.308	No	No	2.437	1.893	No	No	0.306	-0.448
CC(C)(C1)C=Cc(c(Oc(c(O)c2OC)c3cc2OC)c2C3=O)c1c(CC=C(C)C)c2O	436.504	5.4788	4	6	2	185.936	-4.873	1.17	95.384	-2.749	Yes	Yes	Yes	0.285	0	-0.072	-1.744	No	Yes	No	Yes	Yes	No	Yes	0.211	No	Yes	-0.162	No	Yes	1.863	2.136	No	No	0.315	-1.908
Oc1cc(O[C@@H]([C@@H](C2)OC(c(cc3O)cc(O)c3O)=O)c(cc3)cc(O)c3O)c2c(O)c1	442.376	2.5276	3	10	7	179.948	-3.166	-0.084	64.579	-2.735	Yes	No	Yes	-0.115	0.082	-1.881	-3.968	No	No	No	No	No	No	No	-0.096	No	No	0.633	No	Yes	2.837	3.517	No	No	0.285	2.64
C[C@H](CO[C@]([C@@H]1O)(O)OC(C(c(c(C2)cc(O)c3)c3O)=O)=C2c(cc2)cc(O)c2O)[C@@H]1O	446.408	0.7099	3	10	7	181.385	-3.078	-0.858	36.623	-2.735	Yes	No	No	0	0.267	-1.713	-4.299	No	No	No	No	No	No	No	0.121	No	Yes	0.56	No	Yes	3.042	2.746	No	No	0.285	3.372
CC(C)[C@@](CC[C@H](C)[C@@H](CC1)[C@](C)(CC2)[C@H]1[C@@H]1[C@@H]2[C@](C)(CC[C@@H](C2)O)C2=CC1)(C=O)OO	446.672	6.4259	7	4	2	194.673	-6.382	0.544	91.458	-3.269	Yes	Yes	Yes	-0.172	0	-0.001	-1.924	No	Yes	No	No	No	No	No	0.678	No	No	-0.564	No	No	1.863	2.242	No	No	0.355	-1.273
CC(c(c(O)c(c(O)c1)-c(c(C(c2cccc(O)c22)=O)c3C2=O)c(C)cc3O)c1OC)=O	434.4	3.47102	3	8	4	181.504	-3.352	0.443	77.631	-2.735	Yes	No	Yes	-0.434	0.126	-1.404	-3.29	No	No	No	No	Yes	No	No	0.114	No	No	0.605	No	Yes	2.231	2.794	Yes	No	0.285	1.673
CC(c(c(O)c([C@@](c1cccc(O)c11)(c2cc(C)cc(O)c2C1=O)O)c(O)c1)c1OC)=O	436.416	2.85722	3	8	5	182.137	-2.964	0.189	77.253	-2.735	Yes	No	Yes	-0.529	0.094	-1.565	-3.363	No	No	No	No	No	No	No	0.039	No	No	0.551	No	Yes	2.578	3.129	No	No	0.285	0.841
C[C@@]([C@@H]([C@H]([C@@H]1[C@@H]2C=C3)OC2=O)O[C@H]2C4)([C@@H](COC(C)=O)[C@]1(C)C3=O)C2=C[C@H]4c1cocc1	438.476	2.9629	3	7	0	185.306	-4.639	0.93	100	-3.447	No	Yes	No	0.146	0.145	-0.695	-2.91	No	Yes	No	No	No	No	No	0.365	No	No	-0.415	No	No	2.903	1.369	No	No	0.303	-0.24
CC(C)([C@@H](CC([C@](C)([C@H]1CC[C@@]2(C)[C@H](c3cocc3)O3)[C@@]22O[C@@H]2C3=O)=O)[C@]1(C)C=C1)C1=O	438.52	4.1981	1	6	0	187.247	-5.293	0.97	99.429	-3.141	No	No	No	0.195	0.102	-0.455	-2.794	No	Yes	No	No	No	No	No	0.117	No	No	-0.435	No	No	2.613	0.98	No	No	0.345	0.689
CC(C)([C@@H](C1)[C@](C)(CC2)[C@H](CC[C@@](C)([C@H](c3cocc3)O3)[C@]45O[C@@H]5C3=O)[C@@]4(C)C1=O)C2=O	440.536	4.4221	1	6	0	187.937	-5.343	1.016	98.874	-3.123	No	No	No	0.264	0.105	-0.448	-2.783	No	Yes	No	No	No	No	No	0.128	No	No	-0.476	No	No	2.61	0.942	No	No	0.337	0.608
C/C=C(\C)/CCc(cc(/C=C/C(c(cc(CC[C@@H](C(C)=C)O)c(O)c1)c1O)=O)cc1)c1O	436.548	5.4679	10	5	4	189.232	-4.216	0.376	75.952	-2.746	Yes	Yes	Yes	0.051	0.084	-1.044	-2.474	No	Yes	No	Yes	Yes	No	Yes	0.899	No	No	0.256	No	Yes	2.095	2.157	No	No	0.389	0.516
CC(C)=CC[C@@](C([C@]1(C(/C=C/c2ccccc2)=O)O)=O)(C(O)=C(CC=C(C)C)C1=O)OC	438.52	4.0617	8	6	2	188.153	-5.377	0.887	75.493	-2.953	Yes	Yes	Yes	0.035	0.091	-0.317	-2.612	No	Yes	No	No	No	No	Yes	1.326	No	No	-0.258	No	No	2.645	2.264	No	No	0.442	0.034
CC(C)=CCc(c(O)c(CC=C(C)C)c(O[C@@H](C1)c(c(O)cc(O)c2)c2O)c2C1=O)c2O	440.492	4.9385	5	7	5	186.094	-3.427	0.778	70.519	-2.735	Yes	Yes	No	0.237	0.155	-1.532	-3.176	No	No	No	No	No	No	No	0.177	No	No	0.476	No	No	2.521	2.671	No	No	0.285	-0.011
CC(C)=CCc(c(O)c(CC=C(C)C)c(Oc(c(O)c1OC)c2cc1OC)c1C2=O)c1O	440.492	5.0976	6	7	3	185.371	-4.55	0.827	85.259	-2.735	Yes	Yes	Yes	0.218	0	-1.319	-2.977	No	No	No	Yes	No	No	No	0.396	No	No	0.252	No	Yes	1.987	2.842	No	No	0.297	-0.361
O[C@@H]([C@H](COC(/C=C/c(cc1)ccc1O)=O)O[C@@H]([C@H]1O)OCCc(cc2)ccc2O)[C@H]1O	446.452	0.7211	8	9	5	184.281	-3.07	-0.108	51.715	-2.749	Yes	Yes	No	-0.262	0.321	-1.268	-3.833	No	Yes	No	No	No	No	No	0.128	No	No	-0.677	No	No	1.944	2.769	No	No	0.312	0.723
C/C=C/CC(C/C=C/C)(C1=C(C=C2O)Oc3cc(O)c(CC=C(C)C)c(O)c3C1=O)C2=O	436.504	5.3647	6	6	3	186.063	-5.27	1.278	85.882	-2.906	Yes	Yes	Yes	0.172	0	-1.109	-2.081	No	Yes	No	No	No	No	Yes	0.771	No	No	-0.001	No	No	2.478	1.807	Yes	No	0.411	-0.252
COc1ccc([C@@H](CC2=O)Oc3c2c(O)cc(OC[C@H]([C@H]([C@@H]([C@H](C=O)O)O)O)O)c3)cc1	448.424	0.1286	9	10	5	182.767	-3.975	0.539	41.24	-2.735	Yes	Yes	No	-0.457	0.154	-1.448	-4.152	No	No	No	No	No	No	No	0.31	No	Yes	1.01	No	No	2.818	3.567	No	No	0.285	3.98
Cc1cc(C(Oc(c-2c(cc3O)C(O4)=O)c3OC)=O)c2c4c1O[C@@H]([C@@H]([C@H]1O)O)OC[C@H]1O	446.364	0.33082	3	11	4	177.454	-2.925	0.197	68.257	-2.736	Yes	No	No	-0.549	0.149	-1.782	-3.969	No	Yes	No	No	No	No	No	0.603	No	No	0.265	No	Yes	2.427	3.531	No	No	0.285	3.24
CC(C)([C@H](CC1)[C@](C)(CC2)[C@@H](CC3)[C@]1(C)[C@@]1(C)[C@H]3[C@@H]([C@@H](CC3)C(C)=O)[C@@]3(CO)CC1)[C@H]2O	444.7	6.0101	2	3	2	195.678	-5.9	1.328	100	-3.001	Yes	Yes	Yes	-0.254	0	-0.648	-1.531	No	Yes	No	No	No	No	No	0.243	No	No	-0.584	No	No	2.808	2.118	Yes	No	0.374	-1.191
CC(C)(CC1)C[C@@H]([C@](C)(CC[C@H]([C@@]2(C)CCC3)[C@@]4(C)CC[C@H]2[C@@]3(C)O)C4=CC2)[C@@]12C(O)=O	442.684	6.9876	1	2	2	194.989	-3.093	1.214	100	-2.723	No	No	Yes	-0.975	0	-0.245	-1.199	No	Yes	No	No	No	No	No	-0.041	No	No	0.546	No	No	2.466	2.324	Yes	No	0.285	-1.074
C[C@@](CO)(CC[C@@]1(C)CC2)C[C@H]1[C@](C)(CC[C@@]13C)[C@@]2(C)C3=CC=C(C(C)=C2O)C1=CC2=O	436.636	6.6054	1	3	2	192.920	-5.57	1.454	98.359	-2.877	Yes	Yes	Yes	-0.183	0	-0.271	-1.15	No	Yes	No	No	No	No	No	0.017	No	No	-0.4	No	No	3.949	2.122	Yes	No	0.356	-0.955
C[C@](CC[C@@]12C)([C@H](CC(CC3)=C)[C@@]3(CC3)C(C)=O)[C@@]3(C)C2=CC=C(C(C)=C2O)C1=CC2=O	432.604	6.7321	1	3	1	191.598	-6.297	1.302	98.316	-3.02	No	Yes	Yes	-0.098	0	-0.253	-1.224	No	Yes	No	No	No	No	No	0.168	No	No	-0.568	No	No	2.489	2.198	No	No	0.405	-1.489
CC(C)C(CC[C@@H](C)[C@H](CC1)[C@](C)(CC2)[C@]1(C)[C@@H](CC1)[C@@]2(C2)[C@]2(CC2)[C@H]1C(C)(C)[C@@H]2O)=C	440.756	8.4149	5	1	1	198.763	-6.173	1.247	98.737	-2.751	No	No	Yes	0.015	0	0.846	-1.566	No	Yes	No	No	No	No	No	0.255	No	No	-0.108	No	Yes	2.508	0.914	No	No	0.313	-2.759
CC(C)C(CC[C@H](C)[C@@H](CC1)[C@](C)(C2)[C@@]1(C)C[C@H](CC1)[C@]2(C2)[C@@]2(CC2)[C@H]1C(C)(C)[C@H]2O)=C	440.756	8.4149	5	1	1	198.763	-6.193	1.246	97.323	-2.753	No	No	Yes	0.012	0	0.85	-1.556	No	Yes	No	No	No	No	No	0.201	No	No	-0.101	No	Yes	2.49	0.889	No	No	0.315	-2.589
CC(C)([C@@H](CC1)[C@](C)(CC2)[C@H](CC3)[C@]1(C)[C@@]1(C)[C@@H]3[C@H]([C@H](CC3)C(C)=C)[C@@]3(CO)CC1)[C@@H]2O	442.728	6.9972	2	2	2	197.192	-6.096	1.333	99.449	-2.827	Yes	Yes	Yes	-0.144	0	-0.374	-2.01	No	Yes	No	No	No	No	No	0.236	No	No	-0.434	No	No	2.809	2.322	Yes	No	0.352	-1.835
CC1(C)C[C@@H]2C3=CC[C@H]([C@@](C)(CC4)[C@@H](CC5)C(C)(C)[C@H]4O)[C@]5(C)[C@]3(C)CC[C@@]2(CO)CC1	442.728	7.1413	1	2	2	197.192	-6.382	1.43	97.874	-2.942	Yes	Yes	Yes	0.105	0	-0.164	-1.858	No	Yes	No	No	No	No	No	0.043	No	No	-0.478	No	Yes	3.29	2.104	Yes	No	0.419	-1.042
CC(C)([C@@H](CC1)[C@@H](CC2)[C@@]1(C)[C@@H](CC1)[C@]2(C)[C@](C)(CC2)[C@H]1[C@@](C)(CC1)[C@H]2C(C)(C)C1=O)O	442.728	7.4278	1	2	1	197.249	-6.14	1.243	100	-2.883	No	Yes	Yes	0.015	0	-0.163	-2.056	No	Yes	No	No	No	No	No	0.047	No	No	-0.13	No	Yes	2.417	2.335	No	No	0.343	-2.244
CC(C)(CC1)C[C@@H]2[C@]1(CO)CC=C1[C@@]2(C)CC[C@H]2[C@@]1(C)CC[C@@H](C1(C)C)[C@]2(C)CC[C@@H]1O	442.728	7.1413	1	2	2	197.192	-6.107	1.288	95.397	-2.8	Yes	Yes	Yes	0.026	0	-0.155	-1.591	No	Yes	No	No	No	No	No	0.007	No	No	-0.332	No	No	3.314	2.047	Yes	No	0.377	-0.906
C[C@H]1[C@H](C)[C@@H]2C3=CC[C@H]([C@@](C)(CC4)[C@@H](CC5)C(C)(C)[C@H]4O)[C@]5(C)[C@]3(C)CC[C@@]2(CO)CC1	442.728	6.9972	1	2	2	197.192	-6.345	1.433	97.041	-2.95	Yes	Yes	Yes	0.09	0	-0.217	-1.861	No	Yes	No	No	No	No	No	0.206	No	No	-0.492	No	Yes	3.272	2.132	Yes	No	0.421	-0.825
OC[C@H]([C@H]([C@@H]([C@@H]1O)O)O)O[C@H]1OCCCCCCCC(CCCCCCCC(O)=O)=O	448.553	1.5279	18	8	5	183.919	-3.056	-0.626	6.676	-2.735	No	No	No	-1.408	0.401	-1.981	-3.864	No	Yes	No	No	No	No	No	1.856	No	No	-0.899	No	No	2.77	3.831	No	No	0.285	1.486
OC[C@H]([C@H]([C@@H]([C@@H]1O)O)O)O[C@H]1OCCCCCCCCC(CCCCCCC(O)=O)=O	448.553	1.5279	18	8	5	183.919	-3.056	-0.626	6.676	-2.735	No	No	No	-1.408	0.401	-1.981	-3.849	No	Yes	No	No	No	No	No	1.855	No	No	-0.896	No	No	2.787	3.779	No	No	0.285	1.392
CC(C)([C@@H](CC/C(/C)=C/CC/C(/C)=C/CC/C=C(\C)/CC[C@@H]([C@](C)(CCO)O)O)O)O	440.665	4.5722	16	5	5	189.765	-4.786	0.416	51.876	-2.785	Yes	Yes	Yes	-0.621	0.166	-1.313	-3.331	No	No	No	No	No	No	No	1.78	No	No	0.53	No	No	1.77	2.865	Yes	No	0.298	0.073
C1CN(CC2)[C@H]3O[C@H]2CCCCC[C@H](CCCN2CC4)[C@H]2O[C@H]4CCCCCC[C@H]3C1	432.693	5.9451	0	4	0	190.945	-4.69	1.1	90.008	-2.997	No	Yes	No	1.269	0.382	1.152	-4.27	No	Yes	No	No	No	No	No	0.417	Yes	No	-0.709	No	No	2.367	0.774	Yes	No	0.427	1.388
COc1cc(CC[C@@H]([C@@]23O)Oc(c(C4)c(cc5)O[C@H]4C(CO)=C)c5C2=O)c3cc1OC	424.449	2.3335	4	7	2	179.365	-4.449	1.1	81.112	-2.742	Yes	Yes	No	0.197	0.027	-0.394	-3.215	No	Yes	No	No	No	No	Yes	0.242	No	Yes	0.117	No	No	2.586	2.148	No	No	0.29	0.721
C[C@](CC1)(CCC(C2)=C)[C@@H]2[C@](C)(CC[C@@]2(C)c(cc3O)c4c(C)c3O)[C@@]1(C)C2=CC4=O	420.593	6.74942	0	3	2	185.808	-5.023	1.346	97.092	-3.003	Yes	Yes	Yes	-0.1	0	-0.333	-1.147	No	Yes	No	No	No	No	Yes	-0.055	No	No	0.081	No	No	2.556	2.37	No	No	0.361	-1.715
C[C@@](CC[C@@H](CO)C1)(CC2)[C@@H]1[C@](C)(CC[C@@]13C)[C@@]2(C)C3=CC=C(C(C)=C2O)C1=CC2=O	422.609	6.2153	1	3	2	186.555	-5.862	1.43	97.816	-2.943	Yes	Yes	Yes	-0.216	0	-0.261	-1.274	No	Yes	No	No	No	No	No	0.159	No	No	-0.943	No	No	3.821	2.079	Yes	No	0.38	-0.713
C[C@@](CC[C@H](CO)C1)(CC2)[C@@H]1[C@](C)(CC[C@@]13C)[C@@]2(C)C3=CC=C(C(C)=C2O)C1=CC2=O	422.609	6.2153	1	3	2	186.555	-5.862	1.43	97.816	-2.943	Yes	Yes	Yes	-0.216	0	-0.261	-1.274	No	Yes	No	No	No	No	No	0.159	No	No	-0.943	No	No	3.821	2.079	Yes	No	0.38	-0.713
C[C@H]1[C@H](C)[C@@H]2C3=CC[C@H]([C@@](C)(CC4)[C@@H](CC5)C(C)(C)[C@H]4O)[C@]5(C)[C@]3(C)CC[C@@]2(C)CC1	426.729	8.0248	0	1	1	192.398	-7.051	1.381	97.349	-2.859	No	Yes	Yes	0.388	0	0.68	-1.669	No	Yes	No	No	No	No	No	0.119	No	No	-0.059	No	Yes	2.815	1.174	No	No	0.443	-1.259
