SMILES	MOL_WEIGHT	LOGP	#ROTATABLE_BONDS	#ACCEPTORS	#DONORS	SURFACE_AREA	Water solubility	Caco2 permeability	Intestinal absorption (human)	Skin Permeability	P-glycoprotein substrate	P-glycoprotein I inhibitor	P-glycoprotein II inhibitor	VDss (human)	Fraction unbound (human)	BBB permeability	CNS permeability	CYP2D6 substrate	CYP3A4 substrate	CYP1A2 inhibitior	CYP2C19 inhibitior	CYP2C9 inhibitior	CYP2D6 inhibitior	CYP3A4 inhibitior	Total Clearance	Renal OCT2 substrate	AMES toxicity	Max. tolerated dose (human)	hERG I inhibitor	hERG II inhibitor	Oral Rat Acute Toxicity (LD50)	Oral Rat Chronic Toxicity (LOAEL)	Hepatotoxicity	Skin Sensitisation	<i>T.Pyriformis</i> toxicity	Minnow toxicity
COc1c(O)c(OC)cc2c1c1ccc(cc1CC2)O	272.3	2.8806	2	4	2	116.758	-4.125	1.275	95.379	-2.739	Yes	No	No	-0.289	0	0.025	-2.16	No	Yes	Yes	Yes	Yes	No	No	0.204	No	Yes	-0.062	No	Yes	1.999	2.013	No	No	0.373	0.221
COc1cc2CCc3c(c2c(c1O)OC)ccc(c3OC)O	302.326	2.8892	3	5	2	128.236	-3.835	1.214	93.523	-2.797	Yes	No	No	-0.066	0.017	-0.153	-2.338	No	Yes	Yes	Yes	Yes	No	Yes	0.415	No	Yes	-0.102	No	Yes	1.95	1.833	No	No	0.653	0.565
COc1cc(cc(c1O)OC)[C@H]1OC[C@H]2[C@@H]1CO[C@@H]2c1cc(OC)c(c(c1)OC)O	418.442	3.2074	6	8	2	174.396	-3.867	0.557	90.653	-2.782	Yes	Yes	No	0.188	0.002	-0.78	-3.177	No	Yes	No	No	Yes	No	Yes	0.283	No	No	-0.291	No	No	2.07	1.458	No	No	0.309	0.59
COc1cc(CCc2cc(OC)c(c(c2)OC)O)ccc1O	304.342	2.9088	6	5	2	129.242	-3.656	1.256	93.141	-2.87	Yes	No	No	0.266	0.072	-0.255	-2.548	No	Yes	Yes	Yes	Yes	No	Yes	0.161	No	Yes	0.419	No	No	2.245	1.405	No	No	0.822	0.598
COc1cc2oc(cc(=O)c2c(c1O)O)c1ccc(c(c1)O)O	316.265	2.291	2	7	4	128.792	-3.141	-0.209	72.989	-2.735	Yes	No	No	0.297	0.075	-1.321	-3.39	No	No	Yes	No	No	No	No	0.507	No	No	0.638	No	No	2.442	1.682	No	No	0.308	2.031
COc1ccc2c(c1CC=C(C)C)oc(=O)cc2	244.29	3.3103	3	3	0	105.693	-3.869	1.468	95.908	-2.086	No	No	No	0.331	0.094	0.155	-2.082	No	Yes	Yes	Yes	No	No	No	1.056	No	No	0.396	No	No	2.192	1.921	No	No	1.505	1.45
COc1c(CC=C(C)C)c(O)cc2c1c1oc3c(c1CO2)ccc(c3)O	352.386	4.9207	3	5	2	150.639	-4.452	0.951	93.781	-2.757	Yes	Yes	Yes	0.055	0.001	-0.05	-1.884	No	Yes	Yes	Yes	Yes	No	Yes	0.531	No	Yes	-0.009	No	Yes	2.378	1.429	No	No	0.379	-0.511
COc1cc2OCOc2cc1c1cc2cc3ccoc3cc2oc1=O	336.299	3.9435	2	6	0	140.677	-4.137	1.122	99.554	-2.722	No	No	Yes	0.08	0.244	-0.734	-2.028	No	Yes	Yes	Yes	Yes	No	Yes	0.72	No	Yes	0.294	No	Yes	2.429	1.013	No	No	0.296	-1.201
COC1=CC(=O)c2c(C1=O)c(C)c(cc2O)OC	248.234	1.61852	2	5	1	103.635	-2.843	0.063	96.04	-3.027	No	No	No	0.075	0.469	-0.234	-2.913	No	No	No	No	No	No	No	0.587	No	No	0.361	No	No	1.711	2.104	No	No	0.334	2.181
CO[C@]12C[C@@H](O)O[C@H]([C@]32O[C@]2(C[C@@H]1O[C@]3(C)[C@H]2O)OC)C	302.323	-0.4674	2	7	2	122.616	-3.254	0.772	73.665	-3.023	No	No	No	0.495	0.69	-0.589	-3.186	No	No	No	No	No	No	No	1.069	No	No	0.472	No	No	2.369	2.256	Yes	No	0.292	4.157
CO[C@H]1OC(=O)C(=C1)CC[C@@]1(C)[C@H](C)CC[C@@]23C1C[C@H](O[C@@H]1O[C@H](CO)[C@H]([C@@H]([C@H]1O)O)O)C=C3C(=O)OC2	538.59	0.3331	7	11	4	220.887	-4.08	0.617	47.855	-2.751	Yes	Yes	No	-0.314	0.316	-1.402	-3.953	No	No	No	No	No	No	No	0.842	No	No	-1.167	No	No	3.034	3.028	No	No	0.285	3.689
COC1=CC(=O)[C@@H]2[C@@]([C@H]1O)(C)O2	170.164	-0.3822	1	4	1	69.775	-0.519	1.124	95.242	-3.527	No	No	No	-0.037	0.81	-0.276	-3.03	No	No	No	No	No	No	No	0.443	No	Yes	1.11	No	No	2.504	2.447	Yes	No	-0.451	3.349
COC1=CC(=O)[C@H]2[C@]([C@H]1O)(C)O2	170.164	-0.3822	1	4	1	69.775	-0.519	1.124	95.242	-3.527	No	No	No	-0.037	0.81	-0.276	-3.03	No	No	No	No	No	No	No	0.443	No	Yes	1.11	No	No	2.504	2.447	Yes	No	-0.451	3.349
COC1=CC(=O)[C@@H]([C@@]([C@H]1O)(C)O)Nc1ccccc1	263.293	0.692	3	5	3	111.069	-2.066	-0.185	48.07	-2.877	No	No	No	-0.8	0.427	-0.621	-2.97	No	No	No	No	No	No	No	0.282	No	Yes	0.727	No	No	2.329	2.201	No	No	0.25	1.965
COC1=CC(=O)C[C@@]([C@H]1O)(C)O	172.18	-0.3986	1	4	2	70.462	-0.317	0.553	78.987	-4.427	No	No	No	-0.256	0.834	-0.303	-3.404	No	No	No	No	No	No	No	0.608	No	No	1.358	No	No	1.481	2.586	Yes	No	-0.191	3.568
COC1=C2C=CC(C3=C2C(C(=O)O1)C(=O)C(=C3)C)OC	274.272	1.4278	2	5	0	115.736	-2.72	1.284	99.785	-3.151	No	No	No	0.108	0.46	-0.165	-2.89	No	No	No	No	No	No	No	0.17	No	Yes	0.381	No	No	2.179	1.273	No	No	0.348	1.909
COC1=CC(=O)CC21CCc1c(C2=O)c(O)ccc1	258.273	2.0106	1	4	1	110.245	-2.982	1.212	98.418	-3.581	No	No	No	0.236	0.32	-0.277	-2.893	No	No	No	No	No	No	No	0.09	No	No	0.357	No	No	2.221	2.532	No	No	0.583	0.89
COC1=CC(=O)OC1(O)C(=C)C	170.164	0.3382	2	4	1	70.092	-0.372	1.197	94.7	-3.62	No	No	No	-0.091	0.751	-0.242	-2.961	No	No	No	No	No	No	No	0.582	No	No	0.932	No	No	1.963	2.442	No	No	-0.047	2.788
COC1=CC(=O)C2=C(C1=O)CCc1c2ccc(c1)O	256.257	1.7741	1	4	1	109.556	-2.324	1.181	96.059	-3.1	No	No	No	0.229	0.313	-0.042	-2.289	No	No	No	No	No	No	No	0.141	No	No	-0.268	No	No	2.118	1.607	No	No	0.625	1.872
COC1=C(O)C(=O)C(=C(C1=O)C)O	184.147	0.3862	1	5	2	73.934	-0.783	0.453	74.732	-3.586	No	No	No	-0.085	0.764	-0.089	-3.008	No	No	No	No	No	No	No	0.518	No	No	1.286	No	No	1.995	2.028	No	No	0.168	3.194
COC1=CC(=O)C(=C(C1=O)C)O	168.148	0.5005	1	4	1	69.140	-0.44	0.542	87.027	-4.12	No	No	No	-0.173	0.759	-0.303	-2.958	No	No	No	No	No	No	No	0.566	No	No	1.184	No	No	1.869	2.522	No	No	-0.276	3.068
CCCCc1ccc(cc1)NC1=C(C)C(=O)C(=CC1=O)OC	299.37	3.3972	6	4	1	130.412	-3.428	1.319	93.289	-2.546	No	No	No	0.582	0.228	0.132	-2.295	No	Yes	No	Yes	No	No	No	0.28	No	No	0.273	No	No	2.247	1.764	No	No	2.044	0.341
COC1C(O)C(O)C(C(C1O)O)O	194.183	-3.1805	1	6	5	75.008	-0.482	-0.248	20.786	-3.257	No	No	No	-0.112	0.839	-1.208	-4.707	No	No	No	No	No	No	No	0.67	No	No	2.352	No	No	1.721	3.882	Yes	No	0.285	5.053
Clc1ccc2c(c1)[nH]c1c2C[C@]23[C@H](C1(C)C)C[C@]1(N(C2)CCC1)C(=O)N3	369.896	3.3781	0	2	2	157.818	-3.343	1.055	90.196	-2.893	Yes	Yes	No	1.743	0.33	0.3	-3.065	Yes	Yes	Yes	No	No	Yes	No	1.157	Yes	No	-0.835	No	Yes	3.03	1.841	Yes	No	0.348	0.02
O=C1OCc2c(C=C1)ccc(c2O)Cl	210.616	2.1156	0	3	1	85.568	-2.606	1.241	94.158	-2.935	No	No	No	0.184	0.433	0.065	-2.424	No	No	Yes	No	No	No	No	0.073	No	No	0.175	No	No	2.209	1.141	No	No	0.991	1.447
C[C@@H](Cc1cc(O)c2c(c1)C(=O)c1c(C2=O)c(O)c(c(c1)O)Cl)O	348.738	2.1555	2	6	4	141.111	-3.581	0.214	62.255	-2.735	Yes	No	No	0.627	0.133	-1.16	-3.219	No	No	No	No	No	No	No	0.14	No	Yes	0.584	No	No	2.454	2.67	No	No	0.287	1.619
O=C1N[C@@]23CN4[C@@]1(CCC4)C[C@H]3C(c1c(C2)c2cc(Cl)c(cc2[nH]1)Cl)(C)C	404.341	4.0315	0	2	2	168.121	-4.639	1.052	93.136	-2.797	Yes	Yes	No	1.537	0.225	0.183	-2.002	Yes	Yes	No	No	No	Yes	No	1.275	Yes	No	-0.888	No	Yes	2.538	0.397	No	No	0.343	1.076
COC1=CC(=O)[C@@H]([C@@]([C@H]1O)(C)O)Cl	206.625	-0.1813	1	4	2	80.765	-0.765	0.458	81.207	-3.176	No	No	No	-0.325	0.796	-0.302	-3.4	No	No	No	No	No	No	No	0.49	No	Yes	1.184	No	No	2.533	1.802	No	No	0.398	3.282
CC1=CCCC(=CCC2C(C(CC1)C(=CC2)C)(C)C)C	272.476	6.4517	0	0	0	125.593	-6.903	1.437	94.05	-1.835	No	No	No	0.771	0.134	0.682	-2.414	No	No	No	Yes	No	No	No	1.19	No	No	0.072	No	No	1.534	1.224	No	No	1.745	-0.105
C=C1CCC=C(C)CCC2=C(CCC(CC1)C2(C)C)C	272.476	6.5958	0	0	0	125.593	-6.93	1.442	94.633	-1.861	No	No	No	0.778	0.129	0.679	-2.427	No	No	Yes	Yes	No	No	No	1.209	Yes	No	0.155	No	No	1.571	1.25	No	No	1.715	-0.275
C=C1CCC2OC2(CC[C@@H]2C1CC2(C)C)C	220.356	3.9364	0	1	0	99.255	-4.357	1.598	95.989	-3.053	No	No	No	0.603	0.324	0.651	-2.533	No	No	No	Yes	Yes	No	No	0.905	No	No	0.197	No	No	1.551	1.206	No	Yes	1.073	1.049
CC1=CCC2CCC(=C)C(C2(C)C)CCC(=CCC1)C	272.476	6.4517	0	0	0	125.593	-7.289	1.446	93.767	-1.798	No	No	No	0.768	0.06	0.715	-2.093	No	Yes	No	No	No	No	No	1.2	No	No	0.022	No	No	1.512	1.26	No	No	1.889	-0.262
C=C1CCC2OC2(CCC2C1CC2(C)C)C	220.356	3.9364	0	1	0	99.255	-4.357	1.598	95.989	-3.053	No	No	No	0.603	0.324	0.651	-2.533	No	No	No	Yes	Yes	No	No	0.905	No	No	0.197	No	No	1.551	1.206	No	Yes	1.073	1.049
CC1=CCCC(=C)C2C(CC1)C(C2)(C)C	204.357	4.7252	0	0	0	94.458	-5.534	1.434	95.304	-1.596	No	No	No	0.653	0.26	0.74	-2.182	No	No	No	No	No	No	No	1.088	No	No	0.489	No	No	1.678	1.44	No	Yes	1.406	0.445
CC([C@@H]1CC=C(c2c1cc(C)c(c2)C)C)C	214.352	4.85004	1	0	0	99.385	-6.096	1.408	95.694	-1.349	No	No	No	0.959	0.036	0.533	-1.504	No	No	Yes	Yes	No	No	No	1.213	No	No	0.573	No	No	1.715	1.44	No	Yes	2.62	-0.241
