SMILES	MOL_WEIGHT	LOGP	#ROTATABLE_BONDS	#ACCEPTORS	#DONORS	SURFACE_AREA	Water solubility	Caco2 permeability	Intestinal absorption (human)	Skin Permeability	P-glycoprotein substrate	P-glycoprotein I inhibitor	P-glycoprotein II inhibitor	VDss (human)	Fraction unbound (human)	BBB permeability	CNS permeability	CYP2D6 substrate	CYP3A4 substrate	CYP1A2 inhibitior	CYP2C19 inhibitior	CYP2C9 inhibitior	CYP2D6 inhibitior	CYP3A4 inhibitior	Total Clearance	Renal OCT2 substrate	AMES toxicity	Max. tolerated dose (human)	hERG I inhibitor	hERG II inhibitor	Oral Rat Acute Toxicity (LD50)	Oral Rat Chronic Toxicity (LOAEL)	Hepatotoxicity	Skin Sensitisation	<i>T.Pyriformis</i> toxicity	Minnow toxicity
COc1cc(OO[C@@H]2OC[C@H]([C@@H]([C@H]2O)O)O)c2c(c1)oc(=O)cc2c1ccc(c(c1)O)O	448.38	0.6292	5	11	5	179.675	-3.729	0.441	59.24	-2.735	Yes	No	No	-0.598	0	-1.701	-4.703	No	No	No	No	No	No	No	0.346	No	No	0.484	No	Yes	2.668	3.264	No	No	0.285	4.214
OC[C@H]1CO[C@@H]([C@@H]([C@H]1O)O)OOc1cc(OC)cc2c1c(cc(=O)o2)c1ccc(c(c1)O)O	462.407	0.8768	6	11	5	186.040	-3.879	0.156	50.583	-2.735	Yes	No	Yes	-0.558	0.011	-1.819	-4.62	No	Yes	No	No	No	No	No	0.331	No	No	0.237	No	Yes	2.643	1.789	No	No	0.285	2.752
O[C@@H]1CO[C@H]([C@@H]([C@H]1O)O)OOc1cc(O)cc2c1c(cc(=O)o2)c1ccc(c(c1)O)O	434.353	0.3262	4	11	6	172.991	-4.043	0.057	45.74	-2.735	Yes	No	Yes	-0.474	0	-1.757	-4.653	No	No	No	No	No	No	No	0.187	No	No	0.598	No	Yes	2.772	1.326	No	No	0.285	3.685
Cc1cc2c(ccc(c2cc1OCc1ccccc1)C)C(C)C	304.433	6.15904	4	1	0	138.473	-6.854	1.807	95.185	-2.682	Yes	Yes	Yes	0.566	0.047	0.806	-1.063	No	Yes	Yes	Yes	Yes	No	No	0.188	No	Yes	0.568	No	Yes	2.448	0.629	Yes	No	0.526	-2.14
OC[C@@]1(O)CO[C@H]([C@@H]1O)OC[C@H]1O[C@@H](Oc2cc(OC)cc3c2c(cc(=O)o3)c2ccc(c(c2)O)O)[C@@H]([C@H]([C@@H]1O)O)O	594.522	-1.4766	8	15	8	236.426	-2.966	-0.761	39.65	-2.735	Yes	No	No	0.229	0.085	-2.154	-5.408	No	No	No	No	No	No	No	0.081	No	No	0.497	No	Yes	2.623	4.826	No	No	0.285	4.515
COc1cc(O[C@@H]2O[C@H](CO[C@@H]3OC[C@H]([C@@H]([C@H]3O)O)O)[C@H]([C@@H]([C@H]2O)O)O)c2c(c1)oc(=O)cc2c1ccc(c(c1)O)O	594.522	-1.4782	7	15	8	236.426	-2.988	-0.749	29.623	-2.735	Yes	No	No	-0.189	0.101	-2.021	-5.682	No	No	No	No	No	No	No	0.265	No	No	0.607	No	Yes	2.636	4.333	No	No	0.285	6.594
O[C@H]1[C@@H](O[C@@H]([C@H]([C@@H]1O)O)CO[C@@H]1OC[C@H]([C@@H]([C@H]1O)O)O)Oc1cc(O)cc2c1c(cc(=O)o2)c1ccc(c(c1)O)O	580.495	-1.7812	6	15	9	229.741	-3.112	-0.652	24.713	-2.735	Yes	No	No	0.173	0.046	-2.107	-5.533	No	No	No	No	No	No	No	0.262	No	No	0.688	No	Yes	2.831	3.691	No	No	0.285	7.467
CC(=CCOc1c2ccoc2cc2c1ccc(=O)o2)C	270.284	3.8842	3	4	0	114.804	-3.799	1.376	97.782	-2.321	No	No	No	0.208	0.185	0.159	-2.747	No	Yes	Yes	Yes	No	No	No	1.001	No	Yes	-0.46	No	No	2.102	1.841	No	No	0.674	-0.067
O=c1ccc2c(o1)cc1c(c2OCC(C(O)(C)C)O)cco1	304.298	2.0498	4	6	2	125.082	-2.546	0.845	86.348	-2.956	No	No	No	-0.414	0.278	-0.706	-3.346	No	No	Yes	No	No	No	No	0.77	No	No	0.126	No	No	2.174	1.897	No	No	0.55	1.808
CC(=CCOc1ccc2c(c1)oc(=O)cc2)C	230.263	3.138	3	3	0	99.328	-3.311	1.526	97.445	-2.083	No	No	No	0.087	0.187	0.18	-2.153	No	No	Yes	No	No	No	No	1.031	No	No	0.382	No	No	2.164	2.103	No	No	1.001	0.563
OC[C@H]1O[C@@H](Oc2ccc(cc2)OC)[C@@H]([C@H]([C@@H]1O)O)O	286.28	-1.1261	4	7	4	115.498	-1.279	0.257	47.201	-2.868	No	No	No	-0.451	0.569	-0.906	-3.877	No	No	No	No	No	No	No	0.622	No	Yes	1.059	No	No	1.918	3.186	Yes	No	0.286	3.091
OCc1ccc(cc1)OC	138.166	1.1875	2	2	1	60.069	-0.414	1.752	81.608	-2.105	No	No	No	-0.02	0.445	0.088	-2.135	No	No	No	No	No	No	No	0.243	No	No	0.968	No	No	1.802	2.474	No	Yes	-0.286	1.786
COc1ccc(cc1)c1cc(=O)c2c(o1)cc(cc2O)O	284.267	2.8798	2	5	2	119.203	-3.177	1.167	94.61	-2.743	Yes	No	No	-0.238	0.089	-0.021	-2.24	No	No	Yes	Yes	Yes	No	Yes	0.67	No	No	0.329	No	No	1.988	1.752	No	No	0.473	0.236
COc1ccc(cc1)c1oc2cc(O)cc(c2c(=O)c1O)O	300.266	2.5854	2	6	3	123.998	-3.236	0.437	85.12	-2.735	Yes	No	No	0.133	0.05	-1.071	-2.382	No	No	Yes	No	No	No	No	0.572	No	No	0.771	No	Yes	2.179	2.273	No	No	0.391	0.465
COc1ccc2c(c1)oc(=O)cc2	176.171	1.8016	1	3	0	74.558	-1.842	1.516	98.031	-2.146	No	No	No	-0.216	0.31	0.25	-2.16	No	No	Yes	No	No	No	No	0.799	No	No	0.413	No	No	2.12	2.363	No	No	0.404	1.378
OC[C@H]1OC(Oc2cc(OC)cc3c2C(=CC(=O)C3)c2ccc(c(c2)O)O)[C@@H]([C@H]([C@@H]1O)O)O	460.435	-0.158	5	10	6	188.069	-2.988	0.164	43.852	-2.735	Yes	No	No	-0.016	0.139	-1.38	-4.33	No	No	No	No	No	No	No	0.154	No	No	0.213	No	No	2.505	3.219	No	No	0.285	3.688
OC[C@H]1OC(Oc2cc(OC)cc3c2C(=CC(=O)C3)c2ccc(c(c2)O)O)[C@@H]([C@H]([C@H]1O)O)O	460.435	-0.158	5	10	6	188.069	-2.988	0.164	43.852	-2.735	Yes	No	No	-0.016	0.139	-1.38	-4.33	No	No	No	No	No	No	No	0.154	No	No	0.213	No	No	2.505	3.219	No	No	0.285	3.688
COc1cc(CCc2ccc(cc2)O)cc(c1)O	244.29	2.8916	4	3	2	106.285	-3.227	1.245	91.349	-2.773	Yes	No	No	0.404	0.1	0.078	-2.21	No	Yes	Yes	Yes	Yes	No	Yes	0.222	No	No	-0.079	No	No	2.324	1.705	No	No	1.153	0.345
COc1cccc(c1)CCc1cc(O)cc(c1)OC	258.317	3.1946	5	3	1	112.970	-4.088	1.306	93.913	-2.675	No	No	No	0.224	0.078	0.222	-1.471	No	No	Yes	Yes	Yes	No	No	0.314	No	Yes	0.649	No	No	1.927	1.983	No	No	1.225	0.115
COc1cc(CCc2cccc(c2)O)cc(c1)O	244.29	2.8916	4	3	2	106.285	-3.282	1.245	91.994	-2.803	Yes	No	No	0.469	0.099	0.062	-2.21	No	Yes	Yes	Yes	Yes	No	Yes	0.229	No	No	-0.068	No	No	2.344	1.713	No	No	1.124	0.055
COc1cc(C)c2c(c1)oc1c(c2=O)c(O)cc(c1)OC	286.283	2.97742	2	5	1	119.877	-3.686	1.085	98.348	-2.854	No	No	No	0.051	0.198	-0.314	-2.132	No	No	Yes	Yes	Yes	No	No	0.685	No	Yes	0.486	No	Yes	2.009	1.289	No	No	0.776	-0.49
COc1cc2OC(c3ccccc3)[C@H](C(=O)c2c(c1)O)O	286.283	2.0781	2	5	2	120.920	-2.956	1.186	95.788	-2.787	Yes	No	No	0.296	0.148	0.181	-2.427	No	No	Yes	Yes	No	No	No	0.168	No	No	0.138	No	No	2.386	2.062	No	No	0.394	1.209
COc1cc2OC(CC(=O)c2c(c1)O)c1ccccc1	270.284	3.1073	2	4	1	116.125	-3.464	1.301	94.513	-2.784	No	No	No	-0.036	0.084	0.41	-2.058	No	Yes	Yes	Yes	No	No	No	0.241	No	Yes	0.477	No	No	2.307	2.423	No	No	0.56	1.156
COc1ccc(cc1)c1cc(=O)c2c(o1)cc(cc2O)OC	298.294	3.1828	3	5	1	125.888	-3.478	1.225	95.593	-2.761	No	No	Yes	-0.135	0.129	-0.361	-2.146	No	Yes	Yes	Yes	Yes	No	No	0.744	Yes	No	0.132	No	No	1.968	1.321	No	No	0.537	-0.156
COc1cc(O)c2c(c1)oc(cc2=O)c1ccc(cc1)O	284.267	2.8798	2	5	2	119.203	-3.326	1.028	94.878	-2.771	Yes	No	No	0.046	0.097	-0.151	-2.212	No	No	Yes	Yes	Yes	No	Yes	0.714	No	No	0.301	No	Yes	2.584	0.927	No	No	0.422	0.056
COc1cc(O)c2c(c1)CCc1c2ccc(c1)O	242.274	2.872	1	3	2	105.280	-3.434	1.169	94.667	-2.76	Yes	No	No	-0.13	0.012	-0.261	-1.998	No	Yes	Yes	Yes	Yes	No	No	0.252	No	Yes	-0.066	No	No	2.041	1.625	No	No	0.523	0.355
COc1ccc(c(c1)O)[C@H]1COc2c(C1)ccc(c2)O	272.3	2.8251	2	4	2	116.758	-3.238	1.194	93.069	-2.879	Yes	No	No	0.338	0.088	-0.069	-2.139	No	Yes	Yes	Yes	Yes	No	Yes	0.308	No	No	-0.5	No	No	2.353	1.481	No	No	0.782	0.694
COc1c2oc(=O)ccc2cc2c1occ2	216.192	2.5478	1	4	0	90.034	-2.615	1.278	98.378	-2.401	No	No	No	-0.066	0.272	0.202	-2.837	No	No	Yes	Yes	No	Yes	Yes	0.769	No	Yes	-0.293	No	No	2.254	1.795	No	No	0.438	0.567
COc1c2O[C@H]3COc4c([C@@]3(C(=O)c2cc2c1occ2)O)cc1c(c4)OCO1	382.324	2.394	1	8	1	157.660	-3.813	0.837	100	-2.735	No	Yes	No	-0.25	0.081	-0.798	-3.542	No	Yes	No	No	Yes	No	Yes	0.286	No	No	-0.078	No	No	2.776	1.446	No	No	0.285	2.012
COc1cc(O)c2c(c1)C1(C=C3C(=CC(=O)c4c3c(C1)c(OC)cc4O)OC)C(=CC2=O)OC	462.454	3.4457	4	8	2	194.877	-4.477	0.883	83.128	-2.748	Yes	Yes	Yes	0.319	0.083	-0.409	-3.077	No	Yes	No	No	Yes	No	Yes	0.409	No	No	-0.458	No	No	2.432	1.803	No	No	0.288	1.547
COc1c2ccc(=O)oc2cc2c1cco2	216.192	2.5478	1	4	0	90.034	-2.73	1.259	98.344	-2.419	No	No	No	-0.057	0.308	0.202	-2.83	No	No	Yes	Yes	Yes	Yes	Yes	0.805	No	Yes	-0.387	No	No	2.237	1.763	No	No	0.457	0.402
COc1cccc2c1cc1[nH]c(=O)c3c1c2c1OCOc1c3	293.278	3.296	1	4	1	124.930	-3.621	1.249	96.077	-2.752	No	No	Yes	-0.145	0.111	-0.342	-2.06	No	Yes	Yes	Yes	Yes	No	Yes	0.102	No	Yes	0.05	No	Yes	3.097	0.923	Yes	No	0.319	0.039
COc1c2O[C@@H](C)[C@H](C(=O)c2c(c2c1cc(OC)cc2OC)O)C	332.352	3.1709	3	6	1	139.437	-4.413	1.382	96.32	-2.742	No	Yes	No	-0.35	0.126	-0.579	-3.014	No	Yes	No	Yes	No	No	No	0.279	No	No	0.825	No	No	2.602	1.602	No	No	0.32	1.132
COc1c2O[C@@H](C)[C@@H](C(=O)c2c(c2c1cc(OC)cc2OC)O)C	332.352	3.1709	3	6	1	139.437	-4.413	1.382	96.32	-2.742	No	Yes	No	-0.35	0.126	-0.579	-3.014	No	Yes	No	Yes	No	No	No	0.279	No	No	0.825	No	No	2.602	1.602	No	No	0.32	1.132
COc1cc(OC)c2c(c1)c(OC)c1c(c2O)C(=O)C[C@@H](O1)C	318.325	2.9249	3	6	1	133.072	-3.66	1.467	95.504	-2.819	No	Yes	No	0.279	0.183	-0.472	-2.989	No	Yes	Yes	Yes	No	No	No	0.631	No	No	0.409	No	No	2.413	1.471	No	No	0.395	1.321
COc1cc(OC)c2c(c1)c(OC)c1c(c2O)c(=O)cc(o1)C	316.309	2.98602	3	6	1	131.356	-3.403	1.397	97.275	-2.738	No	No	No	0.179	0.132	-0.493	-2.452	No	Yes	Yes	Yes	No	No	No	0.835	No	Yes	0.522	No	No	2.286	1.641	No	No	0.338	1.655
COc1c2cc(OC)cc(c2c(c2c1oc(C)c(c2=O)C)O)OC	330.336	3.29444	3	6	1	137.721	-4.037	1.287	97.274	-2.75	No	No	Yes	-0.154	0.112	-0.645	-2.286	No	Yes	Yes	Yes	Yes	No	No	0.661	No	Yes	0.004	No	No	2.097	1.293	No	No	0.583	0.862
COc1cc(OC)cc2c1c(O)c1c(c2)O[C@H]([C@H](C1=O)C)C	302.326	3.1623	2	5	1	127.958	-3.885	1.244	95.768	-2.875	No	No	No	0.23	0.121	-0.23	-2.076	No	No	Yes	Yes	Yes	No	No	0.185	No	Yes	0.608	No	No	2.546	1.514	No	No	0.549	0.494
COc1cc(OC)cc2c1c(O)c1c(c2)O[C@H]([C@@H](C1=O)C)C	302.326	3.1623	2	5	1	127.958	-3.885	1.244	95.768	-2.875	No	No	No	0.23	0.121	-0.23	-2.076	No	No	Yes	Yes	Yes	No	No	0.185	No	Yes	0.608	No	No	2.546	1.514	No	No	0.549	0.494
COc1cc2cc3O[C@@H](C)CC(=O)c3c(c2c(c1)OC)O	288.299	2.9163	2	5	1	121.593	-3.831	1.303	94.604	-2.766	No	No	No	-0.159	0.116	-0.221	-2.217	No	Yes	Yes	Yes	No	No	No	0.565	No	Yes	0.553	No	No	2.406	1.614	No	No	0.632	1.35
COc1cc(OC)c2c(c1)cc1c(c2O)c(=O)cc(o1)C	286.283	2.97742	2	5	1	119.877	-3.202	1.445	95.708	-2.749	No	No	No	0.182	0.106	-0.288	-2.254	No	Yes	Yes	Yes	No	No	No	0.762	No	Yes	0.208	No	No	2.184	1.589	No	No	0.536	1.282
COc1cc(OC)cc2c1c(O)c1c(c2)oc(c(c1=O)C)C	300.31	3.28584	2	5	1	126.242	-3.642	1.141	97.486	-2.774	No	Yes	Yes	0.154	0.126	-0.275	-2.138	No	No	Yes	Yes	No	No	No	0.711	No	Yes	0.473	No	Yes	2.325	1.54	No	No	0.544	0.094
COC1OC(=O)c2c3c1c(O)cc(c3c(cc2OC)C)OC	304.298	2.68642	3	6	1	126.707	-4.207	1.375	94.346	-2.745	No	No	No	-0.445	0.106	-0.487	-3.138	No	No	No	Yes	No	No	No	0.761	No	Yes	0.746	No	No	2.6	1.467	No	No	0.304	0.94
COC1=CC(=O)[C@H]([C@@]2([C@H]1c1c(OC)cc(c3c1C(=C2)C(=CC3=O)OC)O)C)O	384.384	2.0882	3	7	2	161.071	-3.538	1.226	100	-3.062	Yes	Yes	No	0.014	0.179	-0.6	-3.193	No	Yes	No	No	No	No	No	0.371	No	No	-0.45	No	No	2.77	2.098	No	No	0.301	3.066
COc1c2CC3COC(=O)C3C(c2cc2c1OCO2)c1ccc2c(c1)OCO2	382.368	2.6298	2	7	0	160.592	-4.195	1.217	100	-2.736	No	Yes	Yes	-0.777	0.056	-0.795	-3.243	No	Yes	No	Yes	No	No	Yes	-0.01	No	Yes	0.15	No	No	3.152	1.149	No	No	0.288	0.33
C=CCc1cc(OC)c2c(c1)OCO2	192.214	2.1524	3	3	0	82.901	-2.671	1.512	97.599	-2.418	No	No	No	0.222	0.335	0.342	-2.041	No	No	Yes	No	No	No	No	0.159	No	No	1.002	No	No	1.876	2.135	Yes	Yes	0.991	1.086
COc1cc(O)cc2c1C(=O)[C@@H](C(O2)c1ccccc1)O	286.283	2.0781	2	5	2	120.920	-3.465	1.22	95.13	-2.802	Yes	No	No	0.071	0.081	-0.05	-2.357	No	No	Yes	Yes	No	No	Yes	0.189	No	No	0.017	No	No	2.245	1.694	No	No	0.464	1.031
COc1cc(O)cc2c1C(=O)O[C@H](C)CCCCCCC2	292.375	3.8428	1	4	1	125.623	-3.845	1.368	92.667	-3.089	No	No	No	0.209	0.248	-0.313	-2.743	No	No	Yes	No	No	No	No	1.159	No	No	0.213	No	No	2.448	1.881	No	No	1.186	1.148
COc1cccc2c1C(=O)O[C@H](C2)C	192.214	1.7966	1	3	0	82.639	-1.947	1.768	96.895	-2.456	No	No	No	-0.025	0.328	0.24	-2.239	No	No	Yes	No	No	No	No	0.695	No	No	0.822	No	No	2.065	2.275	No	No	0.751	1.528
COC1=CC(=O)c2c3[C@]1(O)COC(=O)c3c(cc2O)OC	292.243	0.4854	2	7	2	118.902	-2.282	0.852	60.318	-2.784	No	No	No	0.237	0.377	-0.235	-3.035	No	No	No	No	No	No	No	0.602	No	No	-0.03	No	No	2.002	2.464	No	No	0.285	3.061
COC1=CC(=O)c2c3c1coc(=O)c3c(cc2O)OC	274.228	1.6908	2	6	1	112.392	-2.718	1.216	95.725	-2.856	No	No	No	0.092	0.269	-0.478	-2.565	No	No	Yes	No	No	No	No	0.725	No	No	0.063	No	No	2.115	1.073	No	No	0.495	1.196
COC1=CC(=O)c2c3c1coc(=O)c3c(cc2C)OC	272.256	2.29362	2	5	0	113.962	-3.195	1.168	98.243	-2.7	No	No	No	-0.175	0.243	-0.443	-2.334	No	Yes	Yes	Yes	No	No	No	0.739	No	Yes	0.328	No	No	2.491	0.991	No	No	0.638	0.928
COc1cc(O)cc2c1C(=O)CC(O2)c1ccccc1	270.284	3.1073	2	4	1	116.125	-3.735	1.319	94.598	-2.834	No	No	No	-0.106	0.097	-0.451	-2.036	No	No	Yes	Yes	Yes	No	No	0.237	No	Yes	0.499	No	Yes	2.392	2.125	No	No	0.713	0.393
COc1cc(O)cc2c1C(=O)CC(O2)c1ccc(c(c1)c1c(O)cc2c(c1O)c(=O)cc(o2)c1ccc(cc1)O)O	554.507	5.3701	4	10	5	231.064	-2.941	0.143	87.02	-2.735	Yes	Yes	Yes	-1.503	0.341	-1.907	-3.667	No	Yes	No	No	No	No	No	0.368	No	No	0.403	No	Yes	2.549	1.943	No	No	0.285	-0.524
COc1c2C[C@H](Oc2cc2c1c(=O)cc(o2)C)C(O)(C)C	290.315	2.18442	2	5	1	121.649	-3.391	1.336	97.591	-2.773	No	No	No	0.059	0.234	-0.301	-2.945	No	Yes	Yes	No	No	No	No	0.633	No	No	0.216	No	No	2.527	1.337	No	No	0.6	1.413
COc1cccc2c1C(=O)C1=C(C2(OC)c2ccc3c(c2O)c(O)c2c(c3)C[C@](CC2=O)(C)O)C[C@@H](O[C@@H]1C)C	544.6	4.7197	3	8	3	231.349	-4.63	0.757	91.867	-2.735	Yes	Yes	Yes	-0.503	0.082	-1.223	-3.123	No	Yes	No	Yes	Yes	No	Yes	-0.381	No	No	0.2	No	Yes	2.462	1.913	No	No	0.285	-0.251
COc1cc(OC)c2c(c1)C(OC)(C1=C(C2=O)[C@@H](C)O[C@H](C1)C)c1ccc2c(c1O)c(O)c1c(c2)CCCC1=O	544.6	5.3674	4	8	2	231.668	-4.931	0.912	100	-2.735	Yes	Yes	Yes	-0.465	0.092	-0.326	-3.118	No	Yes	No	Yes	Yes	No	No	-0.221	No	No	0.094	No	Yes	2.66	1.789	No	No	0.285	-2.687
COc1cccc2c1C(=O)C1=C(C2(OC)c2ccc3c(c2O)C(=O)c2c(C3)cc(cc2O)C)C[C@@H](O[C@@H]1C)C	526.585	5.13022	3	7	2	226.200	-4.295	0.713	97.704	-2.735	Yes	Yes	Yes	-1.164	0.098	-0.367	-2.891	No	Yes	No	Yes	Yes	No	Yes	-0.18	No	No	-0.083	No	Yes	2.224	1.801	Yes	No	0.285	-2.104
COc1cccc2c1C(=O)C1=C(C2(OC)c2ccc3c(c2O)C(=O)c2c(C3=O)cc(cc2O)C)C[C@@H](O[C@@H]1C)C	540.568	4.77042	3	8	2	230.361	-4.302	0.553	92.238	-2.735	Yes	Yes	Yes	-1.076	0.136	-0.13	-3.037	No	Yes	No	No	Yes	No	Yes	-0.271	No	No	0.033	No	Yes	2.287	1.823	Yes	No	0.285	-1.259
COc1cc(OC)c2c(c1)C(OC)(C1=C(C2=O)[C@@H](C)O[C@H](C1)C)c1ccc2c(c1O)C(=O)c1c(C2=O)cc(cc1O)C	570.594	4.77902	4	9	2	241.840	-4.177	0.535	96.011	-2.735	Yes	Yes	Yes	-0.886	0.139	-0.264	-3.23	No	Yes	No	No	Yes	No	Yes	-0.326	No	No	0.096	No	Yes	2.756	1.957	No	No	0.285	-3.042
COc1cc(O)cc2c1c(=O)c(c(o2)c1ccccc1)O	284.267	2.8798	2	5	2	119.203	-3.388	1.05	94.854	-2.75	Yes	No	No	0.082	0.045	-0.168	-2.238	No	No	Yes	Yes	Yes	No	Yes	0.397	No	No	0.365	No	Yes	2.627	0.786	No	No	0.374	0.354
COc1c(ccc2c1OCO2)[C@H]1OC[C@H]2[C@@H]1CO[C@@H]2c1ccc2c(c1OC)OCO2	414.41	3.2364	4	8	0	173.023	-4.736	1.448	97.932	-2.795	No	Yes	Yes	-0.357	0	-1.027	-3.057	No	Yes	No	Yes	No	No	Yes	0.092	No	No	0.202	No	No	2.894	1.15	No	No	0.293	-0.531
COc1cc(ccc1Oc1ccc(cc1OC)c1cc(=O)c2c(o1)cc(c(c2O)O)OC)c1cc(=O)c2c(o1)cc(c(c2O)O)OC	642.569	5.8825	8	13	4	264.103	-2.923	0.16	73.664	-2.735	No	No	Yes	-1.585	0.289	-2.473	-4.062	No	Yes	No	No	Yes	No	No	0.604	No	No	0.421	No	Yes	2.89	2.931	No	No	0.285	-2.898
COc1cc(ccc1OC)[C@H]1OC[C@H]2[C@@H]1CO[C@@H]2c1ccc2c(c1)OCO2	370.401	3.5077	4	6	0	157.437	-4.791	1.073	97.554	-2.758	No	Yes	Yes	-0.201	0	-0.478	-2.842	No	Yes	Yes	Yes	Yes	No	Yes	0.014	No	No	0.182	No	No	2.679	1.463	No	No	0.422	-0.827
COc1cc(ccc1OC)[C@H]1OC[C@H]2[C@@H]1CO[C@@H]2c1ccc2c(c1C)OCO2	384.428	3.81612	4	6	0	163.802	-4.991	1.07	97.566	-2.76	No	Yes	Yes	-0.173	0	-0.744	-2.804	No	Yes	Yes	Yes	Yes	No	Yes	0.091	No	No	0.102	No	No	2.758	1.507	No	No	0.42	-0.923
COc1cc(CCc2ccc(c(c2)OC)OC)cc(c1)OC	302.37	3.5062	7	4	0	131.132	-4.787	2.043	97.533	-2.366	No	Yes	No	0.276	0.002	0.226	-1.54	No	Yes	Yes	Yes	Yes	No	Yes	0.328	No	No	0.663	No	No	2.242	1.836	No	No	1.318	-0.348
COc1cc(ccc1OC)c1cc(=O)c2c(o1)cc(c(c2O)O)OC	344.319	2.897	4	7	2	142.160	-3.259	0.106	78.389	-2.739	Yes	No	Yes	-0.204	0.082	-0.375	-3.337	No	Yes	Yes	Yes	No	No	Yes	0.641	No	No	0.298	No	No	2.145	2.042	No	No	0.365	0.211
COc1cc(ccc1OC)C1OCC2C1COC2c1ccc2c(c1)OCO2	370.401	3.5077	4	6	0	157.437	-4.791	1.073	97.554	-2.758	No	Yes	Yes	-0.201	0	-0.478	-2.842	No	Yes	Yes	Yes	Yes	No	Yes	0.014	No	No	0.182	No	No	2.679	1.463	No	No	0.422	-0.827
COc1cc(O)c2c(c1)oc(c(c2=O)OC)c1ccc(c(c1)OC)OC	358.346	3.2	5	7	1	148.845	-4.333	1.122	95.678	-2.797	No	Yes	Yes	-0.289	0.134	-0.658	-3.205	No	No	Yes	Yes	No	No	Yes	0.771	No	No	0.581	No	Yes	2.77	1.33	No	No	0.343	0.386
COc1cc2oc(=O)ccc2cc1OC	206.197	1.8102	2	4	0	86.036	-2.201	1.273	98.048	-2.328	No	No	No	-0.296	0.288	0.116	-2.396	No	No	Yes	No	No	No	No	0.812	No	No	0.618	No	No	2.172	2.5	No	No	0.596	1.4
COc1cc2c(cc1OC)OC[C@@H]1[C@H]2C(=O)c2c(O1)c1C[C@@H](Oc1cc2)C(=C)C	394.423	3.7033	3	6	0	168.525	-4.627	1.306	100	-2.742	No	Yes	Yes	-0.278	0.099	-0.407	-2.864	No	Yes	Yes	Yes	Yes	No	Yes	0.288	No	No	0.363	No	No	3.042	1.442	No	No	0.321	-1.46
COc1cc2c(=O)[nH]c3c2c(c1OC)c1cccc(c1c3OC)OC	339.347	3.5931	4	5	1	143.779	-5.1	1.191	97.183	-2.756	Yes	Yes	Yes	-0.277	0.07	-0.553	-2.314	No	Yes	Yes	Yes	Yes	No	No	0.257	No	Yes	-0.001	No	Yes	2.839	0.73	No	No	0.312	0.972
COc1c(OC)cc(c2c1oc(c1ccccc1)c(c2=O)O)O	314.293	2.8884	3	6	2	130.682	-3.25	1.225	96.982	-2.736	Yes	No	No	0.192	0.078	-0.186	-2.378	No	No	Yes	Yes	No	No	No	0.252	No	No	0.393	No	No	2.149	2.048	No	No	0.375	-0.079
COc1cc(CCc2ccc(c(c2)OC)O)cc(c1OC)O	304.342	2.9088	6	5	2	129.242	-4.161	1.019	91.554	-2.829	Yes	No	No	-0.149	0.024	-0.319	-2.53	No	Yes	Yes	Yes	Yes	No	Yes	0.128	No	Yes	0.597	No	No	1.885	1.261	No	No	1.019	0.921
C=CCc1cc(OC)c(c(c1)OC)OC	208.257	2.4409	5	3	0	90.272	-2.928	1.521	97.432	-2.29	No	No	No	0.172	0.311	0.424	-2.076	No	No	Yes	No	No	No	No	0.358	No	No	1.149	No	No	1.848	2.156	No	Yes	1.023	0.864
COc1c(O)cc2c(c1OC)c1ccc(cc1c(c2)OC)O	300.31	3.43	3	5	2	126.819	-4.509	1.078	94.847	-2.742	Yes	No	Yes	-0.465	0.069	-0.109	-2.236	No	No	Yes	Yes	Yes	No	No	0.57	No	Yes	0.263	No	Yes	2.742	1.574	No	No	0.314	0.703
COc1cc2cc(OC)c3c(c2c(c1OC)OC)c(O)ccc3	314.337	3.733	4	5	1	133.503	-4.38	1.268	97.115	-2.747	No	No	Yes	-0.274	0.102	-0.525	-2.261	No	No	Yes	Yes	Yes	No	No	0.415	No	Yes	0.433	No	Yes	2.842	1.078	No	No	0.34	-0.03
COc1c(O)cc2c(c1OC)c1c(O)cccc1c(c2)OC	300.31	3.43	3	5	2	126.819	-3.912	0.975	95.74	-2.735	Yes	No	Yes	-0.094	0.106	0.06	-2.226	No	No	Yes	Yes	Yes	No	No	0.407	No	Yes	0.43	No	Yes	2.65	1.646	No	No	0.295	0.264
COc1c2c(CCc3c2ccc(c3)O)cc(c1OC)O	272.3	2.8806	2	4	2	116.758	-3.879	1.225	94.074	-2.809	Yes	No	No	0.106	0	-0.209	-2.18	No	Yes	Yes	Yes	No	No	No	0.106	No	Yes	-0.071	No	Yes	2.017	1.362	No	No	0.747	0.24
COc1cc(ccc1O)[C@H]1OC[C@H]2[C@@H]1CO[C@@H]2c1ccc2c(c1C)OCO2	370.401	3.51312	3	6	1	157.117	-3.838	1.124	94.769	-2.9	No	Yes	Yes	-0.002	0	-0.844	-2.84	No	Yes	Yes	Yes	Yes	No	Yes	0.037	No	No	-0.651	No	Yes	2.28	1.522	No	No	0.43	0.671
COc1cc(CCc2ccc(c(c2)OC)O)cc(c1)OC	288.343	3.2032	6	4	1	124.448	-4.33	1.35	94.151	-2.57	No	No	No	0.093	0.008	0.18	-1.66	No	Yes	Yes	Yes	No	No	Yes	0.278	No	Yes	0.617	No	No	2.079	1.743	No	No	1.332	0.468
COc1cc(CCc2ccc(c(c2)OC)O)cc(c1)O	274.316	2.9002	5	4	2	117.764	-3.43	1.261	91.391	-2.835	Yes	No	No	0.168	0.055	0.119	-2.377	No	Yes	Yes	Yes	No	No	Yes	0.217	No	Yes	0.358	No	No	2.031	1.491	No	No	1.181	0.859
COc1cc(ccc1O)c1cc(=O)c2c(o1)cc(cc2O)O	300.266	2.5854	2	6	3	123.998	-3.294	0.078	81.783	-2.735	Yes	No	No	0.108	0.082	-1.061	-2.491	No	No	Yes	No	No	No	No	0.617	No	No	0.404	No	No	2.17	1.801	No	No	0.384	1.47
COc1cc(O)c2c(c1)oc(c(c2=O)OC)c1ccc(c(c1)OC)O	344.319	2.897	4	7	2	142.160	-3.955	0.573	86.72	-2.764	Yes	No	Yes	-0.345	0.118	-0.578	-3.258	No	No	Yes	No	No	No	Yes	0.695	No	No	0.581	No	Yes	2.531	1.85	No	No	0.339	0.778
COc1cc(ccc1O)c1oc2cc(O)cc(c2c(=O)c1O)O	316.265	2.291	2	7	4	128.792	-3.112	0.027	88.672	-2.735	Yes	No	No	0.608	0.055	-1.174	-3.417	No	No	Yes	No	No	No	No	0.52	No	No	0.738	No	Yes	2.379	2.559	No	No	0.318	1.646
COc1cc2oc(=O)ccc2cc1O	192.17	1.5072	1	4	1	79.352	-2.488	1.166	95.445	-2.901	No	No	No	0.085	0.352	-0.309	-2.894	No	No	Yes	No	No	No	No	0.75	No	No	0.379	No	No	2.064	1.47	No	No	0.469	1.791
COc1cc2ccc(=O)oc2cc1O	192.17	1.5072	1	4	1	79.352	-2.467	1.151	95.015	-2.937	No	No	No	0.125	0.38	-0.309	-2.875	No	No	Yes	No	No	No	No	0.752	No	No	0.292	No	No	2.012	1.424	No	No	0.453	1.604
COc1c(oc2c(c1=O)c(O)cc(c2OC)O)c1ccccc1	314.293	2.8884	3	6	2	130.682	-4.108	0.972	96.089	-2.737	Yes	No	Yes	-0.483	0.113	-0.227	-2.385	No	No	Yes	Yes	Yes	No	No	0.306	No	No	0.622	No	Yes	2.439	1.511	No	No	0.311	0.707
COc1ccc(cc1O)c1cc(=O)c2c(o1)cc(cc2O)O	300.266	2.5854	2	6	3	123.998	-3.329	0.199	81.903	-2.735	Yes	No	No	0.042	0.077	-1.034	-2.464	No	No	Yes	No	No	No	Yes	0.628	No	No	0.398	No	No	2.159	1.823	No	No	0.374	0.966
COc1cc2OC(CC(=O)c2c(c1)O)c1ccc(c(c1)O)OC	316.309	2.8215	3	6	2	132.398	-3.45	1.274	91.854	-2.755	Yes	No	No	0.294	0.104	0.047	-3.085	No	No	No	Yes	No	No	No	0.168	No	No	-0.309	No	No	2.319	1.661	No	No	0.332	2.054
COc1ccc2c(c1O)OC[C@@H]1[C@H]2Oc2c1ccc(c2O)OC	316.309	2.7247	2	6	2	132.344	-3.343	1.381	94.423	-2.775	Yes	No	No	0.307	0.041	-0.149	-3.032	No	Yes	Yes	Yes	No	No	No	0.008	No	No	-0.669	No	Yes	2.081	2.034	No	No	0.389	0.902
COc1ccc2c(c1)O[C@@H]1[C@H]2COc2c1ccc(c2O)OC	300.31	3.0191	2	5	1	127.550	-3.54	1.263	95.104	-2.845	No	No	No	0.068	0.008	-0.136	-2.176	No	Yes	Yes	Yes	Yes	No	Yes	0.139	No	Yes	-0.242	No	Yes	2.371	1.459	No	No	0.645	0.791
COc1cc(ccc1OC)c1cc(=O)c2c(o1)cc(c(c2O)OC)O	344.319	2.897	4	7	2	142.160	-3.335	0.15	83.493	-2.745	Yes	No	Yes	-0.097	0.085	-0.798	-3.28	No	No	Yes	Yes	No	No	Yes	0.639	No	No	0.307	No	No	2.277	2.09	No	No	0.376	0.494
COc1cc(ccc1O)c1cc(=O)c2c(o1)cc(c(c2O)OC)O	330.292	2.594	3	7	3	135.476	-3.308	0.057	78.751	-2.736	Yes	No	Yes	0.221	0.069	-1.286	-3.307	No	No	Yes	No	No	No	No	0.583	No	No	0.312	No	No	2.257	1.837	No	No	0.355	1.914
COc1ccc(cc1)c1oc2cc(O)c(c(c2c(=O)c1OC)O)OC	344.319	2.897	4	7	2	142.160	-3.793	0.703	81.118	-2.775	Yes	No	Yes	-0.124	0.129	-0.774	-3.049	No	No	Yes	No	No	No	Yes	0.625	No	No	0.732	No	Yes	2.194	1.93	No	No	0.391	0.801
COc1c(O)cc2c(c1O)c(=O)c(c(o2)c1ccc(c(c1)O)O)O	332.264	1.9966	2	8	5	133.586	-3.228	0.132	67.902	-2.735	Yes	No	No	0.195	0.049	-1.667	-3.805	No	No	Yes	No	No	No	No	0.51	No	Yes	0.61	No	No	2.432	2.387	No	No	0.286	2.505
COc1c(OC)cc2c(c1O)c1ccc(cc1CC2)O	272.3	2.8806	2	4	2	116.758	-3.89	1.207	95.267	-2.742	Yes	No	No	-0.213	0	0.589	-2.165	No	No	Yes	Yes	Yes	No	No	0.171	No	Yes	0.004	No	Yes	2.128	2.227	No	No	0.393	0.219
COc1c(ccc(c1O)OC)C1COc2c(C1)ccc(c2)O	302.326	2.8337	3	5	2	128.236	-3.341	1.366	93.395	-2.818	Yes	No	No	0.301	0.09	-0.026	-2.313	No	Yes	Yes	Yes	Yes	No	Yes	0.215	No	No	-0.524	No	Yes	2.24	1.838	No	No	0.587	0.697
COc1c(O)c(OC)cc2c1c1ccc(cc1cc2)O	270.284	3.4214	2	4	2	115.340	-4.281	1.213	95.285	-2.736	Yes	No	Yes	-0.442	0	0.119	-2.092	No	Yes	Yes	Yes	No	No	No	0.213	No	Yes	0.02	No	Yes	2.551	1.857	No	No	0.3	-0.248
COc1cc2ccc3c(c2c(c1O)OC)ccc(c3OC)O	300.31	3.43	3	5	2	126.819	-4.102	1.154	92.519	-2.743	Yes	No	Yes	-0.442	0	-0.229	-2.231	No	Yes	Yes	Yes	Yes	No	No	0.175	No	Yes	0.121	No	Yes	2.539	1.787	No	No	0.351	-0.039
