Molecule,Canonical SMILES,Formula,MW,#Heavy atoms,#Aromatic heavy atoms,Fraction Csp3,#Rotatable bonds,#H-bond acceptors,#H-bond donors,MR,TPSA,iLOGP,XLOGP3,WLOGP,MLOGP,Silicos-IT Log P,Consensus Log P,ESOL Log S,ESOL Solubility (mg/ml),ESOL Solubility (mol/l),ESOL Class,Ali Log S,Ali Solubility (mg/ml),Ali Solubility (mol/l),Ali Class,Silicos-IT LogSw,Silicos-IT Solubility (mg/ml),Silicos-IT Solubility (mol/l),Silicos-IT class,GI absorption,BBB permeant,Pgp substrate,CYP1A2 inhibitor,CYP2C19 inhibitor,CYP2C9 inhibitor,CYP2D6 inhibitor,CYP3A4 inhibitor,log Kp (cm/s),Lipinski #violations,Ghose #violations,Veber #violations,Egan #violations,Muegge #violations,Bioavailability Score,PAINS #alerts,Brenk #alerts,Leadlikeness #violations,Synthetic Accessibility
Molecule 1,C1Oc2c(O1)cc(cc2)C1OCC2C1COC2c1ccc2c(c1)OCO2,C20H18O6,354.35,26,12,0.40,2,6,0,90.00,55.38,3.46,2.68,2.57,1.98,3.25,2.79,-3.93,4.12e-02,1.16e-04,Soluble,-3.50,1.13e-01,3.20e-04,Soluble,-4.60,8.98e-03,2.54e-05,Moderately soluble,High,Yes,No,No,Yes,No,Yes,Yes,-6.56,0,0,0,0,0,0.55,0,0,1,4.12
Molecule 2,C[C@@H]([C@H]1CC[C@@]2([C@]1(C)CC[C@@]1(C2CCC2[C@@]31CC[C@H](O3)C2(C)C)C)C)CCC(C(=C)C)(C)C,C32H54O,454.77,33,0,0.94,5,1,0,144.72,9.23,5.39,10.89,9.21,7.30,8.55,8.27,-9.19,2.93e-07,6.45e-10,Poorly soluble,-11.05,4.09e-09,9.00e-12,Insoluble,-8.06,3.99e-06,8.77e-09,Poorly soluble,Low,No,No,No,No,No,No,No,-1.34,1,3,0,1,2,0.55,0,1,2,6.87
Molecule 3,S=C=N[C@]1(C)CCC[C@]2([C@H]1C[C@@](OO)(CC2)C(=C)C)C,C16H25NO2S,295.44,20,0,0.81,3,3,1,85.96,73.91,3.30,5.09,4.64,4.30,4.84,4.43,-4.68,6.17e-03,2.09e-05,Moderately soluble,-6.39,1.22e-04,4.12e-07,Poorly soluble,-3.35,1.31e-01,4.44e-04,Soluble,High,No,No,No,Yes,Yes,No,No,-4.49,1,0,0,0,1,0.55,0,4,1,4.38
Molecule 4,S=C=N[C@]1(C)CCC[C@]2([C@H]1C[C@@](O)(CC2)C(=C)C)C,C16H25NOS,279.44,19,0,0.81,2,2,1,84.46,64.68,3.30,5.05,4.15,4.37,5.29,4.43,-4.62,6.67e-03,2.39e-05,Moderately soluble,-6.15,1.98e-04,7.08e-07,Poorly soluble,-3.62,6.72e-02,2.40e-04,Soluble,High,Yes,No,No,Yes,Yes,No,No,-4.42,1,0,0,0,1,0.55,0,3,1,3.89
Molecule 5,COc1cccc2c1[C@H](SCCC(=O)N)c1noc(=O)c3c1c2c(OC)c(c3)OC,C21H20N2O6S,428.46,30,16,0.29,7,7,1,113.12,139.18,2.38,2.44,2.57,1.49,3.64,2.50,-3.97,4.63e-02,1.08e-04,Soluble,-5.01,4.23e-03,9.86e-06,Moderately soluble,-6.59,1.11e-04,2.59e-07,Poorly soluble,Low,No,Yes,No,Yes,Yes,No,Yes,-7.18,0,0,0,1,0,0.55,0,0,1,4.40
Molecule 6,COc1cccc2c1[C@H](SCC(=O)/C=C/c1ccc(c(c1)OC)O)c1noc(=O)c3c1c2c(OC)c(c3)OC,C29H25NO8S,547.58,39,22,0.21,9,9,1,148.54,142.62,3.55,5.04,4.58,1.94,5.79,4.18,-6.23,3.20e-04,5.84e-07,Poorly soluble,-7.78,9.17e-06,1.67e-08,Poorly soluble,-8.57,1.47e-06,2.69e-09,Poorly soluble,Low,No,Yes,No,Yes,Yes,No,Yes,-6.06,1,2,1,1,1,0.55,0,1,3,5.01
Molecule 7,Oc1cc(O)cc(c1)O,C6H6O3,126.11,9,6,0.00,0,3,3,32.51,60.69,0.66,0.16,0.80,0.18,0.43,0.45,-1.22,7.67e+00,6.08e-02,Very soluble,-0.99,1.29e+01,1.02e-01,Very soluble,-0.63,2.96e+01,2.34e-01,Soluble,High,Yes,No,No,No,No,No,Yes,-6.96,0,3,0,0,1,0.55,0,0,1,1.00
Molecule 8,Oc1ccc(cc1)CCc1cc(O)cc(c1)O,C14H14O3,230.26,17,12,0.14,3,3,3,66.77,60.69,1.71,3.07,2.59,2.34,2.75,2.49,-3.53,6.86e-02,2.98e-04,Soluble,-4.01,2.24e-02,9.74e-05,Moderately soluble,-4.01,2.27e-02,9.86e-05,Moderately soluble,High,Yes,No,Yes,No,No,Yes,Yes,-5.52,0,0,0,0,0,0.55,0,0,1,1.59
Molecule 9,Oc1cccc(c1)CCc1cc(O)cc(c1)O,C14H14O3,230.26,17,12,0.14,3,3,3,66.77,60.69,1.73,3.11,2.59,2.34,2.75,2.50,-3.55,6.47e-02,2.81e-04,Soluble,-4.05,2.04e-02,8.85e-05,Moderately soluble,-4.01,2.27e-02,9.86e-05,Moderately soluble,High,Yes,No,Yes,No,No,Yes,Yes,-5.50,0,0,0,0,0,0.55,0,0,1,1.54
Molecule 10,Cc1cc(O)cc(c1)O,C7H8O2,124.14,9,6,0.14,0,2,2,35.45,40.46,1.19,1.58,1.41,1.15,1.35,1.33,-2.10,9.90e-01,7.97e-03,Soluble,-2.04,1.13e+00,9.11e-03,Soluble,-1.59,3.19e+00,2.57e-02,Soluble,High,Yes,No,No,No,No,No,Yes,-5.94,0,3,0,0,1,0.55,0,0,1,1.00
Molecule 11,C[C@H]1CCCc2c1c(C)c1c(c2O)occ1C,C15H18O2,230.30,17,9,0.47,0,2,1,70.41,33.37,2.86,4.41,4.20,2.90,4.31,3.73,-4.44,8.40e-03,3.65e-05,Moderately soluble,-4.83,3.42e-03,1.49e-05,Moderately soluble,-4.76,4.01e-03,1.74e-05,Moderately soluble,High,Yes,Yes,Yes,No,No,Yes,No,-4.57,0,0,0,0,0,0.55,0,0,2,3.35
Molecule 12,CCCCCc1cc(O)c2c(c1)OC([C@@H]1[C@@H]2[C@@H]2O[C@@]2(CC1)C)(C)C,C21H30O3,330.46,24,6,0.71,4,3,1,97.39,41.99,4.23,5.09,4.95,3.60,5.27,4.63,-5.02,3.18e-03,9.63e-06,Moderately soluble,-5.71,6.37e-04,1.93e-06,Moderately soluble,-5.66,7.20e-04,2.18e-06,Moderately soluble,High,Yes,No,No,No,No,Yes,No,-4.70,0,0,0,0,1,0.55,0,1,1,4.63
Molecule 13,CCCCCc1cc(O)c2c(c1)OC([C@@H]1[C@H]2C(=C(C)CC1)O)(C)C,C21H30O3,330.46,24,6,0.62,4,3,2,99.48,49.69,4.03,6.33,5.62,3.51,4.91,4.88,-5.80,5.26e-04,1.59e-06,Moderately soluble,-7.16,2.27e-05,6.87e-08,Poorly soluble,-5.57,8.98e-04,2.72e-06,Moderately soluble,High,Yes,No,No,No,Yes,Yes,No,-3.82,0,1,0,0,1,0.55,0,0,1,4.40
Molecule 14,Oc1cc2C[C@@]3([C@H](c2cc1O)c1ccc(c(c1OC3)O)O)O,C16H14O6,302.28,22,12,0.25,0,6,5,77.22,110.38,1.69,1.19,1.32,0.49,1.37,1.21,-2.87,4.10e-01,1.36e-03,Soluble,-3.10,2.38e-01,7.87e-04,Soluble,-2.63,7.10e-01,2.35e-03,Soluble,High,No,Yes,Yes,No,No,No,No,-7.30,0,0,0,0,0,0.55,1,1,0,3.74
Molecule 15,Oc1ccc2c(c1)OC[C@]1([C@@H]2c2cc(O)c(cc2C1)O)O,C16H14O5,286.28,21,12,0.25,0,5,4,75.20,90.15,1.49,1.55,1.61,1.04,1.86,1.51,-3.01,2.77e-01,9.68e-04,Soluble,-3.05,2.54e-01,8.86e-04,Soluble,-3.21,1.77e-01,6.17e-04,Soluble,High,No,Yes,Yes,No,No,No,No,-6.95,0,0,0,0,0,0.55,1,1,0,3.70
Molecule 16,C[C@@H](c1ccc(c(c1)O)C)CCC1OC1(C)C,C15H22O2,234.33,17,6,0.60,4,2,1,71.05,32.76,3.09,3.98,3.76,2.80,4.32,3.59,-3.80,3.74e-02,1.59e-04,Soluble,-4.37,1.00e-02,4.27e-05,Moderately soluble,-4.29,1.21e-02,5.18e-05,Moderately soluble,High,Yes,No,Yes,No,No,Yes,No,-4.90,0,0,0,0,0,0.55,0,1,2,2.74
Molecule 17,CC(=CCC[C@H](c1ccc(c(c1)O)C)C)C,C15H22O,218.33,16,6,0.47,4,1,1,71.57,20.23,3.13,5.46,4.55,4.03,4.35,4.31,-4.65,4.92e-03,2.25e-05,Moderately soluble,-5.64,4.98e-04,2.28e-06,Moderately soluble,-4.33,1.03e-02,4.72e-05,Moderately soluble,High,Yes,No,No,No,Yes,Yes,No,-3.76,0,0,0,0,2,0.55,0,1,2,2.42
Molecule 18,Cc1cc2c(ccc(c2cc1O)C)C(C)C,C15H18O,214.30,16,10,0.33,1,1,1,70.48,20.23,2.75,4.67,4.29,3.91,4.47,4.02,-4.51,6.66e-03,3.11e-05,Moderately soluble,-4.82,3.23e-03,1.51e-05,Moderately soluble,-5.10,1.69e-03,7.91e-06,Moderately soluble,High,Yes,No,No,No,No,Yes,No,-4.29,0,0,0,0,1,0.55,0,0,2,1.20
Molecule 19,CC([C@@H]1C[C@H]2Oc3c(C)cc4c(c3C[C@]2(c2c1cc(C)c(c2)O)O)c(C)ccc4C(C)C)C,C30H36O3,444.61,33,16,0.47,2,3,2,137.21,49.69,4.47,7.29,6.82,4.99,7.52,6.22,-7.42,1.71e-05,3.84e-08,Poorly soluble,-8.16,3.08e-06,6.93e-09,Poorly soluble,-8.78,7.43e-07,1.67e-09,Poorly soluble,High,No,Yes,No,No,No,Yes,No,-3.84,1,2,0,1,1,0.55,0,0,2,5.07
Molecule 20,CC([C@H]1CCC(c2c1cc(C)c(c2)O)C)C,C15H22O,218.33,16,6,0.60,1,1,1,70.09,20.23,3.01,4.76,4.34,3.73,3.99,3.97,-4.40,8.61e-03,3.94e-05,Moderately soluble,-4.92,2.65e-03,1.21e-05,Moderately soluble,-4.08,1.84e-02,8.41e-05,Moderately soluble,High,Yes,No,No,No,No,Yes,No,-4.25,0,0,0,0,1,0.55,0,0,2,2.76
Molecule 21,CC(=CCC[C@H](c1ccc(c(c1)C)O)C)C,C15H22O,218.33,16,6,0.47,4,1,1,71.57,20.23,3.30,5.03,4.55,4.03,4.35,4.25,-4.38,9.18e-03,4.21e-05,Moderately soluble,-5.20,1.39e-03,6.37e-06,Moderately soluble,-4.33,1.03e-02,4.72e-05,Moderately soluble,High,Yes,No,No,No,No,Yes,No,-4.06,0,0,0,0,2,0.55,0,1,2,2.34
Molecule 22,Cc1ccc(c(c1)O)C(C)C,C10H14O,150.22,11,6,0.40,1,1,1,48.01,20.23,2.32,3.30,2.82,2.76,2.79,2.80,-3.19,9.74e-02,6.49e-04,Soluble,-3.40,5.97e-02,3.98e-04,Soluble,-3.01,1.46e-01,9.71e-04,Soluble,High,Yes,No,Yes,No,No,No,No,-4.87,0,1,0,0,2,0.55,0,0,1,1.00
Molecule 23,OC1CC[C@]2(C[C@]1(C)CC[C@@H]1[C@]2(C)CC1(C)C)O,C16H28O2,252.39,18,0,1.00,0,2,2,74.27,40.46,2.80,3.21,3.11,3.13,3.14,3.08,-3.43,9.44e-02,3.74e-04,Soluble,-3.73,4.68e-02,1.85e-04,Soluble,-3.10,1.98e-01,7.85e-04,Soluble,High,Yes,No,No,No,No,No,No,-5.56,0,0,0,0,0,0.55,0,0,0,4.53
Molecule 24,CC1=C[C@@H]2[C@@H](CC1)[C@@](C)(O)CC[C@H]2C(C)C,C15H26O,222.37,16,0,0.87,1,1,1,70.72,20.23,3.21,3.34,3.78,3.67,3.22,3.44,-3.26,1.23e-01,5.54e-04,Soluble,-3.44,8.04e-02,3.61e-04,Soluble,-2.73,4.10e-01,1.85e-03,Soluble,High,Yes,No,No,Yes,No,No,No,-5.29,0,0,0,0,1,0.55,0,1,1,4.29
Molecule 25,Oc1cc(O)c2c(c1)O[C@@]1([C@@H]([C@H]2c2c(O1)cc(c1c2O[C@@H]([C@H](C1)O)c1ccc(c(c1)O)O)O)O)c1ccc(cc1)O,C30H24O11,560.50,41,24,0.20,2,11,8,142.12,189.53,1.94,2.74,2.66,0.90,1.83,2.01,-5.34,2.55e-03,4.54e-06,Moderately soluble,-6.37,2.37e-04,4.22e-07,Poorly soluble,-5.04,5.12e-03,9.14e-06,Moderately soluble,Low,No,No,No,No,Yes,No,Yes,-7.77,3,2,1,1,3,0.17,1,1,1,5.81
Molecule 26,CC([C@@H]1C[C@H]2[C@H]([C@@]([C@@H](C1)O)(C)O)[C@H]1C[C@]2(C)OO1)C,C15H26O4,270.36,19,0,1.00,1,4,2,72.45,58.92,2.59,1.89,1.89,1.97,1.58,1.98,-2.64,6.18e-01,2.29e-03,Soluble,-2.75,4.81e-01,1.78e-03,Soluble,-1.40,1.07e+01,3.95e-02,Soluble,High,Yes,No,No,No,No,No,No,-6.61,0,0,0,0,0,0.55,0,1,0,5.56
Molecule 27,Oc1cc2O[C@H](c3ccc(c(c3)O)O)[C@@H](Cc2c(c1)O)O,C15H14O6,290.27,21,12,0.20,1,6,5,74.33,110.38,1.47,0.36,1.22,0.24,0.98,0.85,-2.22,1.74e+00,5.98e-03,Soluble,-2.24,1.66e+00,5.72e-03,Soluble,-2.14,2.09e+00,7.19e-03,Soluble,High,No,Yes,No,No,No,No,No,-7.82,0,0,0,0,0,0.55,1,1,0,3.50
Molecule 28,CC([C@H]1C=C[C@]([C@@H]([C@@H]1O)O)(C)O)C,C10H18O3,186.25,13,0,0.80,1,3,3,51.12,60.69,1.25,0.34,0.30,0.50,0.26,0.53,-1.14,1.34e+01,7.20e-02,Very soluble,-1.18,1.23e+01,6.63e-02,Very soluble,0.14,2.55e+02,1.37e+00,Soluble,High,No,No,No,No,No,No,No,-7.19,0,0,0,0,1,0.55,0,1,1,4.12
Molecule 29,CC([C@H]1C=C[C@@]([C@@H]([C@@H]1O)O)(C)O)C,C10H18O3,186.25,13,0,0.80,1,3,3,51.12,60.69,1.98,0.34,0.30,0.50,0.26,0.67,-1.14,1.34e+01,7.20e-02,Very soluble,-1.18,1.23e+01,6.63e-02,Very soluble,0.14,2.55e+02,1.37e+00,Soluble,High,No,No,No,No,No,No,No,-7.19,0,0,0,0,1,0.55,0,1,1,4.12
Molecule 30,CCCCCc1cc(O)c2c(c1)OC([C@@H]1[C@H]2C=C(C)[C@@H](C1)O)(C)C,C21H30O3,330.46,24,6,0.62,4,3,2,99.07,49.69,3.47,5.86,4.71,3.51,4.51,4.41,-5.50,1.04e-03,3.15e-06,Moderately soluble,-6.68,6.97e-05,2.11e-07,Poorly soluble,-5.12,2.53e-03,7.66e-06,Moderately soluble,High,Yes,No,No,No,Yes,Yes,No,-4.16,0,0,0,0,1,0.55,0,1,1,4.59
Molecule 31,CCCCCc1cc(O)c2c(c1)OC([C@@H]1[C@@H]2[C@@H](O)C(=C)CC1)(C)C,C21H30O3,330.46,24,6,0.62,4,3,2,99.07,49.69,3.59,5.85,4.71,3.51,4.80,4.49,-5.50,1.06e-03,3.20e-06,Moderately soluble,-6.67,7.14e-05,2.16e-07,Poorly soluble,-5.36,1.43e-03,4.33e-06,Moderately soluble,High,Yes,No,No,No,Yes,Yes,No,-4.16,0,0,0,0,1,0.55,0,1,1,4.36
Molecule 32,CCCCCCC/C=C\[C@@H](C#CC#C[C@@H](C=C)O)O,C17H24O2,260.37,19,0,0.53,8,2,2,81.53,40.46,3.96,4.38,2.98,3.33,4.35,3.80,-3.69,5.37e-02,2.06e-04,Soluble,-4.95,2.95e-03,1.13e-05,Moderately soluble,-2.35,1.17e+00,4.49e-03,Soluble,High,Yes,No,No,No,Yes,No,No,-4.78,0,0,0,0,0,0.55,0,2,2,4.65
Molecule 33,Cc1ccc2c(c1)O[C@@H]([C@]12CC[C@]2(C(O1)Oc1c2ccc(c1)C)O)C,C21H22O4,338.40,25,12,0.43,0,4,1,93.71,47.92,3.06,3.40,3.48,2.90,4.09,3.39,-4.44,1.24e-02,3.67e-05,Moderately soluble,-4.09,2.78e-02,8.21e-05,Moderately soluble,-5.86,4.67e-04,1.38e-06,Moderately soluble,High,Yes,Yes,No,No,No,Yes,No,-5.95,0,0,0,0,0,0.55,0,0,0,5.06
Molecule 34,O[C@@H]1CCC2=C[C@@H]([C@]3([C@@H]([C@@]2([C@H]1C)C)O3)C(=C)C)O,C15H22O3,250.33,18,0,0.73,1,3,2,70.12,52.99,2.40,1.54,1.80,1.75,2.20,1.94,-2.30,1.27e+00,5.06e-03,Soluble,-2.26,1.37e+00,5.47e-03,Soluble,-1.66,5.49e+00,2.19e-02,Soluble,High,Yes,No,No,No,No,No,No,-6.73,0,0,0,0,0,0.55,0,2,0,5.06
Molecule 35,CCCCCc1cc(O)c2c(c1)OC([C@H]1[C@H]2[C@H](O)[C@@](CC1)(C)O)(C)C,C21H32O4,348.48,25,6,0.71,4,4,3,100.74,69.92,3.46,4.10,3.90,2.75,4.03,3.65,-4.50,1.11e-02,3.18e-05,Moderately soluble,-5.27,1.85e-03,5.32e-06,Moderately soluble,-4.77,5.96e-03,1.71e-05,Moderately soluble,High,Yes,Yes,No,No,No,Yes,No,-5.51,0,0,0,0,0,0.55,0,0,1,4.64
Molecule 36,CCCCCc1cc(O)c2c(c1)OC([C@@H]1[C@@H]2[C@H](O)[C@@](CC1)(C)O)(C)C,C21H32O4,348.48,25,6,0.71,4,4,3,100.74,69.92,4.32,4.10,3.90,2.75,4.03,3.82,-4.50,1.11e-02,3.18e-05,Moderately soluble,-5.27,1.85e-03,5.32e-06,Moderately soluble,-4.77,5.96e-03,1.71e-05,Moderately soluble,High,Yes,No,No,No,No,Yes,No,-5.51,0,0,0,0,0,0.55,0,0,1,4.64
Molecule 37,Oc1cc2O[C@@H](c3ccc(c(c3)O)O)[C@H](Cc2c(c1)O)O,C15H14O6,290.27,21,12,0.20,1,6,5,74.33,110.38,1.37,0.36,1.22,0.24,0.98,0.83,-2.22,1.74e+00,5.98e-03,Soluble,-2.24,1.66e+00,5.72e-03,Soluble,-2.14,2.09e+00,7.19e-03,Soluble,High,No,Yes,No,No,No,No,No,-7.82,0,0,0,0,0,0.55,1,1,0,3.50
Molecule 38,C=C1C[C@@H]([C@@]23[C@H]1C[C@H](C3(C)C)CC[C@H]2C)O,C15H24O,220.35,16,0,0.87,0,1,1,68.04,20.23,2.92,3.69,3.39,3.67,3.27,3.39,-3.53,6.49e-02,2.95e-04,Soluble,-3.81,3.45e-02,1.57e-04,Soluble,-2.96,2.39e-01,1.09e-03,Soluble,High,Yes,No,No,No,Yes,No,No,-5.02,0,0,0,0,1,0.55,0,1,2,4.73
Molecule 39,Oc1ccc(cc1)[C@@]12Oc3cc(O)c4c(c3[C@H]([C@@H]2O)c2c(O1)c1c(cc2O)O[C@]2([C@@H]([C@@H]1c1c(O)cc(cc1O2)O)O)c1ccc(cc1)O)O[C@@H]([C@H](C4)O)c1ccc(cc1)O,C45H34O15,814.74,60,36,0.20,3,15,10,207.88,248.45,2.43,4.42,4.38,1.36,3.12,3.14,-7.92,9.75e-06,1.20e-08,Poorly soluble,-9.36,3.60e-07,4.41e-10,Poorly soluble,-8.38,3.38e-06,4.15e-09,Poorly soluble,Low,No,Yes,No,No,Yes,No,No,-8.13,3,3,1,1,5,0.17,0,0,2,7.48
Molecule 40,Cc1ccc2c(c1)O[C@@H]([C@@]12CC[C@@]2([C@H](O1)Oc1c2cccc1C)O)O,C20H20O5,340.37,25,12,0.40,0,5,2,90.06,68.15,2.58,2.45,2.41,2.25,3.09,2.56,-3.85,4.82e-02,1.42e-04,Soluble,-3.52,1.02e-01,2.99e-04,Soluble,-4.90,4.32e-03,1.27e-05,Moderately soluble,High,Yes,Yes,No,No,No,Yes,No,-6.64,0,0,0,0,0,0.55,0,0,0,5.02
Molecule 41,C=CC1=C(C)[C@H]2[C@H](CC1)[C@@]1(C)CCCC([C@@H]1C[C@@H](O2)O)(C)C,C20H32O2,304.47,22,0,0.80,1,2,1,92.69,29.46,3.34,4.77,4.84,4.23,4.23,4.28,-4.67,6.56e-03,2.15e-05,Moderately soluble,-5.12,2.31e-03,7.59e-06,Moderately soluble,-3.94,3.51e-02,1.15e-04,Soluble,High,Yes,No,No,Yes,Yes,No,No,-4.77,1,0,0,0,0,0.55,0,0,1,5.47
Molecule 42,CC1CCC2(CC1)O[C@@]1([C@H]([C@@H]2C)[C@@]2([C@@H](C1)C1C[C@H](c3c(C)cccc3C)[C@@H]3[C@]([C@]1(CC2)C)(C)CC[C@@H](C3)O)C)C,C38H58O2,546.87,40,6,0.84,1,2,1,169.60,29.46,5.49,9.77,9.39,7.25,8.21,8.02,-9.43,2.03e-07,3.71e-10,Poorly soluble,-10.31,2.69e-08,4.92e-11,Insoluble,-9.18,3.62e-07,6.62e-10,Poorly soluble,Low,No,No,No,No,No,No,No,-2.70,2,4,0,1,1,0.17,0,0,2,6.73
Molecule 43,CC[C@@H](C(C)C)CC[C@H]([C@H]1CC[C@@H]2[C@]1(C)CC[C@H]1[C@H]2CC=C2[C@]1(C)CC[C@@H](C2)O)C,C29H50O,414.71,30,0,0.93,6,1,1,133.23,20.23,5.05,9.34,8.02,6.73,7.04,7.24,-7.90,5.23e-06,1.26e-08,Poorly soluble,-9.67,8.90e-08,2.15e-10,Poorly soluble,-6.19,2.69e-04,6.49e-07,Poorly soluble,Low,No,No,No,No,No,No,No,-2.20,1,3,0,1,2,0.55,0,1,2,6.30
Molecule 44,O[C@H]1CC[C@]2(C(=CC=C3[C@@H]2CC[C@]2([C@H]3CC[C@@H]2[C@@H](/C=C/[C@@H](C(C)C)C)C)C)C1)C,C28H44O,396.65,29,0,0.79,4,1,1,127.47,20.23,4.81,7.43,7.33,6.33,6.44,6.47,-6.72,7.63e-05,1.92e-07,Poorly soluble,-7.69,8.17e-06,2.06e-08,Poorly soluble,-5.06,3.45e-03,8.69e-06,Moderately soluble,Low,No,No,No,No,Yes,No,No,-3.44,1,2,0,1,2,0.55,0,1,2,6.58
Molecule 45,CC(=C)[C@H](CC[C@H]([C@H]1CC[C@@]2([C@]1(C)CC[C@@]13[C@H]2CC[C@@H]2[C@]3(C1)CC[C@@H](C2(C)C)O)C)C)C,C31H52O,440.74,32,0,0.94,5,1,1,139.95,20.23,5.21,10.41,8.41,7.12,7.93,7.82,-8.80,6.97e-07,1.58e-09,Poorly soluble,-10.78,7.34e-09,1.67e-11,Insoluble,-7.26,2.42e-05,5.48e-08,Poorly soluble,Low,No,No,No,No,No,No,No,-1.60,1,3,0,1,2,0.55,0,1,2,6.43
Molecule 46,O[C@H]1CC[C@]2([C@H](C1(C)C)CC[C@@]1([C@@H]2CC=C2[C@@]1(C)CC[C@@]1([C@H]2CC(C)(C)CC1)C)C)C,C30H50O,426.72,31,0,0.93,0,1,1,134.88,20.23,4.76,9.15,8.17,6.92,6.92,7.18,-8.25,2.40e-06,5.62e-09,Poorly soluble,-9.47,1.44e-07,3.38e-10,Poorly soluble,-7.16,2.93e-05,6.85e-08,Poorly soluble,Low,No,No,No,No,No,No,No,-2.41,1,3,0,1,2,0.55,0,1,2,6.04
Molecule 47,CC[C@@H](C(C)C)CCC(C1CCC2[C@]1(C)CCC1C2CC=C2[C@]1(C)CC[C@@H](C2(C)C)O)C,C31H54O,442.76,32,0,0.94,6,1,1,142.58,20.23,5.41,10.21,8.66,7.12,7.69,7.82,-8.62,1.06e-06,2.39e-09,Poorly soluble,-10.57,1.19e-08,2.69e-11,Insoluble,-6.92,5.27e-05,1.19e-07,Poorly soluble,Low,No,No,No,No,No,No,No,-1.75,1,3,0,1,2,0.55,0,1,2,6.54
Molecule 48,C[C@@H]([C@H]1CC[C@@]2([C@]1(C)CC[C@@]13C2CCC2[C@]3(C1)CC[C@@H](C2(C)C)O)C)CCC(C(=C)C)(C)C,C32H54O,454.77,33,0,0.94,5,1,1,144.50,20.23,5.35,10.96,8.81,7.30,8.19,8.12,-9.23,2.65e-07,5.83e-10,Poorly soluble,-11.35,2.04e-09,4.47e-12,Insoluble,-7.63,1.06e-05,2.32e-08,Poorly soluble,Low,No,No,No,No,No,No,No,-1.29,1,3,0,1,2,0.55,0,1,2,6.49
Molecule 49,CC(=C)[C@H](CC[C@H]([C@H]1CC[C@@]2([C@]1(C)CC=C1C2CCC2[C@]1(C)CC[C@@H](C2(C)C)O)C)C)C,C31H52O,440.74,32,0,0.87,5,1,1,141.85,20.23,5.22,9.85,8.58,7.01,7.81,7.69,-8.45,1.57e-06,3.56e-09,Poorly soluble,-10.20,2.80e-08,6.35e-11,Insoluble,-7.14,3.21e-05,7.28e-08,Poorly soluble,Low,No,No,No,No,No,No,No,-2.00,1,3,0,1,2,0.55,0,1,2,6.34
Molecule 50,C[C@@H]([C@H]1CC[C@@]2([C@]1(C)CC=C1C2CCC2[C@]1(C)CC[C@@H](C2(C)C)O)C)CCC(C(=C)C)(C)C,C32H54O,454.77,33,0,0.88,5,1,1,146.40,20.23,5.39,10.39,8.97,7.20,8.07,8.00,-8.88,6.06e-07,1.33e-09,Poorly soluble,-10.76,7.94e-09,1.75e-11,Insoluble,-7.51,1.40e-05,3.08e-08,Poorly soluble,Low,No,No,No,No,No,No,No,-1.70,1,3,0,1,2,0.55,0,1,2,6.40
Molecule 51,C[C@@H]1CC[C@]2(C([C@H]1C)C1=CCC3[C@@]([C@@]1(CC2)C)(C)CCC1[C@]3(C)CC[C@@H](C1(C)C)O)C,C30H50O,426.72,31,0,0.93,0,1,1,135.14,20.23,4.69,9.01,8.02,6.92,6.52,7.03,-8.16,2.94e-06,6.89e-09,Poorly soluble,-9.33,2.02e-07,4.72e-10,Poorly soluble,-6.71,8.23e-05,1.93e-07,Poorly soluble,Low,No,No,No,No,No,No,No,-2.51,1,3,0,1,2,0.55,0,1,2,6.17
Molecule 52,C[C@@H]([C@@H](C[C@H]1OCc2c1cccc2O)O)O,C12H16O4,224.25,16,6,0.50,3,4,3,58.92,69.92,1.70,0.31,0.62,0.28,1.48,0.88,-1.51,7.01e+00,3.12e-02,Very soluble,-1.34,1.02e+01,4.56e-02,Very soluble,-1.63,5.26e+00,2.34e-02,Soluble,High,No,No,No,No,No,No,No,-7.45,0,0,0,0,0,0.55,0,0,1,3.39
Molecule 53,OC[C@]1(C)[C@H]2C1[C@@H]1[C@H](C)CC[C@@H]1[C@@](CC2)(C)O,C15H26O2,238.37,17,0,1.00,1,2,2,69.98,40.46,2.81,2.52,2.44,2.88,2.38,2.61,-2.84,3.45e-01,1.45e-03,Soluble,-3.02,2.30e-01,9.64e-04,Soluble,-2.18,1.59e+00,6.67e-03,Soluble,High,Yes,No,No,No,No,No,No,-5.96,0,0,0,0,0,0.55,0,0,1,3.70
Molecule 54,OC[C@@]12CC[C@H]([C@@H]([C@H]2C2=CC[C@H]3[C@@]([C@@]2(CC1)C)(C)CC[C@@H]1[C@]3(C)CC[C@@H](C1(C)C)O)C)C,C30H50O2,442.72,32,0,0.93,1,2,2,136.30,40.46,4.40,7.42,7.00,6.00,5.91,6.15,-7.19,2.84e-05,6.41e-08,Poorly soluble,-8.10,3.51e-06,7.93e-09,Poorly soluble,-6.14,3.19e-04,7.21e-07,Poorly soluble,Low,No,No,No,No,No,No,No,-3.73,1,3,0,1,1,0.55,0,1,2,6.28
Molecule 55,OCCc1ccc(cc1)O,C8H10O2,138.16,10,6,0.25,2,2,2,39.40,40.46,1.40,0.43,0.93,1.21,1.52,1.10,-1.28,7.26e+00,5.25e-02,Very soluble,-0.85,1.96e+01,1.42e-01,Very soluble,-2.03,1.30e+00,9.40e-03,Soluble,High,Yes,No,No,No,No,No,No,-6.84,0,2,0,0,1,0.55,0,0,1,1.00
Molecule 56,OCCN1C[C@H](O)[C@H]([C@@H]([C@H]1CO)O)O,C8H17NO5,207.22,14,0,1.00,3,6,5,51.08,104.39,1.16,-2.57,-3.64,-2.47,-2.15,-1.94,0.69,1.02e+03,4.92e+00,Highly soluble,0.92,1.74e+03,8.38e+00,Highly soluble,1.97,1.94e+04,9.35e+01,Soluble,Low,No,Yes,No,No,No,No,No,-9.39,0,1,0,0,1,0.55,0,0,1,3.17
Molecule 57,OCC1=C(C=C)CC[C@H]2[C@H]1O[C@@H](O)C[C@@H]1[C@]2(C)CCCC1(C)C,C20H32O3,320.47,23,0,0.80,2,3,2,93.85,49.69,3.24,3.52,3.81,3.35,3.61,3.51,-3.91,3.92e-02,1.22e-04,Soluble,-4.25,1.81e-02,5.66e-05,Moderately soluble,-3.37,1.36e-01,4.24e-04,Soluble,High,Yes,No,No,No,No,No,No,-5.76,0,0,0,0,0,0.55,0,0,1,5.59
Molecule 58,CCC(C(C)C)C=CC(C1CCC2C1(C)CCC1C2=CCC2C1(C)CCC(C2)O)C,C29H48O,412.69,30,0,0.86,5,1,1,132.75,20.23,4.79,8.30,7.80,6.62,6.86,6.88,-7.30,2.08e-05,5.04e-08,Poorly soluble,-8.59,1.06e-06,2.58e-09,Poorly soluble,-5.47,1.40e-03,3.39e-06,Moderately soluble,Low,No,No,No,No,No,No,No,-2.92,1,3,0,1,2,0.55,0,1,2,6.09
Molecule 59,OC1C(O)C(O)C(C(C1O)O)O,C6H12O6,180.16,12,0,1.00,0,6,6,35.81,121.38,0.31,-3.71,-3.83,-3.16,-2.95,-2.67,1.38,4.32e+03,2.40e+01,Highly soluble,1.75,1.01e+04,5.62e+01,Highly soluble,3.29,3.48e+05,1.93e+03,Soluble,Low,No,Yes,No,No,No,No,No,-10.03,1,2,0,0,3,0.55,0,0,1,3.53
Molecule 60,CC(C1CC=C(C2=CC(=C(CC12)C)O)C)C,C15H22O,218.33,16,0,0.60,1,1,1,70.14,20.23,2.99,3.12,4.39,3.46,3.20,3.43,-3.09,1.76e-01,8.07e-04,Soluble,-3.21,1.33e-01,6.11e-04,Soluble,-2.70,4.39e-01,2.01e-03,Soluble,High,Yes,No,No,No,Yes,No,No,-5.42,0,0,0,0,1,0.55,0,0,1,4.82
Molecule 61,OC1CCC(C)(O)CCC([C-2]CCC1(C)O)(C)C,C15H28O3,256.38,18,0,1.00,0,3,3,73.84,60.69,2.79,2.39,2.31,2.00,2.40,2.38,-2.94,2.98e-01,1.16e-03,Soluble,-3.31,1.27e-01,4.95e-04,Soluble,-2.50,8.01e-01,3.13e-03,Soluble,High,Yes,No,No,No,No,No,No,-6.17,0,0,0,0,0,0.56,0,0,0,4.19
Molecule 62,OCC1=CC[C@@H]2CC[C@]([C@H](C2(C)C)CCC(=CCC1)C)(C)O,C20H34O2,306.48,22,0,0.80,1,2,2,95.18,40.46,3.24,3.46,4.62,3.82,3.87,3.80,-3.85,4.29e-02,1.40e-04,Soluble,-3.99,3.13e-02,1.02e-04,Soluble,-3.86,4.24e-02,1.38e-04,Soluble,High,Yes,No,No,No,No,No,No,-5.71,0,0,0,0,0,0.55,0,1,0,5.76
Molecule 63,OC(C(O)(C)C)CC[C@H](c1ccc(c(c1)O)C)C,C15H24O3,252.35,18,6,0.60,5,3,3,74.41,60.69,2.81,2.98,2.72,2.32,3.01,2.77,-3.20,1.60e-01,6.33e-04,Soluble,-3.92,3.05e-02,1.21e-04,Soluble,-3.18,1.66e-01,6.59e-04,Soluble,High,Yes,Yes,No,No,No,Yes,No,-5.72,0,0,0,0,0,0.55,0,0,0,2.66
Molecule 64,O=Cc1ccc(cc1)O,C7H6O2,122.12,9,6,0.00,1,2,1,33.85,37.30,0.99,1.35,1.20,0.79,1.52,1.17,-1.87,1.63e+00,1.33e-02,Very soluble,-1.74,2.25e+00,1.84e-02,Very soluble,-1.72,2.31e+00,1.89e-02,Soluble,High,Yes,No,No,No,No,No,No,-6.09,0,3,0,0,1,0.55,0,1,1,1.00
Molecule 65,O=C[C@@]12CCC(C[C@H]2[C@]2([C@@](CC1)(C)[C@H]1CC[C@]3([C@H]([C@@]1(CC2)C)CCC(=O)[C@@H]3C)C)C)(C)C,C30H48O2,440.70,32,0,0.93,1,2,0,134.59,34.14,4.07,8.07,7.64,5.89,7.21,6.58,-7.59,1.13e-05,2.57e-08,Poorly soluble,-8.64,1.00e-06,2.28e-09,Poorly soluble,-7.42,1.66e-05,3.76e-08,Poorly soluble,Low,No,No,No,No,No,No,No,-3.26,1,3,0,1,1,0.55,0,1,2,5.13
Molecule 66,O=CO[C@H]1CC[C@]23C(C1(C)C)CCC1[C@@]3(C2)CC[C@]2([C@@]1(C)CC[C@@H]2[C@@H](CC[C@@H](C(=C)C)C)C)C,C32H52O2,468.75,34,0,0.91,7,2,0,145.27,26.30,5.42,11.00,8.60,7.08,8.20,8.06,-9.21,2.86e-07,6.11e-10,Poorly soluble,-11.52,1.42e-09,3.03e-12,Insoluble,-7.50,1.50e-05,3.19e-08,Poorly soluble,Low,No,No,No,No,No,No,No,-1.35,1,3,0,1,1,0.55,0,2,2,6.33
Molecule 67,C[C@H]1CCCC2=C1[C@](C)(O)c1c(C2=O)occ1C,C15H18O3,246.30,18,5,0.53,0,3,1,68.83,50.44,2.50,2.34,3.00,1.52,3.44,2.56,-3.05,2.21e-01,8.98e-04,Soluble,-3.04,2.25e-01,9.15e-04,Soluble,-4.04,2.25e-02,9.14e-05,Moderately soluble,High,Yes,Yes,No,Yes,No,No,No,-6.14,0,0,0,0,0,0.55,0,0,1,4.32
Molecule 68,C[C@H]1CCCC2=C1[C@@](C)(O)c1c(C2=O)occ1C,C15H18O3,246.30,18,5,0.53,0,3,1,68.83,50.44,2.50,2.34,3.00,1.52,3.44,2.56,-3.05,2.21e-01,8.98e-04,Soluble,-3.04,2.25e-01,9.15e-04,Soluble,-4.04,2.25e-02,9.14e-05,Moderately soluble,High,Yes,Yes,No,Yes,No,No,No,-6.14,0,0,0,0,0,0.55,0,0,1,4.32
Molecule 69,O=C1CC=Cc2c1cc1ccccc1c2,C14H10O,194.23,15,10,0.07,0,1,0,62.12,17.07,2.27,3.41,3.33,2.83,3.67,3.10,-3.69,4.00e-02,2.06e-04,Soluble,-3.45,6.92e-02,3.56e-04,Soluble,-4.61,4.81e-03,2.48e-05,Moderately soluble,High,Yes,No,Yes,Yes,No,No,No,-5.06,0,0,0,0,2,0.55,0,0,1,2.56
Molecule 70,Oc1ccc2c(c1)OC(CC2=O)c1ccccc1,C15H12O3,240.25,18,12,0.13,1,3,1,67.52,46.53,2.19,2.78,2.77,1.85,3.06,2.53,-3.51,7.45e-02,3.10e-04,Soluble,-3.41,9.28e-02,3.86e-04,Soluble,-4.58,6.39e-03,2.66e-05,Moderately soluble,High,Yes,No,Yes,No,No,No,No,-5.79,0,0,0,0,0,0.55,0,0,1,2.91
Molecule 71,O=C1CCC2(c3c1c(O)ccc3)Oc1cccc3c1c(O2)ccc3,C20H14O4,318.32,24,16,0.15,0,4,1,89.29,55.76,2.98,4.37,4.04,2.94,4.04,3.68,-5.06,2.77e-03,8.71e-06,Moderately soluble,-5.26,1.76e-03,5.53e-06,Moderately soluble,-6.46,1.12e-04,3.51e-07,Poorly soluble,High,Yes,Yes,Yes,Yes,Yes,No,Yes,-5.14,0,0,0,0,0,0.55,0,0,1,3.91
Molecule 72,Cc1cc(O)c2c(c1)C(=O)c1c(C2=O)cccc1O,C15H10O4,254.24,19,12,0.07,0,4,2,68.76,74.60,2.26,4.08,2.18,0.92,3.04,2.50,-4.45,8.94e-03,3.52e-05,Moderately soluble,-5.35,1.13e-03,4.45e-06,Moderately soluble,-4.49,8.32e-03,3.27e-05,Moderately soluble,High,Yes,No,Yes,No,Yes,No,Yes,-4.95,0,0,0,0,0,0.55,1,0,1,2.46
Molecule 73,Oc1ccc(c2c1C1(CCC2=O)Oc2cccc3c2c(O1)ccc3)O,C20H14O5,334.32,25,16,0.15,0,5,2,91.31,75.99,2.88,4.02,3.74,2.38,3.54,3.31,-4.92,4.03e-03,1.21e-05,Moderately soluble,-5.32,1.61e-03,4.80e-06,Moderately soluble,-5.87,4.50e-04,1.35e-06,Moderately soluble,High,Yes,Yes,Yes,Yes,Yes,Yes,Yes,-5.49,0,0,0,0,0,0.55,0,1,1,3.97
Molecule 74,Oc1cc2OC(CC(=O)c2c(c1)O)c1ccccc1,C15H12O4,256.25,19,12,0.13,1,4,2,69.55,66.76,2.11,2.88,2.48,1.27,2.55,2.26,-3.64,5.81e-02,2.27e-04,Soluble,-3.94,2.93e-02,1.14e-04,Soluble,-4.00,2.58e-02,1.01e-04,Soluble,High,Yes,No,Yes,Yes,No,No,No,-5.82,0,0,0,0,0,0.55,0,0,0,2.96
Molecule 75,Oc1cc(O)c2c(c1)oc(cc2=O)c1ccccc1,C15H10O4,254.24,19,16,0.00,1,4,2,71.97,70.67,2.27,3.52,2.87,1.08,3.02,2.55,-4.19,1.64e-02,6.44e-05,Moderately soluble,-4.69,5.22e-03,2.05e-05,Moderately soluble,-4.98,2.64e-03,1.04e-05,Moderately soluble,High,Yes,No,Yes,No,No,Yes,Yes,-5.35,0,0,0,0,0,0.55,0,0,1,2.93
Molecule 76,Oc1ccc(cc1)c1cc(=O)c2c(o1)cc(cc2O)O,C15H10O5,270.24,20,16,0.00,1,5,3,73.99,90.90,1.89,3.02,2.58,0.52,2.52,2.11,-3.94,3.07e-02,1.14e-04,Soluble,-4.59,6.88e-03,2.55e-05,Moderately soluble,-4.40,1.07e-02,3.94e-05,Moderately soluble,High,No,No,Yes,No,No,Yes,Yes,-5.80,0,0,0,0,0,0.55,0,0,0,2.96
Molecule 77,Cc1cc(O)c2c(c1)C(=O)c1c(C2=O)c(O)cc(c1)O,C15H10O5,270.24,20,12,0.07,0,5,3,70.78,94.83,1.81,2.72,1.89,0.36,2.55,1.87,-3.67,5.74e-02,2.12e-04,Soluble,-4.37,1.17e-02,4.31e-05,Moderately soluble,-3.91,3.36e-02,1.24e-04,Soluble,High,No,No,Yes,No,No,No,Yes,-6.02,0,0,0,0,0,0.55,1,0,0,2.57
Molecule 78,OC[C@H]1O[C@H]([C@@H]([C@H]([C@@H]1O)O)O)c1c(O)cc(c2c1oc(cc2=O)c1ccc(cc1)O)O,C21H20O10,432.38,31,16,0.29,3,10,7,106.61,181.05,1.63,0.21,-0.23,-2.02,0.33,-0.02,-2.84,6.29e-01,1.46e-03,Soluble,-3.57,1.16e-01,2.68e-04,Soluble,-2.38,1.81e+00,4.20e-03,Soluble,Low,No,No,No,No,No,No,No,-8.79,1,0,1,1,2,0.55,0,0,1,5.12
Molecule 79,Oc1ccc(cc1)c1cc(=O)c2c(o1)c(c(cc2O)O)c1cc(ccc1O)c1cc(=O)c2c(o1)cc(cc2O)O,C30H18O10,538.46,40,32,0.00,3,10,6,146.97,181.80,3.06,5.04,5.13,0.25,4.61,3.62,-6.75,9.63e-05,1.79e-07,Poorly soluble,-8.60,1.36e-06,2.52e-09,Poorly soluble,-8.70,1.07e-06,1.98e-09,Poorly soluble,Low,No,No,No,No,No,No,No,-6.01,2,2,1,1,3,0.17,0,0,2,4.27
Molecule 80,CC(=CCc1c2OC(CC(=O)c2c(c2c1OC(C)(C)C=C2)O)c1ccc(cc1)O)C,C25H26O5,406.47,30,12,0.32,3,5,2,117.39,75.99,3.22,5.60,5.06,2.82,5.20,4.38,-5.99,4.20e-04,1.03e-06,Moderately soluble,-6.96,4.48e-05,1.10e-07,Poorly soluble,-6.04,3.67e-04,9.04e-07,Poorly soluble,High,No,No,No,Yes,Yes,No,Yes,-4.80,0,0,0,0,1,0.55,0,1,2,4.53
Molecule 81,Oc1ccc(cc1)c1cc(=O)c2c(o1)cc(c(c2O)c1cc(ccc1O)c1cc(=O)c2c(o1)cc(cc2O)O)O,C30H18O10,538.46,40,32,0.00,3,10,6,146.97,181.80,3.06,5.04,5.13,0.25,4.61,3.62,-6.75,9.63e-05,1.79e-07,Poorly soluble,-8.60,1.36e-06,2.52e-09,Poorly soluble,-8.70,1.07e-06,1.98e-09,Poorly soluble,Low,No,No,No,No,No,No,No,-6.01,2,2,1,1,3,0.17,0,0,2,4.19
Molecule 82,Oc1ccc(cc1)c1cc(=O)c2c(o1)cc(c(c2O)c1cc(ccc1O)C1CC(=O)c2c(O1)cc(cc2O)O)O,C30H20O10,540.47,40,28,0.07,3,10,6,144.55,177.89,3.02,4.76,4.74,0.41,4.15,3.42,-6.51,1.67e-04,3.09e-07,Poorly soluble,-8.23,3.21e-06,5.94e-09,Poorly soluble,-7.72,1.04e-05,1.92e-08,Poorly soluble,Low,No,No,No,No,Yes,No,No,-6.22,2,2,1,1,2,0.17,0,0,2,4.60
Molecule 83,OC[C@H]1O[C@H]([C@@H]([C@H]([C@@H]1O)O)O)c1c(O)cc2c(c1O)c(=O)cc(o2)c1ccc(cc1)O,C21H20O10,432.38,31,16,0.29,3,10,7,106.61,181.05,1.97,0.21,-0.23,-2.02,0.33,0.05,-2.84,6.29e-01,1.46e-03,Soluble,-3.57,1.16e-01,2.68e-04,Soluble,-2.38,1.81e+00,4.20e-03,Soluble,Low,No,No,No,No,No,No,No,-8.79,1,0,1,1,2,0.55,0,0,1,4.99
Molecule 84,O=C1CC[C@H]([C@@]2([C@H]1O)C(=O)OC(=C)[C@H]2O)C,C11H14O5,226.23,16,0,0.64,0,5,2,53.84,83.83,1.51,-0.62,-0.24,-0.29,0.72,0.22,-0.85,3.18e+01,1.41e-01,Very soluble,-0.67,4.86e+01,2.15e-01,Very soluble,-0.82,3.39e+01,1.50e-01,Soluble,High,No,No,No,No,No,No,No,-8.12,0,0,0,0,0,0.55,0,0,1,4.57
Molecule 85,C=C1OC(=O)[C@@]2([C@H]1O)[C@H](C)C=CC(=O)[C@@H]2O,C11H12O5,224.21,16,0,0.45,0,5,2,53.36,83.83,0.96,-0.58,-0.46,-0.38,0.31,-0.03,-0.86,3.06e+01,1.37e-01,Very soluble,-0.71,4.37e+01,1.95e-01,Very soluble,-0.36,9.88e+01,4.41e-01,Soluble,High,No,No,No,No,No,No,No,-8.08,0,1,0,0,0,0.55,0,0,1,4.73
Molecule 86,Oc1c2C[C@]34CCC[C@@]([C@@H]4CC(=O)c2c(c(c1O)C(C)C)O)(C(=O)O3)C,C20H24O6,360.40,26,6,0.60,1,6,3,95.43,104.06,2.07,3.26,3.16,1.79,3.41,2.74,-4.23,2.11e-02,5.85e-05,Moderately soluble,-5.12,2.74e-03,7.60e-06,Moderately soluble,-3.87,4.86e-02,1.35e-04,Soluble,High,No,Yes,No,No,Yes,No,Yes,-6.18,0,0,0,0,0,0.55,1,2,1,4.69
Molecule 87,O=C1C2=C(C=C[C@@H]3[C@@]4(C2)CCC[C@@]3(C(=O)O4)C)C(=O)C(=C1O)C(C)C,C20H22O5,342.39,25,0,0.55,1,5,1,91.41,80.67,2.57,2.64,2.96,1.72,3.27,2.63,-3.56,9.43e-02,2.75e-04,Soluble,-3.98,3.55e-02,1.04e-04,Soluble,-3.54,9.81e-02,2.86e-04,Soluble,High,No,No,No,No,Yes,No,No,-6.51,0,0,0,0,0,0.56,1,1,0,5.35
Molecule 88,CC(C1=C(O)C(=O)C2=C(C1=O)C=C1OC(=O)[C@@]3([C@H]1C(=C2)[C@H](O)CC3)C)C,C20H20O6,356.37,26,0,0.45,1,6,2,92.06,100.90,2.38,1.17,2.06,0.83,2.37,1.76,-2.72,6.78e-01,1.90e-03,Soluble,-2.88,4.65e-01,1.31e-03,Soluble,-2.71,6.95e-01,1.95e-03,Soluble,High,No,No,No,No,No,No,No,-7.64,0,0,0,0,0,0.56,1,1,1,5.19
Molecule 89,O[C@H]1C2=C(C=C3[C@H]4[C@H]1OC(=O)[C@@]4(C)CC[C@H]3O)C(=O)C(=C(C2=O)C(C)C)O,C20H22O7,374.38,27,0,0.55,1,7,3,93.70,121.13,1.28,0.05,0.91,0.11,1.49,0.77,-2.13,2.80e+00,7.47e-03,Soluble,-2.15,2.67e+00,7.13e-03,Soluble,-1.91,4.61e+00,1.23e-02,Soluble,High,No,Yes,No,No,No,No,No,-8.55,0,0,0,0,0,0.56,1,1,1,5.33
Molecule 90,O[C@H]1C2=C(C=C3[C@H]4[C@H]1OC(=O)[C@@]4(C)CC=C3)C(=O)C(=C(C2=O)C(C)C)O,C20H20O6,356.37,26,0,0.45,1,6,2,92.06,100.90,2.26,1.24,1.71,0.83,1.97,1.60,-2.76,6.13e-01,1.72e-03,Soluble,-2.96,3.94e-01,1.10e-03,Soluble,-2.26,1.96e+00,5.50e-03,Soluble,High,No,No,No,No,No,No,No,-7.59,0,0,0,0,0,0.56,1,1,1,5.16
Molecule 91,CC(C1=C(O)C(=O)C2=C(C1=O)C[C@@H]1OC(=O)[C@@]3([C@H]1C(=CCC3)C2)C)C,C20H22O5,342.39,25,0,0.55,1,5,1,91.37,80.67,2.62,2.21,2.96,1.72,3.27,2.56,-3.29,1.76e-01,5.14e-04,Soluble,-3.54,9.91e-02,2.89e-04,Soluble,-3.54,9.81e-02,2.86e-04,Soluble,High,No,Yes,No,No,Yes,No,No,-6.82,0,0,0,0,0,0.56,1,2,0,4.74
Molecule 92,CC(C1=C(O)C(=O)C2=CC3=CCC[C@]4([C@@H]3[C@H](C=C2C1=O)OC4=O)C)C,C20H20O5,340.37,25,0,0.45,1,5,1,90.90,80.67,2.66,2.21,2.74,1.64,2.87,2.42,-3.28,1.80e-01,5.29e-04,Soluble,-3.54,9.85e-02,2.89e-04,Soluble,-3.08,2.86e-01,8.39e-04,Soluble,High,No,No,No,No,Yes,No,No,-6.81,0,0,0,0,0,0.56,0,0,0,4.98
Molecule 93,O=C1Nc2c([C@@]31C[C@@]14[C@H](C3(C)C)C[C@@]3(C(=O)N1)N(C4=O)CCC3)ccc1c2C=CC(O1)(C)C,C26H29N3O4,447.53,33,6,0.58,0,4,2,133.52,87.74,3.20,2.11,1.30,2.25,3.21,2.41,-4.08,3.74e-02,8.35e-05,Moderately soluble,-3.58,1.17e-01,2.61e-04,Soluble,-6.34,2.06e-04,4.60e-07,Poorly soluble,High,No,Yes,No,Yes,No,No,Yes,-7.53,0,1,0,0,0,0.55,0,0,1,5.90
Molecule 94,CC([C@]1(O)C=C(C)c2c(C1=O)cc(c(c2)O)C)C,C15H18O3,246.30,18,6,0.40,1,3,2,72.03,57.53,2.48,2.68,2.69,1.75,3.16,2.55,-3.24,1.43e-01,5.81e-04,Soluble,-3.54,7.10e-02,2.88e-04,Soluble,-3.59,6.36e-02,2.58e-04,Soluble,High,Yes,No,No,No,No,No,No,-5.90,0,0,0,0,0,0.55,0,0,1,3.41
Molecule 95,O=C1c2cc3ccoc3cc2O[C@@H]2[C@H]1c1cc3OCOc3cc1OC2,C19H12O6,336.29,25,15,0.21,0,6,0,85.71,67.13,3.00,3.10,3.28,1.38,3.37,2.83,-4.32,1.60e-02,4.76e-05,Moderately soluble,-4.18,2.23e-02,6.64e-05,Moderately soluble,-5.54,9.77e-04,2.90e-06,Moderately soluble,High,Yes,No,Yes,Yes,Yes,Yes,Yes,-6.15,0,0,0,0,0,0.55,0,0,0,4.09
Molecule 96,Oc1cc2OC(C)(C)C=Cc2cc1[C@@H]1COc2c(C1=O)c(O)c1c(c2)OC(C=C1)(C)C,C25H24O6,420.45,31,12,0.32,1,6,2,117.79,85.22,3.85,4.76,4.61,2.28,4.36,3.97,-5.67,9.07e-04,2.16e-06,Moderately soluble,-6.28,2.21e-04,5.24e-07,Poorly soluble,-5.63,9.90e-04,2.36e-06,Moderately soluble,High,No,No,Yes,Yes,Yes,No,Yes,-5.49,0,0,0,0,0,0.55,0,0,2,4.52
Molecule 97,CC(=CCc1c2O[C@H](c3ccc(cc3)O)[C@H](C(=O)c2c(c2c1OC(C)(C)C=C2)O)O)C,C25H26O6,422.47,31,12,0.32,3,6,3,118.55,96.22,3.24,5.04,4.03,2.01,4.30,3.73,-5.72,8.00e-04,1.89e-06,Moderately soluble,-6.80,6.67e-05,1.58e-07,Poorly soluble,-5.22,2.52e-03,5.97e-06,Moderately soluble,High,No,No,No,No,Yes,No,Yes,-5.30,0,0,0,0,1,0.55,0,1,2,4.85
Molecule 98,CCC[C@H]1OC(=O)[C@H](O)CCC=C[C@@H]([C@@H]1O)O,C12H20O5,244.28,17,0,0.75,2,5,3,61.98,86.99,2.15,0.60,0.13,0.09,0.11,0.62,-1.60,6.13e+00,2.51e-02,Very soluble,-2.00,2.44e+00,9.99e-03,Soluble,-0.10,1.93e+02,7.91e-01,Soluble,High,No,No,No,No,No,No,No,-7.36,0,0,0,0,0,0.55,0,1,1,4.50
Molecule 99,Oc1cc2OC(c3ccccc3)[C@H](C(=O)c2c(c1)O)O,C15H12O5,272.25,20,12,0.13,1,5,3,70.71,86.99,1.74,1.66,1.45,0.44,1.64,1.39,-2.95,3.04e-01,1.12e-03,Soluble,-3.10,2.16e-01,7.93e-04,Soluble,-3.19,1.77e-01,6.49e-04,Soluble,High,No,No,No,No,No,No,No,-6.78,0,0,0,0,0,0.55,0,0,0,3.38
Molecule 100,C=CC([C@@]12Nc3c([C@@]2(O)C[C@@H]2N1C(=O)[C@@H](OC2=O)Cc1ccccc1)cccc3O)(C)C,C25H26N2O5,434.48,32,12,0.36,4,5,3,125.34,99.10,3.15,3.64,1.62,2.30,2.83,2.71,-4.84,6.27e-03,1.44e-05,Moderately soluble,-5.41,1.69e-03,3.89e-06,Moderately soluble,-5.68,9.02e-04,2.07e-06,Moderately soluble,High,No,Yes,No,No,Yes,Yes,Yes,-6.37,0,0,0,0,0,0.55,0,2,2,4.69
Molecule 101,C=CC([C@@]12Nc3c([C@@]2(O)C[C@@H]2N1C(=O)[C@@H](OC2=O)Cc1ccccc1)cccc3)(C)C,C25H26N2O4,418.48,31,12,0.36,4,4,2,123.32,78.87,3.20,3.99,1.92,2.83,3.31,3.05,-4.97,4.48e-03,1.07e-05,Moderately soluble,-5.35,1.88e-03,4.49e-06,Moderately soluble,-6.27,2.23e-04,5.33e-07,Poorly soluble,High,No,Yes,No,No,Yes,Yes,Yes,-6.02,0,0,0,0,0,0.55,0,1,2,4.60
Molecule 102,OC[C@@]12CCC(C[C@H]2[C@]2([C@@](CC1)(C)[C@H]1CC[C@]3([C@H]([C@@]1(CC2)C)CCC(=O)[C@@H]3C)C)C)(C)C,C30H50O2,442.72,32,0,0.97,1,2,1,135.56,37.30,4.22,8.21,7.43,6.00,6.91,6.55,-7.69,9.02e-06,2.04e-08,Poorly soluble,-8.85,6.20e-07,1.40e-09,Poorly soluble,-7.30,2.20e-05,4.97e-08,Poorly soluble,Low,No,No,No,No,No,No,No,-3.17,1,3,0,1,1,0.55,0,0,2,5.14
Molecule 103,O=C1CC[C@@H]2[C@]([C@H]1C)(C)CC[C@H]1[C@@]2(C)CC[C@@]2([C@]1(C)CC[C@@]1([C@H]2CC(C)(C)CC1)C)C,C30H50O,426.72,31,0,0.97,0,1,0,134.39,17.07,4.50,9.80,8.46,6.92,7.52,7.44,-8.66,9.34e-07,2.19e-09,Poorly soluble,-10.08,3.56e-08,8.33e-11,Insoluble,-7.88,5.66e-06,1.33e-08,Poorly soluble,Low,No,No,No,No,No,No,No,-1.94,1,3,0,1,2,0.55,0,0,2,5.17
Molecule 104,O=C1C[C@@H](O)[C@@H]2[C@]([C@H]1C)(C)CCC1[C@@]2(C)CC[C@@]2([C@]1(C)CC[C@@]1([C@H]2CC(C)(C)CC1)C)C,C30H50O2,442.72,32,0,0.97,0,2,1,135.56,37.30,4.30,8.83,7.43,6.00,6.62,6.63,-8.15,3.15e-06,7.12e-09,Poorly soluble,-9.50,1.41e-07,3.18e-10,Poorly soluble,-7.06,3.89e-05,8.79e-08,Poorly soluble,Low,No,No,No,No,No,No,No,-2.73,1,3,0,1,1,0.55,0,0,2,5.42
Molecule 105,CC1=CC(=O)[C@@]23[C@H]1C[C@H](C3(C)C)CC[C@H]2C,C15H22O,218.33,16,0,0.80,0,1,0,67.08,17.07,2.76,3.52,3.59,3.56,3.58,3.40,-3.41,8.47e-02,3.88e-04,Soluble,-3.56,5.98e-02,2.74e-04,Soluble,-3.41,8.49e-02,3.89e-04,Soluble,High,Yes,No,No,Yes,Yes,No,No,-5.13,0,0,0,0,1,0.55,0,0,2,5.27
Molecule 106,O=c1ccc2c(o1)c1c(cc2)OC([C@@H]([C@@H]1O)O)(C)C,C14H14O5,262.26,19,10,0.36,0,5,2,68.61,79.90,2.09,0.80,1.03,0.77,1.91,1.32,-2.36,1.15e+00,4.37e-03,Soluble,-2.06,2.29e+00,8.72e-03,Soluble,-3.34,1.21e-01,4.60e-04,Soluble,High,No,No,No,No,No,No,No,-7.33,0,0,0,0,0,0.55,0,1,0,3.83
Molecule 107,Oc1ccc2c(c1)oc(=O)cc2,C9H6O3,162.14,12,10,0.00,0,3,1,44.51,50.44,1.44,1.58,1.50,1.04,1.97,1.51,-2.46,5.66e-01,3.49e-03,Soluble,-2.25,9.12e-01,5.62e-03,Soluble,-3.03,1.53e-01,9.42e-04,Soluble,High,Yes,No,Yes,No,No,No,No,-6.17,0,1,0,0,1,0.55,0,1,1,2.56
Molecule 108,O=c1ccc2c(o1)cc1c(c2)cc(o1)C(C)C,C14H12O3,228.24,17,13,0.21,1,3,0,66.84,43.35,2.71,2.83,3.66,2.29,3.89,3.08,-3.54,6.61e-02,2.90e-04,Soluble,-3.40,9.12e-02,4.00e-04,Soluble,-5.33,1.07e-03,4.67e-06,Moderately soluble,High,Yes,No,Yes,Yes,No,No,No,-5.68,0,0,0,0,0,0.55,0,1,1,2.95
Molecule 109,CC1(C)C=Cc2c(O1)cc1c(c2)ccc(=O)o1,C14H12O3,228.24,17,10,0.21,0,3,0,66.61,39.44,2.62,2.83,2.87,2.37,3.32,2.80,-3.47,7.68e-02,3.36e-04,Soluble,-3.32,1.10e-01,4.83e-04,Soluble,-4.48,7.49e-03,3.28e-05,Moderately soluble,High,Yes,No,Yes,Yes,No,No,No,-5.68,0,0,0,0,0,0.55,0,1,1,3.24
Molecule 110,CC(=C)C1Cc2c(O1)cc1c(c2)ccc(=O)o1,C14H12O3,228.24,17,10,0.21,1,3,0,65.77,39.44,2.68,3.22,2.67,2.37,3.57,2.90,-3.65,5.07e-02,2.22e-04,Soluble,-3.72,4.34e-02,1.90e-04,Soluble,-4.51,7.00e-03,3.07e-05,Moderately soluble,High,Yes,No,Yes,Yes,No,No,No,-5.41,0,0,0,0,0,0.55,0,2,1,3.21
Molecule 111,O=c1ccc2c(o1)cc(c(c2)O)O,C9H6O4,178.14,13,10,0.00,0,4,2,46.53,70.67,1.25,1.22,1.20,0.45,1.46,1.12,-2.28,9.30e-01,5.22e-03,Soluble,-2.30,8.90e-01,5.00e-03,Soluble,-2.46,6.19e-01,3.48e-03,Soluble,High,No,No,Yes,No,No,No,No,-6.52,0,1,0,0,1,0.55,1,2,1,2.61
Molecule 112,CCC[C@H]1OC(=O)CCCC=C[C@@H]([C@@H]1O)O,C12H20O4,228.28,16,0,0.75,2,4,2,60.82,66.76,2.48,1.15,1.16,0.92,1.00,1.34,-1.85,3.24e+00,1.42e-02,Very soluble,-2.15,1.63e+00,7.14e-03,Soluble,-0.91,2.82e+01,1.24e-01,Soluble,High,Yes,No,No,No,No,No,No,-6.88,0,0,0,0,0,0.55,0,1,1,4.30
Molecule 113,CCC[C@H]1OC(=O)CCCC=C[C@@H](C1)O,C12H20O3,212.29,15,0,0.75,2,3,1,59.66,46.53,2.46,2.12,2.19,1.77,1.91,2.09,-2.36,9.27e-01,4.37e-03,Soluble,-2.73,3.97e-01,1.87e-03,Soluble,-1.71,4.11e+00,1.94e-02,Soluble,High,Yes,No,No,No,No,No,No,-6.09,0,0,0,0,0,0.55,0,1,1,3.91
Molecule 114,O=C1/C=C(\C)/C[C@H]2C=C(C(=O)O2)CC[C@@H](CC(=O)/C(=C\1)/C)C(=C)C,C20H24O4,328.40,24,0,0.45,1,4,0,93.82,60.44,2.61,3.20,3.64,2.47,3.67,3.12,-3.83,4.90e-02,1.49e-04,Soluble,-4.14,2.37e-02,7.23e-05,Moderately soluble,-3.83,4.82e-02,1.47e-04,Soluble,High,Yes,No,No,Yes,Yes,No,No,-6.03,0,0,0,0,0,0.55,0,1,0,5.56
Molecule 115,C/C/1=C/c2cc(c(o2)C[C@@H](CCC2=C[C@H](C1)OC2=O)C(=C)C)C,C20H24O3,312.40,23,5,0.45,1,3,0,92.52,39.44,3.30,4.78,4.65,3.36,4.49,4.12,-4.88,4.09e-03,1.31e-05,Moderately soluble,-5.34,1.43e-03,4.57e-06,Moderately soluble,-4.93,3.70e-03,1.18e-05,Moderately soluble,High,Yes,No,No,Yes,Yes,No,Yes,-4.81,0,0,0,0,0,0.55,0,1,1,6.05
Molecule 116,C[C@@H]1OC(=O)c2c([C@H]1O)cccc2O,C10H10O4,194.18,14,6,0.30,0,4,2,48.57,66.76,1.55,1.33,0.66,0.70,1.04,1.06,-2.20,1.23e+00,6.32e-03,Soluble,-2.33,9.01e-01,4.64e-03,Soluble,-1.64,4.49e+00,2.31e-02,Soluble,High,No,No,No,No,No,No,No,-6.54,0,0,0,0,1,0.55,0,0,1,3.06
Molecule 117,C[C@@H]1OC(=O)c2c([C@@H]1O)cccc2O,C10H10O4,194.18,14,6,0.30,0,4,2,48.57,66.76,1.64,1.33,0.66,0.70,1.04,1.07,-2.20,1.23e+00,6.32e-03,Soluble,-2.33,9.01e-01,4.64e-03,Soluble,-1.64,4.49e+00,2.31e-02,Soluble,High,No,No,No,No,No,No,No,-6.54,0,0,0,0,1,0.55,0,0,1,3.06
Molecule 118,O=C1OCc2c(C=C1)cccc2O,C10H8O3,176.17,13,6,0.10,0,3,1,47.50,46.53,1.37,1.49,1.20,1.20,1.75,1.40,-2.21,1.08e+00,6.13e-03,Soluble,-2.07,1.48e+00,8.42e-03,Soluble,-2.09,1.44e+00,8.15e-03,Soluble,High,Yes,No,No,No,No,No,No,-6.32,0,0,0,0,1,0.55,0,0,1,2.87
Molecule 119,CC(=C)[C@@H]1CCC2=CC(OC2=O)C[C@@]2([C@@H](C(=O)/C=C(/C(=O)C1)\C)O2)C,C20H24O5,344.40,25,0,0.55,1,5,0,93.30,72.97,2.01,2.80,2.85,1.72,3.52,2.58,-3.67,7.31e-02,2.12e-04,Soluble,-3.99,3.53e-02,1.03e-04,Soluble,-3.56,9.42e-02,2.74e-04,Soluble,High,Yes,No,No,No,No,No,No,-6.41,0,0,0,0,0,0.55,0,2,0,5.96
Molecule 120,CCCCCCCCCCCCCCCCCCCCCCCCCCC1CCC(=O)O1,C30H58O2,450.78,32,0,0.97,25,2,0,145.50,26.30,7.20,13.55,10.46,6.81,11.26,9.86,-9.52,1.36e-07,3.01e-10,Poorly soluble,-14.16,3.09e-12,6.85e-15,Insoluble,-10.77,7.69e-09,1.71e-11,Insoluble,Low,No,Yes,No,No,No,No,No,0.57,1,3,1,1,2,0.55,0,0,3,4.76
Molecule 121,CCCCCCCCCCCCCCCCCCCCCCCCCC1CCC(=O)O1,C29H56O2,436.75,31,0,0.97,24,2,0,140.69,26.30,6.97,13.01,10.07,6.62,10.82,9.50,-9.16,3.02e-07,6.92e-10,Poorly soluble,-13.60,1.09e-11,2.49e-14,Insoluble,-10.38,1.83e-08,4.19e-11,Insoluble,Low,No,Yes,No,No,No,No,No,0.27,1,3,1,1,2,0.55,0,0,3,4.64
Molecule 122,CCCCCCCCCCCCCCCCCCCCCCCCC1CCC(=O)O1,C28H54O2,422.73,30,0,0.96,23,2,0,135.88,26.30,6.73,12.47,9.68,6.42,10.39,9.14,-8.80,6.72e-07,1.59e-09,Poorly soluble,-13.04,3.82e-11,9.04e-14,Insoluble,-9.99,4.37e-08,1.03e-10,Poorly soluble,Low,No,Yes,No,No,No,No,No,-0.02,1,3,1,1,2,0.55,0,0,3,4.51
Molecule 123,CCCCCCCCCCCCCCCCCCCCCCCC1CCC(=O)O1,C27H52O2,408.70,29,0,0.96,22,2,0,131.07,26.30,6.53,11.93,9.29,6.22,9.96,8.79,-8.44,1.49e-06,3.65e-09,Poorly soluble,-12.48,1.34e-10,3.29e-13,Insoluble,-9.59,1.04e-07,2.55e-10,Poorly soluble,Low,No,Yes,Yes,No,No,No,No,-0.32,1,3,1,1,2,0.55,0,0,3,4.39
Molecule 124,CCCCCCCCCCCCCCCCCCCCCCC1CCC(=O)O1,C26H50O2,394.67,28,0,0.96,21,2,0,126.27,26.30,6.27,11.39,8.90,6.02,9.53,8.42,-8.08,3.31e-06,8.38e-09,Poorly soluble,-11.92,4.71e-10,1.19e-12,Insoluble,-9.20,2.48e-07,6.30e-10,Poorly soluble,Low,No,Yes,Yes,No,No,No,No,-0.62,1,2,1,1,2,0.55,0,0,3,4.27
Molecule 125,CCCCCCCCCCCCCCCCCCCCCC1CCC(=O)O1,C25H48O2,380.65,27,0,0.96,20,2,0,121.46,26.30,6.07,10.84,8.51,5.82,9.10,8.07,-7.71,7.44e-06,1.95e-08,Poorly soluble,-11.35,1.69e-09,4.44e-12,Insoluble,-8.81,5.92e-07,1.56e-09,Poorly soluble,Low,No,Yes,Yes,No,No,No,No,-0.93,1,2,1,1,2,0.55,0,0,3,4.14
Molecule 126,CCCCCCCCCCCCCCCCCCCCC1CCC(=O)O1,C24H46O2,366.62,26,0,0.96,19,2,0,116.65,26.30,5.80,10.30,8.12,5.61,8.67,7.70,-7.35,1.65e-05,4.49e-08,Poorly soluble,-10.79,5.92e-09,1.62e-11,Insoluble,-8.41,1.41e-06,3.85e-09,Poorly soluble,Low,No,Yes,Yes,No,No,No,No,-1.22,1,2,1,1,2,0.55,0,0,3,4.02
Molecule 127,CCCC=C1OC(=O)C2=C1CCC1C2C23CCC1C=C3C(=O)OC2=CCCC,C24H28O4,380.48,28,0,0.58,4,4,0,107.33,52.60,4.11,4.94,5.13,4.23,5.24,4.73,-5.05,3.41e-03,8.97e-06,Moderately soluble,-5.78,6.28e-04,1.65e-06,Moderately soluble,-4.98,4.00e-03,1.05e-05,Moderately soluble,High,Yes,No,No,Yes,Yes,No,Yes,-5.11,1,0,0,0,0,0.55,0,1,2,5.97
Molecule 128,CCC/C=C/1\OC(=O)C2=C1CC[C@@H]1[C@H]2[C@]23CC[C@@H]1C=C3C(=O)O/C/2=C\CCC,C24H28O4,380.48,28,0,0.58,4,4,0,107.33,52.60,4.04,4.94,5.13,4.23,5.24,4.71,-5.05,3.41e-03,8.97e-06,Moderately soluble,-5.78,6.28e-04,1.65e-06,Moderately soluble,-4.98,4.00e-03,1.05e-05,Moderately soluble,High,Yes,No,No,Yes,Yes,No,Yes,-5.11,1,0,0,0,0,0.55,0,1,2,5.97
Molecule 129,CCC/C=C\1/OC(=O)c2c1cccc2,C12H12O2,188.22,14,6,0.25,2,2,0,55.31,26.30,2.47,3.18,3.00,2.65,3.33,2.93,-3.20,1.20e-01,6.37e-04,Soluble,-3.40,7.44e-02,3.95e-04,Soluble,-3.81,2.94e-02,1.56e-04,Soluble,High,Yes,No,Yes,No,No,No,No,-5.19,0,0,0,0,1,0.55,0,0,1,2.71
Molecule 130,CCC/C=C\1/OC(=O)C2=C1CCC=C2,C12H14O2,190.24,14,0,0.42,2,2,0,55.43,26.30,2.69,2.70,2.87,2.47,2.99,2.74,-2.59,4.91e-01,2.58e-03,Soluble,-2.91,2.37e-01,1.24e-03,Soluble,-2.46,6.61e-01,3.48e-03,Soluble,High,Yes,No,Yes,No,No,No,No,-5.54,0,0,0,0,1,0.55,0,0,1,3.64
Molecule 131,CCC/C=C\1/OC(=O)C2=C1CC[C@@H]1C2[C@]23CC[C@@H]1C=C3C(=O)O/C/2=C\CCC,C24H28O4,380.48,28,0,0.58,4,4,0,107.33,52.60,3.90,4.94,5.13,4.23,5.24,4.69,-5.05,3.41e-03,8.97e-06,Moderately soluble,-5.78,6.28e-04,1.65e-06,Moderately soluble,-4.98,4.00e-03,1.05e-05,Moderately soluble,High,Yes,No,No,Yes,Yes,No,Yes,-5.11,1,0,0,0,0,0.55,0,1,2,5.97
