Molecule,Canonical SMILES,Formula,MW,#Heavy atoms,#Aromatic heavy atoms,Fraction Csp3,#Rotatable bonds,#H-bond acceptors,#H-bond donors,MR,TPSA,iLOGP,XLOGP3,WLOGP,MLOGP,Silicos-IT Log P,Consensus Log P,ESOL Log S,ESOL Solubility (mg/ml),ESOL Solubility (mol/l),ESOL Class,Ali Log S,Ali Solubility (mg/ml),Ali Solubility (mol/l),Ali Class,Silicos-IT LogSw,Silicos-IT Solubility (mg/ml),Silicos-IT Solubility (mol/l),Silicos-IT class,GI absorption,BBB permeant,Pgp substrate,CYP1A2 inhibitor,CYP2C19 inhibitor,CYP2C9 inhibitor,CYP2D6 inhibitor,CYP3A4 inhibitor,log Kp (cm/s),Lipinski #violations,Ghose #violations,Veber #violations,Egan #violations,Muegge #violations,Bioavailability Score,PAINS #alerts,Brenk #alerts,Leadlikeness #violations,Synthetic Accessibility
Molecule 1,COc1cc(OO[C@@H]2OC[C@H]([C@@H]([C@H]2O)O)O)c2c(c1)oc(=O)cc2c1ccc(c(c1)O)O,C21H20O11,448.38,32,16,0.29,5,11,5,107.72,168.28,2.23,0.30,0.63,-0.48,0.46,0.63,-2.85,6.35e-01,1.42e-03,Soluble,-3.40,1.80e-01,4.01e-04,Soluble,-2.95,5.08e-01,1.13e-03,Soluble,Low,No,No,No,No,No,No,No,-8.82,1,0,1,1,2,0.55,1,3,1,5.34
Molecule 2,OC[C@H]1CO[C@@H]([C@@H]([C@H]1O)O)OOc1cc(OC)cc2c1c(cc(=O)o2)c1ccc(c(c1)O)O,C22H22O11,462.40,33,16,0.32,6,11,5,112.53,168.28,2.21,1.04,0.88,-0.26,0.85,0.94,-3.32,2.19e-01,4.73e-04,Soluble,-4.16,3.17e-02,6.85e-05,Moderately soluble,-3.34,2.13e-01,4.61e-04,Soluble,Low,No,Yes,No,No,No,No,No,-8.38,1,0,1,1,2,0.55,1,3,1,5.46
Molecule 3,O[C@@H]1CO[C@H]([C@@H]([C@H]1O)O)OOc1cc(O)cc2c1c(cc(=O)o2)c1ccc(c(c1)O)O,C20H18O11,434.35,31,16,0.25,4,11,6,103.25,179.28,1.26,-0.03,0.33,-0.70,-0.08,0.15,-2.63,1.01e+00,2.33e-03,Soluble,-3.28,2.25e-01,5.19e-04,Soluble,-2.26,2.40e+00,5.53e-03,Soluble,Low,No,No,No,No,No,No,No,-8.97,2,0,1,1,3,0.17,1,3,1,5.24
Molecule 4,Cc1cc2c(ccc(c2cc1OCc1ccccc1)C)C(C)C,C22H24O,304.43,23,16,0.27,4,1,0,99.44,9.23,4.00,6.49,6.01,5.30,6.57,5.67,-6.07,2.61e-04,8.57e-07,Poorly soluble,-6.48,1.01e-04,3.31e-07,Poorly soluble,-8.32,1.46e-06,4.80e-09,Poorly soluble,Low,No,No,No,Yes,No,Yes,No,-3.55,1,1,0,1,2,0.55,0,0,1,2.27
Molecule 5,OC[C@@]1(O)CO[C@H]([C@@H]1O)OC[C@H]1O[C@@H](Oc2cc(OC)cc3c2c(cc(=O)o3)c2ccc(c(c2)O)O)[C@@H]([C@H]([C@@H]1O)O)O,C27H30O15,594.52,42,16,0.44,8,15,8,139.06,238.20,1.68,-1.59,-1.48,-2.61,-0.64,-0.93,-2.28,3.13e+00,5.27e-03,Soluble,-2.90,7.43e-01,1.25e-03,Soluble,-2.01,5.86e+00,9.86e-03,Soluble,Low,No,Yes,No,No,No,No,No,-11.06,3,4,1,1,3,0.17,1,2,2,6.26
Molecule 6,COc1cc(O[C@@H]2O[C@H](CO[C@@H]3OC[C@H]([C@@H]([C@H]3O)O)O)[C@H]([C@@H]([C@H]2O)O)O)c2c(c1)oc(=O)cc2c1ccc(c(c1)O)O,C27H30O15,594.52,42,16,0.44,7,15,8,139.02,238.20,1.98,-1.89,-1.48,-2.61,-1.21,-1.04,-2.16,4.16e+00,6.99e-03,Soluble,-2.59,1.52e+00,2.56e-03,Soluble,-1.43,2.21e+01,3.72e-02,Soluble,Low,No,Yes,No,No,No,No,No,-11.27,3,4,1,1,3,0.17,1,2,1,6.33
Molecule 7,O[C@H]1[C@@H](O[C@@H]([C@H]([C@@H]1O)O)CO[C@@H]1OC[C@H]([C@@H]([C@H]1O)O)O)Oc1cc(O)cc2c1c(cc(=O)o2)c1ccc(c(c1)O)O,C26H28O15,580.49,41,16,0.42,6,15,9,134.55,249.20,2.01,-2.22,-1.78,-2.81,-1.76,-1.31,-1.93,6.77e+00,1.17e-02,Very soluble,-2.48,1.92e+00,3.31e-03,Soluble,-0.75,1.04e+02,1.79e-01,Soluble,Low,No,Yes,No,No,No,No,No,-11.42,3,3,1,1,4,0.17,1,2,1,6.21
Molecule 8,CC(=CCOc1c2ccoc2cc2c1ccc(=O)o2)C,C16H14O4,270.28,20,13,0.19,3,4,0,77.50,52.58,3.07,3.43,3.88,2.14,3.99,3.30,-3.96,2.97e-02,1.10e-04,Soluble,-4.21,1.65e-02,6.10e-05,Moderately soluble,-5.51,8.33e-04,3.08e-06,Moderately soluble,High,Yes,No,Yes,Yes,Yes,No,No,-5.51,0,0,0,0,0,0.55,0,2,0,3.24
Molecule 9,O=c1ccc2c(o1)cc1c(c2OCC(C(O)(C)C)O)cco1,C16H16O6,304.29,22,13,0.31,4,6,2,80.34,93.04,2.46,1.25,2.05,0.57,2.61,1.79,-2.69,6.25e-01,2.05e-03,Soluble,-2.80,4.80e-01,1.58e-03,Soluble,-4.36,1.34e-02,4.42e-05,Moderately soluble,High,No,Yes,Yes,No,No,No,No,-7.27,0,0,0,0,0,0.55,0,1,0,3.79
Molecule 10,CC(=CCOc1ccc2c(c1)oc(=O)cc2)C,C14H14O3,230.26,17,10,0.21,3,3,0,67.73,39.44,2.88,3.24,3.14,2.37,3.52,3.03,-3.55,6.55e-02,2.84e-04,Soluble,-3.74,4.17e-02,1.81e-04,Soluble,-4.63,5.42e-03,2.36e-05,Moderately soluble,High,Yes,No,Yes,Yes,No,No,No,-5.40,0,0,0,0,0,0.55,0,2,1,2.92
Molecule 11,OC[C@H]1O[C@@H](Oc2ccc(cc2)OC)[C@@H]([C@H]([C@@H]1O)O)O,C13H18O7,286.28,20,6,0.54,4,7,4,67.08,108.61,1.93,-0.73,-1.13,-1.21,-0.70,-0.37,-1.11,2.21e+01,7.71e-02,Very soluble,-1.07,2.41e+01,8.42e-02,Very soluble,-0.34,1.30e+02,4.55e-01,Soluble,High,No,No,No,No,No,No,No,-8.56,0,1,0,0,0,0.55,0,0,0,4.28
Molecule 12,OCc1ccc(cc1)OC,C8H10O2,138.16,10,6,0.25,2,2,1,39.06,29.46,1.97,1.10,1.04,1.21,1.67,1.40,-1.70,2.75e+00,1.99e-02,Very soluble,-1.31,6.75e+00,4.88e-02,Very soluble,-2.33,6.54e-01,4.73e-03,Soluble,High,Yes,No,Yes,No,No,No,No,-6.36,0,2,0,0,1,0.55,0,0,1,1.00
Molecule 13,COc1ccc(cc1)c1cc(=O)c2c(o1)cc(cc2O)O,C16H12O5,284.26,21,16,0.06,2,5,2,78.46,79.90,2.56,3.35,2.88,0.77,3.03,2.52,-4.14,2.04e-02,7.17e-05,Moderately soluble,-4.71,5.60e-03,1.97e-05,Moderately soluble,-5.10,2.25e-03,7.91e-06,Moderately soluble,High,No,No,Yes,No,Yes,Yes,Yes,-5.66,0,0,0,0,0,0.55,0,0,0,2.98
Molecule 14,COc1ccc(cc1)c1oc2cc(O)cc(c2c(=O)c1O)O,C16H12O6,300.26,22,16,0.06,2,6,3,80.48,100.13,2.43,2.22,2.59,0.22,2.55,2.00,-3.51,9.36e-02,3.12e-04,Soluble,-3.96,3.31e-02,1.10e-04,Soluble,-4.52,9.07e-03,3.02e-05,Moderately soluble,High,No,No,Yes,No,No,Yes,Yes,-6.56,0,0,0,0,0,0.55,0,0,0,3.16
Molecule 15,COc1ccc2c(c1)oc(=O)cc2,C10H8O3,176.17,13,10,0.10,1,3,0,48.98,39.44,2.06,1.74,1.80,1.34,2.44,1.88,-2.53,5.18e-01,2.94e-03,Soluble,-2.19,1.15e+00,6.53e-03,Soluble,-3.74,3.24e-02,1.84e-04,Soluble,High,Yes,No,Yes,No,No,No,No,-6.14,0,0,0,0,1,0.55,0,1,1,2.59
Molecule 16,OC[C@H]1OC(Oc2cc(OC)cc3c2C(=CC(=O)C3)c2ccc(c(c2)O)O)[C@@H]([C@H]([C@@H]1O)O)O,C23H24O10,460.43,33,12,0.35,5,10,6,113.56,166.14,2.17,0.15,-0.16,-1.06,0.58,0.34,-2.73,8.61e-01,1.87e-03,Soluble,-3.20,2.93e-01,6.37e-04,Soluble,-2.33,2.17e+00,4.71e-03,Soluble,Low,No,Yes,No,No,No,No,No,-9.00,1,0,1,1,2,0.55,1,1,1,5.41
Molecule 17,OC[C@H]1OC(Oc2cc(OC)cc3c2C(=CC(=O)C3)c2ccc(c(c2)O)O)[C@@H]([C@H]([C@H]1O)O)O,C23H24O10,460.43,33,12,0.35,5,10,6,113.56,166.14,1.79,0.15,-0.16,-1.06,0.58,0.26,-2.73,8.61e-01,1.87e-03,Soluble,-3.20,2.93e-01,6.37e-04,Soluble,-2.33,2.17e+00,4.71e-03,Soluble,Low,No,Yes,No,No,No,No,No,-9.00,1,0,1,1,2,0.55,1,1,1,5.41
Molecule 18,COc1cc(CCc2ccc(cc2)O)cc(c1)O,C15H16O3,244.29,18,12,0.20,4,3,2,71.24,49.69,2.32,3.40,2.89,2.59,3.27,2.89,-3.73,4.59e-02,1.88e-04,Soluble,-4.12,1.84e-02,7.54e-05,Moderately soluble,-4.71,4.79e-03,1.96e-05,Moderately soluble,High,Yes,No,Yes,No,No,Yes,No,-5.38,0,0,0,0,0,0.55,0,0,1,1.85
Molecule 19,COc1cccc(c1)CCc1cc(O)cc(c1)OC,C16H18O3,258.31,19,12,0.25,5,3,1,75.71,38.69,2.84,3.73,3.19,2.84,3.79,3.28,-3.93,3.04e-02,1.18e-04,Soluble,-4.23,1.51e-02,5.83e-05,Moderately soluble,-5.41,1.01e-03,3.91e-06,Moderately soluble,High,Yes,No,Yes,Yes,No,Yes,No,-5.23,0,0,0,0,0,0.55,0,0,1,1.92
Molecule 20,COc1cc(CCc2cccc(c2)O)cc(c1)O,C15H16O3,244.29,18,12,0.20,4,3,2,71.24,49.69,2.34,3.40,2.89,2.59,3.27,2.90,-3.73,4.59e-02,1.88e-04,Soluble,-4.12,1.84e-02,7.54e-05,Moderately soluble,-4.71,4.79e-03,1.96e-05,Moderately soluble,High,Yes,No,Yes,No,No,Yes,No,-5.38,0,0,0,0,0,0.55,0,0,1,1.82
Molecule 21,COc1cc(C)c2c(c1)oc1c(c2=O)c(O)cc(c1)OC,C16H14O5,286.28,21,14,0.19,2,5,1,79.96,68.90,3.03,3.47,2.98,1.07,3.50,2.81,-4.16,1.97e-02,6.88e-05,Moderately soluble,-4.60,7.21e-03,2.52e-05,Moderately soluble,-5.35,1.28e-03,4.47e-06,Moderately soluble,High,Yes,No,Yes,No,Yes,Yes,Yes,-5.58,0,0,0,0,0,0.55,0,1,0,2.92
Molecule 22,COc1cc2OC(c3ccccc3)[C@H](C(=O)c2c(c1)O)O,C16H14O5,286.28,21,12,0.19,2,5,2,75.18,75.99,2.50,1.99,1.75,0.69,2.15,1.82,-3.16,1.98e-01,6.93e-04,Soluble,-3.21,1.76e-01,6.14e-04,Soluble,-3.88,3.73e-02,1.30e-04,Soluble,High,No,No,No,No,No,No,No,-6.63,0,0,0,0,0,0.55,0,0,0,3.48
Molecule 23,COc1cc2OC(CC(=O)c2c(c1)O)c1ccccc1,C16H14O4,270.28,20,12,0.19,2,4,1,74.02,55.76,2.75,3.20,2.78,1.52,3.06,2.66,-3.84,3.87e-02,1.43e-04,Soluble,-4.04,2.45e-02,9.06e-05,Moderately soluble,-4.70,5.44e-03,2.01e-05,Moderately soluble,High,Yes,No,Yes,Yes,No,Yes,Yes,-5.68,0,0,0,0,0,0.55,0,0,0,3.07
Molecule 24,COc1ccc(cc1)c1cc(=O)c2c(o1)cc(cc2O)OC,C17H14O5,298.29,22,16,0.12,3,5,1,82.93,68.90,2.55,3.67,3.18,1.01,3.55,2.79,-4.34,1.36e-02,4.55e-05,Moderately soluble,-4.81,4.66e-03,1.56e-05,Moderately soluble,-5.80,4.74e-04,1.59e-06,Moderately soluble,High,Yes,No,Yes,Yes,Yes,Yes,Yes,-5.51,0,0,0,0,0,0.55,0,0,1,3.14
Molecule 25,COc1cc(O)c2c(c1)oc(cc2=O)c1ccc(cc1)O,C16H12O5,284.26,21,16,0.06,2,5,2,78.46,79.90,2.48,3.35,2.88,0.77,3.03,2.50,-4.14,2.04e-02,7.17e-05,Moderately soluble,-4.71,5.60e-03,1.97e-05,Moderately soluble,-5.10,2.25e-03,7.91e-06,Moderately soluble,High,No,No,Yes,No,Yes,Yes,Yes,-5.66,0,0,0,0,0,0.55,0,0,0,3.03
Molecule 26,COc1cc(O)c2c(c1)CCc1c2ccc(c1)O,C15H14O3,242.27,18,12,0.20,1,3,2,70.23,49.69,2.04,3.10,2.87,2.20,3.21,2.68,-3.72,4.59e-02,1.89e-04,Soluble,-3.81,3.74e-02,1.54e-04,Soluble,-4.45,8.60e-03,3.55e-05,Moderately soluble,High,Yes,Yes,Yes,No,No,Yes,Yes,-5.58,0,0,0,0,0,0.55,0,0,1,2.56
Molecule 27,COc1ccc(c(c1)O)[C@H]1COc2c(C1)ccc(c2)O,C16H16O4,272.30,20,12,0.25,2,4,2,75.62,58.92,2.34,2.94,2.83,1.87,2.89,2.57,-3.69,5.53e-02,2.03e-04,Soluble,-3.84,3.94e-02,1.45e-04,Soluble,-4.23,1.60e-02,5.86e-05,Moderately soluble,High,Yes,Yes,Yes,No,No,Yes,Yes,-5.87,0,0,0,0,0,0.55,0,0,0,3.16
Molecule 28,COc1c2oc(=O)ccc2cc2c1occ2,C12H8O4,216.19,16,13,0.08,1,4,0,58.75,52.58,2.22,2.00,2.55,1.18,2.88,2.16,-2.98,2.29e-01,1.06e-03,Soluble,-2.73,4.02e-01,1.86e-03,Soluble,-4.63,5.01e-03,2.32e-05,Moderately soluble,High,Yes,No,Yes,No,No,No,No,-6.20,0,0,0,0,0,0.55,0,1,1,2.97
Molecule 29,COc1c2O[C@H]3COc4c([C@@]3(C(=O)c2cc2c1occ2)O)cc1c(c4)OCO1,C20H14O8,382.32,28,15,0.25,1,8,1,93.25,96.59,3.11,2.31,2.29,0.29,2.88,2.17,-4.00,3.86e-02,1.01e-04,Soluble,-3.98,4.03e-02,1.06e-04,Soluble,-5.28,2.03e-03,5.30e-06,Moderately soluble,High,No,No,Yes,No,Yes,Yes,Yes,-6.99,0,0,0,0,0,0.55,0,0,1,4.31
Molecule 30,COc1cc(O)c2c(c1)C1(C=C3C(=CC(=O)c4c3c(C1)c(OC)cc4O)OC)C(=CC2=O)OC,C26H22O8,462.45,34,12,0.23,4,8,2,122.20,111.52,3.75,3.79,3.45,0.48,3.81,3.05,-5.09,3.74e-03,8.09e-06,Moderately soluble,-5.83,6.90e-04,1.49e-06,Moderately soluble,-5.93,5.47e-04,1.18e-06,Moderately soluble,High,No,No,No,No,Yes,No,Yes,-6.43,0,0,0,0,0,0.56,0,0,2,5.07
Molecule 31,COc1c2ccc(=O)oc2cc2c1cco2,C12H8O4,216.19,16,13,0.08,1,4,0,58.75,52.58,2.29,1.93,2.55,1.18,2.88,2.16,-2.93,2.53e-01,1.17e-03,Soluble,-2.66,4.75e-01,2.20e-03,Soluble,-4.63,5.01e-03,2.32e-05,Moderately soluble,High,Yes,No,Yes,No,No,No,No,-6.25,0,0,0,0,0,0.55,0,1,1,2.90
Molecule 32,COc1cccc2c1cc1[nH]c(=O)c3c1c2c1OCOc1c3,C17H11NO4,293.27,22,16,0.12,1,4,1,83.32,60.55,2.51,3.12,3.01,2.42,4.20,3.05,-4.10,2.35e-02,8.02e-05,Moderately soluble,-4.06,2.55e-02,8.70e-05,Moderately soluble,-5.99,2.99e-04,1.02e-06,Moderately soluble,High,Yes,No,Yes,No,Yes,Yes,Yes,-5.87,0,0,0,0,0,0.55,0,1,0,2.56
Molecule 33,COc1c2O[C@@H](C)[C@H](C(=O)c2c(c2c1cc(OC)cc2OC)O)C,C18H20O6,332.35,24,10,0.39,3,6,1,89.63,74.22,3.23,3.74,3.17,0.93,3.20,2.85,-4.37,1.43e-02,4.29e-05,Moderately soluble,-4.99,3.39e-03,1.02e-05,Moderately soluble,-4.63,7.86e-03,2.37e-05,Moderately soluble,High,Yes,No,No,Yes,Yes,Yes,No,-5.67,0,0,0,0,0,0.55,0,0,1,3.76
Molecule 34,COc1c2O[C@@H](C)[C@@H](C(=O)c2c(c2c1cc(OC)cc2OC)O)C,C18H20O6,332.35,24,10,0.39,3,6,1,89.63,74.22,3.25,3.74,3.17,0.93,3.20,2.86,-4.37,1.43e-02,4.29e-05,Moderately soluble,-4.99,3.39e-03,1.02e-05,Moderately soluble,-4.63,7.86e-03,2.37e-05,Moderately soluble,High,Yes,No,No,Yes,Yes,Yes,No,-5.67,0,0,0,0,0,0.55,0,0,1,3.76
Molecule 35,COc1cc(OC)c2c(c1)c(OC)c1c(c2O)C(=O)C[C@@H](O1)C,C17H18O6,318.32,23,10,0.35,3,6,1,84.83,74.22,2.97,3.17,2.92,0.70,3.09,2.57,-3.93,3.70e-02,1.16e-04,Soluble,-4.40,1.27e-02,3.99e-05,Moderately soluble,-4.48,1.06e-02,3.33e-05,Moderately soluble,High,Yes,No,Yes,Yes,Yes,Yes,Yes,-5.99,0,0,0,0,0,0.55,0,0,0,3.35
Molecule 36,COc1cc(OC)c2c(c1)c(OC)c1c(c2O)c(=O)cc(o1)C,C17H16O6,316.31,23,14,0.24,3,6,1,86.45,78.13,3.16,3.28,2.99,0.50,3.56,2.70,-4.12,2.40e-02,7.59e-05,Moderately soluble,-4.60,8.03e-03,2.54e-05,Moderately soluble,-5.46,1.09e-03,3.44e-06,Moderately soluble,High,Yes,No,Yes,No,Yes,Yes,Yes,-5.90,0,0,0,0,0,0.55,0,1,0,3.24
Molecule 37,COc1c2cc(OC)cc(c2c(c2c1oc(C)c(c2=O)C)O)OC,C18H18O6,330.33,24,14,0.28,3,6,1,91.42,78.13,3.40,3.65,3.29,0.74,4.08,3.03,-4.42,1.25e-02,3.79e-05,Moderately soluble,-4.98,3.46e-03,1.05e-05,Moderately soluble,-5.84,4.74e-04,1.44e-06,Moderately soluble,High,Yes,No,Yes,No,Yes,No,Yes,-5.72,0,0,0,0,0,0.55,0,1,1,3.45
Molecule 38,COc1cc(OC)cc2c1c(O)c1c(c2)O[C@H]([C@H](C1=O)C)C,C17H18O5,302.32,22,10,0.35,2,5,1,83.14,64.99,3.08,3.77,3.16,1.24,3.13,2.88,-4.29,1.54e-02,5.08e-05,Moderately soluble,-4.83,4.49e-03,1.49e-05,Moderately soluble,-4.51,9.24e-03,3.05e-05,Moderately soluble,High,Yes,No,Yes,Yes,Yes,Yes,No,-5.47,0,0,0,0,0,0.55,0,0,1,3.50
Molecule 39,COc1cc(OC)cc2c1c(O)c1c(c2)O[C@H]([C@@H](C1=O)C)C,C17H18O5,302.32,22,10,0.35,2,5,1,83.14,64.99,3.07,3.77,3.16,1.24,3.13,2.88,-4.29,1.54e-02,5.08e-05,Moderately soluble,-4.83,4.49e-03,1.49e-05,Moderately soluble,-4.51,9.24e-03,3.05e-05,Moderately soluble,High,Yes,No,Yes,Yes,Yes,Yes,No,-5.47,0,0,0,0,0,0.55,0,0,1,3.50
Molecule 40,COc1cc2cc3O[C@@H](C)CC(=O)c3c(c2c(c1)OC)O,C16H16O5,288.30,21,10,0.31,2,5,1,78.33,64.99,2.73,3.20,2.92,1.00,3.04,2.58,-3.86,3.94e-02,1.37e-04,Soluble,-4.24,1.67e-02,5.80e-05,Moderately soluble,-4.36,1.25e-02,4.33e-05,Moderately soluble,High,Yes,No,Yes,Yes,Yes,Yes,Yes,-5.79,0,0,0,0,0,0.55,0,0,0,3.08
Molecule 41,COc1cc(OC)c2c(c1)cc1c(c2O)c(=O)cc(o1)C,C16H14O5,286.28,21,14,0.19,2,5,1,79.96,68.90,2.94,3.31,2.98,0.81,3.50,2.71,-4.06,2.48e-02,8.68e-05,Moderately soluble,-4.43,1.06e-02,3.69e-05,Moderately soluble,-5.35,1.28e-03,4.47e-06,Moderately soluble,High,Yes,No,Yes,No,Yes,Yes,Yes,-5.70,0,0,0,0,0,0.55,0,1,0,2.90
Molecule 42,COc1cc(OC)cc2c1c(O)c1c(c2)oc(c(c1=O)C)C,C17H16O5,300.31,22,14,0.24,2,5,1,84.93,68.90,3.17,3.68,3.29,1.05,4.01,3.04,-4.36,1.31e-02,4.37e-05,Moderately soluble,-4.82,4.58e-03,1.52e-05,Moderately soluble,-5.73,5.58e-04,1.86e-06,Moderately soluble,High,Yes,No,Yes,Yes,Yes,Yes,Yes,-5.52,0,0,0,0,0,0.55,0,1,1,3.12
Molecule 43,COC1OC(=O)c2c3c1c(O)cc(c3c(cc2OC)C)OC,C16H16O6,304.29,22,10,0.31,3,6,1,79.14,74.22,2.30,2.53,2.36,1.67,2.85,2.34,-3.46,1.06e-01,3.48e-04,Soluble,-3.74,5.60e-02,1.84e-04,Soluble,-4.21,1.89e-02,6.22e-05,Moderately soluble,High,Yes,Yes,Yes,No,No,No,No,-6.36,0,0,0,0,0,0.55,0,0,0,3.34
Molecule 44,COC1=CC(=O)[C@H]([C@@]2([C@H]1c1c(OC)cc(c3c1C(=C2)C(=CC3=O)OC)O)C)O,C21H20O7,384.38,28,6,0.33,3,7,2,99.45,102.29,2.76,1.71,2.09,-0.10,2.32,1.76,-3.26,2.11e-01,5.48e-04,Soluble,-3.47,1.29e-01,3.36e-04,Soluble,-3.56,1.06e-01,2.76e-04,Soluble,High,No,Yes,No,No,No,No,No,-7.43,0,0,0,0,0,0.56,0,0,1,4.75
Molecule 45,COc1c2CC3COC(=O)C3C(c2cc2c1OCO2)c1ccc2c(c1)OCO2,C21H18O7,382.36,28,12,0.38,2,7,0,95.76,72.45,3.19,3.16,2.63,2.40,3.54,2.98,-4.39,1.57e-02,4.11e-05,Moderately soluble,-4.35,1.70e-02,4.45e-05,Moderately soluble,-5.08,3.17e-03,8.28e-06,Moderately soluble,High,Yes,No,Yes,Yes,Yes,Yes,Yes,-6.39,0,0,0,0,0,0.55,0,0,1,4.21
Molecule 46,C=CCc1cc(OC)c2c(c1)OCO2,C11H12O3,192.21,14,6,0.27,3,3,0,53.10,27.69,2.67,2.94,2.15,1.70,2.99,2.49,-3.00,1.91e-01,9.93e-04,Soluble,-3.18,1.26e-01,6.55e-04,Soluble,-3.13,1.42e-01,7.38e-04,Soluble,High,Yes,No,Yes,No,No,No,No,-5.39,0,0,0,0,1,0.55,0,1,1,2.40
Molecule 47,COc1cc(O)cc2c1C(=O)[C@@H](C(O2)c1ccccc1)O,C16H14O5,286.28,21,12,0.19,2,5,2,75.18,75.99,1.91,1.44,1.75,0.69,2.15,1.59,-2.81,4.40e-01,1.54e-03,Soluble,-2.64,6.54e-01,2.28e-03,Soluble,-3.88,3.73e-02,1.30e-04,Soluble,High,No,Yes,No,No,No,No,No,-7.02,0,0,0,0,0,0.55,0,0,0,3.49
Molecule 48,COc1cc(O)cc2c1C(=O)O[C@H](C)CCCCCCC2,C17H24O4,292.37,21,6,0.59,1,4,1,82.74,55.76,2.85,4.74,3.84,2.82,3.41,3.53,-4.78,4.80e-03,1.64e-05,Moderately soluble,-5.64,6.68e-04,2.29e-06,Moderately soluble,-4.23,1.71e-02,5.85e-05,Moderately soluble,High,Yes,No,No,No,Yes,No,No,-4.72,0,0,0,0,0,0.55,0,0,1,3.77
Molecule 49,COc1cccc2c1C(=O)O[C@H](C2)C,C11H12O3,192.21,14,6,0.36,1,3,0,51.87,35.53,1.97,2.21,1.80,1.84,2.44,2.05,-2.68,4.06e-01,2.11e-03,Soluble,-2.59,4.93e-01,2.57e-03,Soluble,-3.14,1.38e-01,7.18e-04,Soluble,High,Yes,No,Yes,No,No,No,No,-5.90,0,0,0,0,1,0.55,0,0,1,2.73
Molecule 50,COC1=CC(=O)c2c3[C@]1(O)COC(=O)c3c(cc2O)OC,C14H12O7,292.24,21,6,0.29,2,7,2,68.44,102.29,1.78,0.42,0.38,-0.54,1.40,0.69,-2.00,2.95e+00,1.01e-02,Very soluble,-2.14,2.14e+00,7.33e-03,Soluble,-2.41,1.13e+00,3.85e-03,Soluble,High,No,No,No,No,No,No,No,-7.78,0,0,0,0,0,0.56,0,0,0,3.71
Molecule 51,COC1=CC(=O)c2c3c1coc(=O)c3c(cc2O)OC,C14H10O6,274.23,20,10,0.14,2,6,1,70.26,85.97,2.15,1.33,1.69,0.07,2.36,1.52,-2.62,6.64e-01,2.42e-03,Soluble,-2.74,5.03e-01,1.83e-03,Soluble,-3.76,4.75e-02,1.73e-04,Soluble,High,No,No,Yes,No,No,No,No,-7.03,0,0,0,0,0,0.56,0,0,0,3.40
Molecule 52,COC1=CC(=O)c2c3c1coc(=O)c3c(cc2C)OC,C15H12O5,272.25,20,10,0.20,2,5,0,73.20,65.74,2.34,1.50,2.29,0.87,3.35,2.07,-2.71,5.30e-01,1.95e-03,Soluble,-2.49,8.84e-01,3.25e-03,Soluble,-4.72,5.14e-03,1.89e-05,Moderately soluble,High,Yes,No,Yes,Yes,No,No,No,-6.90,0,0,0,0,0,0.56,0,0,0,3.43
Molecule 53,COc1cc(O)cc2c1C(=O)CC(O2)c1ccccc1,C16H14O4,270.28,20,12,0.19,2,4,1,74.02,55.76,2.13,2.65,2.78,1.52,3.06,2.43,-3.50,8.60e-02,3.18e-04,Soluble,-3.47,9.11e-02,3.37e-04,Soluble,-4.70,5.44e-03,2.01e-05,Moderately soluble,High,Yes,Yes,Yes,Yes,No,No,Yes,-6.07,0,0,0,0,0,0.55,0,0,0,3.08
Molecule 54,COc1cc(O)cc2c1C(=O)CC(O2)c1ccc(c(c1)c1c(O)cc2c(c1O)c(=O)cc(o2)c1ccc(cc1)O)O,C31H22O10,554.50,41,28,0.10,4,10,5,149.02,166.89,3.22,4.54,5.05,0.60,4.70,3.62,-6.38,2.31e-04,4.17e-07,Poorly soluble,-7.77,9.48e-06,1.71e-08,Poorly soluble,-8.40,2.20e-06,3.97e-09,Poorly soluble,Low,No,No,No,No,Yes,No,No,-6.46,1,2,1,1,1,0.55,0,0,2,4.72
Molecule 55,COc1c2C[C@H](Oc2cc2c1c(=O)cc(o2)C)C(O)(C)C,C16H18O5,290.31,21,10,0.44,2,5,1,78.91,68.90,2.79,1.89,2.18,0.73,3.32,2.18,-3.05,2.58e-01,8.89e-04,Soluble,-2.96,3.19e-01,1.10e-03,Soluble,-4.43,1.08e-02,3.72e-05,Moderately soluble,High,Yes,Yes,Yes,Yes,No,Yes,No,-6.73,0,0,0,0,0,0.55,0,0,0,3.76
Molecule 56,COc1cccc2c1C(=O)C1=C(C2(OC)c2ccc3c(c2O)c(O)c2c(c3)C[C@](CC2=O)(C)O)C[C@@H](O[C@@H]1C)C,C32H32O8,544.59,40,16,0.38,3,8,3,148.99,122.52,3.94,3.59,4.61,1.34,5.46,3.79,-5.58,1.45e-03,2.65e-06,Moderately soluble,-5.85,7.70e-04,1.41e-06,Moderately soluble,-8.10,4.29e-06,7.87e-09,Poorly soluble,Low,No,Yes,No,No,No,No,Yes,-7.07,1,3,0,0,0,0.55,0,0,2,5.86
Molecule 57,COc1cc(OC)c2c(c1)C(OC)(C1=C(C2=O)[C@@H](C)O[C@H](C1)C)c1ccc2c(c1O)c(O)c1c(c2)CCCC1=O,C32H32O8,544.59,40,16,0.38,4,8,2,149.48,111.52,4.12,4.35,5.26,1.61,5.92,4.25,-5.99,5.59e-04,1.03e-06,Moderately soluble,-6.41,2.13e-04,3.92e-07,Poorly soluble,-8.43,2.02e-06,3.71e-09,Poorly soluble,Low,No,Yes,No,Yes,Yes,No,Yes,-6.53,1,3,0,0,0,0.55,0,0,2,5.70
Molecule 58,COc1cccc2c1C(=O)C1=C(C2(OC)c2ccc3c(c2O)C(=O)c2c(C3)cc(cc2O)C)C[C@@H](O[C@@H]1C)C,C32H30O7,526.58,39,18,0.31,3,7,2,145.48,102.29,4.25,4.83,5.02,2.09,6.20,4.48,-6.29,2.69e-04,5.11e-07,Poorly soluble,-6.71,1.02e-04,1.94e-07,Poorly soluble,-8.99,5.33e-07,1.01e-09,Poorly soluble,High,No,Yes,No,Yes,Yes,No,Yes,-6.08,1,2,0,0,0,0.55,0,0,2,5.65
Molecule 59,COc1cccc2c1C(=O)C1=C(C2(OC)c2ccc3c(c2O)C(=O)c2c(C3=O)cc(cc2O)C)C[C@@H](O[C@@H]1C)C,C32H28O8,540.56,40,18,0.28,3,8,2,145.90,119.36,3.98,4.34,4.66,1.24,5.90,4.02,-6.06,4.70e-04,8.70e-07,Poorly soluble,-6.56,1.48e-04,2.75e-07,Poorly soluble,-8.87,7.34e-07,1.36e-09,Poorly soluble,Low,No,Yes,No,Yes,Yes,No,Yes,-6.52,1,2,0,0,0,0.55,1,0,2,5.62
Molecule 60,COc1cc(OC)c2c(c1)C(OC)(C1=C(C2=O)[C@@H](C)O[C@H](C1)C)c1ccc2c(c1O)C(=O)c1c(C2=O)cc(cc1O)C,C33H30O9,570.59,42,18,0.30,4,9,2,152.39,128.59,4.40,4.31,4.67,0.91,5.99,4.05,-6.15,4.08e-04,7.14e-07,Poorly soluble,-6.72,1.08e-04,1.89e-07,Poorly soluble,-8.96,6.29e-07,1.10e-09,Poorly soluble,Low,No,Yes,No,No,Yes,No,Yes,-6.72,1,3,0,0,0,0.55,1,0,2,5.78
Molecule 61,COc1cc(O)cc2c1c(=O)c(c(o2)c1ccccc1)O,C16H12O5,284.26,21,16,0.06,2,5,2,78.46,79.90,2.17,2.03,2.88,0.77,3.03,2.18,-3.31,1.38e-01,4.86e-04,Soluble,-3.34,1.31e-01,4.62e-04,Soluble,-5.10,2.25e-03,7.91e-06,Moderately soluble,High,No,No,Yes,No,No,Yes,Yes,-6.59,0,0,0,0,0,0.55,0,0,0,3.22
Molecule 62,COc1c(ccc2c1OCO2)[C@H]1OC[C@H]2[C@@H]1CO[C@@H]2c1ccc2c(c1OC)OCO2,C22H22O8,414.41,30,12,0.45,4,8,0,102.98,73.84,3.94,2.62,2.59,1.37,3.32,2.77,-4.09,3.35e-02,8.09e-05,Moderately soluble,-3.82,6.26e-02,1.51e-04,Soluble,-4.80,6.51e-03,1.57e-05,Moderately soluble,High,Yes,No,No,No,Yes,Yes,Yes,-6.97,0,0,0,0,0,0.55,0,0,1,4.56
Molecule 63,COc1cc(ccc1Oc1ccc(cc1OC)c1cc(=O)c2c(o1)cc(c(c2O)O)OC)c1cc(=O)c2c(o1)cc(c(c2O)O)OC,C34H26O13,642.56,47,32,0.12,8,13,4,169.97,187.49,4.89,5.53,5.88,-0.20,5.43,4.31,-7.28,3.34e-05,5.20e-08,Poorly soluble,-9.23,3.81e-07,5.93e-10,Poorly soluble,-9.97,6.92e-08,1.08e-10,Poorly soluble,Low,No,No,No,No,Yes,No,No,-6.29,2,4,1,2,4,0.17,1,1,3,4.68
Molecule 64,COc1cc(ccc1OC)[C@H]1OC[C@H]2[C@@H]1CO[C@@H]2c1ccc2c(c1)OCO2,C21H22O6,370.40,27,12,0.43,4,6,0,96.92,55.38,3.67,2.81,2.86,1.79,3.48,2.92,-3.97,3.95e-02,1.07e-04,Soluble,-3.63,8.68e-02,2.34e-04,Soluble,-5.09,3.03e-03,8.18e-06,Moderately soluble,High,Yes,No,No,No,No,Yes,Yes,-6.56,0,0,0,0,0,0.55,0,0,1,4.30
Molecule 65,COc1cc(ccc1OC)[C@H]1OC[C@H]2[C@@H]1CO[C@@H]2c1ccc2c(c1C)OCO2,C22H24O6,384.42,28,12,0.45,4,6,0,101.88,55.38,3.85,3.17,3.17,2.01,4.00,3.24,-4.27,2.05e-02,5.33e-05,Moderately soluble,-4.00,3.81e-02,9.92e-05,Moderately soluble,-5.46,1.32e-03,3.44e-06,Moderately soluble,High,Yes,No,No,No,No,Yes,Yes,-6.39,0,0,0,0,0,0.55,0,0,1,4.51
Molecule 66,COc1cc(CCc2ccc(c(c2)OC)OC)cc(c1)OC,C18H22O4,302.36,22,12,0.33,7,4,0,86.67,36.92,3.76,3.61,3.51,2.74,4.38,3.60,-3.93,3.55e-02,1.17e-04,Soluble,-4.07,2.56e-02,8.46e-05,Moderately soluble,-6.22,1.81e-04,5.98e-07,Poorly soluble,High,Yes,No,Yes,Yes,No,Yes,No,-5.58,0,0,0,0,0,0.55,0,0,1,2.34
Molecule 67,COc1cc(ccc1OC)c1cc(=O)c2c(o1)cc(c(c2O)O)OC,C18H16O7,344.32,25,16,0.17,4,7,2,91.44,98.36,3.09,3.40,2.90,0.17,3.12,2.54,-4.33,1.62e-02,4.72e-05,Moderately soluble,-5.14,2.47e-03,7.16e-06,Moderately soluble,-5.33,1.63e-03,4.72e-06,Moderately soluble,High,No,No,Yes,No,Yes,Yes,Yes,-5.99,0,0,0,0,0,0.55,1,1,0,3.39
Molecule 68,COc1cc(ccc1OC)C1OCC2C1COC2c1ccc2c(c1)OCO2,C21H22O6,370.40,27,12,0.43,4,6,0,96.92,55.38,3.67,2.81,2.86,1.79,3.48,2.92,-3.97,3.95e-02,1.07e-04,Soluble,-3.63,8.68e-02,2.34e-04,Soluble,-5.09,3.03e-03,8.18e-06,Moderately soluble,High,Yes,No,No,No,No,Yes,Yes,-6.56,0,0,0,0,0,0.55,0,0,1,4.30
Molecule 69,COc1cc(O)c2c(c1)oc(c(c2=O)OC)c1ccc(c(c1)OC)OC,C19H18O7,358.34,26,16,0.21,5,7,1,95.91,87.36,3.58,3.47,3.20,0.40,3.66,2.86,-4.37,1.52e-02,4.23e-05,Moderately soluble,-4.99,3.70e-03,1.03e-05,Moderately soluble,-6.02,3.43e-04,9.57e-07,Poorly soluble,High,No,No,Yes,No,Yes,Yes,Yes,-6.02,0,0,0,0,0,0.55,0,0,1,3.64
Molecule 70,COc1cc2oc(=O)ccc2cc1OC,C11H10O4,206.19,15,10,0.18,2,4,0,55.47,48.67,2.23,1.71,1.81,1.05,2.42,1.84,-2.56,5.72e-01,2.77e-03,Soluble,-2.35,9.26e-01,4.49e-03,Soluble,-3.87,2.76e-02,1.34e-04,Soluble,High,Yes,No,Yes,No,No,No,No,-6.34,0,0,0,0,0,0.55,0,1,1,2.77
Molecule 71,COc1cc2c(cc1OC)OC[C@@H]1[C@H]2C(=O)c2c(O1)c1C[C@@H](Oc1cc2)C(=C)C,C23H22O6,394.42,29,12,0.35,3,6,0,106.15,63.22,3.83,4.10,3.70,1.93,4.39,3.59,-4.98,4.16e-03,1.06e-05,Moderately soluble,-5.13,2.90e-03,7.36e-06,Moderately soluble,-6.00,3.93e-04,9.95e-07,Poorly soluble,High,Yes,No,No,Yes,Yes,Yes,Yes,-5.79,0,0,0,0,0,0.55,0,1,2,4.52
Molecule 72,COc1cc2c(=O)[nH]c3c2c(c1OC)c1cccc(c1c3OC)OC,C19H17NO5,339.34,25,16,0.21,4,5,1,96.73,69.78,2.96,3.22,3.31,1.94,4.45,3.18,-4.18,2.23e-02,6.57e-05,Moderately soluble,-4.36,1.49e-02,4.39e-05,Moderately soluble,-6.60,8.60e-05,2.54e-07,Poorly soluble,High,Yes,No,Yes,Yes,Yes,Yes,Yes,-6.08,0,0,0,0,0,0.55,0,1,0,2.79
Molecule 73,COc1c(OC)cc(c2c1oc(c1ccccc1)c(c2=O)O)O,C17H14O6,314.29,23,16,0.12,3,6,2,84.95,89.13,2.19,3.17,2.89,0.47,3.07,2.36,-4.10,2.48e-02,7.90e-05,Moderately soluble,-4.71,6.09e-03,1.94e-05,Moderately soluble,-5.22,1.91e-03,6.08e-06,Moderately soluble,High,No,No,Yes,No,Yes,Yes,Yes,-5.97,0,0,0,0,0,0.55,0,0,0,3.39
Molecule 74,COc1cc(CCc2ccc(c(c2)OC)O)cc(c1OC)O,C17H20O5,304.34,22,12,0.29,6,5,2,84.22,68.15,3.23,3.34,2.91,1.94,3.37,2.96,-3.84,4.41e-02,1.45e-04,Soluble,-4.45,1.08e-02,3.56e-05,Moderately soluble,-4.95,3.45e-03,1.14e-05,Moderately soluble,High,Yes,No,Yes,No,Yes,Yes,No,-5.79,0,0,0,0,0,0.55,0,0,0,2.25
Molecule 75,C=CCc1cc(OC)c(c(c1)OC)OC,C12H16O3,208.25,15,6,0.33,5,3,0,60.02,27.69,2.89,2.53,2.44,1.97,3.06,2.58,-2.69,4.24e-01,2.04e-03,Soluble,-2.76,3.64e-01,1.75e-03,Soluble,-3.64,4.79e-02,2.30e-04,Soluble,High,Yes,No,Yes,No,No,No,No,-5.77,0,0,0,0,0,0.55,0,1,1,2.00
Molecule 76,COc1c(O)cc2c(c1OC)c1ccc(cc1c(c2)OC)O,C17H16O5,300.31,22,14,0.18,3,5,2,84.98,68.15,2.70,3.63,3.43,1.78,3.10,2.93,-4.26,1.64e-02,5.47e-05,Moderately soluble,-4.75,5.35e-03,1.78e-05,Moderately soluble,-4.97,3.21e-03,1.07e-05,Moderately soluble,High,Yes,No,Yes,Yes,Yes,Yes,Yes,-5.55,0,0,0,0,0,0.55,0,1,1,2.12
Molecule 77,COc1cc2cc(OC)c3c(c2c(c1OC)OC)c(O)ccc3,C18H18O5,314.33,23,14,0.22,4,5,1,89.45,57.15,3.43,3.95,3.73,2.02,3.64,3.35,-4.46,1.08e-02,3.44e-05,Moderately soluble,-4.85,4.44e-03,1.41e-05,Moderately soluble,-5.67,6.77e-04,2.15e-06,Moderately soluble,High,Yes,No,Yes,Yes,Yes,Yes,Yes,-5.41,0,0,0,0,0,0.55,0,1,1,2.26
Molecule 78,COc1c(O)cc2c(c1OC)c1c(O)cccc1c(c2)OC,C17H16O5,300.31,22,14,0.18,3,5,2,84.98,68.15,3.00,3.63,3.43,1.78,3.10,2.99,-4.26,1.64e-02,5.47e-05,Moderately soluble,-4.75,5.35e-03,1.78e-05,Moderately soluble,-4.97,3.21e-03,1.07e-05,Moderately soluble,High,Yes,No,Yes,Yes,Yes,Yes,Yes,-5.55,0,0,0,0,0,0.55,0,1,1,2.12
Molecule 79,COc1c2c(CCc3c2ccc(c3)O)cc(c1OC)O,C16H16O4,272.30,20,12,0.25,2,4,2,76.73,58.92,2.62,3.07,2.88,1.87,3.23,2.73,-3.77,4.58e-02,1.68e-04,Soluble,-3.97,2.89e-02,1.06e-04,Soluble,-4.57,7.31e-03,2.69e-05,Moderately soluble,High,Yes,Yes,Yes,No,No,Yes,Yes,-5.78,0,0,0,0,0,0.55,0,0,0,2.86
Molecule 80,COc1cc(ccc1O)[C@H]1OC[C@H]2[C@@H]1CO[C@@H]2c1ccc2c(c1C)OCO2,C21H22O6,370.40,27,12,0.43,3,6,1,97.42,66.38,3.36,2.84,2.86,1.79,3.46,2.86,-4.06,3.25e-02,8.78e-05,Moderately soluble,-3.89,4.75e-02,1.28e-04,Soluble,-4.77,6.26e-03,1.69e-05,Moderately soluble,High,Yes,No,No,No,No,Yes,Yes,-6.54,0,0,0,0,0,0.55,0,0,1,4.40
Molecule 81,COc1cc(CCc2ccc(c(c2)OC)O)cc(c1)OC,C17H20O4,288.34,21,12,0.29,6,4,1,82.20,47.92,3.47,3.36,3.20,2.50,3.84,3.28,-3.77,4.88e-02,1.69e-04,Soluble,-4.04,2.60e-02,9.03e-05,Moderately soluble,-5.53,8.59e-04,2.98e-06,Moderately soluble,High,Yes,No,Yes,Yes,No,Yes,No,-5.67,0,0,0,0,0,0.55,0,0,0,2.19
Molecule 82,COc1cc(CCc2ccc(c(c2)OC)O)cc(c1)O,C16H18O4,274.31,20,12,0.25,5,4,2,77.73,58.92,2.80,3.03,2.90,2.26,3.31,2.86,-3.56,7.49e-02,2.73e-04,Soluble,-3.93,3.20e-02,1.17e-04,Soluble,-4.83,4.07e-03,1.48e-05,Moderately soluble,High,Yes,No,Yes,No,No,Yes,No,-5.82,0,0,0,0,0,0.55,0,0,0,2.07
Molecule 83,COc1cc(ccc1O)c1cc(=O)c2c(o1)cc(cc2O)O,C16H12O6,300.26,22,16,0.06,2,6,3,80.48,100.13,2.44,3.10,2.59,0.22,2.55,2.18,-4.06,2.61e-02,8.69e-05,Moderately soluble,-4.87,4.04e-03,1.35e-05,Moderately soluble,-4.52,9.07e-03,3.02e-05,Moderately soluble,High,No,No,Yes,No,Yes,Yes,Yes,-5.93,0,0,0,0,0,0.55,0,0,0,3.06
Molecule 84,COc1cc(O)c2c(c1)oc(c(c2=O)OC)c1ccc(c(c1)OC)O,C18H16O7,344.32,25,16,0.17,4,7,2,91.44,98.36,3.26,3.61,2.90,0.17,3.12,2.61,-4.46,1.20e-02,3.48e-05,Moderately soluble,-5.36,1.49e-03,4.34e-06,Moderately soluble,-5.33,1.63e-03,4.72e-06,Moderately soluble,High,No,No,Yes,No,Yes,Yes,Yes,-5.84,0,0,0,0,0,0.55,0,0,1,3.54
Molecule 85,COc1cc(ccc1O)c1oc2cc(O)cc(c2c(=O)c1O)O,C16H12O7,316.26,23,16,0.06,2,7,4,82.50,120.36,2.35,1.87,2.29,-0.31,2.06,1.65,-3.36,1.38e-01,4.35e-04,Soluble,-4.02,3.03e-02,9.57e-05,Moderately soluble,-3.94,3.65e-02,1.15e-04,Soluble,High,No,No,Yes,No,No,Yes,Yes,-6.90,0,0,0,0,0,0.55,0,0,0,3.26
Molecule 86,COc1cc2oc(=O)ccc2cc1O,C10H8O4,192.17,14,10,0.10,1,4,1,51.00,59.67,1.95,1.38,1.51,0.76,1.94,1.51,-2.36,8.32e-01,4.33e-03,Soluble,-2.24,1.12e+00,5.80e-03,Soluble,-3.17,1.31e-01,6.81e-04,Soluble,High,Yes,No,Yes,No,No,No,No,-6.49,0,0,0,0,1,0.55,0,1,1,2.65
Molecule 87,COc1cc2ccc(=O)oc2cc1O,C10H8O4,192.17,14,10,0.10,1,4,1,51.00,59.67,1.86,1.53,1.51,0.76,1.94,1.52,-2.46,6.70e-01,3.48e-03,Soluble,-2.39,7.79e-01,4.06e-03,Soluble,-3.17,1.31e-01,6.81e-04,Soluble,High,Yes,No,Yes,No,No,No,No,-6.39,0,0,0,0,1,0.55,0,1,1,2.62
Molecule 88,COc1c(oc2c(c1=O)c(O)cc(c2OC)O)c1ccccc1,C17H14O6,314.29,23,16,0.12,3,6,2,84.95,89.13,2.72,3.17,2.89,0.47,3.07,2.46,-4.10,2.48e-02,7.90e-05,Moderately soluble,-4.71,6.09e-03,1.94e-05,Moderately soluble,-5.22,1.91e-03,6.08e-06,Moderately soluble,High,No,No,Yes,No,Yes,Yes,Yes,-5.97,0,0,0,0,0,0.55,0,0,0,3.37
Molecule 89,COc1ccc(cc1O)c1cc(=O)c2c(o1)cc(cc2O)O,C16H12O6,300.26,22,16,0.06,2,6,3,80.48,100.13,2.47,3.10,2.59,0.22,2.55,2.19,-4.06,2.61e-02,8.69e-05,Moderately soluble,-4.87,4.04e-03,1.35e-05,Moderately soluble,-4.52,9.07e-03,3.02e-05,Moderately soluble,High,No,No,Yes,No,Yes,Yes,Yes,-5.93,0,0,0,0,0,0.55,0,0,0,3.05
Molecule 90,COc1cc2OC(CC(=O)c2c(c1)O)c1ccc(c(c1)O)OC,C17H16O6,316.31,23,12,0.24,3,6,2,82.53,85.22,2.93,2.93,2.50,0.66,2.61,2.32,-3.84,4.62e-02,1.46e-04,Soluble,-4.38,1.31e-02,4.16e-05,Moderately soluble,-4.23,1.86e-02,5.89e-05,Moderately soluble,High,No,No,Yes,No,Yes,No,Yes,-6.15,0,0,0,0,0,0.55,0,0,0,3.33
Molecule 91,COc1ccc2c(c1O)OC[C@@H]1[C@H]2Oc2c1ccc(c2O)OC,C17H16O6,316.31,23,12,0.29,2,6,2,81.68,77.38,2.46,2.23,2.40,1.00,2.29,2.08,-3.46,1.10e-01,3.47e-04,Soluble,-3.49,1.02e-01,3.23e-04,Soluble,-3.84,4.53e-02,1.43e-04,Soluble,High,Yes,Yes,Yes,No,No,Yes,Yes,-6.65,0,0,0,0,0,0.55,0,0,0,3.76
Molecule 92,COc1ccc2c(c1)O[C@@H]1[C@H]2COc2c1ccc(c2O)OC,C17H16O5,300.31,22,12,0.29,2,5,1,79.66,57.15,2.92,2.58,2.69,1.55,2.78,2.51,-3.60,7.56e-02,2.52e-04,Soluble,-3.43,1.12e-01,3.73e-04,Soluble,-4.43,1.12e-02,3.74e-05,Moderately soluble,High,Yes,Yes,Yes,Yes,No,Yes,Yes,-6.30,0,0,0,0,0,0.55,0,0,0,3.72
Molecule 93,COc1cc(ccc1OC)c1cc(=O)c2c(o1)cc(c(c2O)OC)O,C18H16O7,344.32,25,16,0.17,4,7,2,91.44,98.36,3.11,3.40,2.90,0.17,3.12,2.54,-4.33,1.62e-02,4.72e-05,Moderately soluble,-5.14,2.47e-03,7.16e-06,Moderately soluble,-5.33,1.63e-03,4.72e-06,Moderately soluble,High,No,No,Yes,No,Yes,Yes,Yes,-5.99,0,0,0,0,0,0.55,0,0,0,3.39
Molecule 94,COc1cc(ccc1O)c1cc(=O)c2c(o1)cc(c(c2O)OC)O,C17H14O7,330.29,24,16,0.12,3,7,3,86.97,109.36,2.36,3.07,2.59,-0.07,2.59,2.11,-4.12,2.52e-02,7.63e-05,Moderately soluble,-5.03,3.06e-03,9.26e-06,Moderately soluble,-4.63,7.71e-03,2.33e-05,Moderately soluble,High,No,No,Yes,No,Yes,Yes,Yes,-6.14,0,0,0,0,0,0.55,0,0,0,3.29
Molecule 95,COc1ccc(cc1)c1oc2cc(O)c(c(c2c(=O)c1OC)O)OC,C18H16O7,344.32,25,16,0.17,4,7,2,91.44,98.36,3.25,3.14,2.90,0.17,3.12,2.52,-4.16,2.37e-02,6.88e-05,Moderately soluble,-4.88,4.59e-03,1.33e-05,Moderately soluble,-5.33,1.63e-03,4.72e-06,Moderately soluble,High,No,No,Yes,No,Yes,Yes,Yes,-6.17,0,0,0,0,0,0.55,0,0,0,3.48
Molecule 96,COc1c(O)cc2c(c1O)c(=O)c(c(o2)c1ccc(c(c1)O)O)O,C16H12O8,332.26,24,16,0.06,2,8,5,84.53,140.59,2.02,2.14,2.00,-0.83,1.59,1.38,-3.61,8.16e-02,2.46e-04,Soluble,-4.72,6.27e-03,1.89e-05,Moderately soluble,-3.35,1.47e-01,4.43e-04,Soluble,Low,No,No,Yes,No,No,Yes,Yes,-6.81,0,0,1,1,0,0.55,1,1,0,3.35
Molecule 97,COc1c(OC)cc2c(c1O)c1ccc(cc1CC2)O,C16H16O4,272.30,20,12,0.25,2,4,2,76.73,58.92,2.51,3.07,2.88,1.87,3.23,2.71,-3.77,4.58e-02,1.68e-04,Soluble,-3.97,2.89e-02,1.06e-04,Soluble,-4.57,7.31e-03,2.69e-05,Moderately soluble,High,Yes,Yes,Yes,No,No,Yes,Yes,-5.78,0,0,0,0,0,0.55,0,0,0,2.84
Molecule 98,COc1c(ccc(c1O)OC)C1COc2c(C1)ccc(c2)O,C17H18O5,302.32,22,12,0.29,3,5,2,82.11,68.15,2.69,2.91,2.83,1.55,2.92,2.58,-3.75,5.34e-02,1.76e-04,Soluble,-4.00,3.01e-02,9.95e-05,Moderately soluble,-4.35,1.36e-02,4.49e-05,Moderately soluble,High,Yes,Yes,Yes,No,No,Yes,Yes,-6.08,0,0,0,0,0,0.55,0,0,0,3.36
Molecule 99,COc1c(O)c(OC)cc2c1c1ccc(cc1cc2)O,C16H14O4,270.28,20,14,0.12,2,4,2,78.48,58.92,2.26,3.65,3.42,2.10,3.06,2.90,-4.20,1.70e-02,6.29e-05,Moderately soluble,-4.58,7.17e-03,2.65e-05,Moderately soluble,-4.86,3.77e-03,1.40e-05,Moderately soluble,High,Yes,No,Yes,Yes,Yes,Yes,Yes,-5.36,0,0,0,0,0,0.55,0,1,1,1.87
Molecule 100,COc1cc2ccc3c(c2c(c1O)OC)ccc(c3OC)O,C17H16O5,300.31,22,14,0.18,3,5,2,84.98,68.15,2.71,3.63,3.43,1.78,3.10,2.93,-4.26,1.64e-02,5.47e-05,Moderately soluble,-4.75,5.35e-03,1.78e-05,Moderately soluble,-4.97,3.21e-03,1.07e-05,Moderately soluble,High,Yes,No,Yes,Yes,Yes,Yes,Yes,-5.55,0,0,0,0,0,0.55,0,1,1,2.00
Molecule 101,COc1c(O)c(OC)cc2c1c1ccc(cc1CC2)O,C16H16O4,272.30,20,12,0.25,2,4,2,76.73,58.92,2.50,3.07,2.88,1.87,3.23,2.71,-3.77,4.58e-02,1.68e-04,Soluble,-3.97,2.89e-02,1.06e-04,Soluble,-4.57,7.31e-03,2.69e-05,Moderately soluble,High,Yes,Yes,Yes,No,No,Yes,Yes,-5.78,0,0,0,0,0,0.55,0,0,0,2.86
Molecule 102,COc1cc2CCc3c(c2c(c1O)OC)ccc(c3OC)O,C17H18O5,302.32,22,12,0.29,3,5,2,83.22,68.15,2.85,3.05,2.89,1.55,3.28,2.72,-3.84,4.35e-02,1.44e-04,Soluble,-4.15,2.15e-02,7.12e-05,Moderately soluble,-4.69,6.22e-03,2.06e-05,Moderately soluble,High,Yes,Yes,Yes,No,No,Yes,Yes,-5.98,0,0,0,0,0,0.55,0,0,0,3.11
Molecule 103,COc1cc(cc(c1O)OC)[C@H]1OC[C@H]2[C@@H]1CO[C@@H]2c1cc(OC)c(c(c1)OC)O,C22H26O8,418.44,30,12,0.45,6,8,2,107.89,95.84,3.52,2.23,2.56,0.56,2.78,2.33,-3.74,7.63e-02,1.82e-04,Soluble,-3.88,5.54e-02,1.32e-04,Soluble,-4.40,1.67e-02,3.98e-05,Moderately soluble,High,No,Yes,No,No,No,Yes,No,-7.27,0,0,0,0,0,0.55,0,0,1,4.36
Molecule 104,COc1cc(CCc2cc(OC)c(c(c2)OC)O)ccc1O,C17H20O5,304.34,22,12,0.29,6,5,2,84.22,68.15,3.09,3.00,2.91,1.94,3.37,2.86,-3.62,7.22e-02,2.37e-04,Soluble,-4.10,2.44e-02,8.03e-05,Moderately soluble,-4.95,3.45e-03,1.14e-05,Moderately soluble,High,Yes,No,Yes,No,Yes,Yes,No,-6.03,0,0,0,0,0,0.55,0,0,0,2.23
Molecule 105,COc1cc2oc(cc(=O)c2c(c1O)O)c1ccc(c(c1)O)O,C16H12O7,316.26,23,16,0.06,2,7,4,82.50,120.36,1.25,2.50,2.29,-0.31,2.06,1.56,-3.76,5.51e-02,1.74e-04,Soluble,-4.67,6.71e-03,2.12e-05,Moderately soluble,-3.94,3.65e-02,1.15e-04,Soluble,High,No,No,Yes,No,No,Yes,Yes,-6.45,0,0,0,0,0,0.55,1,1,0,3.18
Molecule 106,COc1ccc2c(c1CC=C(C)C)oc(=O)cc2,C15H16O3,244.29,18,10,0.27,3,3,0,72.70,39.44,2.93,3.81,3.31,2.63,4.03,3.34,-3.97,2.63e-02,1.08e-04,Soluble,-4.33,1.13e-02,4.64e-05,Moderately soluble,-5.01,2.37e-03,9.68e-06,Moderately soluble,High,Yes,No,Yes,Yes,Yes,No,No,-5.09,0,0,0,0,0,0.55,0,2,2,3.13
Molecule 107,COc1c(CC=C(C)C)c(O)cc2c1c1oc3c(c1CO2)ccc(c3)O,C21H20O5,352.38,26,15,0.24,3,5,2,100.44,72.06,3.30,4.72,4.77,2.24,4.70,3.95,-5.23,2.09e-03,5.93e-06,Moderately soluble,-5.96,3.84e-04,1.09e-06,Moderately soluble,-6.02,3.35e-04,9.51e-07,Poorly soluble,High,No,No,Yes,Yes,Yes,No,No,-5.10,0,0,0,0,0,0.55,0,1,2,3.81
Molecule 108,COc1cc2OCOc2cc1c1cc2cc3ccoc3cc2oc1=O,C19H12O6,336.29,25,19,0.11,2,6,0,90.25,71.04,3.30,3.73,3.94,2.01,4.27,3.45,-4.71,6.63e-03,1.97e-05,Moderately soluble,-4.91,4.10e-03,1.22e-05,Moderately soluble,-6.87,4.56e-05,1.36e-07,Poorly soluble,High,Yes,No,Yes,No,Yes,No,Yes,-5.70,0,0,0,0,0,0.55,0,1,1,3.44
Molecule 109,COC1=CC(=O)c2c(C1=O)c(C)c(cc2O)OC,C13H12O5,248.23,18,6,0.23,2,5,1,63.62,72.83,2.23,2.16,1.62,-0.27,2.26,1.60,-2.85,3.47e-01,1.40e-03,Soluble,-3.32,1.18e-01,4.76e-04,Soluble,-3.11,1.93e-01,7.78e-04,Soluble,High,Yes,No,Yes,No,No,No,No,-6.28,0,0,0,0,0,0.56,1,0,1,2.90
Molecule 110,CO[C@]12C[C@@H](O)O[C@H]([C@]32O[C@]2(C[C@@H]1O[C@]3(C)[C@H]2O)OC)C,C14H22O7,302.32,21,0,1.00,2,7,2,68.86,86.61,2.48,-1.34,-0.47,-0.73,0.18,0.03,-0.74,5.52e+01,1.83e-01,Very soluble,0.02,3.17e+02,1.05e+00,Highly soluble,-0.77,5.19e+01,1.72e-01,Soluble,High,No,Yes,No,No,No,No,No,-9.10,0,1,0,0,0,0.55,0,0,0,6.03
Molecule 111,CO[C@H]1OC(=O)C(=C1)CC[C@@]1(C)[C@H](C)CC[C@@]23C1C[C@H](O[C@@H]1O[C@H](CO)[C@H]([C@@H]([C@H]1O)O)O)C=C3C(=O)OC2,C27H38O11,538.58,38,0,0.78,7,11,4,130.34,161.21,3.08,1.34,0.33,0.28,0.78,1.16,-3.56,1.48e-01,2.75e-04,Soluble,-4.33,2.54e-02,4.71e-05,Moderately soluble,-1.44,1.95e+01,3.61e-02,Soluble,Low,No,Yes,No,No,No,No,No,-8.63,2,3,1,1,2,0.17,0,1,1,7.16
Molecule 112,COC1=CC(=O)[C@@H]2[C@@]([C@H]1O)(C)O2,C8H10O4,170.16,12,0,0.62,1,4,1,39.44,59.06,1.61,-0.87,-0.38,-1.08,0.68,-0.01,-0.28,8.91e+01,5.24e-01,Very soluble,0.11,2.20e+02,1.29e+00,Highly soluble,-0.38,7.06e+01,4.15e-01,Soluble,High,No,No,No,No,No,No,No,-7.96,0,1,0,0,1,0.56,0,1,1,3.98
Molecule 113,COC1=CC(=O)[C@H]2[C@]([C@H]1O)(C)O2,C8H10O4,170.16,12,0,0.62,1,4,1,39.44,59.06,1.75,-0.87,-0.38,-1.08,0.68,0.02,-0.28,8.91e+01,5.24e-01,Very soluble,0.11,2.20e+02,1.29e+00,Highly soluble,-0.38,7.06e+01,4.15e-01,Soluble,High,No,No,No,No,No,No,No,-7.96,0,1,0,0,1,0.56,0,1,1,3.98
Molecule 114,COC1=CC(=O)[C@@H]([C@@]([C@H]1O)(C)O)Nc1ccccc1,C14H17NO4,263.29,19,6,0.36,3,4,3,70.46,78.79,1.79,0.49,0.50,-0.19,0.75,0.67,-1.82,4.01e+00,1.52e-02,Very soluble,-1.71,5.08e+00,1.93e-02,Very soluble,-2.65,5.88e-01,2.23e-03,Soluble,High,No,No,No,No,No,No,No,-7.56,0,0,0,0,0,0.56,0,0,0,3.88
Molecule 115,COC1=CC(=O)C[C@@]([C@H]1O)(C)O,C8H12O4,172.18,12,0,0.62,1,4,2,41.63,66.76,1.22,-1.32,-0.40,-1.08,0.25,-0.26,-0.01,1.68e+02,9.77e-01,Very soluble,0.42,4.49e+02,2.61e+00,Highly soluble,-0.31,8.51e+01,4.94e-01,Soluble,High,No,No,No,No,No,No,No,-8.29,0,0,0,0,1,0.56,0,0,1,3.58
Molecule 116,COC1=C2C=CC(C3=C2C(C(=O)O1)C(=O)C(=C3)C)OC,C15H14O5,274.27,20,0,0.33,2,5,0,69.64,61.83,2.31,0.71,1.43,0.93,1.68,1.41,-1.86,3.82e+00,1.39e-02,Very soluble,-1.59,7.11e+00,2.59e-02,Very soluble,-2.13,2.03e+00,7.41e-03,Soluble,High,Yes,No,No,No,No,No,No,-7.47,0,0,0,0,0,0.55,0,1,0,4.75
Molecule 117,COC1=CC(=O)CC21CCc1c(C2=O)c(O)ccc1,C15H14O4,258.27,19,6,0.33,1,4,1,68.79,63.60,1.50,1.78,2.01,0.81,2.71,1.76,-2.73,4.81e-01,1.86e-03,Soluble,-2.73,4.77e-01,1.85e-03,Soluble,-3.69,5.29e-02,2.05e-04,Soluble,High,Yes,No,Yes,No,No,No,No,-6.61,0,0,0,0,0,0.56,0,0,0,3.85
Molecule 118,COC1=CC(=O)OC1(O)C(=C)C,C8H10O4,170.16,12,0,0.38,2,4,1,41.08,55.76,1.75,0.61,0.34,0.04,0.81,0.71,-1.15,1.21e+01,7.12e-02,Very soluble,-1.36,7.51e+00,4.41e-02,Very soluble,-0.74,3.10e+01,1.82e-01,Soluble,High,No,No,No,No,No,No,No,-6.90,0,0,0,0,1,0.56,0,1,1,3.37
Molecule 119,COC1=CC(=O)C2=C(C1=O)CCc1c2ccc(c1)O,C15H12O4,256.25,19,6,0.20,1,4,1,69.15,63.60,1.88,1.80,1.77,0.73,2.70,1.78,-2.73,4.77e-01,1.86e-03,Soluble,-2.75,4.51e-01,1.76e-03,Soluble,-3.67,5.47e-02,2.13e-04,Soluble,High,Yes,No,Yes,No,No,No,No,-6.59,0,0,0,0,0,0.56,1,1,0,3.03
Molecule 120,COC1=C(O)C(=O)C(=C(C1=O)C)O,C8H8O5,184.15,13,0,0.25,1,5,2,42.14,83.83,1.21,0.29,0.39,-2.10,0.35,0.03,-1.10,1.47e+01,7.97e-02,Very soluble,-1.61,4.49e+00,2.44e-02,Very soluble,-0.63,4.31e+01,2.34e-01,Soluble,High,No,No,Yes,No,No,No,No,-7.22,0,0,0,0,1,0.56,1,1,1,2.97
Molecule 121,COC1=CC(=O)C(=C(C1=O)C)O,C8H8O4,168.15,12,0,0.25,1,4,1,40.56,63.60,1.32,0.44,0.50,-1.27,0.83,0.36,-1.09,1.36e+01,8.06e-02,Very soluble,-1.34,7.63e+00,4.54e-02,Very soluble,-0.98,1.76e+01,1.05e-01,Soluble,High,No,No,No,No,No,No,No,-7.01,0,0,0,0,1,0.56,1,1,1,2.85
Molecule 122,CCCCc1ccc(cc1)NC1=C(C)C(=O)C(=CC1=O)OC,C18H21NO3,299.36,22,6,0.33,6,3,1,87.21,55.40,3.01,4.22,3.21,1.46,3.88,3.16,-4.16,2.07e-02,6.91e-05,Moderately soluble,-5.09,2.41e-03,8.06e-06,Moderately soluble,-5.72,5.69e-04,1.90e-06,Moderately soluble,High,Yes,No,Yes,Yes,Yes,No,Yes,-5.13,0,0,0,0,0,0.56,1,1,1,3.31
Molecule 123,COC1C(O)C(O)C(C(C1O)O)O,C7H14O6,194.18,13,0,1.00,1,6,5,40.54,110.38,0.36,-3.17,-3.18,-2.81,-2.50,-2.26,1.02,2.03e+03,1.05e+01,Highly soluble,1.42,5.11e+03,2.63e+01,Highly soluble,2.58,7.37e+04,3.79e+02,Soluble,Low,No,Yes,No,No,No,No,No,-9.74,0,1,0,0,2,0.55,0,0,1,3.76
Molecule 124,Clc1ccc2c(c1)[nH]c1c2C[C@]23[C@H](C1(C)C)C[C@]1(N(C2)CCC1)C(=O)N3,C21H24ClN3O,369.89,26,9,0.57,0,2,2,111.35,48.13,3.03,3.66,2.62,3.12,4.36,3.36,-4.70,7.46e-03,2.02e-05,Moderately soluble,-4.36,1.61e-02,4.37e-05,Moderately soluble,-6.67,7.85e-05,2.12e-07,Poorly soluble,High,Yes,Yes,No,No,No,Yes,Yes,-5.96,0,0,0,0,0,0.55,0,0,2,4.70
Molecule 125,O=C1OCc2c(C=C1)ccc(c2O)Cl,C10H7ClO3,210.61,14,6,0.10,0,3,1,52.51,46.53,1.79,2.12,1.85,1.75,2.36,1.98,-2.80,3.35e-01,1.59e-03,Soluble,-2.73,3.94e-01,1.87e-03,Soluble,-2.71,4.06e-01,1.93e-03,Soluble,High,Yes,No,Yes,No,No,No,No,-6.08,0,0,0,0,0,0.55,0,0,1,2.89
Molecule 126,C[C@@H](Cc1cc(O)c2c(c1)C(=O)c1c(C2=O)c(O)c(c(c1)O)Cl)O,C17H13ClO6,348.73,24,12,0.18,2,6,4,86.57,115.06,2.16,2.99,2.16,0.55,3.17,2.21,-4.12,2.62e-02,7.52e-05,Moderately soluble,-5.07,2.97e-03,8.51e-06,Moderately soluble,-4.36,1.52e-02,4.35e-05,Moderately soluble,High,No,No,No,No,Yes,No,Yes,-6.30,0,0,0,0,0,0.55,1,0,0,3.36
Molecule 127,O=C1N[C@@]23CN4[C@@]1(CCC4)C[C@H]3C(c1c(C2)c2cc(Cl)c(cc2[nH]1)Cl)(C)C,C21H23Cl2N3O,404.33,27,9,0.57,0,2,2,116.36,48.13,3.01,4.28,3.27,3.60,4.99,3.83,-5.29,2.07e-03,5.13e-06,Moderately soluble,-5.00,4.01e-03,9.92e-06,Moderately soluble,-7.26,2.22e-05,5.48e-08,Poorly soluble,High,Yes,Yes,No,Yes,No,Yes,Yes,-5.73,0,0,0,0,0,0.55,0,0,2,4.73
Molecule 128,COC1=CC(=O)[C@@H]([C@@]([C@H]1O)(C)O)Cl,C8H11ClO4,206.62,13,0,0.62,1,4,2,46.42,66.76,0.37,-0.59,-0.18,-0.77,0.50,-0.13,-0.68,4.28e+01,2.07e-01,Very soluble,-0.34,9.42e+01,4.56e-01,Very soluble,-0.70,4.10e+01,1.99e-01,Soluble,High,No,No,No,No,No,No,No,-7.98,0,0,0,0,0,0.56,0,1,1,4.04
Molecule 129,CC1=CCCC(=CCC2C(C(CC1)C(=CC2)C)(C)C)C,C20H32,272.47,20,0,0.70,0,0,0,92.34,0.00,3.73,5.44,6.45,5.72,5.00,5.27,-4.96,3.01e-03,1.11e-05,Moderately soluble,-5.20,1.73e-03,6.36e-06,Moderately soluble,-4.77,4.65e-03,1.71e-05,Moderately soluble,Low,No,No,No,Yes,Yes,No,No,-4.10,1,1,0,1,2,0.55,0,1,1,5.81
Molecule 130,C=C1CCC=C(C)CCC2=C(CCC(CC1)C2(C)C)C,C20H32,272.47,20,0,0.70,0,0,0,92.34,0.00,3.75,5.38,6.60,5.72,5.67,5.43,-4.92,3.29e-03,1.21e-05,Moderately soluble,-5.13,2.00e-03,7.34e-06,Moderately soluble,-5.46,9.34e-04,3.43e-06,Moderately soluble,Low,No,No,No,Yes,Yes,No,No,-4.14,1,1,0,1,2,0.55,0,1,1,5.52
Molecule 131,C=C1CCC2OC2(CC[C@@H]2C1CC2(C)C)C,C15H24O,220.35,16,0,0.87,0,1,0,68.27,12.53,3.08,3.56,3.94,3.67,4.07,3.66,-3.45,7.84e-02,3.56e-04,Soluble,-3.51,6.83e-02,3.10e-04,Soluble,-3.51,6.81e-02,3.09e-04,Soluble,High,Yes,No,No,Yes,Yes,No,No,-5.12,0,0,0,0,1,0.55,0,2,2,4.35
Molecule 132,CC1=CCC2CCC(=C)C(C2(C)C)CCC(=CCC1)C,C20H32,272.47,20,0,0.70,0,0,0,92.34,0.00,3.76,5.68,6.45,5.72,5.28,5.38,-5.11,2.13e-03,7.80e-06,Moderately soluble,-5.45,9.77e-04,3.59e-06,Moderately soluble,-5.02,2.63e-03,9.64e-06,Moderately soluble,Low,No,No,No,Yes,Yes,No,No,-3.93,1,1,0,1,2,0.55,0,1,1,5.58
Molecule 133,C=C1CCC2OC2(CCC2C1CC2(C)C)C,C15H24O,220.35,16,0,0.87,0,1,0,68.27,12.53,3.15,3.56,3.94,3.67,4.07,3.68,-3.45,7.84e-02,3.56e-04,Soluble,-3.51,6.83e-02,3.10e-04,Soluble,-3.51,6.81e-02,3.09e-04,Soluble,High,Yes,No,No,Yes,Yes,No,No,-5.12,0,0,0,0,1,0.55,0,2,2,4.35
Molecule 134,CC1=CCCC(=C)C2C(CC1)C(C2)(C)C,C15H24,204.35,15,0,0.73,0,0,0,68.78,0.00,3.29,4.38,4.73,4.63,4.19,4.24,-3.87,2.78e-02,1.36e-04,Soluble,-4.10,1.64e-02,8.01e-05,Moderately soluble,-3.77,3.49e-02,1.71e-04,Soluble,Low,No,No,No,Yes,Yes,No,No,-4.44,1,0,0,0,1,0.55,0,1,2,4.51
Molecule 135,CC([C@@H]1CC=C(c2c1cc(C)c(c2)C)C)C,C16H22,214.35,16,6,0.50,1,0,0,73.35,0.00,3.32,4.77,4.85,5.61,4.97,4.70,-4.39,8.82e-03,4.12e-05,Moderately soluble,-4.50,6.76e-03,3.15e-05,Moderately soluble,-5.02,2.06e-03,9.59e-06,Moderately soluble,Low,No,No,No,No,Yes,Yes,No,-4.22,1,0,0,0,1,0.55,0,0,2,3.33
