,Molecule Name,s_m_entry_name,Smiles
400,WA_0004,AfroDb.843,COc(cc(c(-c(cc1)cc2c1OCO2)c(c(CO1)c2OC)C1=O)c2c1O)c1OC
401,BMC_000111,AfroDb.994,CC[C@@H](CC[C@H](C)[C@H](CC1)[C@](C)(C[C@H]23)[C@@H]1C[C@]21C3[C@@](C)(CCCC2)C2=CC1)C(C)C
402,ABD_UD_011,AfroDb.77,CC(C)CC(c(c(O)c(CC=C(C)C)c(O1)c2C(c3ccccc3)=CC1=O)c2O)=O
403,AN_UY_022_1,AfroDb.110,CC(C)=CCc(c(O)c1CC=C(C)C)cc2c1OC[C@@H](c(ccc(O)c1)c1O)C2=O
404,EA_0106,AfroDb.332,CC(C)=CCc1c([C@H](CC2=O)Oc3c2c(O)cc(O)c3)cc(C=C(C)C)c(O)c1O
405,AN_UY_012F,AfroDb.98,CC(C)=CCc(c(OC)c(CC=C(C)C)c(Oc1c2c(O)ccc1O)c1C2=O)c1O
406,NPR_00069,AfroDb.592,CC(C)=CC[C@@H]([C@@H](C(O)=C1)OC)C2=C1Oc1cc(O)c(CC=C(C)C)c(O)c1C2=O
407,NPR_00078,AfroDb.598,CC(C)=CCc(c(O)c(c(Oc(cc1O)c2c(CC=C(C)C)c1OC)c1)C2=O)c1O
408,SA_187,AfroDb.793,CC(N[C@H](CCc(c(C1=CC=C2OC)c3OC)cc(OC)c3OC)C1=CC2=O)=O
409,EA_0002,AfroDb.231,CC(C)[C@@](C)([C@H]([C@@H](C[C@@H](C)C1)[C@@H]1CC1(C)C)OC(/C=C\c2ccccc2)=O)[C@H]1O
410,EA_0105,AfroDb.331,CC(C)=CCc1cc([C@H](CC2=O)Oc3c2c(O)cc(O)c3)cc(C=C(C)C)c1O
411,BMC_00061,AfroDb.196,CC(C)(C=C)c(c(Oc1c2cccc1O)c(c(O)c1CCC=C(C)C)C2=O)c1O
412,EA_0012,AfroDb.241,CC(OC[C@H]1c(cc(/C=C/COC)cc2)c2O[C@H]1c(cc1)cc(OC)c1OC)=O
413,EA_0013,AfroDb.242,CC(OC[C@H]1c(cc(/C=C/COC)cc2)c2O[C@H]1c(cc1)cc(OC)c1OC)=O
414,AN_UY_012C,AfroDb.96,CC(C)=CCC/C(/C)=C/Cc(c(O)c(c(Oc1c2c(O)ccc1O)c1)C2=O)c1O
415,AN_UY_012D,AfroDb.97,CC(C)=CCc(c(O)c(CC=C(C)C)c(Oc1c2c(O)ccc1O)c1C2=O)c1O
416,SA_218,AfroDb.824,CC(C)C(C1=O)=CC2=CC=C([C@@](C)(COC(C=C(C)C)=O)CCC3)[C@@]3(C)C2=C1O
417,17.3.1.20.25,AfroDb.10,CC(C)=CCC/C(/C)=C/COc(cc1Cc2cc(C)cc(O)c22)cc(O)c1C2=O
418,SA_203,AfroDb.809,COC(C([C@H]([C@@H](C[C@@H](C=O)C(OC[C@@H](C1)C=C)=O)O)[C@@H]1OC(C(CO)=C)=O)=C)=O
419,WA_0036,AfroDb.877,CC[C@@H](C)C(O[C@@H](C/C(/C=O)=C\C/C(/COC(C)=O)=C/[C@H]1OCC2=O)[C@@H]1C2=C)=O
420,17.3.1.32.44,AfroDb.28,CC(C)=CCc(cc(/C=C/C(c(cc(CC=C(C)C)c(O)c1)c1O)=O)cc1)c1O
421,EA_0083,AfroDb.309,CC(C)([C@H](CC/C(/C)=C/CC/C=C(\C)/CC/C=C(\C)/CC[C@H](C(C)(C)O)O)O)O
422,WA_0005,AfroDb.844,COc(cc(c(cc1CO2)c3OC)c(-c(cc4)cc5c4OCO5)c1C2=O)c3OC
423,EA_0026,AfroDb.252,CC([C@@H](C1)Oc(cc2)c1c(O[C@@H](CC1)[C@@H]3c(cc4OC)c1cc4OC)c2C3=O)=C
424,SA_0083,AfroDb.691,C[C@H]([C@H](CC(C[C@@]([C@H]1CC[C@@]23C)(C2=O)O[C@H]3c2cocc2)=O)[C@]1(C)C=C1)OC1=O
425,SA_173,AfroDb.779,CC(C)(C=C1)Oc(cc2)c1c(O[C@@H]1[C@@H]3c(cc(c(OC)c4)OC)c4OC1)c2C3=O
426,EA_0137,AfroDb.363,CC(C)(C=C1)Oc(cc2)c1c(O[C@H]1[C@@H]3c(cc(c(OC)c4)OC)c4OC1)c2C3=O
427,AN_UY_026,AfroDb.114,CC(C)(C=C1)Oc2c1cc([C@@H](COc1c3ccc(O)c1CC=C(C)C)[C@H]3O1)c1c2
428,SA_0026,AfroDb.647,COC([C@H](C[C@@]1(CC2)[C@@H]([C@]34CC5)N5CCC1)[C@@]24N(C(OC)=O)c1c3cccc1)=O
429,17.3.1.3.1,AfroDb.25,C/C=C(\CN(CC[C@]12Cc(cc(cc3)O)c3N3C)[C@@H](C4)[C@@]13OC1)/[C@H]4[C@@]12C(OC)=O
430,EA_0112,AfroDb.338,CC(C)(CC1)Oc(cc2)c1c(O[C@H](COc1c3cc4OCOc4c1)[C@]31O)c2C1=O
431,17.3.4.70,AfroDb.59,C[C@H]1[C@@H](C)[C@@H]2C3=CC[C@H]([C@@](C)(CC4)[C@H](CC5)C[C@@H]4O)[C@]5(C)[C@@]3(C)CC[C@@]2(C2)[C@H]2C1
432,BMC_00020,AfroDb.155,C[C@@]1(O)OC[C@@H](C2)[C@@H]1[C@@H]([C@@H](C[C@](C)([C@H](c1cocc1)O1)[C@@]34O[C@H]4C1=O)O)[C@H]3C2=O
433,NPR-000128,AfroDb.528,CC(C[C@@H](c1c2OC)N(C)c(c(c(cc3)c4)cc(O)c4O)c3-c1ccc2OC)=O
434,WA_0051,AfroDb.895,C[C@H](C1)N[C@H](C)c2c1ccc(-c(c1cccc(O)c1c(OC)c1)c1OC)c2OC
435,NPR_00015,AfroDb.544,C[C@@H](C1)N(C)[C@H](C)c(c(O)c2)c1c(-c(c1cccc(O)c11)c(C)cc1OC)c2O
436,EA_0055,AfroDb.281,C[C@@H](C1)N=Cc(c(OC)c2-c(c(C)cc3cc(C)cc(OC)c33)c3O)c1cc2O
437,NPR_0002,AfroDb.549,C[C@H](C1)N=C(C)c(c(OC)c2-c(c3cc(C)cc(OC)c33)ccc3O)c1cc2O
438,NPR_00010,AfroDb.510,C[C@H](C1)N[C@H](C)c(c(O)c2)c1c(-c(c(C)c1)c(cc(C)cc3OC)c3c1O)c2O
439,NPR_00021,AfroDb.551,C[C@@H](Cc1c(-c(c2cc(C)cc(O)c22)ccc2OC)c(O)c2)N=C(C)c1c2OC
440,SA_0010,AfroDb.629,C[C@H]([C@H]([C@H](C1)O)O)O[C@H]1c(c(O)c(c(OC(c1ccccc1)=C1)c2)C1=O)c2OC
441,WA_0053,AfroDb.899,CC(OC=C(c(c(O)cc(OC(c1ccccc1)=C1)c2C1=O)c2O)C1=O)=C1OC
442,WA_0054,AfroDb.902,CC(OC=C(c(c(OC)cc(OC(c1ccccc1)=C1)c2C1=O)c2O)C1=O)=C1O
443,WA_0055-,AfroDb.903,CC(OC=C(c(c(OC)cc(OC(c1ccccc1)=C1)c2C1=O)c2O)C1=O)=C1O
444,WA_0059,AfroDb.911,CC(C)(C=C1)Oc(cc2OC=C3c(cc(c(O)c4)OC)c4OC)c1c(O)c2C3=O
445,BMC_000106,AfroDb.140,CC[C@@H](C)C/C=C/[C@H](C)[C@H](CC1)[C@](C)(CC2)[C@@H]1[C@@H]1[C@H]2[C@](C)(CC[C@H](C2)O)C2=CC1
446,WA_0058,AfroDb.910,C/C=C(\C1=O)/OC=C1c(c(OC)c(c(OC(c1ccccc1)=C1)c2)C1=O)c2OC
447,EA_0113,AfroDb.339,CC(C)(CC1)Oc(cc2)c1c(OC[C@@H]1c(cc(c(OC)c3)OC)c3OC)c2C1=O
448,AN_UY_049,AfroDb.131,CC(C)(C=C1)Oc(cc2Oc(c(CC=C(C)C)c3O)c4cc3O)c1c(O)c2C4=O
449,AN_UY_048,AfroDb.130,CC/C(/C)=C/Cc(c1c(cc2OC)Oc3cc(occ4)c4c(O)c3C1=O)c2OC
450,SA_161,AfroDb.767,CC1(C)Oc2c(CC=C(C)C)c(O[C@@H](CC3=O)c4ccccc4)c3c(O)c2C=C1
451,EA_0165,AfroDb.391,CC(C)(CC1)Oc2c1cc([C@H](C1)Oc(cc(cc3)O)c3C1=O)cc2CC=C(C)C
452,AN_UY_024,AfroDb.112,CC(C)=CCc(c(O[C@H]1c(ccc(O)c2CC=C(C)C)c2OC[C@H]11)c1cc1)c1O
453,AN_UY_025,AfroDb.113,CC(C)=CCc(c(O)c1)cc2c1O[C@H]1c(ccc(O)c3CC=C(C)C)c3OC[C@H]12
454,WA_0097,AfroDb.948,COc1cc(-c(c(OCO)c2OCO)c([C@H](C3)NCC4)c4c2OC)c3cc1O
455,SA_0054,AfroDb.665,CN(c1c2cccc1)c(c(C1)c(cc3O)O[C@@H]1[C@@](CO)(C(OC)=O)O)c3C2=O
456,WA_0051,AfroDb.896,C[C@H](C1)N[C@H](C)c2c1ccc(-c(c1cccc(O)c11)c(C)cc1OC)c2OC
457,17.3.1.17.17,AfroDb.4,C[C@H](C1)N[C@H](C)c2c1ccc(-c(c1cccc(OC)c11)c(C)cc1OC)c2O
458,WA_0048,AfroDb.890,C[C@H](C1)N[C@H](C)c2c1ccc(-c(c1cccc(OC)c11)c(C)cc1OC)c2O
459,WA-0096,AfroDb.947,CN(CC1)[C@@H](Cc(cc(c(OC)c2)OC)c2-c2c3OCO)c2c1cc3OCO
460,ABD_UD_008,AfroDb.75,CN(C=O)c(c(c(cc1)c2)cc3c2OCO3)c1-c(cc(c(O)c1)OC)c1OC
461,NPR_0009,AfroDb.607,C[C@H](C1)N[C@H](C)c(c(O)c2)c1c(-c(c(C)c1)c(cccc3OC)c3c1O)c2O
462,SA_0006-1,AfroDb.621,C[C@H](Cc(cc1)c2cc1-c(cc1)c(cc(CO)cc3OC)c3c1O)N[C@@]2(C)O
463,17.3.1.17.16,AfroDb.3,C[C@H](C1)N[C@H](C)c2c1ccc(-c(c1cccc(O)c11)c(CO)cc1OC)c2O
464,WA_0052,AfroDb.897,C[C@H](C1)N[C@H](C)c2c1ccc(-c(c1cccc(O)c1c(OC)c1)c1OC)c2O
465,WA_0047,AfroDb.888,C[C@H](C1)N[C@H](C)c2c1ccc(-c(c1cccc(OC)c1c(OC)c1)c1O)c2O
466,EA_0066,AfroDb.292,CC(C)=CCc(cc1)cc2c1c([C@@H](C=C(C)C)c1cc([nH]cc3)c3cc1)c[nH]2
467,WA_0054,AfroDb.901,CC(OC=C(c(c(O)cc(OC(c1ccccc1)=C1)c2C1=O)c2O)C1=O)=C1O
468,EA_0160,AfroDb.386,CC(C)=CCc1cc(OC[C@H]2c(ccc(O)c3CC=C(C)C)c3O[C@H]22)c2cc1
469,EA_0164,AfroDb.390,CC(C)=CC[C@@H](C1)[C@H](O)Oc2c1cc([C@H](C1)Oc(cc(cc3)O)c3C1=O)cc2
470,AN_UY_013_1,AfroDb.99,CC(C)(C=C)c(c(Oc1c2cccc1O)c1C2=O)c2OC(C)(C)C=Cc2c1O
471,EA_0088,AfroDb.314,C=C(CO)[C@H](O)O[C@@H](C[C@]1([C@H](O)OC/C(/CC2)=C\[C@H]3OC4=O)O[C@]12O)[C@@H]3C4=C
472,WA_0058-,AfroDb.909,COc(cc1OC(c2ccccc2)=C2)c(C(C3=O)=COC3=C)c(OC)c1C2=O
473,WA_0057,AfroDb.908,C/C=C(\C1=O)/OC=C1c(c(O)c(c(OC(c1ccccc1)=C1)c2)C1=O)c2OC
474,BMC_00094,AfroDb.226,CC(C)(CCOc1c(cco2)c2cc(O2)c1C=CC2=O)C(O1)=CC(C)(C)C1=O
475,AN_UY_014,AfroDb.100,CC(C)(C=C1)Oc(cc2OC=C3c(ccc(OC)c4)c4O)c1c(OC)c2C3=O
476,AN_UY_029_1,AfroDb.117,CC(C)(C=C1)Oc(cc2OC=C3c(ccc(OC)c4)c4O)c1c(OC)c2C3=O
477,EA_0087,AfroDb.313,C[C@@H](C(CO)=C)O[C@@H](C[C@]1([C@H](O)OC/C(/CC2)=C\[C@H]3OC4=O)O[C@]12O)[C@@H]3C4=C
478,NPR_00080,AfroDb.601,CC(C)CNC(/C=C/C=C/CCCCCC/C=C/c(cc1)cc2c1OCO2)=O
479,WA_0064,AfroDb.916,CC(C)(C=C1)Oc2c1c(OC)c(/C(/OC)=C/C(c1ccccc1)=O)c(OC)c2
480,17.3.1.20.29,AfroDb.14,C[C@](Cc1cc2cc(OCC=C(C)C)cc(O)c2c(O)c11)(CC1=O)OC(C)=O
481,NPR_00071,AfroDb.1005,C[C@](Cc1cc2cc(OCC=C(C)C)cc(O)c2c(O)c11)(CC1=O)OC(C)=O
482,SA_215,AfroDb.821,CC(C)C(C(C([C@@H]([C@H]([C@H]1[C@]2(C)CCCC1(C)C)O)OC(C)=O)=C2C1=O)=O)=C1O
483,EA_0104,AfroDb.330,CC(C)=CCc1cc([C@H](C2)Oc(cc(cc3)O)c3C2=O)cc(C=C(C)C)c1O
484,BMC_00078,AfroDb.210,C[C@@H](/C=C(/c1cc([C@@H](CC2=O)OC(C3)=C2C(O)=C[C@@H]3O)cc(O)c1O)\O)C=O
485,EA_0200,AfroDb.426,CC[C@@H]([C@@]([C@H]([C@@H]([C@H]([C@@H]1OC(CCO)=O)C2=C)OC2=O)C2=C)([C@H]1O)C=C)OC2=O
486,SA_195,AfroDb.801,Cc(c(OC)c(C)c(OC(Oc(cc1)cc(OC)c1O)=C1OC)c2C1=O)c2O
487,SA_206,AfroDb.812,C[C@@H]([C@H]([C@@H](C[C@@H](C=O)C(OC[C@@H](C1)C=C)=O)O)[C@@H]1OC(C(CO)=C)=O)C(O)=O
488,SA_207,AfroDb.813,C[C@@H]([C@H]([C@@H](C[C@@H](C=O)C(OC[C@@H](C1)C=C)=O)O)[C@@H]1OC(C(CO)=C)=O)C(O)=O
489,NA_0035,AfroDb.474,CCCC[C@H](CC)COC(c(cccc1)c1C(OC[C@@H](CC)CCCC)=O)=O
490,WA_0001-1,AfroDb.839,C[C@H]([C@@]([C@H](C[C@H]12)N(CC3)C/C1=C/C)([C@@]31C3)OC[C@]12C(C)=O)c(cc1)c3cc1O
491,WA_0050,AfroDb.893,C[C@H](C1)N[C@H](C)c2c1ccc(-c(c1cccc(O)c11)c3cc1OC)c2OC3=O
492,WA_0050,AfroDb.894,C[C@H](C1)N[C@H](C)c2c1ccc(-c(cc1)c(c3ccc4OC)c4c1O)c2OC3=O
493,WA_0003,AfroDb.842,COc(cc(c(c(O)c1CO2)c3)c(-c(cc4)cc5c4OCO5)c1C2=O)c3OC
494,EA_0032,AfroDb.258,CC(C)(C=C1)Oc2c1c(OC[C@H](c(cc1OCOc1c1)c1O)C1=O)c1c(O)c2
495,EA_0033,AfroDb.259,CC(C)(C=C1CC(O)=C23)OCC1=C2OC[C@H](c(cc1OCOc1c1)c1O)C3=O
496,EA_0095,AfroDb.321,CC(C)C/C=C/C[C@@H](CC1)[C@]2(C)[C@@H]1[C@]1(CC3)OO[C@]3(C[C@H](CC3)O)[C@H]3[C@H]1CC2
497,SA_0076,AfroDb.684,C[C@@H](C[C@@]1(C[C@@]23CC=C)OCOC1=CC2=O)[C@@H]3c1cc(OC)c2OCOc2c1
498,EA_0157,AfroDb.383,CC(C)=CC[C@H](Cc(c(C1)c2)cc3c2OC[C@@H]2c(ccc(O)c4)c4O[C@@H]23)[C@H]1O
499,WA_0001,AfroDb.840,COc1cc(C[C@@H](CO2)[C@@H]([C@@H]3c(cc4)cc5c4OCO5)C2=O)c3cc1OC
