SMILES	MOL_WEIGHT	LOGP	#ROTATABLE_BONDS	#ACCEPTORS	#DONORS	SURFACE_AREA	Water solubility	Caco2 permeability	Intestinal absorption (human)	Skin Permeability	P-glycoprotein substrate	P-glycoprotein I inhibitor	P-glycoprotein II inhibitor	VDss (human)	Fraction unbound (human)	BBB permeability	CNS permeability	CYP2D6 substrate	CYP3A4 substrate	CYP1A2 inhibitior	CYP2C19 inhibitior	CYP2C9 inhibitior	CYP2D6 inhibitior	CYP3A4 inhibitior	Total Clearance	Renal OCT2 substrate	AMES toxicity	Max. tolerated dose (human)	hERG I inhibitor	hERG II inhibitor	Oral Rat Acute Toxicity (LD50)	Oral Rat Chronic Toxicity (LOAEL)	Hepatotoxicity	Skin Sensitisation	<i>T.Pyriformis</i> toxicity	Minnow toxicity
O(C)c1c(OC)ccc([C@@H]2[C@@H](C)[C@H](C)Cc3c2cc(OC)c(OC)c3)c1	356.462	4.6812	5	4	0	155.586	-5.902	1.347	100	-2.606	No	Yes	Yes	0.298	0	-0.172	-1.547	No	Yes	Yes	Yes	Yes	No	Yes	0.206	No	No	0.663	No	No	2.81	2.159	No	No	0.789	-1.264
O(C)c1c(OC)ccc([C@@H]2[C@@H](C)[C@H](C)Cc3c2cc2OCOc2c3)c1	340.419	4.3927	3	4	0	148.215	-5.189	1.109	100	-2.649	No	Yes	No	0.189	0	-0.063	-1.557	No	Yes	Yes	Yes	Yes	No	No	0.047	No	No	0.248	No	No	3.074	2.039	No	No	0.556	-1.196
O(C)c1c(OC)ccc([C@@H]2[C@@H](C)[C@]3(CC=C)C(=O)[C@H]2C(=O)C(OC)=C3)c1	356.418	3.2979	6	5	0	153.178	-4.934	1.416	100	-2.964	No	Yes	No	0.113	0.062	-0.242	-2.393	No	Yes	No	No	No	No	No	0.126	No	No	0.73	No	No	2.078	2.438	No	No	0.849	-0.257
O(C)c1c(OC)ccc([C@@H]2[C@@H](C)[C@]3(CC=C)[C@@H](O)[C@H]2C(=O)C(OC)=C3)c1	358.434	3.0897	6	5	1	153.811	-4.766	1.313	98.043	-3.358	Yes	Yes	No	0.189	0.096	-0.269	-2.473	No	Yes	No	No	No	No	Yes	0.247	No	No	0.287	No	Yes	2.364	2.076	No	No	0.915	-0.072
O(C)c1c(OC)ccc([C@@H]2[C@H](C)[C@@]3(CC=C)C(O2)=CC(=O)C(OC)=C3)c1	356.418	3.9706	6	5	0	153.441	-5.102	1.327	97.682	-3.031	No	Yes	No	0.209	0.098	0.184	-2.25	No	Yes	No	Yes	Yes	No	No	0.255	No	No	0.718	No	No	2.147	1.863	No	No	0.852	-0.101
O(C)c1c(OC)ccc([C@H](O)[C@H]([C@H](Cc2cc(OC)c(OC)cc2)C)C)c1	374.477	4.2693	9	5	1	161.386	-4.466	1.499	98.178	-2.834	Yes	Yes	Yes	0.21	0.053	-0.623	-2.405	No	No	No	Yes	Yes	No	Yes	0.283	No	No	0.625	No	Yes	2.673	1.855	No	No	0.577	-1.299
O(C)c1c(OC)ccc([C@H]2OC[C@@H]3[C@@H](c4cc(OC)c(O)cc4)OC[C@H]23)c1	372.417	3.4932	5	6	1	158.123	-4.587	1.198	98.045	-2.866	No	Yes	Yes	0.052	0.098	-0.434	-2.874	No	No	No	Yes	No	No	Yes	0.156	No	No	0.67	No	Yes	2.486	1.769	No	No	0.405	-1.13
O(C)c1c(OC)ccc([C@H]2Oc3c(C(=O)C2)ccc2OC(C)(C)C=Cc32)c1	366.413	4.5945	3	5	0	158.052	-4.711	1.651	99.158	-2.753	No	Yes	Yes	0.166	0.111	-0.366	-1.848	No	Yes	Yes	Yes	Yes	No	Yes	0.008	No	No	0.489	No	Yes	3.048	1.853	No	No	0.422	-0.769
O(C)c1c(OC)ccc([C@H]2Oc3c(c(O)cc(OC)c3)C(=O)C2)c1	330.336	3.1245	4	6	1	139.082	-4.161	1.027	96.597	-2.85	No	No	No	0.136	0.195	-0.598	-2.951	No	No	Yes	Yes	Yes	No	No	0.209	No	Yes	0.718	No	No	2.751	1.76	No	No	0.42	-0.4
O(C)c1c(OC)ccc2C(=O)c3c(N(C)c12)occ3	259.261	2.3019	2	5	0	108.502	-3.246	1.286	100	-2.494	No	No	No	0.14	0.332	-0.028	-2.855	No	No	Yes	Yes	No	No	No	0.672	No	No	-0.07	No	No	2.426	1.178	No	No	0.507	0.919
O(C)c1c(OC)ccc2[C@@H]3Oc4c(C(=O)[C@@H]3OCc12)ccc(OC)c4	342.347	2.9276	3	6	0	144.761	-4.29	1.568	100	-2.754	No	Yes	No	-0.201	0.08	-0.501	-2.986	No	Yes	Yes	Yes	No	No	No	0.254	No	Yes	0.79	No	No	2.89	1.767	No	No	0.332	-0.558
O(C)c1c(OC)ccc2c(OC)c3c(occ3)nc12	259.261	3.0068	3	5	0	109.244	-3.361	1.318	99.273	-2.516	No	No	No	-0.07	0.296	-0.023	-2.863	No	No	Yes	Yes	No	No	No	0.747	No	No	0.281	No	No	2.48	1.112	No	No	0.559	1.117
O(C)c1c(OC)ccc2c1N(C)C(=O)C1=C2OC(C)(C)C=C1	301.342	2.7399	2	5	0	128.269	-4.181	1.299	99.414	-2.781	No	No	No	0.125	0.269	0.002	-2.788	No	Yes	Yes	Yes	No	No	No	0.546	No	No	0.225	No	No	2.324	1.523	No	No	0.873	1.005
O(C)c1c(O[C@H]2[C@H](O)[C@@H](O)[C@H](O)[C@@H](CO)O2)c(OC)cc(/C=C/CO)c1	372.37	-1.112	7	9	5	150.176	-3.004	-0.219	51.895	-2.748	Yes	No	No	-0.482	0.372	-1.611	-4.704	No	No	No	No	No	No	No	0.332	No	No	0.72	No	No	3.204	3.879	Yes	No	0.285	5.246
O(C)c1c([C@@H](Cc2cc3OCOc3cc2)C)cc(CC=C)c(O)c1	326.392	4.2042	6	4	1	141.847	-5.399	1.307	95.603	-2.825	Yes	Yes	No	0.424	0.038	-0.093	-1.741	No	Yes	Yes	Yes	Yes	No	Yes	0.201	No	No	0.433	No	Yes	2.42	1.653	No	No	0.971	-1.671
O(C)c1c([C@@H](O)CN)cc(OC)cc1	197.234	0.6959	4	4	2	83.252	-1.158	0.44	75.714	-2.857	Yes	No	No	0.137	0.689	-0.218	-3.297	No	No	No	No	No	No	No	0.79	No	No	0.827	No	No	2.279	2.857	No	No	0.2	1.813
O(C)c1c([C@H](O)[C@@H](O)C(=C)C)c2OC(=O)C=Cc2cc1	276.288	1.772	4	5	2	115.281	-2.362	1.222	95.312	-3.338	Yes	No	No	-0.476	0.217	-0.313	-3.326	No	No	No	No	No	No	No	0.861	No	No	0.965	No	No	2.424	0.994	No	No	0.616	1.406
O(C)c1c([C@H](O)[C@H](O)C(=C)C)c2OC(=O)C=Cc2cc1	276.288	1.772	4	5	2	115.281	-2.362	1.222	95.312	-3.338	Yes	No	No	-0.476	0.217	-0.313	-3.326	No	No	No	No	No	No	No	0.861	No	No	0.965	No	No	2.424	0.994	No	No	0.616	1.406
O(C)c1c([C@H]2COc3c(ccc(O)c3)C2)ccc(OC)c1	286.327	3.1281	3	4	1	123.442	-4.132	1.277	97.255	-2.909	No	No	No	0.265	0.086	-0.313	-1.652	No	No	Yes	Yes	Yes	No	Yes	0.382	No	Yes	0.443	No	Yes	2.399	1.4	No	No	1.324	0.826
O(C)c1c([C@H]2[C@H](C(C)C)O2)c2OC(=O)C=Cc2cc1	260.289	2.8975	3	4	0	110.490	-3.348	1.301	97.585	-2.932	No	No	No	0.165	0.196	-0.166	-2.213	No	Yes	Yes	Yes	No	No	No	0.848	No	Yes	0.238	No	No	1.689	2.052	No	No	1.364	0.611
O(C)c1c2-c3c4OCOc4cc4c3[C@H](N(C)CC4)Cc2ccc1	309.365	3.176	1	4	0	135.126	-2.855	1.259	94.431	-2.867	Yes	Yes	Yes	1.129	0.268	0.625	-1.623	No	Yes	Yes	No	No	Yes	No	0.949	Yes	Yes	-0.144	No	Yes	3.599	1.147	Yes	No	0.302	0.35
O(C)c1c2-c3c4c(cc5OCOc35)ccnc4C(=O)c2ccc1	305.289	3.1835	1	5	0	130.975	-3.589	1.27	100	-2.693	No	No	Yes	0.273	0.293	-0.105	-2.131	No	Yes	Yes	Yes	Yes	No	No	0.183	No	Yes	-0.324	No	No	2.951	1.107	Yes	No	0.329	0.205
O(C)c1c2C(=O)C(OC)=C(c3ccccc3)Oc2cc(OC)c1	312.321	3.4858	4	5	0	132.572	-4.201	1.365	98.807	-2.698	No	Yes	Yes	-0.075	0.126	-0.05	-2.175	No	Yes	Yes	Yes	Yes	No	Yes	0.544	Yes	No	0.485	No	No	2.538	1.276	No	No	0.472	0.649
O(C)c1c2C(=O)C=C(C)Oc2ccc1	190.198	2.11002	1	3	0	80.923	-2.055	1.232	97.19	-2.18	Yes	No	No	-0.057	0.35	0.288	-2.268	No	No	Yes	No	No	No	No	0.367	No	Yes	0.568	No	No	1.833	2.432	No	No	0.573	1.301
O(C)c1c2C(=O)C=C(c3cc4OCOc4cc3)Oc2cc(OC)c1	326.304	3.2059	3	6	0	136.680	-3.888	1.321	99.225	-2.722	No	Yes	Yes	-0.014	0.179	-0.393	-2.245	No	Yes	Yes	Yes	No	No	No	0.683	Yes	No	0.237	No	No	2.681	1.076	No	No	0.375	-0.138
O(C)c1c2C(=O)C[C@@H](C)Oc2ccc1	192.214	2.0489	1	3	0	82.639	-2.123	1.466	96.924	-2.561	No	No	No	-0.051	0.376	0.406	-2.282	No	No	Yes	No	No	No	No	0.196	No	No	0.986	No	No	2	2.415	No	No	0.676	1.674
O(C)c1c2C(=O)C[C@@H](c3ccccc3)Oc2cc(OC)c1	284.311	3.4103	3	4	0	122.810	-4.246	1.373	97.777	-2.43	No	No	No	0.03	0.047	-0.291	-1.577	No	Yes	Yes	Yes	No	No	No	0.219	Yes	Yes	0.403	No	No	2.472	2.071	No	No	1.21	0.696
O(C)c1c2C(=O)O[C@@H](C)Cc2ccc1	192.214	1.7966	1	3	0	82.639	-1.889	1.595	97.5	-2.503	No	No	No	-0.031	0.373	0.404	-2.282	No	No	Yes	No	No	No	No	0.703	No	No	1.017	No	No	1.966	2.382	No	No	0.699	1.453
O(C)c1c2C(=O)[C@@]3([C@H](C)CC(=O)C=C3OC)Oc2cc(OC)c1	318.325	2.1569	3	6	0	133.522	-3.699	1.407	98.771	-3.146	No	No	No	-0.128	0.287	-0.612	-2.914	No	Yes	No	No	No	No	No	0.327	No	Yes	0.643	No	No	2.692	1.293	No	No	0.497	1.163
O(C)c1c2C(=O)[C@H](O)[C@@H](c3ccccc3)Oc2cc(OC)c1	300.31	2.3811	3	5	1	127.604	-3.919	1.391	96.841	-3.041	No	No	No	-0.297	0.046	-0.302	-2.356	No	Yes	No	Yes	No	No	No	0.237	No	Yes	0.353	No	No	2.182	1.668	No	No	0.686	1.031
O(C)c1c2C(=O)[C@H]3OCc4c(O)c(O)ccc4[C@H]3Oc2cc(O)c1	330.292	2.0272	1	7	3	136.186	-3.89	1.147	81.706	-2.735	Yes	No	No	0.185	0.064	-1.184	-3.363	No	No	Yes	No	No	No	Yes	0.21	No	Yes	0.577	No	No	2.22	2.524	No	No	0.289	1.416
O(C)c1c2C(=O)[C@H]3OCc4c([C@H]3Oc2cc(O)c1)cc(O)c(O)c4	330.292	2.0272	1	7	3	136.186	-4.108	0.922	81.889	-2.735	Yes	No	No	0.113	0.079	-1.105	-3.357	No	No	Yes	No	No	No	Yes	0.393	No	Yes	0.537	No	No	2.306	2.682	No	No	0.287	1.775
O(C)c1c2C(=O)c3c(N(C)c2c2c(OC(C)(C)C=C2)c1)cccc3	321.376	3.8845	1	4	0	139.472	-4.512	0.945	100	-2.598	No	No	Yes	0.42	0.213	-0.015	-1.593	No	Yes	Yes	Yes	Yes	No	No	0.436	No	Yes	-0.095	No	No	2.181	1.743	Yes	No	0.587	0.033
O(C)c1c2C(=O)c3c(Oc2c2c(OC(C)(C)C=C2)c1)cc(O)c(O)c3	340.331	3.5502	1	6	2	142.071	-3.465	1.118	96.148	-2.759	Yes	No	Yes	0.198	0.107	-0.465	-2.097	No	No	Yes	Yes	Yes	No	No	0.499	No	Yes	0.63	No	Yes	1.994	1.983	Yes	No	0.396	0.404
O(C)c1c2N(C)C(=O)C(C[C@@H](O)C(=C)C)=C(OC)c2ccc1	303.358	2.0352	5	5	1	128.955	-3.567	1.233	97.884	-3.285	No	No	No	-0.036	0.294	0.31	-2.862	No	No	Yes	Yes	No	No	No	0.568	No	Yes	0.806	No	No	2.429	1.737	No	No	1.046	1.072
O(C)c1c2N(C)C(=O)C=C(OC)c2ccc1	219.24	1.5557	2	4	0	93.026	-2.491	1.269	99.249	-2.428	No	No	No	-0.053	0.375	-0.019	-2.447	No	No	Yes	No	No	No	No	0.493	No	No	0.753	No	No	1.898	2.391	No	No	0.765	1.471
O(C)c1c2N(C)C=3O[C@@H](C(=C)C)CC=3C(=O)c2ccc1	271.316	2.4267	2	4	0	116.790	-3.605	0.994	99.748	-2.648	No	No	No	0.278	0.269	0.306	-2.486	No	Yes	Yes	Yes	No	No	No	0.428	No	No	0.363	No	No	2.098	1.701	Yes	No	1.06	0.416
O(C)c1c2N(C)c3c(O)cccc3C(=O)c2c(O)c2c1OC(C)(C)C=C2	353.374	3.2957	1	6	2	149.061	-3.66	0.959	96.253	-2.777	Yes	No	No	0.337	0.212	-0.201	-2.015	No	No	Yes	Yes	Yes	No	No	0.163	No	Yes	0.442	No	Yes	2.111	1.452	Yes	No	0.414	0.562
O(C)c1c2N(C)c3c(O)cccc3C(=O)c2c(O)c2c1O[C@H](C(O)(C)C)C2	371.389	2.1859	2	7	3	154.544	-3.586	0.697	82.958	-2.744	Yes	No	No	0.386	0.208	-1.004	-3.095	No	No	Yes	No	No	No	No	0.291	No	Yes	0.715	No	Yes	2.032	1.712	Yes	No	0.336	1.432
O(C)c1c2N(C)c3c(O)cccc3C(=O)c2cc2c1OC(C)(C)C=C2	337.375	3.5901	1	5	1	144.266	-4.094	1.274	97.838	-2.898	No	Yes	Yes	0.396	0.224	-0.22	-1.857	No	Yes	Yes	Yes	Yes	No	No	0.237	No	Yes	-0.068	No	Yes	2.284	2.589	Yes	No	0.569	0.329
O(C)c1c2NC(=O)C(C[C@H](O)C(=C)C)=C(OC)c2ccc1	289.331	2.0248	5	4	2	122.381	-2.74	1.189	95.854	-3.32	Yes	No	No	0.025	0.288	-0.133	-2.893	No	No	Yes	No	No	No	No	0.481	No	Yes	0.538	No	No	2.312	0.86	No	No	0.719	1.048
O(C)c1c2NC(=O)C3=C(OC(C)(C)C=C3)c2ccc1	257.289	2.7209	1	3	1	110.216	-3.177	1.285	95.369	-3.078	Yes	No	No	0.241	0.268	0.259	-2.79	No	No	Yes	No	No	No	No	0.222	No	Yes	0.178	No	No	2.489	1.944	No	No	0.972	0.542
O(C)c1c2NC(=O)C=3[C@H](O)[C@@H](O)C(C)(C)OC=3c2ccc1	291.303	1.102	1	5	3	120.494	-2.704	-0.124	73.724	-2.886	No	No	No	-0.223	0.263	-0.904	-3.367	No	No	No	No	No	No	No	0.215	No	No	0.395	No	No	2.063	2.613	No	No	0.359	1.154
O(C)c1c2OC(=O)C=Cc2cc2c1OC(C)(C)C=C2	258.273	2.9858	1	4	0	109.801	-3.232	1.353	96.56	-2.48	No	No	No	0.041	0.242	0.109	-2.637	No	Yes	Yes	Yes	No	No	No	0.803	No	Yes	-0.024	No	No	2.105	1.758	No	No	1.136	0.969
O(C)c1c2OC(=O)C=Cc2cc2c1O[C@H](C(O)(C)C)C2	276.288	1.876	2	5	1	115.285	-2.787	1.051	95.779	-3.019	No	No	No	-0.091	0.314	-0.356	-2.88	No	No	Yes	No	No	No	No	0.623	No	Yes	0.107	No	No	2.143	1.425	No	No	0.79	1.643
O(C)c1c2OC(C)(C)C=Cc2c2O[C@H](c3ccccc3)CC(=O)c2c1	336.387	4.5859	2	4	0	146.574	-5.187	1.41	97.197	-2.683	No	Yes	No	0.248	0.076	0.307	-1.586	No	Yes	Yes	Yes	Yes	No	No	-0.028	No	No	0.402	No	No	2.588	1.835	No	No	0.727	-0.325
O(C)c1c2OCOc2cc([C@@H]2[C@@H](C)C=3C(O2)=CC(=O)[C@@](OC)(CC=C)C=3)c1	370.401	3.4856	5	6	0	157.548	-4.072	1.361	98.408	-2.874	No	Yes	No	-0.036	0.143	0.161	-2.871	No	Yes	No	No	No	No	Yes	0.435	No	No	0.59	No	No	2.322	2.367	No	No	0.356	0.106
O(C)c1c2OCOc2cc([C@@H]2[C@H](C)[C@@]3(CC=C)C(O2)=CC(=O)C(OC)=C3)c1	370.401	3.6907	5	6	0	157.548	-4.554	1.32	97.106	-2.95	No	Yes	Yes	0.046	0.103	0.138	-2.833	No	Yes	No	No	No	No	Yes	0.187	No	No	0.509	No	No	2.392	2.15	No	No	0.446	0.003
O(C)c1c2OCOc2cc([C@H]2[C@@H](C)C=3C(O2)=CC(=O)[C@@](OC)(CC=C)C=3)c1	370.401	3.4856	5	6	0	157.548	-4.072	1.361	98.408	-2.874	No	Yes	No	-0.036	0.143	0.161	-2.871	No	Yes	No	No	No	No	Yes	0.435	No	No	0.59	No	No	2.322	2.367	No	No	0.356	0.106
O(C)c1c2OCOc2cc([C@H]2[C@@H](C)[C@]3(CC=C)C(O2)=CC(=O)C(OC)=C3)c1	370.401	3.6907	5	6	0	157.548	-4.554	1.32	97.106	-2.95	No	Yes	Yes	0.046	0.103	0.138	-2.833	No	Yes	No	No	No	No	Yes	0.187	No	No	0.509	No	No	2.392	2.15	No	No	0.446	0.003
O(C)c1c2OCOc2cc([C@H]2[C@@H](C)[C@]3(CC=C)[C@](O)(C(=O)C=CC3)O2)c1	358.39	2.9114	4	6	1	151.554	-4.303	1.31	96.229	-3.27	No	Yes	No	0.123	0.16	-0.579	-2.952	No	Yes	Yes	No	No	No	No	-0.008	No	No	0.185	No	No	2.532	2.078	No	No	0.489	0.445
O(C)c1c2OCOc2cc([C@H]2[C@H](C)[C@H]3[C@H](O)C(=O)C[C@]2(CC=C)[C@@H]3O)c1	360.406	2.0305	4	6	2	151.924	-3.565	1.2	97.527	-3.161	Yes	Yes	No	-0.334	0.106	-0.445	-3.038	No	Yes	No	No	No	No	No	0.144	No	No	-0.378	No	No	2.644	2.124	No	No	0.36	0.84
O(C)c1c2O[C@H](C)[C@@H](c3cc4OCOc4cc3)Oc2cc(CC=C)c1	340.375	4.0534	4	5	0	146.274	-4.996	1.399	97.339	-2.715	No	Yes	No	-0.099	0.025	-0.111	-1.649	No	Yes	Yes	Yes	Yes	No	Yes	0.102	No	Yes	0.422	No	No	2.659	1.472	No	No	0.496	-0.985
O(C)c1c2O[C@H]([C@H](C)c2cc(/C=C/C)c1)c1cc2OCOc2cc1	324.376	4.6942	3	4	0	141.161	-4.988	0.826	97.297	-2.679	No	Yes	No	0.076	0.019	-0.123	-1.55	No	Yes	Yes	Yes	Yes	No	Yes	0.144	No	No	0.438	No	No	3.016	2.242	No	No	0.586	-0.207
O(C)c1c2Oc3c(C(=O)c2cc2OCOc12)cccc3	270.24	2.6835	1	5	0	112.826	-3.796	1.276	100	-2.652	No	No	Yes	0.057	0.232	0.147	-2.096	No	Yes	Yes	Yes	Yes	No	No	0.082	No	Yes	0.04	No	No	2.151	1.035	No	No	0.507	-0.523
O(C)c1c2c(OC(=O)C=C2)cc(OC)c1	206.197	1.8102	2	4	0	86.036	-2.127	1.289	98.519	-2.518	No	No	No	-0.196	0.351	0.032	-2.395	No	No	Yes	No	No	No	No	0.838	No	Yes	0.623	No	No	2.009	2.533	No	No	0.567	1.303
O(C)c1c2c(OC(=O)C=C2)cc2OC(C)(C)C=Cc12	258.273	2.9858	1	4	0	109.801	-3.491	1.343	97.906	-2.565	No	No	No	0.121	0.268	0.106	-2.638	No	No	Yes	Yes	No	No	No	0.671	No	Yes	0.061	No	No	2.197	1.78	No	No	1.058	0.75
O(C)c1c2c(O[C@H](c3cc(O)c(O)cc3)CC2)cc(OC)c1	302.326	3.1813	3	5	2	128.236	-3.316	1.039	95.583	-2.905	Yes	No	No	0.202	0.131	-0.202	-2.292	No	No	Yes	No	No	No	No	0.283	No	No	0.598	No	Yes	2.408	1.685	No	No	0.632	0.518
O(C)c1c2c(c(CC=C(C)C)c(OC)cc2)nc2occc12	297.354	4.5069	4	4	0	128.901	-4.74	1.358	97.39	-2.316	No	No	No	0.425	0.124	0.335	-1.68	No	Yes	Yes	Yes	Yes	No	No	0.824	Yes	No	0.059	No	No	2.104	1.977	Yes	No	1.198	-0.23
O(C)c1c2c(c(O)cc1)C(=O)O[C@H](C)C2	208.213	1.5022	1	4	1	87.433	-1.943	1.179	94.498	-2.918	No	No	No	-0.04	0.481	-0.18	-2.847	No	No	No	No	No	No	No	0.611	No	No	0.575	No	No	1.921	2.539	No	No	0.879	1.413
O(C)c1c2c(c(OC)c3OCOc3c2)nc2occc12	273.244	2.7269	2	6	0	113.352	-3.145	1.166	98.587	-2.719	No	No	No	-0.094	0.26	0.992	-2.966	No	Yes	Yes	Yes	No	No	No	0.579	No	Yes	0.378	No	No	2.773	1.143	No	No	0.354	0.313
O(C)c1c2c(c(OC)cc(OC)c2)nc2occc12	259.261	3.0068	3	5	0	109.244	-3.291	1.233	98.63	-2.502	No	No	No	-0.048	0.278	0.592	-2.867	No	No	Yes	Yes	No	No	No	0.722	No	Yes	0.359	No	No	2.39	1.167	No	No	0.526	0.249
O(C)c1c2c(c(OC)ccc2)nc2occc12	229.235	2.9982	2	4	0	97.766	-3.125	1.28	98.639	-2.319	No	No	No	0.069	0.304	0.46	-1.796	No	No	Yes	Yes	No	No	No	0.747	No	Yes	-0.147	No	No	2.178	1.941	No	No	0.584	0.863
O(C)c1c2c(nc3O[C@H](C(O)(C)C)[C@@H](O)c13)cccc2	275.304	1.8087	2	5	2	116.332	-2.821	1.057	95.192	-3.086	Yes	No	No	-0.207	0.274	0.015	-3.284	No	No	Yes	No	No	No	No	0.443	No	Yes	0.493	No	No	2.141	1.547	Yes	No	0.403	1.365
O(C)c1c2c(nc3occc13)cc(OC)c(O)c2	245.234	2.7038	2	5	1	102.560	-3.104	1.193	95.016	-2.879	Yes	No	No	0.063	0.301	0.592	-2.843	No	No	Yes	No	No	No	No	0.651	No	No	0.548	No	No	2.103	1.875	No	No	0.638	0.564
O(C)c1c2c(nc3occc13)cc(OC)c(OC)c2	259.261	3.0068	3	5	0	109.244	-3.139	1.347	97.007	-2.476	No	No	No	-0.213	0.26	0.617	-2.786	No	Yes	Yes	Yes	No	No	Yes	0.718	No	Yes	0.334	No	No	2.147	1.876	No	No	0.601	0.385
O(C)c1c2c(nc3occc13)cc1OCOc1c2	243.218	2.7183	1	5	0	101.873	-3.023	1.32	96.946	-2.552	No	No	No	-0.05	0.299	0.418	-2.83	No	Yes	Yes	No	No	No	No	0.556	No	Yes	-0.233	No	No	2.236	1.358	No	No	0.473	0.633
O(C)c1c2c(oc(C(O)(C)C)c2)nc2c1cccc2	257.289	3.217	2	4	1	110.176	-3.022	1.306	93.288	-2.607	No	No	No	-0.005	0.238	0.46	-1.981	No	Yes	Yes	Yes	No	No	No	0.626	No	No	-0.145	No	No	1.995	1.559	No	No	0.867	0.719
O(C)c1c2c(occ2)cc2OC(=O)C=Cc12	216.192	2.5478	1	4	0	90.034	-2.834	1.31	98.828	-2.4	No	No	No	-0.117	0.337	0.263	-2.728	No	No	Yes	Yes	No	No	Yes	0.771	No	Yes	-0.563	No	No	1.898	1.753	No	No	0.661	1.409
O(C)c1c2c(occ2)nc2[C@](OC)(CC=C(C)C)[C@H](O)CCc12	317.385	3.3415	4	5	1	135.467	-3.576	1.012	96.042	-3.292	Yes	No	No	0.092	0.342	-0.107	-2.83	No	Yes	Yes	No	Yes	No	Yes	0.96	No	No	0.142	No	No	2.681	1.29	Yes	No	0.747	0.084
O(C)c1c2c(occ2)nc2c1ccc(OC)c2	229.235	2.9982	2	4	0	97.766	-2.731	1.341	96.54	-2.394	Yes	No	No	-0.13	0.291	0.213	-1.767	No	Yes	Yes	No	No	No	No	0.654	No	Yes	-0.242	No	No	1.835	1.765	No	No	0.851	0.295
O(C)c1c2c(occ2)nc2c1ccc1OCOc21	243.218	2.7183	1	5	0	101.873	-2.903	1.294	96.877	-2.541	No	No	No	-0.142	0.322	0.199	-2.06	No	Yes	Yes	No	No	No	No	0.467	No	No	-0.586	No	No	1.95	1.226	No	No	0.676	0.468
O(C)c1c2c(occ2)nc2c1ccc1c2OC(C)(C)C=C1	281.311	4.1738	1	4	0	121.530	-3.811	1.409	95.112	-2.436	Yes	No	No	0.115	0.227	0.351	-1.75	No	Yes	Yes	Yes	No	No	No	0.618	Yes	No	-0.657	No	No	1.847	1.504	Yes	No	0.954	0.313
O(C)c1c2c(occ2)nc2c1cccc2	199.209	2.9896	1	3	0	86.287	-2.653	1.655	95.736	-2.222	Yes	No	No	-0.097	0.287	0.534	-1.683	No	No	Yes	Yes	No	No	No	0.738	No	No	-0.279	No	No	1.727	1.77	No	No	0.823	0.53
O(C)c1c2oc(-c3cc4OCOc4cc3)cc2cc(CCCO)c1	326.348	3.762	5	5	1	138.918	-4.581	1.314	95.043	-2.686	Yes	Yes	Yes	0.181	0.164	0.041	-2.223	No	Yes	Yes	Yes	Yes	No	Yes	0.562	No	Yes	0.411	No	Yes	2.201	2.121	Yes	No	0.522	-1.317
O(C)c1c2oc(-c3cc4OCOc4cc3)cc2cc(CCCO)c1	326.348	3.762	5	5	1	138.918	-4.581	1.314	95.043	-2.686	Yes	Yes	Yes	0.181	0.164	0.041	-2.223	No	Yes	Yes	Yes	Yes	No	Yes	0.562	No	Yes	0.411	No	Yes	2.201	2.121	Yes	No	0.522	-1.317
O(C)c1c2occc2c(OC)c2c1OC(=O)C=C2	246.218	2.5564	2	5	0	101.512	-3.112	1.309	98.875	-2.493	No	No	No	-0.117	0.337	-0.015	-2.803	No	No	Yes	No	No	No	Yes	0.78	No	No	-0.386	No	No	2.064	1.29	No	No	0.563	1.438
O(C)c1c2occc2c2OC(=O)C(OC)=Cc2c1	246.218	2.5564	2	5	0	101.512	-3.055	1.308	97.971	-2.508	No	No	No	-0.102	0.317	0.262	-2.797	No	No	Yes	No	No	No	Yes	0.758	No	No	-0.156	No	No	2.615	1.798	No	No	0.618	1.022
O(C)c1c2occc2c2OC(=O)C=Cc2c1	216.192	2.5478	1	4	0	90.034	-2.734	1.322	98.279	-2.383	Yes	No	No	-0.175	0.32	0.251	-2.736	No	No	Yes	Yes	No	No	Yes	0.745	No	Yes	-0.446	No	No	2.581	1.823	No	No	0.646	1.418
O(C)c1c2occc2cc2c1OC(=O)C=C2	216.192	2.5478	1	4	0	90.034	-2.748	1.324	97.725	-2.385	No	No	No	-0.24	0.326	0.272	-2.72	No	No	Yes	Yes	No	Yes	Yes	0.726	No	Yes	-0.657	No	No	1.84	1.736	No	No	0.683	1.396
O(C)c1cc(C)c2C(OC)=CC(=O)Oc2c1	220.224	2.11862	2	4	0	92.401	-2.869	1.276	98.76	-2.372	No	No	No	-0.053	0.36	0.27	-2.441	No	No	Yes	No	No	No	No	0.836	No	No	0.698	No	No	1.976	2.601	No	No	0.739	1.447
O(C)c1cc(O)c(C=2C(=O)c3c(O)cc(O)cc3OC=2)cc1	300.266	2.5854	2	6	3	123.998	-3.31	1.404	82.351	-2.735	Yes	No	No	0.04	0.192	-1.134	-2.453	No	No	Yes	Yes	Yes	No	No	0.826	No	Yes	0.809	No	Yes	2.222	1.678	No	No	0.325	0.583
O(C)c1cc(O)c(CCCc2cc3OCOc3cc2)cc1	286.327	3.3048	5	4	1	123.442	-3.845	1.279	94.704	-2.833	No	No	No	0.015	0.068	-0.093	-1.239	No	Yes	Yes	Yes	Yes	No	Yes	0.184	No	Yes	-0.002	No	Yes	2.326	2.183	No	No	0.858	-0.224
O(C)c1cc(O)c(C[C@@H](O)Cc2cc3OCOc3cc2)cc1	302.326	2.2756	5	5	2	128.236	-3.683	0.974	95.213	-2.745	Yes	No	No	0.071	0.138	-0.083	-2.551	No	No	No	Yes	No	No	Yes	0.307	No	Yes	0.1	No	Yes	2.162	1.156	No	No	0.476	0.6
O(C)c1cc(O)c([C@@H]2COc3c(ccc(O)c3)C2)cc1	272.3	2.8251	2	4	2	116.758	-3.204	1.198	93.623	-2.937	Yes	No	No	0.11	0.129	-0.184	-2.129	No	No	Yes	Yes	Yes	No	Yes	0.345	No	Yes	0.02	No	Yes	2.182	1.623	No	No	0.819	1.19
O(C)c1cc(O)c2C(=O)C(O)=C(c3ccc(O)cc3)Oc2c1	300.266	2.5854	2	6	3	123.998	-3.338	1.18	86.992	-2.735	Yes	No	No	0.258	0.106	-1.145	-2.4	No	No	Yes	No	No	No	No	0.737	No	No	0.924	No	No	2.044	1.506	No	No	0.324	0.748
O(C)c1cc(O)c2C(=O)C(O)=C(c3ccccc3)Oc2c1	284.267	2.8798	2	5	2	119.203	-3.43	1.204	94.637	-2.739	Yes	No	No	0.1	0.073	-0.081	-2.201	No	No	Yes	Yes	Yes	No	No	0.472	No	Yes	0.687	No	Yes	2.321	1.117	No	No	0.43	0.496
O(C)c1cc(O)c2C(=O)C(OC)=C(c3ccc(OC)cc3)Oc2c1	328.32	3.1914	4	6	1	137.366	-3.807	1.35	97.024	-2.739	No	No	Yes	0.031	0.117	-0.489	-2.405	No	Yes	Yes	Yes	Yes	No	No	0.861	No	No	0.633	No	Yes	2.635	1.467	No	No	0.362	0.396
O(C)c1cc(O)c2C(=O)C[C@@H](c3ccc(O)cc3)Oc2c1	286.283	2.8129	2	5	2	120.920	-3.31	1.186	92.453	-3.006	Yes	No	No	-0.021	0.155	-0.136	-2.203	No	No	Yes	Yes	Yes	No	Yes	0.146	No	Yes	0.123	No	No	2.185	1.184	No	No	0.727	0.793
O(C)c1cc(O)c2C(=O)C[C@@H](c3ccccc3)Oc2c1	270.284	3.1073	2	4	1	116.125	-3.75	1.301	94.894	-3.028	No	No	No	-0.038	0.085	-0.106	-2.025	No	Yes	Yes	Yes	Yes	No	No	0.181	No	Yes	0.193	No	Yes	2.375	2.119	No	No	1.208	0.738
O(C)c1cc(O)c2C(=O)OC(C)=Cc2c1	206.197	1.81562	1	4	1	85.717	-2.559	1.209	95.916	-2.544	No	No	No	-0.026	0.36	0.164	-2.859	No	No	Yes	No	No	No	No	0.813	No	Yes	0.843	No	No	2.046	2.927	No	No	0.796	1.098
O(C)c1cc(O)c2C(=O)c3c(C)cc(OC)cc3Oc2c1	286.283	2.97742	2	5	1	119.877	-3.527	1.216	97.81	-2.794	No	No	No	0.071	0.173	-0.339	-2.147	No	Yes	Yes	Yes	Yes	No	No	0.779	No	Yes	0.51	No	Yes	2.236	1.511	No	No	0.657	0.219
O(C)c1cc(O)c2C(=O)c3c(N(C)c2c1)cccc3	255.273	2.4059	1	4	1	109.024	-3.162	1.217	99.105	-2.833	No	No	No	0.054	0.169	0.121	-2.089	No	Yes	Yes	Yes	No	No	No	0.547	No	Yes	0.259	No	No	2.191	2.131	No	No	0.791	0.102
O(C)c1cc(O)c2C(=O)c3c(O)cc(C)cc3C(=O)c2c1	284.267	2.19022	1	5	2	119.967	-3.372	0.915	96.794	-2.77	Yes	No	No	-0.017	0.205	-0.045	-2.24	No	No	Yes	Yes	Yes	No	No	0.533	No	Yes	0.395	No	No	2.133	1.666	No	No	0.493	1.319
O(C)c1cc2C(=O)C=C3N(c2cc1)C[C@@H](CC/C=C\CC)CC3	311.425	4.3189	5	3	0	137.137	-5.104	1.466	96.282	-2.24	Yes	Yes	No	1.018	0.03	0.408	-2.143	No	Yes	Yes	Yes	Yes	No	No	1.245	Yes	No	0.477	No	No	2.05	2.043	Yes	No	1.787	-1.865
O(C)c1cc2C(=O)c3c(O)cccc3Oc2cc1	242.23	2.6604	1	4	1	102.034	-3.18	1.244	97.674	-2.794	No	No	No	-0.013	0.183	0.108	-2.055	No	No	Yes	No	No	No	No	0.284	No	Yes	0.466	No	No	2.06	1.922	No	No	0.805	-0.167
O(C)c1cc2N(C)C(c3ccccc3)=CC(=O)c2cc1	265.312	3.2141	2	3	0	116.605	-4.299	1.241	100	-2.348	Yes	No	Yes	0.245	0.256	0.383	-1.396	No	Yes	Yes	Yes	Yes	No	No	0.498	Yes	Yes	-0.21	No	No	2.028	1.65	No	No	0.898	0.542
O(C)c1cc2OC(c3ccc(OC)cc3)=CC(=O)c2cc1	282.295	3.4772	3	4	0	121.093	-4.23	1.324	100	-2.495	No	No	Yes	0.322	0.272	0.049	-1.543	No	Yes	Yes	Yes	No	No	No	0.715	Yes	Yes	-0.121	No	No	2.271	1.828	No	No	0.611	-0.372
O(C)c1cc2OC(c3ccccc3)=CC(=O)c2cc1	252.269	3.4686	2	3	0	109.615	-4.324	1.335	99.243	-2.364	Yes	No	Yes	0.143	0.247	0.345	-1.421	No	Yes	Yes	Yes	Yes	No	No	0.428	No	Yes	-0.114	No	No	1.948	1.871	No	No	0.839	0.155
O(C)c1cc2OCc3c4c(oc3-c2cc1)cc1OCOc1c4	296.278	3.7295	1	5	0	125.502	-4.076	1.333	97.955	-2.681	No	No	Yes	0.177	0.186	0.155	-1.88	No	Yes	Yes	Yes	Yes	No	No	0.498	No	Yes	-0.047	No	Yes	3.008	2.103	No	No	0.391	-0.388
