SMILES	MOL_WEIGHT	LOGP	#ROTATABLE_BONDS	#ACCEPTORS	#DONORS	SURFACE_AREA	Water solubility	Caco2 permeability	Intestinal absorption (human)	Skin Permeability	P-glycoprotein substrate	P-glycoprotein I inhibitor	P-glycoprotein II inhibitor	VDss (human)	Fraction unbound (human)	BBB permeability	CNS permeability	CYP2D6 substrate	CYP3A4 substrate	CYP1A2 inhibitior	CYP2C19 inhibitior	CYP2C9 inhibitior	CYP2D6 inhibitior	CYP3A4 inhibitior	Total Clearance	Renal OCT2 substrate	AMES toxicity	Max. tolerated dose (human)	hERG I inhibitor	hERG II inhibitor	Oral Rat Acute Toxicity (LD50)	Oral Rat Chronic Toxicity (LOAEL)	Hepatotoxicity	Skin Sensitisation	<i>T.Pyriformis</i> toxicity	Minnow toxicity
O=C(OC)[C@]12[C@H]3[C@H]([C@H](O)C)C[C@@H](C1)CN3CCc1c3c([nH]c21)cccc3	354.45	2.226	2	4	2	152.878	-2.714	0.835	96.903	-2.828	Yes	Yes	No	1.433	0.275	-0.189	-2.36	No	Yes	No	No	No	No	No	1.042	Yes	No	-1.039	No	Yes	3.211	0.664	No	No	0.289	1.363
O=C(OC)c1c(OC)ccc(C(=O)C=C(C)C)c1	248.278	2.6307	4	4	0	106.211	-3.544	1.378	98.88	-2.746	No	No	No	-0.171	0.311	-0.17	-2.782	No	No	Yes	No	No	No	No	0.71	No	No	1.349	No	No	1.836	2.008	No	No	0.778	0.685
O=C(OC)c1cc(-c2cc3c([nH]cc3)cc2)oc1	241.246	3.2145	2	3	1	103.179	-3.434	1.339	94.452	-2.613	Yes	No	No	0.007	0.254	0.336	-2.779	No	No	Yes	Yes	No	No	No	0.767	No	Yes	-0.188	No	No	2.381	0.935	No	No	0.667	0.828
O=C(OC)c1cc(C(=O)C=C(C)C)c(O)cc1	234.251	2.3277	3	4	1	99.527	-2.965	1.115	96.536	-2.997	No	No	No	-0.186	0.354	-0.3	-2.835	No	No	Yes	No	No	No	No	0.563	No	No	1.145	No	No	1.76	2.232	No	No	0.856	1.064
O=C(OC)c1cc(C/C=C(/CCC=C(C)C)\C)c(O)c(CC=C(C)C)c1	356.506	5.9227	8	3	1	157.636	-5.876	1.458	93.646	-2.758	No	Yes	Yes	0.118	0	-0.408	-1.546	No	Yes	No	No	No	No	Yes	1.491	No	No	-0.336	No	No	2.332	2.411	Yes	No	1.418	-1.541
O=C(OC)c1cc(CC=C(C)C)c(O)cc1	220.268	2.6875	3	3	1	95.366	-3.377	1.309	94.68	-2.57	No	No	No	0.049	0.269	-0.1	-1.983	No	No	Yes	No	No	No	No	0.718	No	No	0.869	No	No	1.856	2.228	No	No	1.4	1.222
O=C(OC)c1cc(CC=C(C)C)c2OC(C)(C)C=Cc2c1	286.371	4.1661	3	3	0	125.814	-4.951	1.339	96.891	-2.681	No	Yes	No	0.264	0.108	0.054	-2.302	No	Yes	Yes	Yes	No	No	No	0.72	No	No	0.573	No	Yes	2.028	2.064	Yes	No	1.566	0.617
O=C(OC)c1cc(CC=C(C)C)c2OC(C)(C)CCc2c1	288.387	4.0855	3	3	0	126.504	-4.918	1.339	97.11	-2.686	No	Yes	No	0.262	0.111	0.053	-2.302	No	Yes	Yes	Yes	Yes	No	No	1.159	No	No	0.567	No	Yes	2.009	2.041	Yes	No	1.562	0.614
O=C(OC)c1cc(CC=C(C)C)c2O[C@H]([C@@](O)(CCC=C(C)C)C)Cc2c1	372.505	4.7828	7	4	1	162.433	-4.152	1.582	95.683	-3.023	No	Yes	Yes	0.094	0.031	-0.327	-2.024	No	Yes	No	Yes	No	No	Yes	1.269	No	No	-0.104	No	No	2.54	2.084	No	No	0.761	-0.418
O=C(OC)c1cc(CC=C(C)C)c2O[C@](CCC=C(C)C)(C)C=Cc2c1	354.49	5.8926	6	3	0	156.949	-6.188	1.408	96.384	-2.607	No	Yes	Yes	0.354	0	-0.145	-2.146	No	Yes	No	Yes	No	No	No	1.256	No	No	0.61	No	Yes	2.08	2.256	Yes	No	1.464	-0.913
O=C(OC)c1cc(CCC(C)C)c2O[C@](CCCC(C)C)(C)CCc2c1	360.538	5.9718	8	3	0	159.018	-6.298	1.41	96.096	-2.505	No	Yes	Yes	0.201	0	-0.307	-1.66	No	Yes	No	Yes	No	No	No	0.924	No	No	0.399	No	Yes	1.966	2.458	No	No	1.102	-1.886
O=C(OC)c1cc(C[C@@H](O)C(=C)C)c(O)cc1	236.267	1.6583	4	4	2	100.160	-2.144	0.05	95.289	-2.993	Yes	No	No	-0.145	0.356	-0.328	-2.914	No	No	Yes	No	No	No	No	0.714	No	No	0.88	No	No	2.038	1.791	No	No	0.208	1.895
O=C(OC)c1cc(C[C@@H](O)C(O)(C)C)c(O)cc1	254.282	0.8531	4	5	3	105.644	-1.923	0.84	58.543	-2.996	Yes	No	No	-0.363	0.347	-0.987	-3.38	No	No	No	No	No	No	No	0.792	No	No	0.867	No	No	2.199	2.616	No	No	-0.063	2.499
O=C(OC)c1cc(O)c(O)c(O)c1	184.147	0.59	1	5	3	73.819	-1.36	1.011	76.624	-2.845	No	No	No	-0.202	0.418	-1.065	-4.09	No	No	No	No	No	No	No	0.67	No	No	0.713	No	No	1.968	2.865	No	No	0.086	1.684
O=C(OC)c1cc(O)c2OC(C)(C)C=Cc2c1	234.251	2.363	1	4	1	99.473	-2.728	1.254	95.234	-2.935	No	No	No	0.009	0.352	0.224	-2.844	No	No	Yes	No	No	No	No	0.538	No	No	0.627	No	No	2.228	2.101	No	No	0.709	1.39
O=C(OC)c1cc(O)c2OC(C)(C)CCc2c1	236.267	2.2824	1	4	1	100.163	-2.709	1.25	95.454	-2.938	No	No	No	0.009	0.354	0.223	-2.846	No	No	Yes	No	No	No	No	0.542	No	No	0.623	No	No	2.212	2.079	No	No	0.704	1.387
O=C(OC)c1cc2C(=O)CC(C)(C)Oc2cc1	234.251	2.217	1	4	0	99.530	-3.002	1.304	97.685	-2.78	No	No	No	-0.258	0.326	0.003	-2.822	No	No	Yes	No	No	No	No	0.59	No	No	0.947	No	No	2.208	2.043	No	No	0.747	1.718
O=C(OC)c1cc2c(OC(C)(C)C=C2)cc1	218.252	2.6574	1	3	0	94.679	-3.156	1.204	96.783	-2.621	No	No	No	-0.02	0.317	0.166	-2.383	No	No	Yes	No	No	No	No	0.668	No	No	0.751	No	No	1.995	2.054	No	No	0.857	1.557
O=C(OC)c1cc2c(OC(C)(C)CC2)cc1	220.268	2.5768	1	3	0	95.369	-3.126	1.204	97.002	-2.627	No	No	No	-0.022	0.32	0.165	-2.383	No	No	Yes	No	No	No	No	0.556	No	No	0.746	No	No	1.975	2.031	No	No	0.853	1.554
O=C(OC/C=C(/CCC=C(C)C)\C)C	196.29	3.2422	5	2	0	86.649	-3.16	1.554	95.14	-1.7	No	No	No	0.048	0.386	0.543	-2.237	No	No	No	No	No	No	No	0.583	No	No	0.479	No	No	1.737	2.199	No	Yes	1.134	0.903
O=C(OC/C=C(/CCC=C(C)C)\C)c1cc(O)c(O)cc1	290.359	3.9473	6	4	2	124.930	-3.139	1.069	91.764	-2.918	Yes	No	No	-0.06	0.143	-0.055	-2.277	No	No	No	No	No	No	No	0.617	No	No	0.476	No	No	1.992	2.12	No	No	0.888	0.261
O=C(OC/C=C(/CCC=C(C)C)\C)c1ccc(O)cc1	274.36	4.2417	6	3	1	120.136	-4.642	1.408	91.798	-2.697	No	Yes	No	0.122	0.145	-0.143	-1.779	No	No	Yes	Yes	No	No	No	0.743	No	No	0.592	No	No	1.804	2.398	No	No	2.357	0.409
O=C(OC1[C@H](O)CC(O)(C(=O)OC)C[C@H]1O)/C=C/c1cc(O)c(O)cc1	368.338	-0.5575	4	9	5	148.272	-2.779	0.255	39.821	-2.741	Yes	No	No	-0.066	0.392	-1.503	-4.628	No	No	No	No	No	No	No	0.252	No	No	0.647	No	No	3.617	2.923	No	No	0.285	3.071
O=C(OC=C)CCCCCCCCCCC	226.36	4.594	11	2	0	100.069	-4.858	1.342	93.45	-2.024	No	Yes	No	0.204	0.21	0.652	-2.046	No	No	No	No	No	No	No	1.809	No	No	0.369	No	No	1.671	2.636	No	Yes	2.043	-0.373
O=C(OCC(C)C)c1cc(O)c(O)c(O)c1	226.228	1.6162	3	5	3	92.914	-1.677	0.979	93.845	-2.868	Yes	No	No	-0.314	0.308	-1.097	-4.042	No	No	No	No	No	No	No	0.386	No	No	0.732	No	No	1.898	2.927	No	Yes	0.152	1.227
O=C(OCC)C	88.106	0.5694	1	2	0	37.109	0.315	1.607	100	-2.972	Yes	No	No	-0.242	0.75	-0.01	-2.667	No	No	No	No	No	No	No	0.742	No	No	1.107	No	No	1.966	2.274	No	No	-0.903	2.5
O=C(OCC)CCCCCCC/C=C\CCCCCCCC	310.522	6.587	16	2	0	138.259	-6.979	1.343	92.212	-2.725	No	Yes	No	0.219	0.005	0.762	-1.665	No	Yes	Yes	No	No	No	No	2.026	No	No	0.036	No	Yes	1.592	2.972	No	Yes	1.49	-2.035
O=C(OCC)CCCCCCCCCCCCCCC	284.484	6.0308	15	2	0	126.218	-6.488	1.338	92.393	-2.61	No	No	No	0.263	0.054	0.735	-1.827	No	Yes	Yes	No	No	No	No	1.908	No	No	0.173	No	Yes	1.589	2.894	No	Yes	1.884	-1.681
O=C(OCC)C[C@@]1(O)C(=O)c2c(-c3c1cccc3)cccc2	296.322	2.6907	3	4	1	127.903	-4.142	1.271	96.789	-2.738	No	No	No	-0.221	0.035	0.376	-2.292	No	Yes	No	Yes	No	No	No	0.321	No	Yes	0.278	No	Yes	2.23	2.151	No	No	0.39	-0.139
O=C(OCC)c1c(C)c(C)c(O)cc1O	210.229	1.89134	2	4	2	88.120	-2.47	1.149	94.154	-3.26	No	No	No	-0.127	0.507	0.067	-3.254	No	No	Yes	No	No	No	No	0.75	No	No	0.532	No	No	1.666	1.868	No	No	0.421	1.266
O=C(OCC)c1cc(O)c(O)c(O)c1	198.174	0.9801	2	5	3	80.184	-1.386	0.977	74.866	-2.871	No	No	No	-0.214	0.401	-1.112	-4.078	No	No	No	No	No	No	No	0.709	No	No	0.74	No	No	2.01	2.875	No	No	0.075	1.472
O=C(OCC=1[C@@H]2[C@H]([C@H](O)OC=1)[C@@H](C)CC2)/C=C/c1cc(O)c(O)cc1	346.379	2.549	4	6	3	145.556	-3.193	0.68	88.614	-2.815	Yes	No	No	-0.147	0.077	-1.028	-2.957	No	No	No	No	No	No	No	0.341	No	No	-0.562	No	No	2.692	2.315	No	No	0.37	1.188
O=C(OCC=1[C@@H]2[C@H]([C@H](OC(=O)C)OC=1)[C@@H](C)CC2)C	268.309	2.0151	3	5	0	112.446	-2.533	1.339	97.737	-2.984	No	No	No	-0.133	0.41	0.198	-2.87	No	No	No	No	No	No	No	0.465	No	No	0.412	No	No	2.14	0.768	No	No	0.428	1.78
O=C(OCCC)c1cc(O)c(O)c(O)c1	212.201	1.3702	3	5	3	86.549	-1.455	0.955	94.655	-2.866	Yes	No	No	-0.237	0.364	-1.138	-4.075	No	No	No	No	No	No	No	0.435	No	No	0.772	No	No	2.02	2.874	No	No	0.102	1.371
O=C(OCCCC)c1cc(O)c(O)c(O)c1	226.228	1.7603	4	5	3	92.914	-1.61	0.949	94.499	-2.87	Yes	No	No	-0.21	0.327	-1.163	-4.067	No	No	No	No	No	No	No	0.449	No	No	0.813	No	No	2.012	2.874	No	Yes	0.123	1.003
O=C(OCCCCC)c1cc(O)c(O)c(O)c1	240.255	2.1504	5	5	3	99.279	-1.79	0.944	93.891	-2.863	Yes	No	No	-0.209	0.297	-1.196	-4.054	No	No	No	No	No	No	No	0.466	No	No	0.793	No	No	2	2.878	No	Yes	0.156	0.685
O=C(OCCCCCCCCCCCC)c1cc(O)c(O)c(O)c1	338.444	4.8811	12	5	3	143.833	-3.342	0.823	91.254	-2.768	Yes	No	No	-0.263	0.111	-1.397	-2.882	No	No	No	No	No	No	No	1.191	No	No	0.344	No	Yes	2.14	2.871	No	Yes	0.3	-1.369
O=C(OCCc1ccccc1)/C=C/c1cc(O)c(O)cc1	284.311	2.8969	5	4	2	122.487	-3.479	1.033	93.429	-2.87	Yes	No	No	-0.18	0.055	-0.269	-2.41	No	No	Yes	Yes	No	No	Yes	0.61	No	Yes	0.491	No	Yes	1.73	1.676	No	No	0.962	-0.036
O=C(OCN1C(=O)C2=C(OC(C)(C)C=C2)c2c1c(OC)ccc2)C	329.352	2.7149	3	6	0	138.795	-3.705	1.425	100	-2.755	No	No	No	-0.037	0.212	0.039	-2.923	No	Yes	No	Yes	No	No	No	0.391	No	No	0.65	No	No	2.903	1.047	No	No	0.395	0.537
O=C(OCN1c2c(c(O)c(OC)c(OC)c2)C(=O)c2c1cccc2)C	343.335	2.3981	4	7	1	142.507	-4.623	1.292	97.315	-2.739	No	Yes	Yes	-0.513	0.065	-0.618	-3.37	No	Yes	No	Yes	No	No	No	0.549	No	Yes	0.399	No	Yes	2.178	1.364	Yes	No	0.303	-0.714
O=C(OC[C@@H](CCO)C)/C=C/c1cc(O)c(O)cc1	266.293	1.6727	6	5	3	111.319	-1.982	0.093	92.605	-2.988	Yes	No	No	-0.195	0.288	-1.003	-2.94	No	No	No	No	No	No	No	0.601	No	No	0.579	No	No	2.066	1.484	No	No	0.541	1.992
O=C(OC[C@@H]1CC[C@H](C(O)(C)C)C[C@H](OC(=O)C)C(=C)CCC1)C	340.46	3.3949	4	5	1	144.957	-3.128	1.116	94.597	-3.182	No	No	No	-0.231	0.433	-0.364	-2.882	No	No	No	No	No	No	No	1.327	No	Yes	0.39	No	No	2.37	1.574	No	No	0.636	1.645
O=C(OC[C@@H]1[C@@H](O)[C@H](O)[C@@H](O)[C@@H](O)O1)/C=C/c1cc(O)c(O)cc1	342.3	-1.5459	4	9	6	136.174	-2.85	-0.472	40.781	-2.736	Yes	No	No	-0.058	0.352	-1.832	-5.44	No	No	No	No	No	No	No	0.164	No	No	0.404	No	No	3.205	4.154	No	No	0.285	4.866
O=C(OC[C@@H]1[C@@H](O)[C@H](O)[C@@H](O)[C@H](O)O1)/C=C/c1cc(O)c(O)cc1	342.3	-1.5459	4	9	6	136.174	-2.85	-0.472	40.781	-2.736	Yes	No	No	-0.058	0.352	-1.832	-5.44	No	No	No	No	No	No	No	0.164	No	No	0.404	No	No	3.205	4.154	No	No	0.285	4.866
O=C(OC[C@H]1CC[C@H](C(O)(C)C)C[C@@H](O)C(=C)CCC1)C	298.423	2.8241	3	4	2	127.746	-2.649	0.961	94.141	-3.455	No	No	No	-0.201	0.479	-0.062	-2.904	No	No	No	No	No	No	No	1.319	No	No	0.511	No	No	2.062	1.601	No	No	0.499	1.927
O=C(OC[C@]1(C=C)[C@H](C(=C)C)C[C@H](C(O)(C)C)CC1)C	280.408	3.4852	5	3	1	122.263	-3.262	1.412	95.58	-2.56	No	No	No	-0.02	0.248	-0.117	-2.453	No	No	No	No	No	No	No	1.38	Yes	No	0.099	No	No	1.983	1.892	No	No	1.73	0.765
O=C(OC[C@]1(O)[C@H]2[C@@H]3[C@](C(=O)O)(CC(C)(C)[C@@H]3CC1)CC2)C	310.39	2.2177	3	4	2	130.586	-2.953	1.312	99.008	-2.735	Yes	No	No	-0.745	0.326	0.021	-2.886	No	No	No	No	No	No	No	0.764	No	No	0.774	No	No	2.116	0.737	No	No	0.284	1.656
O=C(OCc1ccccc1)C[C@@]1(O)C(=O)c2c(-c3c1cccc3)cccc2	358.393	3.871	4	4	1	156.595	-4.093	1.307	94.5	-2.735	Yes	Yes	Yes	-0.6	0.106	0.49	-2.012	No	Yes	No	Yes	Yes	No	Yes	0.267	No	Yes	0.453	No	Yes	2.228	2.53	Yes	No	0.288	-1.084
O=C(OCc1ccccc1)c1c(O)cccc1	228.247	2.7492	3	3	1	99.288	-3.272	1.312	92.498	-2.821	No	No	No	-0.32	0.116	0.349	-1.353	No	No	Yes	Yes	No	No	No	0.635	No	Yes	0.742	No	No	1.747	2.205	No	No	1.374	0.861
O=C(OCc1ccccc1)c1c(O)cccc1O	244.246	2.4548	3	4	2	104.082	-3.07	1.178	91.232	-2.943	Yes	No	No	-0.494	0.142	0.483	-2.324	No	No	Yes	Yes	No	No	No	0.485	No	Yes	0.326	No	No	1.95	2.122	No	No	0.708	0.835
O=C(OCc1ccccc1)c1c(OC)cccc1	242.274	3.0522	4	3	0	105.972	-3.949	1.398	95.876	-2.383	No	No	No	-0.224	0.041	0.435	-1.447	No	Yes	Yes	Yes	No	No	No	0.722	No	No	1.032	No	No	1.964	2.214	No	No	1.237	0.508
O=C(OCc1ccccc1)c1c(OC)cccc1OC	272.3	3.0608	5	4	0	117.450	-4.307	1.375	95.666	-2.486	No	No	No	-0.339	0.04	0.624	-1.478	No	Yes	Yes	Yes	Yes	No	No	0.68	No	No	1.126	No	No	2.059	2.078	No	No	0.985	0.091
O=C(OCc1ccccc1)c1ccccc1	212.248	3.0436	3	2	0	94.493	-3.468	1.637	94.997	-2.114	No	No	No	-0.072	0.022	0.23	-1.372	No	Yes	Yes	Yes	No	No	No	0.711	No	No	0.878	No	No	1.901	2.273	No	Yes	1.15	0.97
O=C(O[C@@H]1C(=C)C=C[C@@H](C(C)C)C1)Cc1ccccc1	270.372	3.9292	4	2	0	120.701	-4.803	1.648	95.971	-2.202	No	Yes	No	0.422	0.026	0.333	-1.727	No	Yes	No	Yes	No	No	No	0.26	No	No	0.449	No	No	1.829	2.044	Yes	Yes	2.195	0.344
O=C(O[C@@H]1C(=O)C=2[C@]3(C)[C@H](C(C)(C)CCC3)CC(=O)C=2C[C@]1(C=C)C)C	358.478	4.1852	2	4	0	155.604	-4.234	1.548	100	-3.019	No	Yes	Yes	-0.03	0.103	-0.018	-1.67	No	Yes	No	No	No	No	No	0.595	Yes	No	0.282	No	Yes	1.905	1.434	No	No	0.572	0.617
O=C(O[C@@H]1C(C(O)(C)C)=Cc2c(C)ccc3C(=O)O[C@H]1c23)C	302.326	2.30612	2	5	1	128.089	-3.229	1.232	96.996	-4.091	No	No	No	-0.088	0.224	-0.265	-2.919	No	Yes	No	No	No	No	No	0.968	No	No	0.301	No	No	2.683	1.985	No	No	0.644	0.956
O=C(O[C@@H]1OC=C(C(=O)OC)[C@@H]2[C@H]1[C@@H](C)[C@@H](OC(=O)C)C2)C	312.318	1.1666	3	7	0	128.086	-2.652	0.435	99.4	-2.77	No	No	No	-0.285	0.494	-0.825	-2.965	No	No	No	No	No	No	No	0.685	No	Yes	0.494	No	No	2.512	1.204	No	No	0.287	2.741
O=C(O[C@@H]1OC=C(C(=O)OC)[C@H]2[C@H](OC(=O)C)C[C@H](C)[C@@H]12)C	312.318	1.1666	3	7	0	128.086	-2.731	0.328	99.444	-2.673	No	No	No	-0.208	0.501	-0.828	-2.939	No	No	No	No	No	No	No	0.63	No	Yes	0.639	No	No	2.521	1.142	No	No	0.28	2.895
O=C(O[C@@H]1[C@@H](O)c2c3OC(=O)C=Cc3ccc2OC1(C)C)CC(C)C	346.379	2.9553	3	6	1	144.906	-3.79	1.213	94.776	-3.237	No	Yes	No	-0.208	0.134	-0.35	-2.218	No	No	No	Yes	No	No	No	0.788	No	Yes	0.145	No	No	2.449	1.698	No	No	0.508	-0.995
O=C(O[C@@H]1[C@@H]2C(=C)C(=O)O[C@@H]2C[C@@]2(C)C(=O)C=C(C(C)=C1)O2)C(=C)C	344.363	2.164	2	6	0	145.358	-3.467	1.272	100	-3.342	No	Yes	No	-0.135	0.391	-0.544	-2.905	No	Yes	No	No	No	No	No	1.237	No	Yes	-0.076	No	No	2.391	1.114	No	No	0.363	2.462
O=C(O[C@@H]1[C@@H]2[C@@H](C)c3c(occ3)C[C@H]2[C@@]2(C)[C@H](C(C)(C)CCC2)C1)C	344.495	5.3396	1	3	0	151.052	-5.933	1.228	97.857	-2.598	No	Yes	No	0.761	0	0.077	-2.217	No	Yes	Yes	Yes	No	No	Yes	0.53	No	No	0.009	No	No	2.19	1.771	No	No	1.554	-0.958
O=C(O[C@@H]1[C@@H]2[C@H]([C@@]34[C@@H]5[C@](C)(C(=O)O[C@@H]5C2)[C@@](O)(OC3)CC4)CCC1)C	350.411	1.785	1	6	1	146.737	-3.981	1.025	96.294	-3.986	No	No	No	0.268	0.408	-0.378	-3.037	No	Yes	No	No	No	No	No	0.581	No	Yes	-0.469	No	No	2.231	1.035	No	No	0.31	2.163
O=C(O[C@@H]1[C@@H]2[C@H]([C@@]34[C@@H]5[C@](C)(C(=O)O[C@@H]5C2)[C@@](OC)(OC3)CC4)CCC1)C	364.438	2.4391	2	6	0	153.421	-4.144	1.074	98.493	-3.52	No	No	No	0.277	0.337	-0.51	-2.99	No	Yes	No	No	No	No	No	0.616	Yes	No	-0.49	No	No	2.257	1.016	No	No	0.309	1.683
O=C(O[C@@H]1[C@@]2(O)[C@]3(C)[C@@H](C(C)(C)CCC3)CC[C@@]32CC(=C)[C@H](C1)C3)C	346.511	4.6319	1	3	1	151.759	-3.716	1.482	98.78	-2.815	Yes	Yes	No	0.163	0	0.09	-1.82	No	Yes	No	No	No	No	No	0.525	No	No	-0.499	No	No	2.417	1.747	Yes	No	0.392	0.003
O=C(O[C@@H]1[C@H](C)N[C@H](CCCCCCCCCC[C@@H](O)CO)CC1)C	357.535	3.3128	13	5	3	153.081	-3.618	0.645	89.883	-2.888	Yes	Yes	No	0.008	0.357	-1.063	-3.236	No	Yes	No	No	No	No	No	1.426	No	No	-0.236	No	No	2.651	1.063	No	Yes	0.704	0.996
O=C(O[C@@H]1[C@H](O)[C@H](O)CC1)/C=C/c1cc(O)c(O)cc1	280.276	0.5384	3	6	4	115.108	-2.061	0.271	66.995	-2.8	Yes	No	No	-0.177	0.32	-1.053	-3.819	No	No	No	No	No	No	No	0.351	No	No	0.317	No	No	2.551	2.032	No	No	0.234	3.11
O=C(O[C@@H]1[C@H]2C(=C)C(=O)O[C@H]2/C=C(\C)/C(=O)/C=C\[C@@](O)(C)C1)C(C)C	348.395	1.8783	2	6	1	146.734	-3.186	1.203	98.528	-4.072	Yes	No	No	-0.32	0.385	-0.391	-2.887	No	No	No	No	No	No	No	1.284	No	No	-0.264	No	No	2.541	1.679	No	No	0.432	2.199
O=C(O[C@@H]1[C@H]2C(=C)C(=O)O[C@H]2C[C@H](C)C=2O[C@](C)(C(=O)C=2)C1)[C@@](O)(CO)C	380.393	0.4111	3	8	2	156.325	-3.396	0.275	91.947	-3.329	Yes	No	No	-0.413	0.527	-0.521	-3.541	No	No	No	No	No	No	No	1.124	No	No	0.136	No	No	2.745	2.629	No	No	0.278	3.409
O=C(O[C@@H]1[C@H]2C(C)(C)CCC[C@]2(C)[C@H]2[C@](C)(O[C@](C=C)(C)CC2)C1)C	348.527	5.2844	2	3	0	153.085	-5.479	1.232	96.753	-2.904	No	Yes	No	0.366	0.08	0.112	-2.698	No	Yes	No	No	No	No	No	0.67	Yes	No	-0.237	No	No	1.866	1.657	No	No	1.262	0.379
O=C(O[C@@H]1[C@](OC(=O)C)(C)C(=O)C(C=O)=C2C1=COC(C)=C2)C	320.297	1.136	3	7	0	132.120	-2.761	0.419	74.727	-2.702	No	No	No	-0.065	0.526	-0.817	-2.916	No	No	No	No	No	No	No	0.693	No	Yes	0.66	No	No	2.28	1.552	No	No	0.281	2.886
O=C(O[C@@H]1[C@]2(C)C(=C(O)C(=C)[C@]34C(C)(C)CCC[C@@]23O4)C[C@](C=C)(C)C1)C	372.505	5.0103	2	4	1	161.859	-4.637	1.275	95.335	-3.248	No	No	No	0.364	0.131	-0.117	-2.776	No	Yes	No	No	No	No	No	0.558	No	No	-0.416	No	No	2.189	1.524	No	No	0.537	0.999
O=C(O[C@@H]1[C@]2(C)[C@@H](C[C@](C=C)(C)C1)CC[C@]13C(C)(C)C(=O)C=C[C@@]21O3)C	358.478	3.9934	2	4	0	155.551	-4.54	1.189	98.614	-3.488	No	Yes	No	0.296	0.246	-0.042	-2.808	No	Yes	No	No	No	No	No	0.617	No	No	-0.325	No	No	1.948	1.34	No	No	0.616	1.179
O=C(O[C@H]1C(=C)CCC[C@@H](CO)CC[C@H](C(O)(C)C)C1)C	298.423	2.8241	3	4	2	127.746	-2.605	0.976	94.761	-3.756	No	No	No	-0.156	0.45	-0.343	-2.922	No	No	No	No	No	No	No	1.33	No	No	0.537	No	No	2.174	1.629	No	No	0.54	2.047
O=C(O[C@H]1[C@@H](C)N[C@@H](CCCCCCCCCCCCC(=O)C)CC1)C	367.574	5.3288	14	4	1	160.384	-5.503	1.085	91.51	-2.803	Yes	Yes	Yes	0.479	0.166	-0.386	-2.665	No	Yes	No	No	No	No	No	1.453	No	No	-0.724	No	Yes	2.773	2.226	No	No	1.163	-0.084
O=C(O[C@H]1[C@@H](C)[NH2+][C@@H](CCCCCCCCCCCCC(=O)C)CC1)C	368.582	4.3026	14	3	1	160.384	-5.071	1.087	93.821	-2.823	Yes	Yes	Yes	0.429	0.21	-0.444	-2.883	No	Yes	No	No	No	No	No	1.685	No	No	-0.759	No	Yes	2.609	2.039	No	No	1.154	0.173
O=C(O[C@H]1[C@@H](C)[NH2+][C@@H](CCCCCCCCCCCC[C@H](O)C)CC1)C	370.598	4.0944	14	3	2	161.016	-4.786	0.498	91.295	-2.83	Yes	Yes	Yes	0.414	0.241	-0.481	-2.971	No	Yes	No	No	No	No	No	1.67	No	No	-0.774	No	Yes	2.659	2.039	No	Yes	1.1	0.441
O=C(O[C@H]1[C@@H](c2cc(O)c(O)cc2)Oc2c(c(O)cc(O)c2)C1)C	332.308	2.1169	2	7	4	136.873	-3.47	0.382	86.003	-2.735	Yes	No	No	0.053	0.129	-1.361	-3.507	No	No	No	No	No	No	No	0.461	No	Yes	0.559	No	No	2.327	1.791	No	No	0.364	1.479
O=C(O[C@H]1[C@@](C=C)(C)CC=2C(=O)C[C@H]3C(C)(C)CCC[C@]3(C)C=2C1)C	344.495	5.0062	2	3	0	151.443	-5.069	1.361	98.48	-2.845	No	Yes	No	0.184	0.04	-0.113	-2.475	No	Yes	No	No	No	No	No	0.65	Yes	No	-0.334	No	Yes	1.889	1.749	No	No	1.052	-0.003
O=C(O[C@H]1[C@@](OC)(CC=C(C)C)c2nc3occc3c(OC)c2CC1)C	359.422	3.9123	5	6	0	152.678	-4.113	1.305	97.352	-3.031	No	No	No	-0.161	0.177	-0.65	-2.928	No	Yes	Yes	No	No	No	No	1.083	No	No	0.483	No	No	3.114	1.449	Yes	No	0.456	-0.171
O=C(O[C@H]1[C@H](C)N[C@@H](CCCCCCCCCCC(=O)C)CC1)C	339.52	4.5486	12	4	1	147.654	-4.658	1.094	92.197	-2.781	Yes	Yes	No	0.467	0.247	-0.302	-2.649	No	Yes	No	No	No	No	No	1.386	No	No	-0.629	No	Yes	2.681	2.076	No	Yes	1.263	0.433
O=C(O[C@H]1[C@H](O)[C@@H](O)[C@H](O)[C@@H](CO)O1)/C=C/c1cc(O)c(O)cc1	342.3	-1.5459	4	9	6	136.174	-2.897	-0.28	40.966	-2.736	Yes	No	No	-0.047	0.363	-1.693	-5.081	No	No	No	No	No	No	No	0.168	No	No	0.712	No	No	3.251	3.753	No	No	0.285	5.127
O=C(O[C@H]1[C@H](O)[C@@H](O)[C@H](O)[C@@H](CO)O1)/C=C/c1cc(OC)c(O)cc1	356.327	-1.2429	5	9	5	142.859	-2.959	-0.216	45.643	-2.748	Yes	No	No	-0.404	0.368	-1.548	-4.685	No	No	No	No	No	No	No	0.257	No	No	0.577	No	Yes	3.493	3.806	No	No	0.285	4.903
O=C(O[C@H]1[C@H](O)[C@H](O)C[C@@](O)(C(=O)O)C1)/C=C/c1cc(O)c(O)cc1	354.311	-0.6459	4	8	6	141.587	-2.883	-0.67	17.399	-2.735	Yes	No	No	-1.007	0.38	-1.645	-4.689	No	No	No	No	No	No	No	0.394	No	No	1.305	No	No	2.245	3.669	No	No	0.285	4.836
O=C(O[C@H]1[C@H](O)[C@H](O)C[C@@](O)(C(=O)OC)C1)/C=C/c1cc(O)c(O)cc1	368.338	-0.5575	4	9	5	148.272	-2.808	0.208	42.842	-2.742	Yes	No	No	0.112	0.33	-1.625	-4.278	No	No	No	No	No	No	No	0.268	No	No	0.467	No	No	3.602	3.134	Yes	No	0.285	3.302
O=C(O[C@H]1[C@H](O)[C@H](O)C[C@@](O)(C(=O)OC)C1)/C=C/c1cc(O)c(O)cc1	368.338	-0.5575	4	9	5	148.272	-2.808	0.208	42.842	-2.742	Yes	No	No	0.112	0.33	-1.625	-4.278	No	No	No	No	No	No	No	0.268	No	No	0.467	No	No	3.602	3.134	Yes	No	0.285	3.302
O=C(O[C@H]1[C@H](O)[C@H](O)C[C@@](O)(C(=O)OC)C1)/C=C\c1cc(O)c(O)cc1	368.338	-0.5575	4	9	5	148.272	-2.821	0.176	38.439	-3.257	Yes	No	No	-0.7	0.5	-1.502	-3.859	No	No	No	No	No	No	No	0.222	No	No	0.727	No	No	2.463	3.136	Yes	No	0.288	2.874
O=C(O[C@H]1[C@H](O)[C@H](O)C[C@@](O)(C(=O)OC)C1)/C=C\c1cc(O)c(O)cc1	368.338	-0.5575	4	9	5	148.272	-2.821	0.176	38.439	-3.257	Yes	No	No	-0.7	0.5	-1.502	-3.859	No	No	No	No	No	No	No	0.222	No	No	0.727	No	No	2.463	3.136	Yes	No	0.288	2.874
O=C(O[C@H]1[C@H]2[C@@]3(C)[C@H](C(C)(C)CCC3)CC[C@@]32CC(=C)[C@@H](C1)C3)C	330.512	5.517	1	2	0	146.965	-5.878	1.744	100	-2.548	No	Yes	No	0.257	0	0.643	-1.9	No	Yes	No	No	No	No	No	0.468	No	No	-0.373	No	Yes	2.101	2.009	Yes	No	0.751	-0.711
O=C(O[C@H]1[C@H]2[C@H](O)C=C(CO)[C@@]32O[C@](C)(C(=O)C3)C1)/C(=C\C)/C	322.357	0.6644	3	6	2	134.320	-2.739	0.404	69.351	-3.962	No	No	No	0.066	0.529	-0.478	-3.005	No	No	No	No	No	No	No	1.29	No	Yes	0.224	No	No	2.442	1.669	No	No	0.326	2.783
O=C(O[C@H]1[C@H]2[C@H](O)C=C(CO)[C@]32O[C@@](C)(C(=O)C3)C1)/C(=C/C)/C	322.357	0.6644	3	6	2	134.320	-2.739	0.404	69.351	-3.962	No	No	No	0.066	0.529	-0.478	-3.005	No	No	No	No	No	No	No	1.29	No	Yes	0.224	No	No	2.442	1.669	No	No	0.326	2.783
O=C(O[C@](C=C)(CCC=C(C)C)C)C	196.29	3.2406	5	2	0	86.649	-2.958	1.619	95.295	-1.842	No	No	No	0.042	0.419	0.537	-2.404	No	No	No	No	No	No	No	1.627	No	No	0.611	No	No	1.808	2.178	No	Yes	1.071	1.09
O=C(Oc1c(C(=O)C)c(C)cc2c1c(OC(=O)C)cc(OC(=O)C)c2)C	358.346	3.12672	4	7	0	149.384	-4.923	1.223	90.994	-2.831	No	Yes	No	-0.449	0.155	-0.91	-2.889	No	Yes	Yes	Yes	No	No	No	0.718	No	No	0.991	No	No	2.453	1.748	Yes	No	0.377	0.32
O=C(Oc1c(C(=O)CCc2ccc(OC)cc2)c(OC)cc(OC)c1)C	358.39	3.4532	8	6	0	152.185	-4.916	1.185	100	-2.737	No	Yes	No	-0.363	0.055	-0.782	-3.021	No	Yes	Yes	Yes	Yes	No	Yes	0.637	No	No	1.112	No	No	2.593	1.631	No	No	0.387	-1.113
O=C(Oc1c(C(C)C)ccc(C)c1)C	192.258	3.04372	2	2	0	84.896	-3.712	1.606	96.496	-1.832	No	No	No	0.366	0.193	0.252	-1.757	No	No	Yes	No	No	No	No	0.389	No	No	0.81	No	No	1.823	2.176	No	Yes	1.384	0.559
O=C(Oc1c(C)ccc(C(C)C)c1)C	192.258	3.04372	2	2	0	84.896	-3.627	1.659	96.079	-1.856	No	No	No	0.387	0.195	0.242	-1.795	No	No	Yes	No	No	No	No	0.386	No	No	0.868	No	No	1.746	2.225	No	Yes	1.262	0.527
O=C(Oc1c(OC(=O)C)cc(C(=O)O)cc1OC(=O)C)C	296.231	1.1607	4	7	1	118.767	-2.799	0.448	56.844	-2.735	No	No	No	-0.874	0.441	-1.015	-3.034	No	No	No	No	No	No	No	1.037	No	No	1.703	No	No	1.882	1.438	No	No	0.283	2.78
O=C(Oc1c(OC)c(OC)cc2C(=O)c3c(OC(=O)C)cccc3Oc12)C	372.329	2.814	4	8	0	152.728	-4.117	1.52	89.753	-2.735	No	Yes	No	-0.79	0.184	-1.135	-3.517	No	Yes	Yes	No	No	No	Yes	0.61	No	No	0.821	No	Yes	2.44	1.629	No	No	0.286	0.33
O=C(Oc1c2C(=O)c3c(C)cc(OC)cc3Oc2cc(OC)c1)C	328.32	3.19712	3	6	0	137.088	-4.293	1.329	100	-2.728	No	No	Yes	-0.099	0.199	-0.728	-2.272	No	Yes	Yes	Yes	Yes	No	No	0.901	No	Yes	0.435	No	No	2.306	1.319	No	No	0.414	-0.362
O=C(Oc1c2OC(C)(C)C=Cc2cc(C(=O)OC)c1)C	276.288	2.5827	2	5	0	116.684	-3.65	1.323	97.863	-2.922	No	No	No	-0.27	0.283	-0.224	-2.856	No	No	Yes	No	No	No	No	0.627	No	No	0.762	No	No	2.526	2.051	No	No	0.592	1.616
O=C(Oc1c2c(occ2)cc2OC(=O)C=Cc12)CC(C)C	286.283	3.4907	3	5	0	119.655	-4.024	0.804	96.664	-2.518	No	No	No	0.019	0.153	-0.493	-2.041	No	Yes	Yes	Yes	Yes	No	No	0.967	No	Yes	0.029	No	No	2.106	1.695	Yes	No	0.773	-0.497
