SMILES	MOL_WEIGHT	LOGP	#ROTATABLE_BONDS	#ACCEPTORS	#DONORS	SURFACE_AREA	Water solubility	Caco2 permeability	Intestinal absorption (human)	Skin Permeability	P-glycoprotein substrate	P-glycoprotein I inhibitor	P-glycoprotein II inhibitor	VDss (human)	Fraction unbound (human)	BBB permeability	CNS permeability	CYP2D6 substrate	CYP3A4 substrate	CYP1A2 inhibitior	CYP2C19 inhibitior	CYP2C9 inhibitior	CYP2D6 inhibitior	CYP3A4 inhibitior	Total Clearance	Renal OCT2 substrate	AMES toxicity	Max. tolerated dose (human)	hERG I inhibitor	hERG II inhibitor	Oral Rat Acute Toxicity (LD50)	Oral Rat Chronic Toxicity (LOAEL)	Hepatotoxicity	Skin Sensitisation	<i>T.Pyriformis</i> toxicity	Minnow toxicity
O[C@@H](CCCCc1ccc(O)cc1)CCc1ccc(O)cc1	300.398	3.8043	8	3	3	131.426	-4.146	1.206	88.119	-2.936	Yes	No	No	0.268	0.155	-0.376	-2.402	No	No	Yes	Yes	Yes	No	Yes	1.249	No	No	0.287	No	Yes	1.772	2.12	No	No	0.826	0.036
O[C@@H](CO)CCCCCCCCCC[C@H]1N[C@@H](C)[C@@H](O)CC1	315.498	2.742	12	4	4	135.870	-2.69	0.709	87.094	-2.861	Yes	No	No	0.257	0.486	-0.866	-3.145	No	Yes	No	No	No	No	No	1.59	No	No	-0.527	No	No	2.466	2.012	No	Yes	1.003	1.396
O[C@@H]([C@H](O)[C@H](O)CO)[C@H](O)CO	182.172	-3.5854	5	6	6	69.329	0.331	-0.634	20.824	-4.117	No	No	No	-0.598	0.861	-1.381	-5.233	No	No	No	No	No	No	No	0.919	No	No	2.337	No	No	1.53	4.117	No	No	0.285	4.422
O[C@@H]1C(C)(C)[C@@H]2[C@@](C)(c3c(c(C(C)C)c(O)cc3)CC2)CC1	302.458	4.5166	1	2	2	134.117	-5.244	1.113	92.995	-3.004	Yes	No	No	0.71	0.006	-0.12	-1.732	No	Yes	Yes	No	No	No	No	0.838	No	No	-0.506	No	No	2.512	2.332	No	No	1.683	-0.365
O[C@@H]1C(C)(C)[C@@H]2[C@@](C)(c3c(c(CC)c(C)cc3)CC2)CC1	286.459	4.55842	1	1	1	129.323	-5.601	1.418	95.341	-2.184	No	No	No	1.145	0	0.363	-1.989	No	Yes	Yes	Yes	No	No	No	1.128	No	No	0.163	No	No	1.93	1.076	No	No	2.532	-0.18
O[C@@H]1C(C)(C)[C@H]2[C@@](C)([C@@H]3C(=CC2)C[C@@](C=C)(C)CC3)CC1	288.475	5.1123	1	1	1	130.071	-5.81	1.533	93.641	-2.38	No	Yes	No	0.642	0.073	0.639	-2.227	No	Yes	No	Yes	No	No	No	0.78	No	No	-0.131	No	Yes	1.673	1.14	No	No	1.773	0.053
O[C@@H]1CC=2[C@](C)([C@H]3[C@H]([C@H]4[C@](C)([C@@H]([C@@H](/C=C/C(C)C)C)CC4)CC3)CC=2)CC1	370.621	6.7746	3	1	1	167.255	-6.588	1.233	95.881	-2.831	No	Yes	Yes	0.348	0	0.758	-1.764	No	Yes	No	No	No	No	No	0.584	No	No	-0.582	No	Yes	2.182	0.968	No	No	0.629	-1.357
O[C@@H]1[C@@H](C)[C@H](C)[C@@](O)(c2cc3OCOc3cc2)c2c3OCOc3ccc12	356.374	2.6991	1	6	2	150.433	-3.602	1.251	94.971	-2.735	No	No	No	-0.155	0.184	-0.291	-3.134	No	Yes	No	Yes	Yes	No	Yes	-0.005	No	No	0.321	No	Yes	2.591	1.711	No	No	0.292	0.435
O[C@@H]1[C@@H](c2cc(O)c(O)cc2)Oc2c(c(O)cc(O)c2)C1	290.271	1.5461	1	6	5	119.662	-3.019	-0.46	72.165	-2.737	Yes	No	No	0.191	0.176	-1.179	-3.397	No	No	No	No	No	No	No	0.258	No	Yes	0.43	No	No	2.08	1.779	No	No	0.413	1.712
O[C@@H]1[C@@]2(C)C(C)(C)[C@@H](C1)CC2	154.253	2.1935	0	1	1	68.806	-2.388	1.5	95.734	-2.287	No	No	No	0.341	0.478	0.646	-2.381	No	No	No	No	No	No	No	1.035	No	No	0.796	No	No	1.798	1.877	No	Yes	0.241	1.43
O[C@@H]1[C@@]2(O)[C@@H]([C@@]3(C)[C@@H](C(C)(C)CCC3)C1)CC[C@@](C=C)(C)C2	306.49	4.3071	1	2	2	135.555	-4.103	1.225	93.02	-2.996	Yes	Yes	No	0.248	0.117	0.108	-2.05	No	No	No	No	No	No	No	0.718	Yes	No	-0.358	No	No	2.234	1.96	No	No	1.009	0.501
O[C@@H]1[C@H](O)C[C@]2(C)[C@H](C1(C)C)CC[C@@]13[C@H]2CC[C@H]([C@@](O)(C)C1)C3	322.489	3.1118	0	3	3	140.033	-3.887	1.345	95.008	-3.358	Yes	No	No	-0.071	0.127	-0.216	-1.865	No	Yes	No	No	No	No	No	0.528	No	No	-1.452	No	No	2.451	1.631	Yes	No	0.519	0.996
O[C@@H]1[C@]2(C)C(=C(O)C(=C)[C@]34C(C)(C)CCC[C@]23O4)C[C@](C=C)(C)C1	330.468	4.4395	1	3	2	144.648	-4.324	1.357	92.9	-3.175	No	No	No	0.404	0.199	0.196	-2.821	No	Yes	No	No	No	No	No	0.646	No	No	-0.221	No	No	2.047	1.736	No	No	0.693	0.977
O[C@@H]1[C@]2(C)[C@@H](C[C@](C=C)(C)C1)CC[C@]13C(C)(C)C(=C)CC[C@]21O3	316.485	4.6337	1	2	1	140.543	-4.853	1.621	94.568	-3.359	No	Yes	No	0.604	0.213	0.301	-3.103	No	Yes	No	Yes	No	No	No	0.724	No	No	-0.169	No	No	1.627	1.789	No	No	0.943	0.62
O[C@@](C=C)(CC/C=C(\CCC=C(C)C)/C)C	222.372	4.3963	7	1	1	100.574	-5.2	1.498	91.673	-1.477	No	No	No	0.37	0.231	0.655	-2.09	No	No	No	No	No	No	No	1.739	No	No	0.245	No	No	1.597	1.178	No	Yes	2.285	0.185
O[C@@](CO)(C)c1c2c(c(C)cc1)cc(O)c(C)c2	246.306	2.36204	2	3	3	106.320	-2.719	1.181	93.342	-3.081	Yes	No	No	0.301	0.21	-0.162	-2.214	No	Yes	Yes	No	No	No	No	0.222	No	Yes	0.235	No	No	2.207	1.867	No	No	0.936	1.049
O[C@@]1(C)[C@@H]2[C@H]([C@@H](C(C)C)CC1)C=C(C)CC2	222.372	3.7759	1	1	1	99.941	-4.33	1.502	93.112	-1.89	No	No	No	0.478	0.289	0.596	-2.309	No	No	No	Yes	Yes	No	No	1.085	No	No	0.135	No	No	1.643	1.237	No	Yes	1.515	0.885
O[C@@]1(C)[C@H]2[C@@H]([C@H](C(C)C)CC1)C=C(C)CC2	222.372	3.7759	1	1	1	99.941	-4.33	1.502	93.112	-1.89	No	No	No	0.478	0.289	0.596	-2.309	No	No	No	Yes	Yes	No	No	1.085	No	No	0.135	No	No	1.643	1.237	No	Yes	1.515	0.885
O[C@@]1(C)[C@H]2[C@@H]([C@H](C)CC2)[C@H]2C(C)(C)[C@H]2CC1	222.372	3.4657	0	1	1	99.625	-4.248	1.507	94.375	-2.18	No	No	No	0.566	0.253	0.642	-2.236	No	No	Yes	Yes	No	No	No	0.817	No	No	0.133	No	No	1.668	1.26	No	Yes	1.339	0.86
O[C@@]1(C)[C@H]2[C@@](C)(CC[C@@H](C(=C)C)C2)CCC1	222.372	3.92	1	1	1	99.941	-4.387	1.52	93.463	-1.894	No	No	No	0.485	0.28	0.599	-2.329	No	No	No	Yes	Yes	No	No	1.073	No	No	0.383	No	No	1.732	1.295	No	Yes	1.511	0.761
O[C@@]1(C)[C@H]2[C@@](C)(CC[C@@H](C(=C)C)C2)CCC1	222.372	3.92	1	1	1	99.941	-4.387	1.52	93.463	-1.894	No	No	No	0.485	0.28	0.599	-2.329	No	No	No	Yes	Yes	No	No	1.073	No	No	0.383	No	No	1.732	1.295	No	Yes	1.511	0.761
O[C@@]12[C@H](C)CC[C@@H](C(C)C)[C@@H]1C=C(C)CC2	222.372	3.7759	1	1	1	99.941	-4.344	1.506	93.589	-1.891	No	No	No	0.485	0.28	0.608	-2.309	No	No	No	Yes	No	No	No	1.128	No	No	0.209	No	No	1.686	1.213	No	Yes	1.523	0.824
O[C@H](C)C1CCC(O)CC1	144.214	0.9183	1	2	2	61.876	-0.3	1.571	85.618	-3.459	Yes	No	No	-0.03	0.704	-0.234	-3.15	No	No	No	No	No	No	No	1.312	No	No	1.107	No	No	1.924	2.547	No	Yes	-1.127	2.669
O[C@H](CC(C)C)CCCC	144.258	2.5836	5	1	1	64.453	-3	1.483	92.382	-1.353	No	No	No	0.191	0.427	0.635	-2.003	No	No	No	No	No	No	No	1.455	No	No	0.619	No	No	1.631	2.033	No	Yes	0.56	1.078
O[C@H](CCCCCCCCCCCC[C@@H]1N[C@H](C)[C@@H](O)CC1)C	327.553	4.5498	13	3	3	143.806	-4.785	1.522	87.058	-2.769	No	No	No	0.616	0.325	-0.349	-2.818	No	Yes	Yes	No	No	Yes	No	1.61	No	No	-0.293	No	No	2.259	2.362	No	Yes	1.616	-0.03
O[C@H](CCCCCCCCCCCC[C@@H]1N[C@H](C)[C@H](O)CC1)C	327.553	4.5498	13	3	3	143.806	-4.785	1.522	87.058	-2.769	No	No	No	0.616	0.325	-0.349	-2.818	No	Yes	Yes	No	No	Yes	No	1.61	No	No	-0.293	No	No	2.259	2.362	No	Yes	1.616	-0.03
O[C@H](CCCCCCCCCC[C@@H]1N[C@@H](C)[C@H](O)CC1)C	299.499	3.7696	11	3	3	131.076	-3.896	1.486	87.745	-2.692	No	No	No	0.621	0.416	-0.264	-2.801	No	Yes	No	No	No	Yes	No	1.525	No	No	-0.137	No	No	2.218	2.218	No	Yes	1.692	0.487
O[C@H](CCCCCCCCCC[C@@H]1N[C@H](C)[C@H](O)CC1)C	299.499	3.7696	11	3	3	131.076	-3.896	1.486	87.745	-2.692	No	No	No	0.621	0.416	-0.264	-2.801	No	Yes	No	No	No	Yes	No	1.525	No	No	-0.137	No	No	2.218	2.218	No	Yes	1.692	0.487
O[C@H](CCCCCCCCCC[C@H]1N[C@H](C)[C@H](O)CC1)C	299.499	3.7696	11	3	3	131.076	-3.896	1.486	87.745	-2.692	No	No	No	0.621	0.416	-0.264	-2.801	No	Yes	No	No	No	Yes	No	1.525	No	No	-0.137	No	No	2.218	2.218	No	Yes	1.692	0.487
O[C@H](CCCCc1ccc(O)cc1)CCc1ccc(O)cc1	300.398	3.8043	8	3	3	131.426	-4.146	1.206	88.119	-2.936	Yes	No	No	0.268	0.155	-0.376	-2.402	No	No	Yes	Yes	Yes	No	Yes	1.249	No	No	0.287	No	Yes	1.772	2.12	No	No	0.826	0.036
O[C@H](CO)C[C@H](CO)C[C@H](O)CCCCCCCCC#C	300.439	1.8432	14	4	4	128.754	-2.418	0.838	93.732	-2.627	Yes	No	No	-0.311	0.363	-0.875	-3.346	No	No	No	No	No	No	No	1.952	No	No	-1.059	No	No	3.537	3.131	No	Yes	0.434	2.655
O[C@H](CO)C[C@H](CO)C[C@H](O)CCCCCCCCC=C	302.455	2.396	15	4	4	129.066	-2.496	0.805	92.456	-2.616	Yes	No	No	-0.277	0.35	-0.981	-3.33	No	No	No	No	No	No	No	2.012	No	No	-1.039	No	No	3.575	2.229	No	Yes	0.438	2.458
O[C@H](CO)c1ccccc1	138.166	0.7123	2	2	2	59.750	-0.47	1.567	69.796	-2.426	No	No	No	-0.158	0.474	-0.144	-1.923	No	No	No	No	No	No	No	0.265	No	No	1.054	No	No	2.092	2.877	No	Yes	-0.897	2.224
O[C@H]1[C@@H](c2cc(O)c(O)c(O)c2)Oc2c(c(O)cc(O)c2)C1	306.27	1.2517	1	7	6	124.456	-3.035	-0.558	59.783	-2.735	Yes	No	No	0.159	0.16	-1.497	-3.72	No	No	No	No	No	No	No	0.43	No	Yes	0.678	No	No	2.354	2.913	No	No	0.304	1.72
O[C@H]1[C@@H](c2cc(O)c(O)cc2)Oc2c(c(O)cc(O)c2)C1	290.271	1.5461	1	6	5	119.662	-3.019	-0.46	72.165	-2.737	Yes	No	No	0.191	0.176	-1.179	-3.397	No	No	No	No	No	No	No	0.258	No	Yes	0.43	No	No	2.08	1.779	No	No	0.413	1.712
O[C@H]1[C@@H]2C(=C)C[C@@]3(C([C@]4(C)[C@@H](C(C)(C)CCC4)CC3)=C1)C2	286.459	4.8663	0	1	1	129.065	-5.676	1.534	97.555	-2.789	No	No	Yes	0.482	0	0.719	-1.777	No	Yes	Yes	Yes	Yes	No	No	0.594	No	No	-0.43	No	Yes	2.022	1.236	No	No	0.945	-0.433
O[C@H]1[C@@H]2[C@]3(C)[C@@H](C(C)(C)CCC3)CC[C@]32CC(=C)[C@H](C1)C3	288.475	4.9462	0	1	1	129.754	-5.702	1.529	98.614	-2.791	No	No	Yes	0.477	0	0.706	-1.791	No	Yes	Yes	Yes	Yes	No	No	0.546	No	No	-0.524	No	Yes	2.059	1.261	No	No	0.901	-0.599
O[C@H]1[C@@]2(C)C(C)(C)[C@@H](C1)CC2	154.253	2.1935	0	1	1	68.806	-2.388	1.5	95.734	-2.287	No	No	No	0.341	0.478	0.646	-2.381	No	No	No	No	No	No	No	1.035	No	No	0.796	No	No	1.798	1.877	No	Yes	0.241	1.43
O[C@H]1[C@@]2(O)[C@@]3(C)[C@H](C(C)(C)CCC3)CC[C@]32CC(=C)[C@@H](C1)C3	304.474	4.0611	0	2	2	134.549	-3.364	1.033	96.374	-2.843	Yes	Yes	No	0.184	0.04	0.002	-1.738	No	Yes	No	Yes	No	No	No	0.604	No	No	-0.488	No	No	2.299	2.014	No	No	0.475	0.142
O[C@H]1[C@H](C(C)C)CC[C@@]2(C)[C@H](O)CCC(=C)[C@H]12	238.371	2.7467	1	2	2	104.736	-2.955	1.575	93.317	-2.622	No	No	No	0.193	0.346	0.151	-2.478	No	No	No	No	No	No	No	1.155	No	No	0.356	No	No	1.85	2.017	No	Yes	1.19	1.238
O[C@H]1[C@H](O)[C@@H]2[C@@](O)(C)c3c(occ3)C[C@H]2[C@@]2(C)[C@@H]1C(C)(C)CCC2	334.456	2.8436	0	4	3	143.430	-3.059	1.227	94.399	-3.013	Yes	No	No	0.192	0.116	-0.532	-3.198	No	Yes	No	No	No	No	No	0.612	No	No	-0.232	No	No	2.376	1.812	No	No	0.385	-0.068
O[C@H]1[C@H]2OCc3c(O)c(O)ccc3[C@H]2Oc2c1ccc(O)c2	302.282	1.8693	0	6	4	125.341	-3.666	1.157	78.518	-2.736	Yes	No	No	0.27	0.064	-0.994	-3.289	No	No	Yes	No	No	No	Yes	0.25	No	Yes	0.463	No	No	2.139	2.048	No	No	0.316	1.884
O[C@H]1[C@H]2OCc3c([C@H]2Oc2c1ccc(O)c2)cc(O)c(O)c3	302.282	1.8693	0	6	4	125.341	-3.802	0.898	78.759	-2.737	Yes	No	No	0.143	0.077	-0.932	-3.275	No	No	Yes	No	No	No	Yes	0.348	No	Yes	0.516	No	No	2.148	2.412	No	No	0.306	2.302
O[C@H]1[C@H]2O[C@H]2[C@@H](O)c2c1c(O)ccc2	194.186	0.24	0	4	3	80.376	-1.698	1.054	62.559	-2.848	No	No	No	0.078	0.421	-0.563	-3.027	No	No	No	No	No	No	No	0.183	No	No	0.261	No	No	2.192	3.049	No	No	-0.044	2.457
O[C@H]1c2c(O)cccc2O[C@H](C)C1	180.203	1.5966	0	3	2	76.587	-1.682	1.202	91.633	-2.497	No	No	No	0.05	0.448	0.287	-2.854	No	No	Yes	No	No	No	No	0.212	No	No	0.492	No	No	2.101	2.726	No	No	0.722	1.511
O[C@](C=C)(CCC=C(C)C)C	154.253	2.6698	4	1	1	69.439	-2.64	1.492	92.943	-1.7	No	No	No	0.155	0.48	0.6	-2.329	No	No	No	No	No	No	No	0.446	No	No	0.771	No	No	1.713	2.017	No	Yes	0.496	1.306
O[C@]1(C(C)C)CC=C(C)CC1	154.253	2.5037	1	1	1	69.123	-2.345	1.495	93.573	-2.111	No	No	No	0.217	0.51	0.562	-2.453	No	No	No	No	No	No	No	1.269	No	No	0.79	No	No	1.791	1.996	No	Yes	0.135	1.602
O[C@]1(C)[C@@H]2[C@H]([C@@H](C)CC2)[C@@H]2C(C)(C)[C@@H]2CC1	222.372	3.4657	0	1	1	99.625	-4.248	1.507	94.375	-2.18	No	No	No	0.566	0.253	0.642	-2.236	No	No	Yes	Yes	No	No	No	0.817	No	No	0.133	No	No	1.668	1.26	No	Yes	1.339	0.86
O[C@]1(C)[C@@H]2[C@H]([C@H](C(C)C)CC1)C=C(C)CC2	222.372	3.7759	1	1	1	99.941	-4.33	1.502	93.112	-1.89	No	No	No	0.478	0.289	0.596	-2.309	No	No	No	Yes	Yes	No	No	1.085	No	No	0.135	No	No	1.643	1.237	No	Yes	1.515	0.885
O[C@]1(C)[C@@H]2[C@H]([C@H](C)CC2)[C@@H]2C(C)(C)[C@@H]2CC1	222.372	3.4657	0	1	1	99.625	-4.248	1.507	94.375	-2.18	No	No	No	0.566	0.253	0.642	-2.236	No	No	Yes	Yes	No	No	No	0.817	No	No	0.133	No	No	1.668	1.26	No	Yes	1.339	0.86
O[C@]1(C)[C@@H]2[C@H]3[C@H](C(C)C)CC[C@@H](C)[C@@]23CC1	222.372	3.4657	1	1	1	99.625	-4.506	1.5	95.262	-2.192	No	No	No	0.564	0.19	0.683	-2.005	No	Yes	Yes	No	No	No	No	0.885	No	No	-0.141	No	No	1.666	1.267	No	Yes	1.531	0.542
O[C@]1(C)[C@H]2[C@H]3C(C)(C)[C@H]3CCC(=C)[C@@H]2CC1	220.356	3.3858	0	1	1	98.936	-3.861	1.509	95.246	-2.31	No	No	No	0.563	0.335	0.62	-2.576	No	No	Yes	Yes	Yes	No	No	0.895	No	No	0.379	No	No	1.722	1.241	No	Yes	1.076	1.002
O[C@]1([C@@H](C)[C@H](C)Cc2c1c1OCOc1cc2)c1cc2OCOc2cc1	340.375	3.2082	1	5	1	145.639	-3.969	1.325	97.635	-2.735	No	Yes	No	-0.173	0.064	-0.149	-2.098	No	Yes	Yes	Yes	Yes	Yes	No	-0.055	No	Yes	0.178	No	Yes	3.114	1.678	No	No	0.378	0.252
O[C@]12[C@@H](C)CC[C@H](C(C)C)[C@H]1C=C(C)CC2	222.372	3.7759	1	1	1	99.941	-4.344	1.506	93.589	-1.891	No	No	No	0.485	0.28	0.608	-2.309	No	No	No	Yes	No	No	No	1.128	No	No	0.209	No	No	1.686	1.213	No	Yes	1.523	0.824
O[C@]12[C@@H](C)CC[C@H]3C(C)(C)[C@H]3[C@H]1[C@H](C)CC2	222.372	3.4657	0	1	1	99.625	-3.996	1.49	93.759	-2.236	No	No	No	0.573	0.328	0.614	-2.526	No	No	No	Yes	Yes	No	No	0.856	No	No	0.136	No	No	1.677	1.169	No	Yes	1.127	1.133
O[C@]12[C@@]3(C)[C@H](C(C)(C)CCC3)CC[C@]31CC(=C)[C@H](C3)CC2	288.475	5.0903	0	1	1	129.754	-5.722	1.534	94.295	-2.677	No	No	No	0.68	0.033	0.664	-2.148	No	Yes	No	Yes	No	No	No	0.582	No	No	-0.118	No	Yes	1.775	1.207	No	No	1.255	-0.034
Oc1c(C(C)C)cc2c([C@@]3(C)[C@H](C(C)(C)CCC3)CC2)c1	286.459	5.5458	1	1	1	129.323	-6.061	1.572	94.511	-2.538	No	No	No	1.034	0	0.39	-1.381	No	Yes	No	Yes	No	No	No	0.825	No	No	-0.315	No	Yes	2.507	1.223	No	Yes	0.984	-1.66
Oc1c(C(C)C)ccc(C)c1	150.221	2.82402	1	1	1	67.685	-3.076	1.442	93.234	-1.314	No	No	No	0.541	0.263	0.293	-1.667	No	No	Yes	No	No	No	No	0.223	No	No	0.845	No	No	1.718	2.251	Yes	Yes	0.819	0.716
Oc1c(C)c(O)c(C)cc1CCCc1c(O)cc2OCOc2c1	316.353	3.32424	4	5	3	134.282	-3.59	0.999	90.356	-2.822	Yes	No	No	0.323	0.118	-0.953	-2.275	No	No	Yes	Yes	Yes	No	No	0.453	No	Yes	-0.034	No	Yes	2.201	1.491	No	No	0.523	-0.144
Oc1c(C)c(O)cc(CCCCCCC/C=C\C/C=C\CC=C)c1	328.496	6.36792	12	2	2	146.790	-6.272	1.226	89.08	-2.733	Yes	No	Yes	0.425	0	-0.386	-0.808	No	Yes	Yes	No	No	No	Yes	1.751	No	No	-0.555	No	Yes	2.561	3.112	No	Yes	1.324	-1.91
Oc1c(C)c(O)cc(CCCCCCC/C=C\C/C=C\CCC)c1	330.512	6.59192	12	2	2	147.480	-6.34	1.311	88.605	-2.73	Yes	No	Yes	0.429	0	-0.385	-0.808	No	Yes	Yes	Yes	No	No	Yes	1.666	No	No	-0.541	No	Yes	2.579	3.155	No	Yes	1.317	-1.989
Oc1c(C)c(O)cc(CCCCCCC/C=C\CCCCCC)c1	332.528	6.81592	13	2	2	148.169	-6.414	1.299	88.098	-2.724	Yes	No	Yes	0.464	0	-0.412	-0.861	No	Yes	Yes	No	No	No	Yes	1.625	No	No	-0.483	No	Yes	2.579	3.227	No	Yes	1.259	-2.117
Oc1c(C)c(O)cc(CCCCCCCCCCCCCCC)c1	334.544	7.03992	14	2	2	148.859	-6.473	1.286	87.592	-2.719	Yes	No	Yes	0.498	0	-0.438	-0.914	No	Yes	Yes	No	No	No	Yes	1.583	No	No	-0.426	No	Yes	2.576	3.299	No	Yes	1.196	-2.244
Oc1c(C)c2O[C@H](c3c(O)cc4OCOc4c3)CCc2c(C)c1	314.337	3.50964	1	5	2	133.596	-3.842	1.029	93.478	-2.989	No	No	No	0.189	0.165	-0.241	-1.986	No	No	Yes	Yes	Yes	No	No	0.337	No	Yes	0.127	No	No	2.857	1.845	No	No	0.508	-0.009
Oc1c(C)c2O[C@H](c3c(O)cc4OCOc4c3)CCc2cc1C	314.337	3.50964	1	5	2	133.596	-3.799	1.024	92.946	-2.893	No	No	No	0.189	0.156	-0.234	-1.985	No	No	Yes	Yes	Yes	No	No	0.342	No	Yes	0.1	No	No	2.925	1.802	No	No	0.483	-0.25
Oc1c(C)cc2[C@H](C(C)C)CC[C@@H](C)c2c1	218.34	4.33752	1	1	1	98.504	-5.081	1.361	93.355	-1.943	No	No	No	0.877	0.034	0.365	-1.541	No	Yes	Yes	No	No	No	No	1.09	No	No	0.207	No	No	1.92	1.368	No	Yes	2.137	-0.558
Oc1c(C)ccc(C(C)C)c1	150.221	2.82402	1	1	1	67.685	-2.976	1.442	92.817	-1.329	No	No	No	0.563	0.257	0.283	-1.705	No	No	Yes	No	No	No	No	0.219	No	No	0.951	No	No	1.669	2.264	Yes	Yes	0.679	0.684
Oc1c(CC=C(C)C)c(C)cc2O[C@](/C=C/C=C(C)C)(C)CCc12	326.48	5.81542	4	2	1	146.104	-6.411	1.406	92.996	-2.402	No	Yes	No	0.712	0	0.381	-2.047	No	Yes	Yes	Yes	No	No	No	1.183	No	No	0.374	No	No	1.907	2.318	Yes	Yes	2.799	-0.583
Oc1c(CCCc2cc3OCOc3cc2)ccc(O)c1	272.3	3.0018	4	4	2	116.758	-3.875	1.255	91.868	-2.842	Yes	No	No	0.136	0.052	-0.036	-2.316	No	Yes	Yes	Yes	Yes	No	Yes	0.121	No	Yes	0.322	No	Yes	2.16	1.859	No	No	1.034	-0.195
Oc1c(O)c2[C@@H]3[C@H](C(C)(C)CCC3)CCc2cc1C(C)C	288.431	5.0773	1	2	2	127.752	-3.694	0.976	92.144	-2.782	Yes	No	No	0.115	0	-0.243	-0.611	No	Yes	Yes	Yes	No	No	No	0.697	No	No	-1.055	No	No	2.477	2.684	No	No	0.524	-1.386
Oc1c(O)c2c([C@H]3OC[C@]42[C@H](C(C)(C)CCC4)C3)cc1C(C)C	316.441	4.7603	1	3	2	138.225	-3.815	1.409	92.156	-2.835	Yes	Yes	No	0.289	0	-0.064	-1.547	No	Yes	No	No	No	No	No	0.393	No	No	-0.972	No	No	2.462	2.229	No	No	0.354	-0.419
Oc1c(O)c2c(cc1C(C)C)CC[C@H]1C(C)(C)CCC=C1C2	300.442	5.0725	1	2	2	133.428	-4.064	1.244	89.693	-2.865	Yes	No	No	0.76	0.02	0.095	-1.647	No	Yes	Yes	Yes	No	No	No	0.767	No	No	-0.736	No	No	2.349	2.353	No	No	1.225	-0.769
Oc1c(O)c2c(cc1C(C)C)CC[C@H]1C(C)(C)CCC[C@@H]1C2	302.458	5.1524	1	2	2	134.117	-4.195	1.32	90.007	-2.843	Yes	No	No	0.594	0	-0.025	-1.025	No	Yes	Yes	Yes	No	No	No	0.712	No	No	-0.841	No	No	2.343	2.479	No	No	0.961	-1.52
Oc1c(O)ccc(/C=C/c2cc(O)cc(O)c2)c1	244.246	2.6794	2	4	4	103.706	-2.814	0.852	87.358	-2.767	Yes	No	No	-0.08	0.194	-0.866	-2.272	No	No	Yes	Yes	Yes	No	No	0.138	No	Yes	0.151	No	No	1.81	1.827	No	No	0.606	1.111
Oc1c(O)ccc([C@@](C=C)(CC/C=C(/CCC=C(C)C)\C)C)c1	314.469	6.0144	8	2	2	140.425	-5.72	1.333	89.244	-2.691	Yes	Yes	Yes	0.616	0.006	-0.231	-1.099	No	Yes	Yes	Yes	No	No	Yes	1.438	No	No	-0.327	No	No	2.604	2.798	No	Yes	1.812	-1.35
Oc1c2c(O)cccc2ccc1	160.172	2.251	0	2	2	69.702	-2.1	1.062	91.474	-2.529	Yes	No	No	0.2	0.216	0.234	-1.393	No	No	Yes	No	No	No	No	0.201	No	Yes	0.379	No	No	2.073	2.497	No	Yes	0.878	0.413
Oc1c2c(c(CC=C(C)C)c(C)c1)O[C@](/C=C/C=C(C)C)(C)CC2	326.48	5.81542	4	2	1	146.104	-6.269	1.784	92.403	-2.355	No	Yes	No	0.898	0	0.331	-2.085	No	Yes	Yes	Yes	No	No	No	1.188	No	No	0.247	No	No	1.937	2.357	Yes	Yes	2.791	-1.23
Oc1cc(CCCCCCC/C=C\C/C=C\CC=C)ccc1	298.47	6.3539	12	1	1	135.631	-7.257	1.555	90.406	-2.698	No	No	Yes	0.804	0	0.886	-1.074	No	Yes	Yes	No	No	No	No	1.904	No	No	0.136	No	Yes	1.924	1.002	No	Yes	1.195	-1.977
Oc1cc(CCCCCCC/C=C\C/C=C\CCC)ccc1	300.486	6.5779	12	1	1	136.321	-7.345	1.554	89.931	-2.699	No	No	Yes	0.808	0	0.865	-1.074	No	Yes	Yes	No	No	No	No	1.818	No	No	0.146	No	Yes	1.95	1.02	No	Yes	1.191	-2.056
Oc1cc(CCCCCCC/C=C\CCCCCC)ccc1	302.502	6.8019	13	1	1	137.010	-7.446	1.548	89.424	-2.719	No	No	Yes	0.836	0	0.893	-1.127	No	Yes	Yes	No	No	No	No	1.776	No	No	0.204	No	Yes	1.95	1.003	No	Yes	1.137	-2.183
Oc1cc(CCCCCCCCCCCCCCC)ccc1	304.518	7.0259	14	1	1	137.700	-7.532	1.541	88.918	-2.737	No	No	Yes	0.863	0	0.921	-1.18	No	Yes	Yes	No	No	No	No	1.732	No	No	0.26	No	Yes	1.948	0.986	No	Yes	1.08	-2.31
Oc1cc(O)cc(C)c1	124.139	1.40622	0	2	2	53.385	-0.832	1.257	91.642	-2.393	No	No	No	-0.015	0.507	-0.238	-1.988	No	No	No	No	No	No	No	0.598	No	No	1.029	No	No	1.937	2.856	No	Yes	-0.159	1.67
Oc1cc(O)cc(CCCCCCC/C=C/C/C=C\CCC)c1	316.485	6.2835	12	2	2	141.115	-6.123	1.311	87.601	-2.735	Yes	No	Yes	0.407	0.024	-0.383	-0.742	No	Yes	Yes	Yes	No	No	Yes	1.663	No	No	-0.349	No	Yes	2.482	3.172	No	Yes	1.289	-1.627
Oc1cc(O)cc(CCCCCCC/C=C\C/C=C\CC=C)c1	314.469	6.0595	12	2	2	140.425	-6.053	1.311	88.077	-2.738	Yes	No	Yes	0.403	0.03	-0.385	-0.742	No	Yes	Yes	Yes	No	No	Yes	1.749	No	No	-0.363	No	No	2.464	3.129	No	Yes	1.294	-1.548
Oc1cc(O)cc(CCCCCCC/C=C\CCCCCC)c1	318.501	6.5075	13	2	2	141.804	-6.208	1.304	87.095	-2.728	Yes	No	Yes	0.443	0.027	-0.41	-0.795	No	Yes	Yes	Yes	No	No	Yes	1.622	No	No	-0.291	No	Yes	2.482	3.244	No	Yes	1.234	-1.755
Oc1cc(O)cc(CCCCCCCCCCCCCCC)c1	320.517	6.7315	14	2	2	142.494	-6.278	1.297	86.589	-2.723	Yes	No	Yes	0.477	0.03	-0.437	-0.848	No	Yes	Yes	Yes	No	No	Yes	1.579	No	No	-0.233	No	No	2.478	3.316	No	Yes	1.173	-1.882
Oc1cc2OC[C@@H]3[C@H](Oc4c3cc3OCOc3c4)c2cc1	284.267	2.7306	0	5	1	120.179	-3.616	1.283	96.978	-2.735	No	No	No	-0.347	0.122	-0.08	-2.134	No	Yes	Yes	Yes	No	No	No	0.32	No	Yes	0.372	No	No	2.99	1.557	No	No	0.335	0.37
Oc1cc2OC[C@H]3[C@@H](Oc4c3cc3OCOc3c4)c2cc1	284.267	2.7306	0	5	1	120.179	-3.616	1.283	96.978	-2.735	No	No	No	-0.347	0.122	-0.08	-2.134	No	Yes	Yes	Yes	No	No	No	0.32	No	Yes	0.372	No	No	2.99	1.557	No	No	0.335	0.37
Oc1cc2[C@@H]([C@@H](C)[C@H](C)Cc2cc1)c1ccc(O)cc1	268.356	4.058	1	2	2	119.261	-4.608	1.466	93.427	-2.852	Yes	No	No	0.475	0.067	-0.029	-1.696	No	Yes	Yes	Yes	Yes	No	No	0.062	No	No	0.215	No	Yes	2.169	2.092	No	No	1.086	0.458
Oc1ccc(CC[C@@H]2O[C@H](c3ccc(O)cc3)CCC2)cc1	298.382	4.3408	4	3	2	130.739	-4.76	1.338	89.259	-2.843	No	Yes	No	0.388	0.071	-0.085	-1.891	No	No	Yes	Yes	Yes	No	Yes	1.089	No	No	0.322	No	Yes	2.141	1.768	No	No	1.601	0.475
Oc1ccc(CC[C@H]2O[C@@H](c3ccc(O)cc3)CCC2)cc1	298.382	4.3408	4	3	2	130.739	-4.76	1.338	89.259	-2.843	No	Yes	No	0.388	0.071	-0.085	-1.891	No	No	Yes	Yes	Yes	No	Yes	1.089	No	No	0.322	No	Yes	2.141	1.768	No	No	1.601	0.475
S(=O)(=O)(/C=C/COC(=O)/C=C/c1ccccc1)C	266.318	1.8013	5	4	0	106.507	-2.81	1.242	97.492	-2.77	No	Yes	No	-0.398	0.254	-0.03	-2.517	No	No	Yes	No	No	No	No	0.989	No	No	1.06	No	No	2.28	1.559	No	No	0.775	-0.808
S(=O)(=O)(C)c1cc2N(CC[C@H]3N(C)CCCC3)c3c(Sc2cc1)cccc3	402.585	4.5672	4	5	0	166.029	-4.84	1.038	94.842	-2.934	Yes	Yes	No	1.226	0.094	0.169	-1.594	No	Yes	Yes	No	No	Yes	Yes	0.635	Yes	No	0.055	No	Yes	3.244	1.398	Yes	No	0.683	-0.987
S(C)[C@@H]1C(=O)N[C@](SC)(Cc2ccc(OCC=C(C)C)cc2)C(=O)N1	380.535	2.5685	7	5	2	156.898	-4.181	0.98	94.681	-3.497	Yes	No	No	-0.032	0.21	-0.298	-2.968	No	No	No	No	No	No	No	-0.123	No	No	0.315	No	No	2.545	1.627	Yes	No	0.978	1.438
S(C)[C@@H]1N(C)C(=O)[C@@](SC)(Cc2ccc(OCC=C(C)C)cc2)N(C)C1=O	408.589	3.2529	7	5	0	170.048	-4.346	1.191	94.066	-3.361	Yes	No	No	0.3	0.245	-0.09	-2.912	No	Yes	No	Yes	No	No	No	0.269	No	No	-0.094	No	No	2.492	0.86	Yes	No	1.403	1.214
S(C)[C@@]1(CO)N(C)C(=O)[C@@H]2N(C1=O)c1c(O)cccc1C2	308.359	0.1735	2	5	2	125.894	-1.927	1.057	64.612	-3.427	No	No	No	-0.334	0.354	-0.693	-3.431	No	No	No	No	No	No	No	0.411	No	No	0.334	No	No	2.573	1.627	Yes	No	0.222	3.742
S(C)[C@@]1(CO)N(C)C(=O)[C@@]2(SC)N(C1=O)[C@@H]1[C@@H](O)C=CC=C1C2	356.469	0.0273	3	6	2	143.129	-3.545	0.512	67.194	-3.647	No	No	No	-0.147	0.686	-0.721	-3.57	No	No	No	No	No	No	No	0.744	No	No	0.816	No	No	2.96	1.948	Yes	No	0.242	3.63
S(C)[C@H]1N(C)C(=O)/C(=C/c2ccc(OCC=C(C)C)cc2)/N(C)C1=O	360.479	2.992	5	4	0	152.870	-3.85	1.304	94.163	-3.552	Yes	No	No	0.233	0.255	-0.05	-2.335	No	Yes	No	Yes	No	No	No	0.139	Yes	No	-0.27	No	No	2.494	0.947	Yes	No	1.578	1.554
S(C)[C@H]1N(C)C(=O)[C@@](SC)(Cc2ccc(OCC=C(C)C)cc2)N(C)C1=O	408.589	3.2529	7	5	0	170.048	-4.346	1.191	94.066	-3.361	Yes	No	No	0.3	0.245	-0.09	-2.912	No	Yes	No	Yes	No	No	No	0.269	No	No	-0.094	No	No	2.492	0.86	Yes	No	1.403	1.214
S(C)c1cc2N(CC[C@@H]3N(C)CCCC3)c3c([S@@H0](=O)c2cc1)cccc3	386.586	4.9011	4	4	0	162.778	-5.131	1.327	95.218	-2.768	Yes	Yes	Yes	1.69	0.125	0.487	-1.531	No	Yes	No	No	No	Yes	No	1.035	Yes	No	0.06	No	Yes	3.324	1.607	Yes	No	1.12	0.057
