SMILES	MOL_WEIGHT	LOGP	#ROTATABLE_BONDS	#ACCEPTORS	#DONORS	SURFACE_AREA	Water solubility	Caco2 permeability	Intestinal absorption (human)	Skin Permeability	P-glycoprotein substrate	P-glycoprotein I inhibitor	P-glycoprotein II inhibitor	VDss (human)	Fraction unbound (human)	BBB permeability	CNS permeability	CYP2D6 substrate	CYP3A4 substrate	CYP1A2 inhibitior	CYP2C19 inhibitior	CYP2C9 inhibitior	CYP2D6 inhibitior	CYP3A4 inhibitior	Total Clearance	Renal OCT2 substrate	AMES toxicity	Max. tolerated dose (human)	hERG I inhibitor	hERG II inhibitor	Oral Rat Acute Toxicity (LD50)	Oral Rat Chronic Toxicity (LOAEL)	Hepatotoxicity	Skin Sensitisation	<i>T.Pyriformis</i> toxicity	Minnow toxicity
O=C1c2c(O)c(CC=C(C)C)c(O)cc2O[C@](C)(c2ccccc2)C1	338.403	4.4871	3	4	2	146.941	-4.504	0.879	94.318	-2.884	Yes	Yes	No	0.002	0.076	0.197	-1.869	No	No	Yes	Yes	Yes	No	No	0.176	No	No	-0.048	No	Yes	2.603	2.173	No	No	0.572	-0.016
O=C1c2c(O)cc(C)cc2C(=O)c2c1cc(O)cc2	254.241	2.18162	0	4	2	108.489	-2.952	0.871	95.777	-2.847	Yes	No	No	-0.008	0.19	0.05	-2.101	No	No	Yes	No	No	No	No	0.439	No	Yes	0.144	No	No	2.083	1.775	No	No	0.701	1.17
O=C1c2c(O)cc(C)cc2C(=O)c2c1ccc(O)c2	254.241	2.18162	0	4	2	108.489	-2.841	1.009	96.068	-2.95	Yes	No	No	-0.04	0.175	0.068	-2.116	No	No	Yes	No	Yes	No	No	0.416	No	Yes	0.083	No	No	2.059	1.922	No	No	0.748	1.669
O=C1c2c(O)cc(C)cc2C(=O)c2c1cccc2	238.242	2.47602	0	3	1	103.695	-2.991	1.209	96.598	-2.898	No	No	No	-0.056	0.171	0.104	-1.934	No	No	Yes	No	No	No	No	0.161	No	Yes	-0.014	No	No	2.238	2.202	No	No	0.973	0.937
O=C1c2c(O)cc(CO)cc2C(=O)c2c1cc(O)cc2	270.24	1.3655	1	5	3	113.283	-3.246	-0.222	78.061	-2.742	Yes	No	No	0.193	0.187	-0.903	-2.478	No	No	Yes	Yes	No	No	No	0.456	No	Yes	0.351	No	No	2.025	0.951	No	No	0.419	1.992
O=C1c2c(O)cc(O)c(C)c2O[C@@H](c2ccc(O)cc2)C1	286.283	2.81832	1	5	3	120.600	-3.089	0.948	91.304	-2.801	Yes	No	No	-0.005	0.19	-1.023	-2.205	No	No	Yes	Yes	Yes	No	No	0.094	No	Yes	-0.053	No	No	2.228	1.239	No	No	0.535	1.132
O=C1c2c(O)cc(O)c(CC=C(C)C)c2N(C)c2c(O)cccc12	325.364	3.3172	2	5	3	138.269	-3.563	0.635	97.061	-2.735	Yes	No	No	0.064	0.132	-0.918	-2.102	No	No	Yes	Yes	Yes	No	No	0.403	No	Yes	0.441	No	Yes	2.04	1.092	Yes	No	0.374	-0.189
O=C1c2c(O)cc(O)cc2OC(c2cc(O)c(O)cc2)=C1	286.239	2.2824	1	6	4	117.313	-3.083	1.001	78.805	-2.735	Yes	No	No	0.102	0.156	-1.307	-2.514	No	No	Yes	No	No	No	Yes	0.66	No	No	0.839	No	No	2.235	2.052	No	No	0.361	0.87
O=C1c2c(O)cc(O)cc2OC(c2ccc(O)cc2)=C1	270.24	2.5768	1	5	3	112.519	-2.969	0.905	91.798	-2.747	Yes	No	No	-0.094	0.195	-1.039	-2.256	No	No	Yes	Yes	Yes	No	Yes	0.678	No	No	0.605	No	Yes	2.385	1.513	No	No	0.417	1.087
O=C1c2c(O)cc(O)cc2OC(c2ccccc2)=C1	254.241	2.8712	1	4	2	107.725	-3.066	0.936	94.253	-2.813	Yes	No	No	-0.252	0.202	0.104	-2.06	No	No	Yes	Yes	Yes	No	Yes	0.482	No	Yes	0.433	No	No	2.626	1.515	No	No	0.531	0.749
O=C1c2c(O)cc(O)cc2O[C@@H](c2cc(O)c(O)cc2)C1	288.255	2.2155	1	6	4	119.029	-3.195	0.701	79.701	-2.735	Yes	No	No	0.203	0.172	-1.281	-3.272	No	No	No	No	No	No	No	0.063	No	Yes	0.427	No	No	2.048	1.797	No	No	0.456	1.297
O=C1c2c(O)cc(O)cc2O[C@H](c2ccc(O)cc2)C1	272.256	2.5099	1	5	3	114.235	-3.037	0.915	90.582	-2.793	Yes	No	No	-0.122	0.203	-1.025	-2.283	No	No	Yes	Yes	Yes	No	No	0.098	No	Yes	0.03	No	No	2.161	1.36	No	No	0.551	1.425
O=C1c2c(O)cc(O)cc2O[C@H](c2ccccc2)C1	256.257	2.8043	1	4	2	109.441	-3.142	0.972	92.938	-3.016	Yes	No	No	-0.268	0.186	0.324	-2.097	No	No	Yes	Yes	Yes	No	No	0.14	No	Yes	0.028	No	No	2.19	2.208	No	No	0.738	1.039
O=C1c2c(O)cc3OC(C)(C)C=Cc3c2N(C)c2c(O)cccc12	323.348	3.2871	0	5	2	137.582	-3.617	0.877	96.861	-2.749	Yes	No	Yes	0.299	0.175	0.048	-1.931	No	No	Yes	Yes	Yes	No	No	0.29	No	Yes	0.165	No	Yes	2.153	0.542	Yes	No	0.427	0.1
O=C1c2c(O)cc3OC(C)(C)C=Cc3c2N(C)c2c1cccc2	307.349	3.5815	0	4	1	132.788	-3.869	1.295	96.854	-2.822	No	No	Yes	0.292	0.185	0.286	-1.746	No	Yes	Yes	Yes	Yes	No	Yes	0.364	No	Yes	-0.186	No	Yes	2.274	1.605	Yes	No	0.557	-0.501
O=C1c2c(O)cc3OC(C)(C)C=Cc3c2OC(c2ccc(O)cc2)=C1	336.343	4.0554	1	5	2	142.968	-3.428	1.035	92.973	-2.791	Yes	No	Yes	0.433	0.2	-0.116	-1.851	No	No	Yes	Yes	Yes	No	Yes	0.555	No	No	0.266	No	Yes	2.774	1.027	No	No	0.404	-0.121
O=C1c2c(O)cccc2OC(C[C@H](O)C)=C1	220.224	1.4219	2	4	2	91.763	-2.528	0.52	95.42	-3.069	Yes	No	No	0.069	0.356	-0.069	-2.901	No	No	Yes	No	No	No	No	0.41	No	No	0.532	No	No	2.138	1.391	No	No	0.656	1.446
O=C1c2c(O)cccc2OC(c2ccccc2)=C1	238.242	3.1656	1	3	1	102.931	-3.41	1.318	95.851	-2.649	No	No	No	0.055	0.211	0.273	-1.776	No	No	Yes	Yes	Yes	No	No	0.343	No	Yes	0.188	No	No	2.4	1.987	No	No	0.734	0.406
O=C1c2c(O)cccc2Oc2c(O)cccc12	228.203	2.3574	0	4	2	95.350	-2.839	0.948	95.427	-2.756	Yes	No	No	0.021	0.17	0.055	-2.036	No	No	Yes	No	No	No	No	0.165	No	Yes	0.465	No	No	2.002	1.375	No	No	0.526	0.127
O=C1c2c(O)cccc2Oc2c1cc(O)cc2	228.203	2.3574	0	4	2	95.350	-2.879	0.929	94.345	-2.773	Yes	No	No	-0.152	0.173	-0.014	-2.026	No	No	Yes	No	No	No	No	0.17	No	Yes	0.501	No	No	1.918	1.312	No	No	0.538	0.142
O=C1c2c(O)cccc2Oc2c1ccc(O)c2	228.203	2.3574	0	4	2	95.350	-2.986	1.071	94.986	-2.806	Yes	No	No	-0.144	0.138	-0.013	-2.037	No	No	Yes	No	No	No	No	0.228	No	Yes	0.454	No	No	1.914	1.27	No	No	0.603	0.232
O=C1c2c(O)cccc2[C@@H](O)CC1	178.187	1.4021	0	3	2	75.635	-2.129	1.158	93.68	-3.219	No	No	No	0.115	0.47	-0.298	-2.866	No	No	No	No	No	No	No	0.115	No	No	0.47	No	No	1.914	2.041	Yes	No	0.635	1.875
O=C1c2c(O)cccc2[C@H](O)CC1	178.187	1.4021	0	3	2	75.635	-2.129	1.158	93.68	-3.219	No	No	No	0.115	0.47	-0.298	-2.866	No	No	No	No	No	No	No	0.115	No	No	0.47	No	No	1.914	2.041	Yes	No	0.635	1.875
O=C1c2c(O)cccc2[C@H](O)[C@H](O)C1	194.186	0.3729	0	4	3	80.430	-2.087	0.332	80.165	-3.239	Yes	No	No	-0.008	0.533	-0.776	-3.329	No	No	No	No	No	No	No	0.107	No	No	0.52	No	No	1.749	1.852	No	No	0.065	2.317
O=C1c2c(OC(C)(C)C1)ccc(O)c2	192.214	2.136	0	3	1	82.320	-2.483	1.236	94.611	-2.914	No	No	No	0.149	0.437	0.322	-2.347	No	No	Yes	No	No	No	No	0.421	No	No	0.53	No	No	1.952	2.069	No	No	0.93	1.661
O=C1c2c(OC(c3cc(O)c(O)cc3)=C1)cc(O)cc2	270.24	2.5768	1	5	3	112.519	-2.878	0.934	92.552	-2.737	Yes	No	No	-0.119	0.166	-1.061	-2.206	No	No	Yes	No	Yes	No	No	0.567	No	No	0.985	No	Yes	2.254	1.78	No	No	0.35	0.796
O=C1c2c(OC(c3cc4OCOc4cc3)=C1)c1c(OC(C)(C)C=C1)cc2	348.354	4.3729	1	5	0	148.966	-4.438	1.07	98.352	-2.674	No	Yes	Yes	0.378	0.234	0.196	-1.684	No	Yes	Yes	Yes	Yes	No	Yes	0.427	No	Yes	-0.088	No	No	2.758	1.028	Yes	No	0.351	-1.096
O=C1c2c(OC(c3ccc(O)cc3)=C1)cc(O)cc2	254.241	2.8712	1	4	2	107.725	-3.342	1.047	92.504	-2.791	Yes	No	No	-0.163	0.238	-0.125	-1.948	No	No	Yes	Yes	Yes	No	No	0.579	No	Yes	0.779	No	No	1.933	0.814	No	No	0.5	0.857
O=C1c2c(OC(c3ccccc3)=C1)c1c(OC(C)(C)C=C1)cc2	304.345	4.6442	1	3	0	133.379	-5.475	1.505	97.654	-2.482	Yes	No	Yes	0.393	0.206	0.406	-1.414	No	Yes	Yes	Yes	Yes	No	No	0.241	No	Yes	-0.037	No	No	2.054	1.71	No	No	0.715	-0.395
O=C1c2c(OC(c3ccccc3)=C1)c1c(occ1)cc2	262.264	4.2062	1	3	0	113.612	-5.709	1.404	98.493	-2.603	Yes	No	Yes	0.07	0.289	0.458	-1.392	No	Yes	Yes	Yes	Yes	Yes	Yes	0.381	No	Yes	0.261	No	No	2.286	0.559	No	No	0.406	0.607
O=C1c2c(OC(c3ccccc3)=C1)cccc2	222.243	3.46	1	2	0	98.137	-4.794	1.655	97.877	-2.38	Yes	No	Yes	0.043	0.208	0.189	-1.328	No	Yes	Yes	Yes	Yes	Yes	No	0.325	No	No	0.266	No	No	1.656	0.824	No	No	0.941	0.011
O=C1c2c(O[C@@H](c3ccccc3)C1)cc(O)cc2	240.258	3.0987	1	3	1	104.647	-3.793	1.277	94.454	-2.801	Yes	No	No	0.019	0.155	0.291	-1.595	No	No	Yes	Yes	Yes	No	No	0.089	No	Yes	0.402	No	No	1.976	1.955	No	No	1.327	0.872
O=C1c2c(O[C@H](c3cc(O)c(O)cc3)C1)cc(O)cc2	272.256	2.5099	1	5	3	114.235	-3.15	0.968	92.204	-2.75	Yes	No	No	0.032	0.151	-0.946	-2.325	No	No	Yes	No	Yes	No	No	0.024	No	Yes	0.447	No	No	1.986	1.552	No	No	0.528	1.419
O=C1c2c(O[C@H](c3ccc(O)cc3)C1)cc(O)cc2	256.257	2.8043	1	4	2	109.441	-3.254	1.034	92.126	-3.028	Yes	No	No	-0.033	0.202	-0.069	-2.077	No	No	Yes	Yes	Yes	No	Yes	0.053	No	Yes	0.28	No	No	2.028	1.528	No	No	1.05	1.39
O=C1c2c(O[C@H](c3ccccc3)C1)c1c(OC(C)(C)C=C1)cc2	306.361	4.5773	1	3	0	135.095	-5.107	1.268	97.199	-2.467	No	Yes	No	0.49	0.036	0.43	-1.534	No	Yes	Yes	Yes	Yes	No	No	-0.024	No	No	0.075	No	No	2.807	2.031	No	No	0.967	-0.049
O=C1c2c(Oc3c1cccc3)ccc(O)c2	212.204	2.6518	0	3	1	90.555	-4.21	1.215	94.463	-2.753	Yes	No	No	-0.131	0.136	0.274	-1.83	No	No	Yes	No	No	Yes	No	0.131	No	Yes	0.455	No	No	1.641	1.304	No	No	1.256	0.201
O=C1c2c([C@@]3(C)[C@H](C(C)(C)CCC3)C1)cc(O)c(C(C)C)c2	300.442	5.186	1	2	1	133.485	-5.572	1.17	95.108	-2.838	Yes	No	No	0.592	0	-0.144	-1.378	No	Yes	Yes	Yes	No	No	Yes	0.723	No	No	-0.553	No	No	2.411	2.509	No	Yes	1.685	-0.974
O=C1c2c(c(O)c3OCOc3c2)Oc2c1cccc2	256.213	2.3805	0	5	1	106.142	-3.221	1.173	95.874	-2.777	No	No	No	-0.083	0.112	-0.275	-2.147	No	Yes	Yes	No	No	No	No	0.073	No	Yes	0.081	No	No	2.112	1.055	No	No	0.483	-0.932
O=C1c2c3OCOc3ccc2Oc2c1cccc2	240.214	2.6749	0	4	0	101.347	-3.593	1.296	97.933	-2.621	No	No	Yes	-0.1	0.16	0.38	-1.564	No	Yes	Yes	Yes	No	No	No	0.104	No	Yes	0.005	No	No	1.995	1.828	No	No	0.52	-0.121
O=C1c2nccc3c2c(-c2c(O)cccc12)c1OCOc1c3	291.262	2.8805	0	5	1	124.291	-2.985	1.209	97.065	-2.736	No	No	Yes	-0.014	0.212	-0.338	-2.067	No	Yes	Yes	Yes	No	No	Yes	0.214	No	Yes	0.513	No	Yes	2.765	0.659	Yes	No	0.298	0.656
O=C1c2nccc3c2c(c2OCOc2c3)-c2c1cccc2	275.263	3.1749	0	4	0	119.497	-3.392	1.34	98.289	-2.735	No	No	Yes	-0.145	0.254	0.484	-1.636	No	Yes	Yes	Yes	No	Yes	Yes	0.193	No	Yes	0.489	No	No	2.562	1.924	Yes	No	0.295	0.137
O=CC(=C(C)C)c1c(OC)ccc2c1OC(=O)C=C2	258.273	2.7939	3	4	0	109.855	-3.772	1.319	99.422	-2.627	No	No	No	0.02	0.214	-0.123	-2.787	No	No	Yes	Yes	No	No	No	0.956	No	Yes	0.485	No	No	2.094	2.099	Yes	No	0.668	0.881
O=CC=1C(=O)[C@@](O)(C)[C@@H](O)C=2C=1C=C(C)OC=2	236.223	-0.0056	1	5	2	97.698	-1.527	0.321	77.816	-2.892	No	No	No	-0.301	0.559	-0.096	-3.399	No	No	No	No	No	No	No	0.491	No	Yes	0.362	No	No	2.21	2.284	No	No	0.294	2.577
O=CC=1[C@@H]2C(=O)[C@@H](O)[C@@H](C)[C@@H]2C[C@@]2(C)C(=C([C@@H](CO)C)CC2)CC=1	332.44	2.4427	3	4	2	143.188	-3.43	1.099	96.432	-3.169	Yes	No	No	0.005	0.25	0.042	-2.912	No	No	No	No	No	No	No	1.183	No	Yes	-0.336	No	No	2.126	1.578	No	No	0.497	1.316
O=CCCCCC	100.161	1.7656	4	1	0	44.725	-1.758	1.488	95.788	-1.826	No	No	No	0.049	0.58	0.512	-2.13	No	No	No	No	No	No	No	0.436	No	No	0.833	No	No	1.762	1.922	No	Yes	-0.444	1.507
O=CCCCCCC	114.188	2.1557	5	1	0	51.090	-2.406	1.487	95.432	-1.571	No	No	No	0.115	0.522	0.546	-2.062	No	No	No	No	No	No	No	0.464	No	No	0.723	No	No	1.703	1.999	No	Yes	-0.094	1.211
O=CCCCCCCC	128.215	2.5458	6	1	0	57.455	-3.059	1.486	95.081	-1.391	No	No	No	0.18	0.461	0.668	-2.001	No	No	No	No	No	No	No	1.53	No	No	0.614	No	No	1.655	2.084	No	Yes	0.327	0.925
O=CCCCCCCCC	142.242	2.9359	7	1	0	63.820	-3.708	1.485	94.738	-1.304	No	No	No	0.242	0.403	0.686	-1.946	No	No	No	No	No	No	No	1.569	No	No	0.514	No	No	1.613	2.169	No	Yes	0.787	0.648
O=CC[C@@H]1C(=O)O[C@@H](CCCCCCCCCC)C1	268.397	4.0379	11	3	0	116.644	-4.604	1.59	95.39	-2.42	No	Yes	No	0.182	0.178	-0.063	-2.198	No	Yes	No	No	No	No	No	1.541	Yes	No	0.206	No	No	1.644	2.413	No	Yes	2.064	-0.999
O=C[C@H](O)[C@@H](O)[C@@H](O)[C@@H](O)C	164.157	-2.3512	4	5	4	63.902	0.533	-0.59	39.261	-3.493	No	No	No	-0.728	0.827	-1.255	-5.073	No	No	No	No	No	No	No	0.865	No	No	2.205	No	No	1.317	3.454	No	No	0.282	3.281
O=Cc1c(O)c(C)c(O)c2C(=O)OC(=C)[C@@H](C)c12	248.234	2.00632	1	5	2	103.316	-2.533	1.323	95.067	-3.506	No	No	No	-0.139	0.388	-0.285	-3.255	No	No	No	No	No	No	No	0.336	No	No	0.696	No	No	2.134	1.896	No	No	0.539	1.087
O=Cc1c(O)cc(O)cc1/C=C/C=C/C	204.225	2.4996	3	3	2	87.992	-1.968	1.238	91.928	-2.79	Yes	No	No	-0.081	0.247	-0.01	-2.249	No	No	No	No	No	No	No	0.306	No	No	-0.056	No	No	1.827	2.325	No	No	0.73	0.365
O=Cc1c(OC)c(C)c2c(c1O)C(=O)OC2	222.196	1.19212	2	5	1	91.595	-2.363	0.628	88.315	-3.264	No	No	No	0.129	0.556	-0.321	-2.93	No	No	No	No	No	No	No	0.573	No	No	0.522	No	No	1.989	1.994	No	No	0.553	1.172
O=Cc1c(OC)cc(OC)cc1OC	196.202	1.5249	4	4	0	82.393	-2.181	1.243	98.339	-2.43	No	No	No	-0.156	0.461	-0.054	-2.364	No	No	Yes	No	No	No	No	0.772	No	No	1.48	No	No	1.746	2.592	No	Yes	0.388	0.883
O=Cc1c(OC)cc2OC(=O)C=Cc2c1	204.181	1.6141	2	4	0	85.084	-2.329	1.245	99.357	-2.362	No	No	No	-0.177	0.323	-0.037	-2.847	No	No	Yes	No	No	No	No	0.823	No	Yes	0.695	No	No	2.041	2.757	No	No	0.543	1.167
O=Cc1c2c(O)c(O)c(C(C)C)cc2c(C)cc1	244.29	3.49532	2	3	2	105.688	-3.181	1.218	94.637	-2.738	Yes	No	No	0.14	0.058	-0.051	-1.957	No	No	Yes	No	No	No	No	0.3	No	No	0.08	No	No	1.711	2.381	No	No	0.531	-0.59
O=Cc1c2c(O)c(O)c(C(O)(C)C)cc2c(C)cc1	260.289	2.59932	2	4	3	110.482	-2.766	0.995	95.939	-2.749	Yes	No	No	0.113	0.132	-1.118	-2.358	No	No	Yes	No	No	No	No	0.301	No	No	0.643	No	No	1.806	2.378	No	No	0.563	0.302
O=Cc1c2c(c(O)cc1)C(=O)O[C@H](C)C2	206.197	1.3061	1	4	1	86.481	-1.83	0.6	84.029	-3.009	No	No	No	-0.108	0.477	-0.221	-2.857	No	No	No	No	No	No	No	0.575	No	No	0.507	No	No	1.873	2.627	No	No	0.781	1.603
O=Cc1cc(OC)c(O)c(OC)c1	182.175	1.2219	3	4	1	75.709	-1.966	1.178	87.016	-2.807	No	No	No	-0.149	0.483	-0.198	-2.899	No	No	Yes	No	No	No	No	0.654	No	No	1.242	No	No	2.111	2.923	No	Yes	0.435	1.244
O=Cc1ccccc1	106.124	1.4991	1	1	0	47.958	-1.199	1.648	96.461	-1.593	No	No	No	0.098	0.415	0.097	-1.779	No	No	No	No	No	No	No	0.243	No	No	0.962	No	No	1.803	1.918	No	No	-0.446	1.537
O=Cc1oc(CO)cc1	126.111	0.5844	2	3	1	51.911	-0.523	1.178	94.477	-3.426	Yes	No	No	-0.194	0.717	-0.326	-2.941	No	No	No	No	No	No	No	0.638	No	Yes	1.066	No	No	2.303	2.569	No	No	-1.114	2.74
OC(C)(C)[C@@H]1C[C@H](O)C(=C)CCC[C@H](CO)CC1	256.386	2.2533	2	3	3	110.536	-1.886	1.267	91.616	-3.401	No	No	No	-0.086	0.537	-0.158	-2.937	No	No	No	No	No	No	No	1.322	No	No	0.682	No	No	2.128	1.781	No	Yes	0.16	2.242
OC(C)(C)[C@@H]1[C@@H](O)Cc2c(C)ccc(C)c2C1	234.339	2.15004	1	2	2	103.299	-2.54	1.518	94.462	-2.73	No	No	No	0.284	0.335	0.247	-2.181	No	No	Yes	No	No	No	No	1.242	No	No	0.531	No	No	2.075	1.893	No	Yes	0.99	1.1
OC(C)(C)[C@H]1CC2=C(C)CCC[C@]2(C)CC1	222.372	4.0641	1	1	1	99.941	-4.501	1.517	92.455	-1.858	No	No	No	0.487	0.266	0.602	-2.309	No	No	No	Yes	Yes	No	No	1.027	No	No	0.388	No	No	1.769	1.264	No	Yes	1.519	0.813
OC(C)(C)[C@H]1CC2=C([C@]3(C)[C@H](C(C)(C)CCC3)CC2)CC1	290.491	5.4804	1	1	1	130.760	-5.893	1.53	93.634	-2.317	No	Yes	No	0.687	0.087	0.609	-2.384	No	Yes	No	Yes	No	No	No	0.639	No	No	-0.062	No	No	1.709	1.149	No	No	1.701	-0.076
OC(C)(C)[C@H]1CC=2[C@@H](C)CCC=2[C@@H](C)CC1	222.372	3.92	1	1	1	99.941	-4.069	1.497	92.841	-2.053	No	No	No	0.473	0.354	0.566	-2.642	No	No	Yes	Yes	No	No	No	1.077	No	No	0.294	No	No	1.726	1.204	No	Yes	1.244	1.055
OC(C)(C)[C@H]1CC=C(C)CC1	154.253	2.5037	1	1	1	69.123	-2.039	1.49	94.183	-2.418	Yes	No	No	0.207	0.567	0.301	-2.807	No	No	No	No	No	No	No	1.219	No	No	0.882	No	No	1.923	1.962	No	Yes	0.008	1.8
OC(C)(C)[C@H]1C[C@@H](C(=C)C)[C@@](C=C)(C)CC1	222.372	3.942	3	1	1	100.258	-4.642	1.511	93.248	-1.577	No	No	No	0.404	0.252	0.622	-2.151	No	No	No	No	No	No	No	1.311	No	No	0.221	No	No	1.646	1.212	No	Yes	1.918	0.574
OC(C)(C)[C@H]1C[C@@H](C(=C)C)[C@@](C=C)(CO)CC1	238.371	2.9144	4	2	2	105.052	-2.847	1.407	92.494	-2.236	No	No	No	0.095	0.317	0.062	-2.347	No	No	No	No	No	No	No	1.397	No	No	0.12	No	No	1.818	2.123	No	Yes	1.693	0.982
OC(C)(C)[C@H]1C[C@H]2C(=C)CCC[C@]2(C)CC1	222.372	3.92	1	1	1	99.941	-4.871	1.532	94.951	-1.932	No	No	No	0.469	0.162	0.646	-1.882	No	No	No	No	No	No	No	1.032	No	No	0.163	No	No	1.756	1.359	No	Yes	1.812	0.311
OC(C)(C)[C@H]1C[C@H]2C(C)=CCC[C@]2(C)CC1	222.372	3.92	1	1	1	99.941	-4.415	1.517	92.783	-1.874	No	No	No	0.483	0.274	0.609	-2.309	No	No	No	Yes	Yes	No	No	1.03	No	No	0.386	No	No	1.744	1.247	No	Yes	1.517	0.849
OC(C)(C)[C@H]1C[C@H]2[C@@](O)(C)CCC[C@]2(C)CC1	240.387	3.1148	1	2	2	105.425	-3.187	1.316	92.005	-2.769	No	No	No	0.201	0.329	0.193	-2.552	No	No	No	No	No	No	No	0.934	No	No	0.573	No	No	2.003	2.031	No	Yes	0.915	1.294
OC(C)(C)[C@H]1C[C@]2([C@@H](C)CCC=C2C)CC1	222.372	3.92	1	1	1	99.941	-4.405	1.512	93.242	-1.883	No	No	No	0.486	0.277	0.603	-2.319	No	No	No	Yes	Yes	No	No	1.094	No	No	0.304	No	No	1.715	1.247	No	Yes	1.517	0.79
OC(C)(C)[C@H]1Cc2c(C)ccc(C)c2CC1	218.34	3.17924	1	1	1	98.504	-3.965	1.41	95.434	-1.663	No	No	No	0.846	0.153	0.355	-1.905	No	No	Yes	No	No	No	No	1.23	No	No	0.495	No	No	1.652	1.206	No	Yes	2.196	0.358
OC(C)(C)[C@H]1[C@@]2([C@H](C)CC1)CC=C(C)CC2	222.372	3.92	1	1	1	99.941	-4.229	1.516	93.149	-1.96	No	No	No	0.481	0.31	0.592	-2.482	No	No	No	Yes	No	No	No	1.081	No	No	0.453	No	No	1.775	1.25	No	Yes	1.379	0.904
OC(C)(C)c1c(O)cc2c(C)ccc(C)c2c1	230.307	3.38964	1	2	2	101.526	-3.175	1.114	91.964	-2.656	Yes	No	No	0.368	0.219	0.187	-1.63	No	No	Yes	No	No	No	No	0.25	No	No	0.421	No	No	2.193	2.272	No	No	1.368	0.647
OC(C)(C)c1c2nc3c(nc2c2c(C)ccc(C)c2c1)cccc3	316.404	4.78044	1	3	1	140.535	-3.81	1.369	98.633	-2.735	No	No	Yes	-0.242	0.307	0.27	-1.64	No	Yes	Yes	Yes	Yes	No	No	0.784	No	Yes	0.55	No	Yes	2.422	2.054	Yes	No	0.288	-0.582
OC/C=C(/CCC[C@@H](CCC[C@@H](CCCC(C)C)C)C)\C	296.539	6.3641	13	1	1	133.778	-7.589	1.487	89.892	-2.629	No	No	Yes	0.416	0.019	0.785	-1.56	No	Yes	Yes	No	No	No	No	1.686	No	No	-0.325	No	Yes	1.646	1.024	No	Yes	1.691	-1.313
OC/C=C/c1cc2OCOc2cc1	178.187	1.4208	2	3	1	76.217	-2.282	1.288	95.066	-2.631	No	No	No	0.029	0.344	-0.049	-2.148	No	No	Yes	No	No	No	No	0.135	No	No	0.867	No	No	1.924	2.632	No	Yes	0.697	1.35
OC1CCC(CC)CC1	128.215	1.9475	1	1	1	57.082	-1.445	1.479	94.026	-2.497	Yes	No	No	0.16	0.615	0.187	-2.706	No	No	No	No	No	No	No	1.31	No	No	0.933	No	No	1.922	1.865	No	Yes	-0.563	2.014
OC1CCC(CC)CC1	128.215	1.9475	1	1	1	57.082	-1.445	1.479	94.026	-2.497	Yes	No	No	0.16	0.615	0.187	-2.706	No	No	No	No	No	No	No	1.31	No	No	0.933	No	No	1.922	1.865	No	Yes	-0.563	2.014
OCC=1[C@@H]2C[C@@]3([C@@H]([C@@]4(C)[C@@H](C(C)(C)CCC4)CC3)CC2)C=1	288.475	4.9478	1	1	1	129.754	-5.655	1.518	97.782	-2.777	No	No	Yes	0.392	0	0.741	-1.687	No	Yes	Yes	Yes	Yes	No	No	0.566	No	No	-0.632	No	Yes	2.156	1.222	No	No	0.785	-0.627
OCCCCCCC	116.204	1.9491	5	1	1	51.723	-1.915	1.472	92.902	-1.742	No	No	No	0.119	0.548	0.515	-2.235	No	No	No	No	No	No	No	0.467	No	No	0.843	No	No	1.722	1.896	No	Yes	-0.322	1.479
OCC[C@@H](CCC=C(C)C)C	156.269	2.7513	5	1	1	70.128	-2.985	1.483	92.61	-1.496	No	No	No	0.198	0.446	0.623	-2.212	No	No	No	No	No	No	No	0.482	No	No	0.632	No	No	1.649	2.017	No	Yes	0.69	1.122
OCCc1ccc(O)cc1	138.166	0.927	2	2	2	59.750	-0.701	1.366	75.128	-2.453	No	No	No	0.046	0.505	-0.163	-2.036	No	No	No	No	No	No	No	0.311	No	No	0.902	No	No	1.777	2.802	No	Yes	-0.308	1.944
OC[C@@H](C)[C@H]1c2c([C@@H](C)[C@@H](O)C1)cc(O)c(C)c2	250.338	2.28072	2	3	3	108.093	-3.195	1.193	92.814	-3.425	Yes	No	No	0.264	0.307	-0.215	-2.256	No	No	No	No	No	No	No	1.04	No	No	0.119	No	No	2.189	1.853	No	No	1.148	1.431
OC[C@@H](C)[C@H]1c2c([C@@H](C)[C@H](O)C1)cc(O)c(C)c2	250.338	2.28072	2	3	3	108.093	-3.195	1.193	92.814	-3.425	Yes	No	No	0.264	0.307	-0.215	-2.256	No	No	No	No	No	No	No	1.04	No	No	0.119	No	No	2.189	1.853	No	No	1.148	1.431
OC[C@@H](C)c1c2c(c(C)cc1)cc(O)c(C)c2	230.307	3.25804	2	2	2	101.526	-3.632	1.243	93.512	-2.795	Yes	No	No	0.621	0.192	0.161	-1.987	No	No	Yes	Yes	No	No	No	0.34	No	No	0.769	No	No	2.184	2.032	No	Yes	1.635	0.51
OC[C@@H]([C@H](CO)Cc1cc2OCOc2cc1)Cc1cc2OCOc2cc1	358.39	2.1462	7	6	2	151.439	-4.149	1.111	95.896	-2.756	Yes	Yes	No	-0.274	0.053	-0.339	-3.319	No	Yes	Yes	Yes	Yes	No	Yes	0.174	No	Yes	0.057	No	Yes	2.717	1.747	No	No	0.356	-0.385
OC[C@@H]1[C@@H]2/C(=C/C)/CN3[C@@H]1Cc1c4c(n(C)c1[C@H]3C2)cccc4	308.425	3.0344	1	3	1	136.758	-3.089	1.52	92.983	-2.923	No	Yes	No	1.747	0.283	0.271	-2.174	Yes	Yes	No	No	No	Yes	No	0.904	Yes	Yes	-0.436	No	Yes	3.149	0.97	Yes	No	0.661	0.755
OC[C@@H]1[C@H]2[C@H](CC)[C@@H](N(C)CC2)c2c3c([nH]c12)cccc3	284.403	3.2764	2	2	2	125.514	-3.164	1.61	89.188	-2.805	Yes	No	No	1.623	0.343	0.218	-1.787	Yes	Yes	Yes	No	No	Yes	No	0.792	Yes	Yes	-0.462	No	Yes	2.823	2.251	Yes	No	0.715	0.261
OC[C@@]1(C)[C@@H]2[C@](C)([C@@H]3[C@](O)([C@@H](O)C2)C[C@](C=C)(C)CC3)CCC1	322.489	3.2795	2	3	3	140.349	-3.268	1.323	93.717	-3.258	Yes	No	No	-0.089	0.123	-0.019	-3.212	No	Yes	No	No	No	No	No	0.819	No	No	0.001	No	No	2.245	1.868	No	No	0.678	0.737
OC[C@@]1(C)[C@@H]2[C@](O)(C)CC[C@@]3([C@H](C)CC[C@H]13)C2	238.371	2.5822	1	2	2	104.419	-3.232	1.488	93.224	-2.884	No	No	No	0.242	0.269	0.189	-2.132	No	Yes	No	No	No	No	No	0.913	Yes	No	0.131	No	No	2.065	1.904	No	Yes	0.927	1.273
OC[C@H](C)[C@H]1c2c([C@@H](C)CC1)cc(O)c(C)c2	234.339	3.30992	2	2	2	103.299	-3.91	1.383	93.057	-2.553	No	No	No	0.542	0.179	0.073	-1.961	No	No	Yes	No	No	No	No	1.103	No	No	0.378	No	No	2.167	2.319	No	Yes	2.238	0.606
OC[C@]1(C)[C@H](O)CC[C@@]2(C)[C@H]1CC[C@@H]1[C@]32C[C@@H]([C@@](O)(CO)CC3)C1	338.488	2.0858	2	4	4	144.827	-3.417	1.202	92.433	-3.592	Yes	Yes	No	-0.361	0.19	-0.515	-2.466	No	Yes	No	No	No	No	No	0.767	No	No	-0.408	No	No	2.431	2.637	No	No	0.441	1.536
OCc1c(CC)c2c([C@@]3(C)[C@H](C(C)(C)CCC3)CC2)cc1	286.459	4.7715	2	1	1	129.323	-5.785	1.437	97.395	-2.458	No	No	No	1.058	0	0.479	-1.675	No	Yes	Yes	Yes	No	No	No	1.113	No	No	-0.122	No	No	2.242	1.031	No	Yes	1.586	-1.403
O[C-](O)c1nc(C)c2[nH]c3c(c2c1)cccc3	227.243	2.60711	1	3	3	97.542	-2.626	1.021	89.778	-2.805	No	No	No	0.239	0.17	-0.773	-2.206	No	No	Yes	No	No	No	No	0.354	No	Yes	0.323	No	No	2.186	2.173	No	No	0.422	0.47
O[C@@H](C(CO)=C)CO	118.132	-1.1119	3	3	3	47.892	0.976	1.076	73.422	-4.438	No	No	No	-0.353	0.854	-0.336	-3.121	No	No	No	No	No	No	No	0.401	No	No	1.535	No	No	1.373	2.854	No	No	-2.005	3.497
O[C@@H](CC(C)C)CCCC	144.258	2.5836	5	1	1	64.453	-3	1.483	92.382	-1.353	No	No	No	0.191	0.427	0.635	-2.003	No	No	No	No	No	No	No	1.455	No	No	0.619	No	No	1.631	2.033	No	Yes	0.56	1.078
O[C@@H](CCC)CC	102.177	1.5574	3	1	1	45.358	-1.026	1.483	93.935	-2.271	Yes	No	No	0.019	0.631	0.142	-2.433	No	No	No	No	No	No	No	0.393	No	No	1.087	No	No	1.879	1.826	No	Yes	-0.817	1.874
