SMILES	MOL_WEIGHT	LOGP	#ROTATABLE_BONDS	#ACCEPTORS	#DONORS	SURFACE_AREA	Water solubility	Caco2 permeability	Intestinal absorption (human)	Skin Permeability	P-glycoprotein substrate	P-glycoprotein I inhibitor	P-glycoprotein II inhibitor	VDss (human)	Fraction unbound (human)	BBB permeability	CNS permeability	CYP2D6 substrate	CYP3A4 substrate	CYP1A2 inhibitior	CYP2C19 inhibitior	CYP2C9 inhibitior	CYP2D6 inhibitior	CYP3A4 inhibitior	Total Clearance	Renal OCT2 substrate	AMES toxicity	Max. tolerated dose (human)	hERG I inhibitor	hERG II inhibitor	Oral Rat Acute Toxicity (LD50)	Oral Rat Chronic Toxicity (LOAEL)	Hepatotoxicity	Skin Sensitisation	<i>T.Pyriformis</i> toxicity	Minnow toxicity
O(C)c1cc2O[C@@H]3[C@H]([C@@H](O)c2cc1)OCc1c3cc(O)c(O)c1	316.309	2.1723	1	6	3	132.025	-3.385	0.903	97.487	-2.761	Yes	No	No	0.194	0.129	-0.974	-3.184	No	No	Yes	No	No	No	Yes	0.353	No	Yes	0.358	No	No	2.174	2.217	No	No	0.372	1.081
O(C)c1cc2O[C@H](c3c(O)cc4OCOc4c3)CCc2cc1	300.31	3.1958	2	5	1	127.550	-3.753	1.272	95.867	-2.871	No	No	No	0.147	0.158	-0.212	-2.124	No	No	Yes	Yes	Yes	No	Yes	0.195	No	Yes	0.23	No	No	2.865	1.73	No	No	0.513	-0.079
O(C)c1cc2O[C@H]3[C@H](c2cc1)COc1c3ccc(O)c1	270.284	3.0105	1	4	1	116.071	-3.664	1.242	96.649	-2.887	No	No	No	0.171	0.086	-0.029	-1.783	No	Yes	Yes	Yes	Yes	No	Yes	0.259	No	Yes	0.074	No	Yes	2.548	1.439	No	No	0.794	0.678
O(C)c1cc2c([nH]c3[C@H]4N(C[C@H](CC)[C@@H](CCO)C4)CCc23)cc1	328.456	3.5042	4	3	2	143.357	-3.746	1.293	91.998	-2.777	Yes	Yes	No	1.268	0.35	0.088	-1.533	Yes	Yes	No	No	No	Yes	No	1.045	Yes	Yes	-0.256	No	Yes	2.556	0.899	Yes	No	0.595	-0.066
O(C)c1cc2c([nH]c3c(Cc4ccc(O)cc4)nccc23)cc1	304.349	4.0211	3	3	2	132.918	-4.202	1.233	93.954	-2.774	Yes	No	Yes	-0.031	0.196	0.279	-1.84	No	No	Yes	Yes	Yes	Yes	Yes	0.422	No	No	0.463	No	Yes	2.019	1.063	Yes	No	0.389	0.989
O(C)c1cc2c([nH]c3c2CCN(C)C3)cc1	216.284	2.1644	1	2	1	95.014	-2.531	1.533	93.532	-2.792	Yes	No	No	1.153	0.566	0.499	-2.128	Yes	No	Yes	No	No	Yes	No	1.091	No	Yes	-0.179	No	No	2.784	1.711	No	No	0.493	1.091
O(C)c1cc2n3C(=O)C=Cc4nccc(c34)c2cc1	250.257	2.4473	1	4	0	107.762	-2.816	1.331	100	-2.545	No	No	No	0.388	0.347	0.639	-1.782	No	Yes	Yes	No	No	No	Yes	0.668	No	Yes	-0.388	No	No	2.355	1.731	No	No	0.33	0.452
O(C)c1cc2oc-3c(C(=O)Oc4c-3ccc(OC)c4)c2cc1	296.278	3.7096	2	5	0	124.194	-4.437	1.319	98.021	-2.641	No	No	Yes	0.156	0.269	-0.092	-1.876	No	Yes	Yes	Yes	Yes	No	No	0.803	No	Yes	0.082	No	Yes	2.596	1.761	No	No	0.374	-0.561
O(C)c1cc2oc3-c4c(OCc3c2cc1)cc(OC)cc4	282.295	4.0094	2	4	0	121.394	-4.803	1.204	97.33	-2.489	No	No	Yes	0.194	0.171	0.39	-1.517	No	Yes	Yes	Yes	Yes	No	No	0.618	No	Yes	0.038	No	Yes	2.471	1.882	No	No	0.657	-0.768
O(C)c1ccc(/C=C/C)cc1	148.205	2.7283	2	1	0	67.315	-3.099	1.509	95.489	-1.148	No	No	No	0.437	0.299	0.599	-1.681	No	No	Yes	No	No	No	No	0.268	No	No	0.916	No	No	1.589	2.192	No	Yes	0.826	0.904
O(C)c1ccc(C2=C(OC)C(=O)c3c(O2)c2c(occ2)cc3)cc1	322.316	4.2234	3	5	0	136.569	-3.989	1.335	98.825	-2.714	No	No	Yes	0.245	0.249	0.309	-1.894	No	Yes	Yes	Yes	Yes	No	Yes	0.731	No	No	0.436	No	No	2.465	1.08	No	No	0.315	0.186
O(C)c1ccc(C=2C(=O)c3c(O)c4c(OC(C)(C)C=C4)cc3OC=2)cc1	350.37	4.3584	2	5	1	149.652	-3.918	1.222	96.875	-2.757	No	Yes	Yes	0.298	0.174	-0.251	-1.825	No	Yes	Yes	Yes	Yes	No	Yes	0.304	No	No	0.415	No	Yes	2.931	1.465	No	No	0.412	-0.531
O(C)c1ccc(C=2C(=O)c3c(O)cc(O)cc3OC=2)cc1	284.267	2.8798	2	5	2	119.203	-3.419	0.994	96.02	-2.752	Yes	No	No	-0.182	0.172	-0.211	-2.245	No	No	Yes	Yes	Yes	No	Yes	0.422	No	No	0.79	No	Yes	2.52	1.462	No	No	0.452	0.132
O(C)c1ccc(C=2C(=O)c3c(OC=2)cc(O)c(O)c3)cc1	284.267	2.8798	2	5	2	119.203	-3.081	1.03	97.083	-2.753	Yes	No	No	0.076	0.125	-0.261	-2.201	No	No	Yes	Yes	No	No	Yes	0.252	No	No	0.891	No	Yes	2.185	1.608	No	No	0.425	0.224
O(C)c1ccc(C=2C(=O)c3c(OC=2)cc(O)cc3)cc1	268.268	3.1742	2	4	1	114.409	-3.333	1.262	97.01	-2.751	Yes	No	No	0.143	0.194	-0.128	-1.967	No	No	Yes	Yes	Yes	No	No	0.318	No	Yes	0.545	No	Yes	2.281	1.337	No	No	0.548	0.16
O(C)c1ccc(C=2Oc3c(c(O)cc(O)c3)C(=O)C=2)cc1	284.267	2.8798	2	5	2	119.203	-3.323	1.008	96.265	-2.884	Yes	No	No	-0.161	0.187	-0.297	-2.179	No	No	Yes	Yes	Yes	Yes	Yes	0.692	No	Yes	0.692	No	No	2.38	1.326	No	No	0.541	-0.284
O(C)c1ccc(C=2Oc3c4c(occ4)ccc3C(=O)C=2)cc1	292.29	4.2148	2	4	0	125.091	-5.179	1.392	100	-2.567	Yes	No	Yes	0.205	0.305	0.306	-1.582	No	Yes	Yes	Yes	Yes	Yes	Yes	0.633	Yes	Yes	-0.128	No	No	2.388	1.641	No	No	0.427	0.165
O(C)c1ccc(CC=C)cc1	148.205	2.4237	3	1	0	67.315	-2.862	1.503	96.154	-1.211	No	No	No	0.462	0.318	0.665	-1.734	No	No	Yes	No	No	No	No	0.308	No	No	0.925	No	No	1.549	2.032	No	Yes	0.769	0.932
O(C)c1ccc(CCCc2c(O)cc3OCOc3c2)cc1	286.327	3.3048	5	4	1	123.442	-4.115	1.298	94.274	-2.826	No	No	No	0.183	0.086	0.037	-1.344	No	Yes	Yes	Yes	Yes	No	No	0.192	No	Yes	0.268	No	Yes	2.319	2.279	No	No	0.829	-0.994
O(C)c1ccc(CC[C@@H]2OC(=O)C=C(OC)C2)cc1	262.305	2.4736	5	4	0	112.523	-3.194	1.296	96.875	-2.562	No	No	No	0.166	0.274	0.486	-2.425	No	Yes	Yes	Yes	No	No	No	0.706	No	No	0.705	No	No	1.688	1.804	Yes	No	1.135	0.534
O(C)c1ccc(CC[C@@H]2O[C@H](c3ccc(OC)cc3)CCC2)cc1	326.436	4.9468	6	3	0	144.108	-5.848	1.471	95.928	-2.416	No	Yes	No	0.544	0	0.45	-1.528	No	Yes	Yes	Yes	Yes	No	No	1.4	Yes	No	0.761	No	No	2.162	2.16	Yes	No	1.634	-0.712
O(C)c1ccc(CC[C@H](O)CCCCc2ccc(OC)cc2)cc1	328.452	4.4103	10	3	1	144.794	-5.232	1.283	94.527	-2.725	Yes	Yes	No	0.309	0.028	-0.181	-1.152	No	Yes	Yes	Yes	Yes	No	Yes	1.583	No	No	0.075	No	Yes	2.441	2.328	Yes	No	1.065	-1.401
O(C)c1ccc(Cc2nccc3c2cc2OCOc2c3)cc1	293.322	3.5629	3	4	0	127.819	-4.078	0.874	97.3	-2.693	No	No	Yes	0.146	0.187	0.449	-1.516	No	Yes	Yes	Yes	No	No	Yes	0.263	No	No	0.424	No	Yes	2.565	2.08	Yes	No	0.415	0.124
O(C)c1ccc([C@@H]2O[C@H](CCc3ccc(O)cc3)CCC2)cc1	312.409	4.6438	5	3	1	137.424	-5.278	1.199	93.894	-2.721	No	Yes	No	0.49	0.07	0.051	-1.607	No	No	Yes	Yes	Yes	Yes	No	1.17	Yes	No	0.529	No	Yes	2.154	1.627	No	No	1.757	-0.767
O(C)c1ccc([C@H](O)[C@@H]2NC=Cc3c2cc2OCOc2c3)cc1	311.337	2.7725	3	5	2	133.662	-3.593	1.277	93.441	-2.827	Yes	No	No	0.121	0.014	-0.083	-2.283	Yes	Yes	Yes	Yes	Yes	No	No	0.065	No	Yes	0.1	No	Yes	2.263	1.3	No	No	0.532	0.495
O(C)c1ccc([C@H](O)c2nccc3c2cc2OCOc2c3)cc1	309.321	3.0538	3	5	1	132.614	-3.503	1.323	95.022	-2.737	No	No	Yes	0.149	0.126	0.221	-2.24	No	Yes	Yes	Yes	No	No	Yes	0.228	No	No	0.646	No	Yes	2.563	1.376	Yes	No	0.338	0.378
O(C)c1ccc([C@H]2C(=O)c3c(O)cc(O)cc3OC2)cc1	286.283	2.4653	2	5	2	120.920	-3.636	0.971	95.125	-2.838	Yes	No	No	-0.22	0.186	-0.162	-2.327	No	No	Yes	Yes	No	No	Yes	0.2	No	Yes	0.444	No	No	2.252	1.869	No	No	0.426	0.006
O(C)c1ccc([C@H]2O[C@@H](CCc3ccc(O)cc3)CCC2)cc1	312.409	4.6438	5	3	1	137.424	-5.278	1.199	93.894	-2.721	No	Yes	No	0.49	0.07	0.051	-1.607	No	No	Yes	Yes	Yes	Yes	No	1.17	Yes	No	0.529	No	Yes	2.154	1.627	No	No	1.757	-0.767
O(C)c1ccc([C@H]2Oc3c(c(O)cc(O)c3)C(=O)C2)cc1	286.283	2.8129	2	5	2	120.920	-3.456	0.925	94.744	-3.025	Yes	No	No	0.09	0.172	-0.21	-2.226	No	No	Yes	Yes	No	No	No	0.151	No	Yes	0.403	No	No	2.374	1.836	No	No	0.568	-0.388
O(C/C=C(/CCC=C(C)C)\C)c1cc2OC(=O)C=Cc2cc1	298.382	4.8645	6	3	0	130.463	-5.481	1.506	95.399	-2.194	No	Yes	No	0.613	0	0.145	-1.937	No	Yes	Yes	Yes	Yes	No	No	1.077	No	No	0.567	No	No	2.086	2.311	Yes	No	2.373	-0.567
O(C/C=C(/C[C@H](O)C=C(C)C)\C)c1cc2OC(=O)C=Cc2cc1	314.381	3.8353	6	4	1	135.257	-4.377	1.379	95.325	-2.916	No	Yes	No	0.214	0.145	-0.158	-2.189	No	No	Yes	Yes	Yes	No	No	1.01	No	Yes	0.184	No	No	2.39	2.098	Yes	No	1.933	0.164
O(CC)c1c(C)c(O)c2C(=O)C[C@H](c3cc(OC)c(O)cc3)Oc2c1C	358.39	3.82844	4	6	2	151.493	-4.096	1.297	93.439	-2.824	Yes	Yes	No	0.151	0.111	-0.249	-2.945	No	No	Yes	Yes	Yes	No	Yes	0.224	No	Yes	0.71	No	No	2.205	1.787	No	No	0.417	0.331
O(CC=C(C)C)c1c(OC)c(CC=C(C)C)cc2c1OC(=O)C=C2	328.408	4.6553	6	4	0	141.942	-5.658	1.423	97.368	-2.613	No	Yes	No	0.259	0.029	-0.177	-2.236	No	Yes	Yes	Yes	Yes	No	No	1.055	No	No	0.763	No	No	2.32	2.193	Yes	No	1.786	-0.216
O(CC=C(C)C)c1c(OC)c2OC(=O)C=Cc2cc1OC	290.315	3.1552	5	5	0	122.285	-4.008	1.348	97.117	-2.481	No	No	No	-0.103	0.171	0.112	-2.836	No	No	Yes	Yes	No	No	No	0.908	No	No	0.999	No	No	2.214	1.463	No	No	0.988	0.618
O(CC=C(C)C)c1c2OCOc2c2c(OC(=O)C=C2)c1	274.272	2.8667	3	5	0	114.914	-3.583	1.272	97.528	-2.616	No	No	No	-0.186	0.178	-0.063	-2.893	No	Yes	Yes	Yes	No	No	No	0.753	No	Yes	0.458	No	No	2.513	1.216	No	No	0.767	0.476
O(CC=C(C)C)c1c2c(occ2)cc2OC(=O)C=Cc12	270.284	3.8842	3	4	0	114.804	-4.028	1.411	97.853	-2.385	No	No	No	0.16	0.186	0.178	-2.683	No	Yes	Yes	Yes	Yes	No	No	0.997	No	Yes	-0.377	No	No	1.937	1.916	No	No	1.184	0.524
O(CC=C(C)C)c1c2occc2c(OC)c2c1OC(=O)C=C2	300.31	3.8928	4	5	0	126.283	-4.295	1.405	97.614	-2.514	No	No	No	0.114	0.19	-0.079	-2.756	No	Yes	Yes	Yes	Yes	No	No	0.914	No	No	-0.248	No	No	2.105	1.213	No	No	0.868	0.747
O(CC=C(C)C)c1c2occc2cc2c1OC(=O)C=C2	270.284	3.8842	3	4	0	114.804	-3.855	1.422	96.43	-2.373	No	No	No	0.033	0.18	0.205	-1.801	No	Yes	Yes	Yes	No	No	No	0.978	No	Yes	-0.501	No	No	1.866	1.878	No	No	1.197	0.613
O(CC=C(C)C)c1cc2OC=C(c3cc(O)c(OC)cc3)C(=O)c2cc1	352.386	4.5192	5	5	1	150.658	-4.765	1.058	97.468	-2.786	Yes	Yes	Yes	0.485	0.128	-0.391	-1.992	No	Yes	Yes	Yes	Yes	No	Yes	0.328	No	No	0.445	No	Yes	2.613	2.395	No	No	0.548	-1.497
O(CC=C(C)C)c1ccc(C[C@@]2(O)C(=O)N(C)CC(=O)N2)cc1	318.373	0.8509	5	4	2	135.291	-3.242	0.344	68.219	-3.567	Yes	No	No	-0.316	0.299	-0.672	-2.99	No	No	No	No	No	No	No	0.366	No	No	0.265	No	No	2.047	2.126	Yes	No	0.389	1.656
O(CC=C)c1c(OC)c2O[C@H]([C@@H](C)c2cc1OC)c1cc2OCOc2cc1	370.401	4.2345	6	6	0	157.753	-4.627	1.437	98.725	-2.749	No	Yes	Yes	-0.291	0.024	-0.101	-2.957	No	Yes	Yes	Yes	Yes	Yes	Yes	0.193	No	No	1.077	No	No	2.736	1.838	No	No	0.325	-0.724
O(CC=C)c1c(OC)cc2[C@H](C)[C@@H](c3cc(OC)c4OCOc4c3)Oc2c1	370.401	4.2345	6	6	0	157.753	-5.234	1.41	98.347	-2.756	No	Yes	Yes	-0.073	0.03	0.438	-2.918	No	Yes	Yes	Yes	Yes	No	Yes	0.319	No	No	0.992	No	No	2.835	1.638	No	No	0.375	-0.624
O(CC=C)c1c(OC)cc2[C@H](C)[C@@H](c3cc4OCOc4cc3)Oc2c1	340.375	4.2259	5	5	0	146.274	-5.05	1.383	97.381	-2.713	No	Yes	No	-0.003	0.016	-0.127	-1.69	No	Yes	Yes	Yes	Yes	No	Yes	0.23	No	No	0.619	No	Yes	2.812	1.645	No	No	0.579	-0.264
O(CC=C)c1c(OC)cc2[C@H](C)[C@H](c3cc(OC)c4OCOc4c3)Oc2c1	370.401	4.2345	6	6	0	157.753	-5.234	1.41	98.347	-2.756	No	Yes	Yes	-0.073	0.03	0.438	-2.918	No	Yes	Yes	Yes	Yes	No	Yes	0.319	No	No	0.992	No	No	2.835	1.638	No	No	0.375	-0.624
O(CCC)c1c(O)cccc1	152.193	2.181	3	2	1	66.434	-1.742	1.226	93.463	-1.713	No	No	No	0.051	0.406	0.243	-1.821	No	No	Yes	No	No	No	No	0.266	No	No	0.997	No	No	1.991	2.529	No	Yes	0.336	1.411
O(CCCC)C[C@@]1(O)[C@@H](O)[C@H](O)[C@@H](CO)O1	236.264	-1.3954	6	6	4	94.422	-0.286	-0.317	35.617	-3.417	No	No	No	-0.55	0.774	-1.465	-4.697	No	No	No	No	No	No	No	1.513	No	No	1.701	No	No	1.579	3.394	No	No	0.28	2.994
O(CCCC)[C@]1(CO)[C@@H](O)[C@H](O)[C@@H](CO)O1	236.264	-1.3954	6	6	4	94.422	-0.687	-0.26	40.755	-3.363	No	No	No	-0.543	0.799	-1.365	-4.348	No	No	No	No	No	No	No	1.562	No	No	1.653	No	No	1.473	3.18	No	No	0.264	3.277
O(C[C@@H](O)C(O)(C)C)c1c(OC)cc2c(OC(=O)C=C2)c1	294.303	1.3122	5	6	2	121.085	-2.51	1.255	63.445	-3.249	No	No	No	-0.663	0.248	-0.501	-3.43	No	No	No	No	No	No	No	0.89	No	No	0.859	No	No	2.674	0.774	No	No	0.463	1.855
O(C[C@@H](O)C(O)(C)C)c1c(OC)cc2nc3occc3c(OC)c2c1	347.367	2.5088	6	7	2	144.292	-3.384	1.128	86.161	-2.838	No	No	No	-0.397	0.194	-0.71	-3.461	No	No	Yes	No	No	No	No	0.822	No	No	0.625	No	Yes	2.804	1.615	Yes	No	0.326	0.831
O(C[C@@H](O)C(O)(C)C)c1c2c(occ2)cc2OC(=O)C=Cc12	304.298	2.0498	4	6	2	125.082	-2.904	0.886	86.07	-3.259	No	No	No	-0.53	0.239	-0.457	-3.386	No	No	Yes	No	No	No	No	0.819	No	No	-0.082	No	No	2.542	0.906	No	No	0.453	1.043
O(C[C@@H](O)CNC(C)C)c1c2c(c(O)cc1)cccc2	275.348	2.2831	6	4	3	118.555	-3.305	1.234	91.861	-2.736	Yes	No	No	0.999	0.273	-0.232	-2.565	Yes	No	No	No	No	No	No	0.992	No	No	-0.158	No	Yes	2.153	2.049	No	No	0.31	0.943
O(C[C@@H]1C(C)(C)O1)c1c(OC)cc2c(OC(=O)C=C2)c1	276.288	2.3578	4	5	0	115.604	-3.234	1.274	99.52	-2.866	No	No	No	-0.145	0.271	-0.286	-2.932	No	No	Yes	Yes	No	No	No	0.723	No	Yes	0.311	No	No	1.93	1.192	No	No	0.618	0.711
O(C[C@@H]1C(C)(C)O1)c1c2OCOc2c2c(OC(=O)C=C2)c1	290.271	2.0779	3	6	0	119.712	-2.976	1.287	99.139	-2.819	No	No	No	-0.284	0.232	-0.679	-3.035	No	Yes	No	No	No	No	No	0.575	No	Yes	0.075	No	No	2.116	1.163	No	No	0.434	0.623
O(C[C@H](O)C(=C)C)c1c2occc2cc2c1OC(=O)C=C2	286.283	2.855	4	5	1	119.598	-3.125	0.867	95.619	-2.98	No	No	No	-0.228	0.243	-0.368	-2.851	No	No	Yes	Yes	No	No	No	0.927	No	No	-0.525	No	Yes	2.251	1.272	Yes	No	0.659	0.812
O(C[C@H](O)C(O)(C)C)c1c2OCOc2c2c(OC(=O)C=C2)c1	308.286	1.0323	4	7	2	125.192	-2.615	0.661	89.508	-2.888	No	No	No	-0.735	0.193	-0.665	-3.534	No	No	No	No	No	No	No	0.723	No	No	0.604	No	No	2.864	1.82	Yes	No	0.334	1.866
O(C[C@H](O)CNC(C)C)c1c2c(c(O)cc1)cccc2	275.348	2.2831	6	4	3	118.555	-3.305	1.234	91.861	-2.736	Yes	No	No	0.999	0.273	-0.232	-2.565	Yes	No	No	No	No	No	No	0.992	No	No	-0.158	No	Yes	2.153	2.049	No	No	0.31	0.943
O(C[C@H](O)C[C@@H]1C(=O)O[C@@H](CCCCCCCCC=C)C1)C	312.45	3.6223	13	4	1	134.431	-3.716	1.62	93.474	-2.753	Yes	Yes	No	-0.024	0.245	-0.198	-2.838	No	No	No	No	No	No	No	1.734	Yes	No	-0.483	No	No	2.597	2.041	No	Yes	1.533	0.171
O(C[C@H]1C(C)(C)O1)c1c(OC)c2OC(=O)C=Cc2cc1OC	306.314	2.3664	5	6	0	127.082	-3.327	1.43	98.84	-2.863	No	No	No	-0.241	0.234	-0.73	-2.979	No	Yes	Yes	No	No	No	No	0.738	No	Yes	0.609	No	No	2.015	1.154	No	No	0.549	0.766
O(Cc1c2C(=O)[C@H](O)C(=C(C)C)Cc2c(C)cc1)C	260.333	2.57752	2	3	1	113.455	-2.844	1.25	96.624	-3.281	No	No	No	0.075	0.267	0.229	-2.057	No	No	Yes	Yes	No	No	No	0.301	No	No	0.34	No	No	2.075	1.903	Yes	No	1.494	0.609
O(Cc1c2C(=O)[C@H](O)[C@@H](C(=C)C)Cc2c(C)cc1)C	260.333	2.43342	3	3	1	113.455	-2.714	1.24	96.923	-3.3	No	No	No	0.107	0.278	0.199	-2.11	No	No	Yes	Yes	No	No	No	0.375	No	No	0.355	No	No	2.079	1.901	No	No	1.464	0.597
O(Cc1c2C(=O)[C@H](O)[C@@H](C(O)(C)C)Cc2c(C)cc1)C	278.348	1.62822	3	4	2	118.939	-2.361	-0.072	96.743	-3.77	Yes	No	No	-0.182	0.328	0.37	-3.252	No	No	No	No	No	No	No	1.212	No	No	0.624	No	No	2.039	2.773	No	No	0.51	0.951
O(Cc1c2C(=O)[C@H](O)[C@@H](C(O)(C)C)Cc2c(CO)cc1)C	294.347	0.8121	4	5	3	123.733	-2.083	1.112	59.253	-3.019	Yes	No	No	-0.015	0.363	-0.713	-3.38	No	No	No	No	No	No	No	1.144	No	No	0.435	No	No	2.11	2.55	No	No	0.108	1.536
O(Cc1cc(-c2cc3c([nH]cc3)cc2)oc1)C	227.263	3.5743	3	2	1	99.017	-3.712	1.64	94.548	-2.569	Yes	No	No	0.129	0.289	0.508	-1.857	No	No	Yes	Yes	No	No	No	0.729	No	No	-0.247	No	No	2.217	1.195	No	No	0.776	0.819
O(OC)CCCCCCCCCCOOC	234.336	3.2632	13	4	0	99.066	-3.143	1.662	94.178	-2.333	No	Yes	No	-0.082	0.35	-0.003	-2.506	No	No	No	No	No	No	No	2.242	No	No	0.398	No	No	1.941	2.264	No	Yes	1.33	0.215
O(OC)CCCCCCCCCOOC	220.309	2.8731	12	4	0	92.701	-2.61	1.663	94.521	-2.279	No	No	No	-0.119	0.405	0.039	-2.557	No	No	No	No	No	No	No	2.204	No	No	0.43	No	No	1.981	2.195	No	Yes	1.051	0.591
O([C@@H](C)c1cc(C(=O)C=C(C)C)c(O)cc1)C(=O)/C(=C\C)/COC(=O)C	360.406	3.6547	7	6	1	152.667	-4.237	1.305	96.037	-3.389	Yes	Yes	No	-0.16	0.283	-0.602	-2.864	No	No	No	No	No	No	No	0.598	No	No	0.9	No	No	2.081	2.816	No	No	0.875	0.164
O([C@@H](C)c1cc(C(=O)C=C(C)C)c(O)cc1)C(=O)C	262.305	3.1652	4	4	1	112.257	-3.353	1.113	95.561	-3.095	Yes	No	No	-0.088	0.333	-0.29	-2.832	No	No	Yes	No	No	No	No	0.357	No	No	0.939	No	No	1.875	2.196	No	No	1.581	0.83
O([C@@H](COC)C[C@@H]1C(=O)O[C@@H](CCCCCCCCC=C)C1)C	326.477	4.2764	14	4	0	141.115	-4.41	1.659	96.188	-2.639	No	Yes	No	0.082	0.15	-0.366	-2.566	No	Yes	No	No	Yes	No	No	1.782	Yes	No	0.287	No	No	1.748	2.081	No	Yes	1.478	-1.506
O([C@@H]([C@@H](OC(=O)C)c1c(OC)ccc2c1OC(=O)C=C2)C(=C)C)C(=O)C	360.362	2.9136	6	7	0	149.703	-3.976	1.351	88.305	-2.795	No	No	No	-0.548	0.147	-0.926	-2.977	No	Yes	Yes	Yes	No	No	No	1.087	No	No	0.989	No	No	2.637	1.334	Yes	No	0.361	1.117
O([C@@H]1[C@H](O)[C@@H](O)[C@H](O)[C@@H](CO)O1)[C@@]1(CO)[C@@H](O)[C@H](O)[C@@H](CO)O1	342.297	-5.3956	5	11	8	130.436	-0.458	-0.454	11.805	-2.738	Yes	No	No	-0.257	0.736	-2.019	-6.232	No	No	No	No	No	No	No	1.509	No	No	1.805	No	No	1.531	5.315	No	No	0.285	7.738
O([C@H](/C=C/[C@@]1(O)C(C)=CC(=O)CC1(C)C)C)[C@H]1[C@H](O)[C@@H](O)[C@H](O)[C@@H](CO)O1	386.441	-0.576	5	8	5	158.277	-2.04	-0.501	37.301	-3.19	Yes	No	No	-0.713	0.588	-1.536	-4.73	No	No	No	No	No	No	No	1.389	No	No	0.62	No	No	2.657	3.06	No	No	0.285	3.784
O([C@H](C(=C)C)CC=1C(=O)N(C)c2c(OC)cccc2C=1OC)C	317.385	2.6893	6	5	0	135.640	-4.294	1.355	99.804	-2.653	No	No	No	0.204	0.218	0.42	-2.823	No	Yes	Yes	Yes	No	No	No	0.715	No	No	1.02	No	No	2.337	1.573	Yes	No	1.033	0.358
O([C@H]([C@@H](O)c1cc(OC)c(OC)cc1)C)c1c(OC)cc(/C=C/C)cc1	358.434	4.2464	8	5	1	154.332	-4.263	1.495	96.188	-2.809	No	Yes	No	0.18	0.071	-0.382	-2.299	No	Yes	No	Yes	Yes	No	Yes	0.364	No	No	0.693	No	Yes	2.556	1.828	No	No	0.444	-1.756
O([C@H]1[C@H](O)[C@@H](O)[C@H](O)[C@@H](CO)O1)[C@@H]1[C@@H](C=C)[C@@H]2C(C(=O)OCC2)=CO1	358.343	-1.5916	4	9	4	143.609	-2.073	0.157	43.688	-2.937	No	No	No	-0.712	0.643	-1.652	-4.651	No	No	No	No	No	No	No	1.404	No	No	0.896	No	No	2.66	3.437	No	No	0.285	4.542
O([C@H]1[C@H](O)[C@@H](O)[C@H](O)[C@@H](CO)O1)c1cc(C)c2C(OC)=CC(=O)Oc2c1	368.338	-0.71128	4	9	4	147.511	-3.133	0.103	46.06	-2.745	No	No	No	-0.896	0.281	-1.714	-4.73	No	No	No	No	No	No	No	0.883	No	No	1.1	No	No	3.354	3.133	Yes	No	0.286	2.739
O/N=C(/CCCCCCCCCCCC[C@@H]1N[C@H](C)[C@H](O)CC1)\C	340.552	5.0191	13	4	3	148.655	-4.976	0.535	85.456	-2.814	No	Yes	No	0.527	0.301	-0.482	-2.753	No	Yes	Yes	No	No	Yes	No	1.332	No	No	-0.332	No	No	1.944	2.333	No	Yes	0.732	-0.117
O=C(/C=C(/CCC=C(C)C)\C)c1c(O)ccc(O)c1	260.333	3.9732	5	3	2	113.452	-3.869	1.321	92.025	-3.029	Yes	No	No	0.206	0.226	-0.04	-2.106	No	No	Yes	Yes	Yes	No	No	0.222	No	No	0.025	No	No	2.094	2.235	No	No	2.245	0.417
O=C(/C=C(\OC)/c1ccccc1)c1c(OC)c2c(occ2)cc1	308.333	4.3116	5	4	0	133.488	-4.752	1.483	97.526	-2.626	No	Yes	No	0.039	0.001	-0.057	-1.53	No	Yes	Yes	Yes	Yes	No	No	0.476	No	No	0.758	No	Yes	2.466	2.395	No	No	0.76	-0.357
O=C(/C=C/C=1C(C)(C)CCCC=1C)C	192.302	3.6582	2	1	0	86.895	-3.996	1.514	95.202	-1.677	No	No	No	0.315	0.375	0.59	-2.304	No	No	No	No	No	No	No	1.315	No	No	0.413	No	No	1.673	1.294	No	Yes	1.145	0.913
O=C(/C=C/C=C/c1cc2OCOc2cc1)N1CCCC1	271.316	2.6071	3	3	0	117.838	-3.386	1.269	95.098	-3.163	No	Yes	No	0.605	0.242	0.31	-2.331	No	Yes	Yes	Yes	No	No	No	0.286	Yes	No	-0.195	No	No	2.381	1.461	No	No	1.476	0.733
O=C(/C=C/C=C/c1cc2OCOc2cc1)N1CCCCC1	285.343	2.9972	3	3	0	124.203	-3.623	1.271	94.709	-3.161	No	Yes	No	0.635	0.219	0.323	-2.377	No	Yes	Yes	Yes	No	No	No	0.288	Yes	No	-0.246	No	No	2.424	1.415	Yes	No	1.531	0.616
O=C(/C=C/C=C\c1cc2OCOc2cc1)N1CCCC1	271.316	2.6071	3	3	0	117.838	-3.404	1.749	94.297	-2.848	No	Yes	No	0.015	0.271	0.182	-2.174	No	Yes	Yes	No	No	No	Yes	0.234	No	No	0.201	No	No	1.847	1.744	No	No	1.58	1.055
O=C(/C=C/CCc1cc2OCOc2cc1)N1CCCC1	273.332	2.5265	4	3	0	118.528	-3.325	1.262	95.286	-3.141	No	Yes	No	0.641	0.251	0.281	-2.384	No	Yes	Yes	Yes	No	No	No	0.239	Yes	No	-0.157	No	No	2.372	1.482	Yes	No	1.462	0.682
O=C(/C=C/CCc1cc2OCOc2cc1)N1CCCC1	273.332	2.5265	4	3	0	118.528	-3.325	1.262	95.286	-3.141	No	Yes	No	0.641	0.251	0.281	-2.384	No	Yes	Yes	Yes	No	No	No	0.239	Yes	No	-0.157	No	No	2.372	1.482	Yes	No	1.462	0.682
O=C(/C=C/CCc1cc2OCOc2cc1)N1CCCCC1	287.359	2.9166	4	3	0	124.893	-3.562	1.265	94.898	-3.14	No	Yes	No	0.671	0.227	0.294	-2.43	No	Yes	Yes	Yes	No	No	No	0.242	Yes	No	-0.206	No	No	2.416	1.436	Yes	No	1.521	0.565
O=C(/C=C/c1cc(O)c(O)cc1)c1c(O)cc(O)cc1	272.256	2.4051	3	5	4	114.232	-2.975	0.888	73.64	-2.736	Yes	No	No	0.05	0.185	-1.135	-2.57	No	No	Yes	No	Yes	No	No	0.126	No	No	0.244	No	No	1.843	2.474	No	No	0.485	1.493
O=C(/C=C/c1cc(OC)c(O)cc1)c1c(O)cc(O)cc1	286.283	2.7081	4	5	3	120.916	-3.12	0.939	91.847	-2.755	Yes	No	No	-0.099	0.195	-0.977	-2.509	No	No	Yes	Yes	No	No	No	0.175	No	No	0.436	No	Yes	1.795	2.385	No	No	0.55	0.65
O=C(/C=C/c1cc(OC)c(OC)c(OC)c1)N1C(=O)C=CCC1	317.341	2.0407	5	5	0	134.484	-3.605	1.039	96.414	-3.308	No	No	No	0.02	0.375	0.028	-2.943	No	No	No	Yes	No	No	No	0.238	No	No	0.405	No	No	2.119	2.611	Yes	No	0.716	1.529
O=C(/C=C/c1cc(OC)c(OC)c(OC)c1)c1c(OC)cc(OC)cc1O	374.389	3.3313	8	7	1	157.242	-4.68	1.287	96.657	-2.76	No	Yes	Yes	-0.344	0.131	-0.809	-3.205	No	Yes	No	Yes	Yes	No	Yes	0.383	No	No	0.883	No	No	2.007	1.839	No	No	0.313	-1.054
O=C(/C=C/c1cc(OC)c(OC)cc1)c1c(O)cc(O)cc1	300.31	3.0111	5	5	2	127.601	-3.676	1.012	94.664	-2.875	Yes	No	No	-0.274	0.166	-0.368	-2.502	No	No	Yes	Yes	No	No	Yes	0.227	No	No	0.539	No	Yes	2.185	2.218	No	No	0.782	-0.466
O=C(/C=C/c1ccc(O)cc1)c1c(O)c2c(OC(C)(C)C=C2)cc1	322.36	4.1781	3	4	2	139.887	-3.651	1.018	91.774	-2.854	Yes	No	No	0.314	0.134	-0.047	-1.883	No	No	Yes	Yes	Yes	No	Yes	0.016	No	No	-0.176	No	Yes	2.208	1.742	No	No	0.738	0.652
O=C(/C=C/c1ccc(O)cc1)c1c(O)cc(O)cc1	256.257	2.6995	3	4	3	109.438	-2.845	0.858	90.549	-2.805	Yes	No	No	-0.156	0.215	-0.871	-2.314	No	No	Yes	Yes	Yes	No	Yes	0.139	No	Yes	0.109	No	No	1.851	1.787	No	No	0.742	1.298
O=C(/C=C/c1ccccc1)[C@@H]1[C@@H](O)C=C(OC)C=C1O	272.3	2.2318	4	4	2	116.870	-2.443	0.857	92.618	-2.997	No	No	No	-0.001	0.274	0.368	-2.526	No	Yes	No	Yes	No	No	No	0.169	No	No	0.454	No	No	2.201	1.967	No	No	1.032	1.046
O=C(/C=C/c1ccccc1)c1c(O)c(CC=C(C)C)c(O)cc1	308.377	4.5026	5	3	2	135.779	-4.436	1.339	93.224	-3.019	Yes	No	No	-0.12	0.094	-0.086	-1.93	No	No	Yes	Yes	Yes	No	No	0.204	No	No	0.14	No	Yes	1.902	2.116	No	No	0.913	-0.727
O=C(/C=C/c1ccccc1)c1c(O)c2c(OC(C)(C)C=C2)cc1	306.361	4.4725	3	3	1	135.092	-4.941	1.386	93.772	-2.853	Yes	Yes	No	0.341	0.049	0.221	-1.323	No	Yes	Yes	Yes	Yes	No	No	0.035	No	Yes	0.079	No	Yes	2.338	2.048	No	No	1.312	-0.157
O=C(/C=C/c1ccccc1)c1c(O)cc(OCC=C(C)C)cc1	308.377	4.6333	6	3	1	136.098	-5.413	1.424	93.46	-2.76	Yes	Yes	No	0.165	0.038	0.12	-1.234	No	Yes	Yes	Yes	Yes	No	Yes	0.237	No	No	0.431	No	Yes	2.058	2.09	No	No	1.572	-0.397
O=C(/C=C/c1ccccc1)c1c(OC)cc(OC)cc1O	284.311	3.3055	5	4	1	122.806	-4.432	1.294	94.761	-2.852	Yes	No	No	0.003	0.078	0.391	-2.201	No	Yes	Yes	Yes	No	No	Yes	0.302	No	No	0.711	No	No	2.115	2.146	No	No	1.09	-0.06
O=C(/C=C\C=C/CCc1cc2OCOc2cc1)N1CCCC1	299.37	3.0827	5	3	0	130.568	-3.806	1.267	95.105	-3.071	No	Yes	No	0.669	0.163	0.223	-2.222	No	Yes	Yes	Yes	No	No	No	0.342	Yes	No	-0.061	No	Yes	2.395	1.534	Yes	No	1.655	0.293
O=C(/C=C\c1c(OC)cc2OCOc2c1)N1CCCC1	275.304	2.0595	3	4	0	117.277	-2.968	1.271	94.745	-3.211	Yes	Yes	No	-0.205	0.365	0.061	-2.553	No	Yes	Yes	Yes	No	No	No	0.474	No	No	0.305	No	No	1.938	1.143	No	No	1.057	1.451
O=C(/C=C\c1cc(OC)c(OC)c(OC)c1)N1C(=O)C=CCC1	317.341	2.0407	5	5	0	134.484	-3.175	0.948	95.19	-3.308	Yes	No	No	-0.466	0.355	-0.159	-2.898	No	Yes	Yes	Yes	No	No	No	0.191	No	Yes	0.331	No	No	1.897	1.279	No	No	0.917	1.364
