SMILES	MOL_WEIGHT	LOGP	#ROTATABLE_BONDS	#ACCEPTORS	#DONORS	SURFACE_AREA	Water solubility	Caco2 permeability	Intestinal absorption (human)	Skin Permeability	P-glycoprotein substrate	P-glycoprotein I inhibitor	P-glycoprotein II inhibitor	VDss (human)	Fraction unbound (human)	BBB permeability	CNS permeability	CYP2D6 substrate	CYP3A4 substrate	CYP1A2 inhibitior	CYP2C19 inhibitior	CYP2C9 inhibitior	CYP2D6 inhibitior	CYP3A4 inhibitior	Total Clearance	Renal OCT2 substrate	AMES toxicity	Max. tolerated dose (human)	hERG I inhibitor	hERG II inhibitor	Oral Rat Acute Toxicity (LD50)	Oral Rat Chronic Toxicity (LOAEL)	Hepatotoxicity	Skin Sensitisation	<i>T.Pyriformis</i> toxicity	Minnow toxicity
C=C1C(OC(=O)/C=C/c2ccccc2)CCC2(C)C(OC(C)=O)C(OC(C)=O)C3=C(C)C(O)CC(C(O)C12)C3(C)C	566.691	4.5455	5	8	2	241.612	-4.285	0.976	79.483	-2.733	Yes	Yes	Yes	0.127	0.11	-0.261	-2.297	No	No	No	No	No	No	Yes	0.553	No	No	-0.353	No	No	3.674	2.515	Yes	No	0.285	1.463
CC1(C)CC2C3=CCC4C5(C)CCC(O)C(C)(C=O)C5CCC4(C)C3(C)CC(O)C2(CO)C(O)C1O	504.708	3.2327	2	6	5	215.737	-4.052	0.523	62.774	-2.919	Yes	No	No	-0.741	0.147	-1.205	-3.103	No	Yes	No	No	No	No	No	0.276	No	No	-0.958	No	No	3.534	2.471	No	No	0.285	1.319
C/C=C1\C(OC2OC(CO)C(O)C(O)C2O)OC=C(C(=O)OC)C1CC(=O)OCCc1ccc(OC)c(OC)c1	568.572	-0.0282	11	13	4	230.999	-3.333	-0.461	36.739	-2.735	Yes	Yes	No	-0.321	0.303	-2.039	-4.149	No	No	No	No	No	No	No	1.229	No	No	-0.308	No	Yes	3.973	5.437	No	No	0.285	3.982
CC1(C(=O)O)CCC2(C)CCC3(C)C(=CC(=O)C4C5(C)CCC(OC6OC(C(=O)O)C(O)C(O)C6OC6OCC(O)C(O)C6O)C(C)(C)C5CCC43C)C2C1	778.933	2.7924	6	12	7	322.105	-2.912	-0.043	4.444	-2.735	Yes	No	No	-0.077	0.291	-1.466	-2.917	No	No	No	No	No	No	No	-0.204	No	No	-0.641	No	No	2.637	5.206	No	No	0.285	6.639
COc1ccc(-c2cc(=O)c3c(O)cc(OC4OC(COC5OCC(O)C(O)C5O)C(O)C(O)C4O)cc3o2)cc1O	594.522	-1.4782	7	15	8	236.426	-2.95	-0.255	24.555	-2.735	Yes	No	No	-0.167	0.237	-1.738	-5.347	No	No	No	No	No	No	No	0.116	No	No	0.483	No	Yes	2.344	5.176	No	No	0.285	5.234
COc1cc2c(cc1O)CC1NCCc3cc(OC)c(OC)c-2c31	327.38	2.8279	3	5	2	140.716	-2.845	1.193	94.937	-2.928	Yes	No	No	1.34	0.247	-0.299	-2.301	No	Yes	Yes	No	No	Yes	No	1.093	No	No	-0.525	No	Yes	3.155	1.715	No	No	0.379	1.28
C/C=C(\C)C(=O)OCC(O)(COC(C)=O)c1ccc(C)cc1O	322.357	1.96072	6	6	2	134.895	-2.713	0.814	69.024	-3.02	Yes	No	No	-0.283	0.358	-0.174	-3.335	No	No	No	No	No	No	No	0.733	No	No	0.515	No	No	2.299	2.41	No	No	0.273	1.018
CC1C(=O)OC2CC(C)(O)C(=O)CC21	198.218	0.278	0	4	1	82.243	-1.095	0.454	81.474	-3.739	No	No	No	-0.086	0.654	-0.346	-2.962	No	No	No	No	No	No	No	0.268	No	No	0.85	No	No	2.253	2.448	No	No	-0.161	2.694
CCC(CCC(C)C1CCC2C3C(O)C=C4CC(O)CC(=O)C4(C)C3CCC12C)C(C)C	444.7	6.1746	6	3	2	195.995	-4.925	1.472	98.015	-2.735	Yes	Yes	Yes	-0.621	0	-0.58	-1.638	No	Yes	No	No	No	No	No	0.642	No	No	-0.877	No	No	3.965	2.085	No	No	0.342	-1.067
O=C(/C=C/c1ccc(O)c(O)c1)OC1C(CO)OC(OCCc2ccc(O)c(O)c2)C(O)C1O	478.45	0.1323	8	11	7	193.869	-3.007	-0.123	26.79	-2.735	Yes	No	No	0.68	0.258	-1.881	-4.273	No	No	No	No	No	No	No	-0.106	No	No	0.352	No	No	2.582	4.344	No	No	0.285	2.497
COc1c2ccoc2c(OCC2OC2(C)C)c2oc(=O)ccc12	316.309	3.104	4	6	0	131.080	-3.263	1.116	98.883	-2.786	No	No	No	-0.052	0.181	-0.705	-2.962	No	Yes	Yes	Yes	Yes	No	No	0.697	No	No	-0.156	No	No	2.308	1.123	No	No	0.383	1.199
CCC(/C=C/C(C)C1CCC2C3C(=O)C=C4CC(O)CCC4(C)C3CCC12C)C(C)C	426.685	6.9798	5	2	1	190.511	-6.131	1.413	97.842	-2.549	Yes	Yes	Yes	-0.309	0	-0.365	-1.432	No	Yes	No	No	No	No	No	0.561	No	No	-0.326	No	Yes	2.972	2.238	Yes	No	0.427	-1.491
CCCCCCCCCCCCCCCCCC(=O)OCC(O)CO	358.563	5.1443	19	4	2	154.902	-6.003	0.348	89.805	-2.799	No	Yes	Yes	-0.308	0.133	-0.629	-3.343	No	Yes	No	No	No	No	No	2.044	No	No	0.246	No	No	1.675	2.89	No	Yes	0.55	-0.969
COC(=O)c1cc2c([nH]c3ccccc32)c(C(O)CO)n1	286.287	1.5284	3	5	3	119.547	-2.925	-0.15	81.537	-2.743	Yes	No	No	-0.103	0.19	-1.399	-2.933	No	No	Yes	No	No	No	No	0.656	No	No	0.591	No	No	2.267	2.631	Yes	No	0.347	0.063
C=C(C)C(C)/C=C/C(C)C1CCC2C34C=CC5(CC(O)CCC5(C)C3=CCC12C)OO4	424.625	6.3138	4	3	1	187.756	-6.188	1.18	95.691	-3.453	No	Yes	Yes	0.55	0	0.099	-2.776	No	Yes	No	No	No	No	No	0.624	No	No	-0.265	No	Yes	2.057	1.806	No	No	0.413	-0.56
COC1C=CC(C2COc3cc(OC4OC(CO)C(O)C(O)C4O)ccc3C2)C(O)C1OC	468.499	-1.0067	6	10	5	191.467	-3.217	-0.052	26.716	-2.735	Yes	No	No	-0.343	0.352	-1.326	-4.748	No	No	No	No	No	No	No	1.06	No	No	-0.288	No	No	3.663	3.484	No	No	0.285	3.855
C=C1C(=O)C23CC1CC(O)C2C1(C)CC(O)C(OC(C)=O)C(C)(C)C1C(O)C3OC(C)=O	450.528	1.15	2	8	3	187.514	-4.264	0.705	64.642	-3.319	Yes	No	No	0.309	0.354	-0.831	-2.99	No	No	No	No	No	No	No	0.536	No	No	-0.461	No	No	2.938	2.701	No	No	0.286	4.174
COc1cc(-c2cc(=O)c3c(O)cc(OC4OC(CO)C(O)C(O)C4O)cc3o2)ccc1O	462.407	0.0585	5	11	6	185.791	-3.509	-0.078	40.033	-2.735	Yes	No	No	-0.198	0.121	-1.621	-4.589	No	No	No	No	No	No	No	0.78	No	Yes	0.992	No	Yes	2.634	4.195	No	No	0.285	2.757
CC1=CCCC(C)=CC(C)(C)C=CCC1	204.357	5.0354	0	0	0	94.774	-5.218	1.421	94.223	-1.716	Yes	No	No	0.505	0.347	0.663	-2.545	No	No	No	No	No	No	No	1.3	No	No	0.551	No	No	1.766	1.336	No	Yes	1.43	0.775
COc1cc2c(=O)c3c(O)c(OC)c(OC4OC(CO)C(O)C(O)C4OC4OC(C)C(O)C(O)C4O)cc3oc2cc1O	612.537	-1.5949	7	16	8	241.894	-2.924	-0.061	25.733	-2.735	Yes	No	No	-0.109	0.241	-1.966	-5.522	No	No	No	No	No	No	No	0.07	No	Yes	0.232	No	No	2.484	5.583	No	No	0.285	7.031
COc1cc(C2Oc3ccc4cc3C2C(=O)N2CCCCNCCCNC4CC(=O)NCCC2)ccc1O	522.646	2.7609	2	7	4	223.429	-2.952	0.792	78.888	-2.737	Yes	No	Yes	1.466	0.207	-0.472	-2.444	No	Yes	No	Yes	No	No	No	0.341	No	No	-0.318	No	Yes	2.698	1.857	Yes	No	0.289	3.748
CC(C)c1ccc2c(c1)C(O)CC1C(C)(C)CCCC21C	286.459	5.3311	1	1	1	129.323	-5.597	1.643	93.503	-2.752	No	No	No	0.782	0	0.512	-1.126	No	Yes	Yes	Yes	Yes	No	Yes	0.759	No	No	-0.002	No	No	2.24	1.477	No	No	1.843	-1.382
COc1c(-c2ccc3c(c2)OCO3)oc2c(OC)c(O)cc(O)c2c1=O	358.302	2.6171	3	8	2	146.268	-3.846	0.815	92.625	-2.737	Yes	No	Yes	-0.2	0.09	-0.464	-3.51	No	No	Yes	No	No	No	Yes	0.522	No	No	0.876	No	Yes	2.41	2.264	No	No	0.293	0.067
COc1cc(CCC(O)CC(O)CCc2ccccc2)ccc1O	330.424	3.0781	9	4	3	142.904	-4.095	0.947	91.845	-2.76	Yes	No	No	-0.13	0.106	-0.712	-2.687	No	No	No	Yes	Yes	No	Yes	1.237	No	Yes	-0.311	No	Yes	2.657	1.706	No	No	0.442	-0.493
O=C(OCC1OC(Oc2ccc(O)cc2)C(O)C(O)C1O)c1ccccc1	376.361	0.4356	5	8	4	154.716	-3.759	0.841	59.253	-2.735	Yes	No	No	-0.537	0.13	-0.991	-3.956	No	No	No	No	No	No	No	0.267	No	Yes	0.49	No	No	2.674	3.53	Yes	No	0.285	1.7
CCC/C=C1/OC(=O)c2ccccc21	188.226	2.998	2	2	0	83.201	-3.532	0.933	95.4	-2.35	No	No	No	0.12	0.222	0.199	-1.858	No	No	Yes	No	No	No	No	0.807	No	No	1.157	No	No	1.871	2.619	No	Yes	1.139	0.725
CC1CC(C(O)C(C)(C)O)OC(=O)C1C1(C)CCC23CC24CCC(OC2OCC(O)C(O)C2O)C(C)(C)C4CC=C3C1(C)C=O	634.807	2.6583	6	10	5	266.058	-4.148	0.51	52.719	-2.771	Yes	Yes	No	-0.61	0.195	-1.428	-3.153	No	Yes	No	No	No	No	No	0.132	No	No	-2.227	No	Yes	4.758	2.725	No	No	0.285	3.746
CC1C2CCC3C4CCC5CC(N(C)C)CCC5(C)C4CCC32CN1C	358.614	4.8895	1	2	0	161.623	-3.27	1.21	91.321	-2.885	Yes	Yes	No	0.344	0.338	0.958	-1.935	No	Yes	No	No	No	No	No	0.182	Yes	No	-0.111	No	Yes	2.951	0.757	Yes	No	0.294	-0.459
C=C1CCC(C(C)(C)O)C=CC(C)CCC1=O	236.355	3.2651	1	2	1	104.419	-2.97	1.683	94.752	-2.707	No	No	No	0.1	0.45	0.181	-2.901	No	No	No	No	No	No	No	1.346	No	No	0.638	No	No	1.955	1.893	No	Yes	1	1.511
O=C(/C=C/c1ccc(O)c(O)c1)OC1OC2COC(=O)c3cc(O)c(O)c4oc5c(O)c(O)cc(c5c34)C(=O)OC2C(OC(=O)c2cc(O)c(O)c(O)c2)C1O	778.584	2.2002	5	20	10	309.537	-2.892	-0.448	74.301	-2.735	Yes	No	Yes	0.026	0.381	-3.208	-5.382	No	No	No	No	No	No	No	-0.88	No	No	0.431	No	Yes	2.483	8.492	No	No	0.285	2.701
COc1cc(O)c2c(c1)OC(c1cc(OC)ccc1O)CC2=O	316.309	2.8215	3	6	2	132.398	-3.488	1.152	94.815	-2.889	Yes	No	No	0.379	0.143	-0.327	-3.04	No	No	Yes	Yes	No	No	No	0.534	No	Yes	-0.007	No	No	2.38	1.649	No	No	0.412	1.183
CC1(C)CCC2(C(=O)OC3OC(COC4OC(CO)C(O)C(O)C4O)C(O)C(O)C3O)CCC3(C)C(=CCC4C5(C)CCC(OC6OC(COC7OC(CO)C(O)C(O)C7O)C(O)C(O)C6O)C(C)(C)C5CCC43C)C2C1	1105.275	-2.0353	12	23	14	448.528	-2.89	-0.567	0	-2.735	Yes	No	No	-0.113	0.379	-2.36	-5.237	No	No	No	No	No	No	No	0.107	Yes	No	0.385	No	Yes	2.482	10.018	No	No	0.285	12.385
C/[N+]([O-])=N\CO	90.082	-0.4715	1	3	1	35.303	0.462	1.13	95.695	-3.543	Yes	No	No	-0.342	0.804	-0.415	-3.019	No	No	No	No	No	No	No	0.406	No	Yes	1.221	No	No	2.655	0.994	No	No	-1.107	3.058
C=C1C(=O)OC2C1C(OC(C)=O)CC(C)=CCCC1(C)OC21	306.358	2.3036	1	5	0	129.845	-3.235	1.277	99.757	-3.249	No	Yes	No	0.023	0.447	-0.312	-2.877	No	No	No	No	No	No	No	1.175	No	No	0.202	No	No	2.623	1.446	No	No	0.389	2.45
COC(=O)C1(C)CCC2(C(=O)O)CCC3(C)C(=CCC4C5(C)CCC(OC6OCC(O)C(O)C6O)C(C)(CO)C5CCC43C)C2C1	648.834	3.8224	5	9	5	272.422	-3.341	0.004	47.323	-2.735	Yes	No	No	-0.365	0.097	-1.127	-2.35	No	Yes	No	No	No	No	No	0.076	No	No	-0.174	No	No	3.378	3.033	No	No	0.285	1.679
C=C1C(O)CC2C(C(=O)OCCC(C)CCCC(C)COC(=O)C3=COC(OC4OC(CO)C(O)C(O)C4O)C4C3CC(O)C4C)=COC(OC3OC(CO)C(O)C(O)C3O)C12	888.954	-1.7949	17	20	10	358.772	-2.87	-0.609	0	-2.735	Yes	No	No	0.012	0.355	-2.741	-6.477	No	No	No	No	No	No	No	0.94	No	No	-0.986	No	Yes	2.86	4.823	No	No	0.285	7.886
COc1cc(C(=O)N(C)C2CCC34CC35CCC3(C)C(C(C)N(C)C)CCC3(C)C5CCC4C2(C)CO)cc(OC)c1O	596.853	6.2116	7	6	2	258.847	-4.475	1.031	94.505	-2.757	Yes	Yes	Yes	-0.184	0.021	-0.528	-1.938	No	Yes	No	No	No	No	Yes	0.008	No	No	-0.751	No	Yes	4.095	1.727	Yes	No	0.286	0.122
C/C=C1\CN(C)C2CC3(C(=O)Nc4ccccc43)C3CC1C2CO3	324.424	2.5618	0	3	1	142.412	-3.191	1.452	96.263	-3.314	Yes	No	No	1.175	0.209	0.027	-1.528	No	Yes	No	No	No	Yes	No	0.926	Yes	No	-0.57	No	Yes	2.666	1.411	No	No	0.431	0.857
C=C(CO)C(=O)OC1CC(=C)C2CC(O)C(=C)C2C2OC(=O)C(=C)C12	346.379	1.0576	3	6	2	145.671	-3.078	0.387	83.242	-3.741	Yes	No	No	0.011	0.41	-0.333	-2.929	No	No	No	No	No	No	No	0.553	No	Yes	0.28	No	No	2.985	1.93	No	No	0.36	2.913
C/C(C=O)=C\CCC(C)C1CCC2(C)C3=CCC4C(C)(CCC(O)C4(C)C)C3=CCC12C	438.696	7.4341	5	2	1	196.186	-6.738	1.394	96.051	-2.801	Yes	Yes	Yes	0.377	0	-0.037	-2.212	No	Yes	No	No	No	No	No	0.451	No	No	-0.378	No	No	1.919	2.107	Yes	No	0.457	-2.006
COc1ccc2c(c1)C(=O)C13OC4(C)CCC(C4C=C1C2=O)C3(C)C=O	352.386	2.7733	2	5	0	150.904	-3.676	1.289	99.408	-3.346	No	Yes	No	0.4	0.115	-0.308	-2.124	No	Yes	No	Yes	No	No	No	0.023	No	No	0.11	No	No	2.192	1.874	No	No	0.344	0.188
COC1CC(OC2CCC3(C)C(=CCC4(O)C3CC(OC(=O)c3ccccc3O)C3(C)C(O)(C(C)=O)CCC43O)C2)OC(C)C1OC1CC(OC)C(OC2CC(OC)C(OC3OC(C)C(O)C(OC)C3O)C(C)O2)C(C)O1	1093.267	3.5123	15	21	6	450.507	-2.885	0.544	40.513	-2.735	Yes	No	No	0.762	0.316	-3.152	-4.703	No	Yes	No	No	No	No	No	0.242	No	No	-0.791	No	Yes	3.599	2.474	No	No	0.285	6.976
CC(=O)OCC1(OC(C)=O)C2OC3(C(OC(C)=O)C(C)=CC3C3(O)C(C)CC(=O)CC23)C1OC(C)=O	508.52	0.7884	5	11	1	207.955	-4.336	0.517	76.137	-2.717	Yes	Yes	No	0.682	0.377	-0.932	-2.982	No	Yes	No	No	No	No	No	0.605	No	No	0.619	No	No	3.027	1.716	No	No	0.285	5.137
Cc1ccoc1C(=O)CC(C)C	166.22	2.81682	3	2	0	72.577	-2.102	1.251	95.465	-1.897	No	No	No	0.16	0.434	0.059	-2.327	No	No	No	No	No	No	No	0.312	No	No	0.978	No	No	2.089	2.005	No	Yes	0.568	0.429
CCCC(c1c2c(c(OC(C)=O)c3c1OC(C)C(C)C3=O)C=CC(C)(C)O2)C(CC)C(=O)O	458.551	5.3903	7	6	1	194.648	-4.195	0.82	85.74	-2.734	No	No	Yes	-0.827	0.072	-0.813	-2.653	No	No	No	No	No	No	No	0.472	No	No	0.92	No	No	2.706	1.305	No	No	0.286	0.773
CC(C)=CCC/C(C)=C/Cc1c(O)ccc2cc(-c3cc(O)cc(O)c3CC=C(C)C)oc12	446.587	7.9605	8	4	3	195.753	-3.763	0.698	89.817	-2.735	Yes	Yes	Yes	-0.022	0.133	-1.077	-1.506	No	No	No	Yes	Yes	No	No	0.403	No	No	0.531	No	Yes	1.775	1.435	No	No	0.295	-2.343
C=C(C(=O)O)C1CCC2(C)CCCC(C)(O)C2(O)C1	268.353	2.0996	2	3	3	113.691	-1.659	0.897	95.367	-2.742	No	No	No	-0.544	0.527	-0.713	-3.352	No	No	No	No	No	No	No	1.113	No	No	0.473	No	No	1.858	2.662	No	No	0.232	2.314
COc1ccc(-c2oc3c(O)c(O)c(O)c(O)c3c(=O)c2O)cc1	332.264	1.9966	2	8	5	133.586	-3.002	-0.491	48.873	-2.735	Yes	No	No	0.123	0.119	-2.038	-4.877	No	No	No	No	No	No	No	0.545	No	Yes	0.87	No	No	2.478	4.259	No	No	0.285	0.075
CCN1CC2(C)CCC(OC)C34C2C(O)C2(OCOC25CC(OC)C2CC3(O)C5C2OC)C14	465.587	0.7791	4	8	2	195.373	-4.08	0.428	74.763	-3.044	Yes	Yes	No	1.144	0.503	-0.749	-3.043	No	Yes	No	No	No	No	No	0.373	No	No	-0.567	No	No	2.881	2.272	Yes	No	0.285	3.148
CC12CCC3C(CCC4=CC(=O)CCC43C)C1CCC2=O	286.415	4.0874	0	2	0	126.918	-4.938	1.593	99.008	-2.877	No	Yes	Yes	0.435	0.099	0.21	-2.181	No	Yes	No	No	No	No	No	0.937	Yes	No	-0.447	No	Yes	1.691	1.888	No	No	1.169	0.341
COc1ccc(C2CCc3ccc(O)c(CC=C(C)C)c3O2)c(O)c1	340.419	4.6814	4	4	2	147.893	-4.484	1.48	94.038	-3.006	Yes	Yes	No	0.432	0.048	-0.356	-1.835	No	No	Yes	Yes	Yes	No	Yes	0.303	No	No	0.383	No	Yes	2.19	1.326	No	No	0.777	-1.413
CC(=O)c1cc(/C=C/C(C)(C)O)c(O)c(C(=O)CC(C)C)c1	304.386	3.6077	6	4	2	131.033	-3.591	1.123	93.446	-3.22	Yes	No	No	-0.11	0.131	-0.078	-2.207	No	No	No	No	No	No	No	1.034	No	No	0.484	No	Yes	2.488	1.766	No	No	0.798	1.217
COC1=CC(=O)C(c2coc3cc(O)ccc3c2=O)=CC1=O	298.25	1.5641	2	6	1	123.480	-3.139	1.047	77.979	-3.15	No	No	No	-0.031	0.302	-0.539	-2.94	No	No	Yes	No	No	No	No	0.633	No	Yes	0.228	No	No	2.421	1.273	Yes	No	0.616	0.728
Cc1cc(O)c2c(c1O)C(=O)c1cc(O)cc(O)c1C2=O	286.239	1.59282	0	6	4	118.077	-3.419	-0.434	62.943	-2.735	Yes	No	No	0.63	0.151	-1.079	-3.178	No	No	Yes	No	No	No	No	0.39	No	Yes	0.353	No	No	2.244	2.686	No	No	0.295	2.31
CC1=C(/C=C/C(C)=C/C=C/C(C)=C/C=C/C=C(C)/C=C/C=C(C)/C=C/C2=C(C)C(=O)CCC2(C)C)C(C)(C)CCC1=O	564.854	10.9638	10	2	0	255.698	-7.241	1.266	94.811	-2.743	No	No	Yes	-0.091	0	-0.13	-1.286	No	Yes	No	No	No	No	No	0.983	No	No	-0.383	No	Yes	2.083	2.644	No	No	0.344	-3.521
CCCCCC(=O)CCC(=O)OC	186.251	2.089	7	3	0	79.460	-1.798	1.403	96.491	-2.249	No	No	No	-0.112	0.482	0.146	-2.315	No	No	No	No	No	No	No	1.699	No	No	0.731	No	No	1.809	2.646	No	Yes	0.405	1.037
C=C1C(=O)C23CC1CCC2C1(C)CCCC(C)(COC(C)=O)C1CC3O	360.494	3.6684	2	4	1	155.921	-4.175	1.131	98.487	-3.603	No	Yes	Yes	-0.262	0.048	-0.307	-1.927	No	Yes	No	No	No	No	No	0.557	No	No	-0.264	No	No	1.995	1.554	No	No	0.547	0.754
CC1OC(OCC2OC(OC3C(OC4CCC5(C)C(CCC6(C)C5CC=C5C7CC(C)(C)CCC7(C(=O)OC7OC(COC8OC(CO)C(OC9OC(C)C(O)C(O)C9O)C(O)C8O)C(O)C(O)C7O)CCC56C)C4(C)C)OCC(O)C3O)C(O)C(O)C2O)C(O)C(O)C1O	1367.533	-3.6926	15	30	17	551.368	-2.892	-0.774	0	-2.735	Yes	No	No	-0.001	0.381	-2.34	-6.978	No	No	No	No	No	No	No	-0.047	Yes	No	0.438	No	Yes	2.502	8.597	No	No	0.285	11.893
O=C(/C=C/c1ccc(O)c(O)c1)OCC1OC(O)C(O)C(OC(=O)/C=C/c2ccc(O)c(O)c2)C1O	504.444	0.1296	7	12	7	203.706	-3.13	-0.958	13.013	-2.735	Yes	No	No	0.669	0.203	-1.968	-4.274	No	No	No	No	No	No	No	-0.215	No	No	0.51	No	No	3.002	4.518	No	No	0.285	2.217
CCC(CCC(C)C1CCC2C3CC=C4CC(OC(=O)/C=C/c5ccc(O)c(OC)c5)CCC4(C)C3CCC12C)C(C)C	590.889	10.0033	10	4	1	261.255	-5.506	1.517	95.699	-2.723	No	Yes	Yes	-0.511	0	-0.662	-1.231	No	Yes	Yes	No	No	No	Yes	0.197	No	No	0.875	No	Yes	2.412	2.481	No	No	0.287	-4.287
CC(=O)OC(CC(C)C1=C2CC(O)C3C4(C)CCC(=O)C(C)(C)C4CCC3(C)C2(C)CC1=O)C1OC1(C)C	528.73	5.5899	5	6	1	227.840	-5.225	0.941	100	-2.957	No	Yes	Yes	-0.02	0	-0.085	-2.332	No	Yes	No	No	No	No	No	0.062	No	No	-0.763	No	No	2.834	0.683	No	No	0.302	-0.141
C=C1CCC2C(C)(C(=O)O)CCCC2(C)C1CCC(C)CCOC(=O)/C=C/c1ccc(O)c(O)c1	484.633	6.3241	9	5	3	208.253	-4.069	0.566	72.704	-2.735	Yes	No	Yes	-1.076	0	-1.143	-2.623	No	Yes	No	No	No	No	No	0.429	No	No	-0.291	No	No	3.298	2.2	Yes	No	0.287	-1.332
CC(CC(O)C(O)C(C)(C)O)C12CCC3(C)C4(C)CCC5C(C)(C)C(=O)CCC5(C)C4C(O)CC13O2	506.724	4.0057	5	6	4	216.745	-4.932	0.586	82.809	-3.144	Yes	Yes	No	-0.412	0.149	-1.098	-3.737	No	Yes	No	No	No	No	No	0.3	No	No	-0.389	No	No	3.187	2.382	No	No	0.29	3.737
CCCCCCCCCCCC(=O)OC1CCC2(C)C(CCC3(C)C2CC=C2C4C(C)C(C)CCC4(C)CCC23C)C1(C)C	609.036	12.4966	11	2	0	273.258	-5.834	1.298	97.499	-2.73	No	No	Yes	-0.29	0	0.85	-1.488	No	Yes	No	No	No	No	No	0.185	No	No	0.457	No	Yes	2.416	2.933	No	No	0.287	-6.742
CC(CC(=O)CC(C)C1CC(O)C2(C)C3=C(C(=O)CC12C)C1(C)CCC(=O)C(C)(C)C1CC3)C(=O)O	500.676	5.1607	6	5	2	214.844	-3.538	0.707	75.125	-2.735	No	No	Yes	-0.606	0.089	-0.422	-2.854	No	Yes	No	No	No	No	No	0.224	No	No	1.163	No	No	3.076	1.584	No	No	0.285	1.067
CC1OC(Oc2c(-c3ccc(O)c(O)c3)oc3cc(O)cc(O)c3c2=O)C(OC2OC(CO)C(O)C(O)C2O)C(O)C1O	610.521	-1.6871	6	16	10	240.901	-2.888	-1.016	22.442	-2.735	Yes	No	No	0.028	0.276	-2.079	-5.558	No	No	No	No	No	No	No	-0.241	No	Yes	0.407	No	Yes	2.435	5.792	No	No	0.285	6.437
CCCCCCCCCCCCCCCCCCC	268.529	7.6579	16	0	0	123.308	-8.565	1.372	90.015	-2.727	No	No	No	0.642	0	0.996	-1.253	No	Yes	Yes	No	No	No	No	1.96	No	No	0.027	No	Yes	1.563	1.208	No	Yes	1.137	-2.131
CC1(C)CC23C4COC(=O)C2CCC1C3CC4=O	248.322	2.1909	0	3	0	107.262	-3.367	1.311	99.328	-3.101	No	Yes	No	0.253	0.257	0.333	-2.18	No	Yes	No	No	No	No	No	-0.016	Yes	No	0.214	No	No	1.767	1.484	No	No	0.64	1.119
CCCCCCCCC/C=C/CCCCCCC(=O)c1c(O)cccc1O	374.565	7.318	16	3	2	165.061	-5.654	1.445	87.717	-2.76	Yes	No	Yes	-0.019	0.094	-0.164	-2.482	No	Yes	Yes	No	No	No	Yes	1.616	No	No	0.236	No	Yes	1.89	3.299	No	Yes	0.388	-2.552
COC1(CCC(C)COC2OC(CO)C(O)C(O)C2O)OC2CC3C4CCC5CC(OC6OC(CO)C(OC7OCC(O)C(O)C7O)C(O)C6O)CCC5(C)C4CCC3(C)C2C1C	905.085	-0.486	13	18	10	369.601	-2.666	-0.626	0	-2.735	Yes	No	No	-0.422	0.389	-1.981	-4.949	No	No	No	No	No	No	No	0.69	Yes	No	-0.695	No	Yes	2.519	8.795	No	No	0.285	4.035
CC1OC(OC(=O)C23CCC(C)(C)CC2C2=CCC4C5(C)CCC(OC6OCC(O)C(O)C6O)C(C)(CO)C5CCC4(C)C2(C)CC3)C(O)C(O)C1O	750.967	2.9554	5	12	7	313.782	-2.958	-0.108	24.12	-2.735	Yes	Yes	No	-0.396	0.244	-1.162	-2.971	No	No	No	No	No	No	No	0.027	No	No	-1.567	No	Yes	3.255	4.02	No	No	0.285	0.757
CCCCCCCCCCCCC(O)CCCCCCCCCCCC	368.69	8.9693	22	1	1	166.292	-6.299	1.31	87.213	-2.733	Yes	Yes	Yes	0.025	0.042	0.928	-0.711	No	Yes	No	No	No	No	No	2.194	No	No	-0.998	No	Yes	2.595	1.555	No	Yes	0.492	-2.62
CC1CCC2(OC1)OC1CC3C4CCC5CC(OC6OC(CO)C(OC7OCC(O)C(O)C7O)C(O)C6OC6OC(CO)C(O)C(OC7OC(CO)C(O)C(O)C7O)C6O)CCC5(C)C4CC(=O)C3(C)C1C2C	1049.167	-3.0913	11	23	12	423.391	-2.866	-0.343	0	-2.735	Yes	No	No	-0.191	0.381	-2.104	-5.679	No	No	No	No	No	No	No	0.496	No	No	0.216	No	Yes	2.479	7.96	No	No	0.285	14.87
CC1OC(OC2C(OC3CCC4(C)C(CCC5(C)C4CC=C4C6CC(C)(C)CCC6(C(=O)OC6OC(COC7OC(CO)C(O)C(O)C7O)C(O)C(O)C6O)CCC45C)C3(C)C)OCC(O)C2O)C(O)C(OC2OCC(OC3OC(CO)C(OC4OCC(O)C(O)C4O)C(O)C3O)C(O)C2O)C1O	1485.621	-5.6178	17	34	19	595.637	-2.892	-0.571	0	-2.735	Yes	No	No	0.01	0.381	-2.543	-7.598	No	No	No	No	No	No	No	-0.046	Yes	No	0.438	No	Yes	2.527	9.173	No	No	0.285	16.534
CNC1CCC2(C)C3CCC4(C)C(CCC4C(C)N(C)C)C3CCC2C1OC(=O)C=C(C)C	458.731	5.6713	5	4	1	202.829	-4.685	1.361	93.82	-2.95	Yes	Yes	Yes	0.414	0.117	0.001	-1.574	No	Yes	No	No	No	No	No	0.032	No	No	-0.691	No	Yes	3.887	1.315	Yes	No	0.468	0.812
NC(CCNC(=O)C(=O)O)C(=O)O	190.155	-2.0108	4	4	4	73.527	-1.755	-0.656	13.618	-2.735	No	No	No	-1.297	0.821	-0.764	-3.344	No	No	No	No	No	No	No	0.15	No	No	1.172	No	No	1.536	2.849	No	No	0.285	3.772
CCCCCC/C=C/CCCCC/C=C/C(O)C(COC1OC(CO)C(O)C(O)C1O)NC(=O)C(O)CCCCCCCCCCCCCC	714.038	6.134	32	9	7	303.291	-2.948	-0.852	24.187	-2.735	Yes	Yes	No	-1.559	0.284	-2.043	-3.924	No	No	No	No	No	No	No	2.363	No	No	0.084	No	Yes	2.802	6.717	Yes	No	0.285	2.446
C/C=C/c1cc(OC)c2c(c1)OCO2	192.214	2.457	2	3	0	82.901	-2.922	1.519	96.934	-2.381	No	No	No	0.2	0.317	0.269	-1.988	No	No	Yes	No	No	No	No	0.117	No	No	0.99	No	No	1.927	2.172	No	Yes	1.115	1.058
C=C1CCC2(C(=O)OC3OC(COC4OC(CO)C(OC5OC(C)C(O)C(O)C5O)C(O)C4O)C(O)C(O)C3O)CCC3(C)C(=CCC4C5(C)CCC(O)C(C)(C=O)C5CCC43C)C2C1	925.075	-0.1229	9	18	10	379.047	-2.85	-0.098	8.076	-2.735	Yes	Yes	No	-0.251	0.357	-1.435	-4.219	No	No	No	No	No	No	No	0.285	No	No	-0.688	No	Yes	2.488	7.916	No	No	0.285	9.151
CC(C)=CCC/C(C)=C/COc1ccc(C(O)CNC(=O)/C=C/S(C)(=O)=O)cc1	421.559	3.466	11	5	2	173.446	-4.27	1.101	71.469	-3.037	Yes	Yes	Yes	-0.454	0.047	-0.565	-2.924	No	Yes	No	No	No	No	Yes	0.918	No	No	0.805	No	No	2.46	1.806	Yes	No	0.773	-0.095
COc1cc(/C=C/C(=O)OCCCc2ccc(O)c(OC)c2)ccc1O	358.39	3.3042	8	6	2	151.809	-4.081	1.265	91.397	-2.808	Yes	Yes	No	0.004	0.022	-0.506	-3.085	No	Yes	Yes	Yes	Yes	No	Yes	0.465	No	No	-0.196	No	Yes	2.088	1.759	No	No	0.533	-1.12
CCOC(COC1OC(CO)C(OC(=O)/C=C/c2ccc(O)c(O)c2)C(OC2OC(C)C(O)C(O)C2O)C1O)c1ccc(O)c(O)c1	668.645	-0.4808	12	16	9	268.712	-2.911	-0.43	26.269	-2.735	Yes	No	No	0.304	0.292	-1.961	-5.185	No	No	No	No	No	No	No	0.683	No	No	0.104	No	Yes	2.278	5.861	No	No	0.285	5.431
CC1CCC2N(C1)CC1C(C(O)CC3(O)C4CC(O)C5CC(O)CCC5(C)C4CC13O)C2(C)O	479.658	0.8787	0	7	6	202.718	-3.093	0.59	61.111	-2.736	Yes	No	No	-0.086	0.425	-1.339	-4.225	No	No	No	No	No	No	No	0.097	No	No	-0.3	No	No	3.045	3.581	No	No	0.285	4.367
C=C(C)C1CCC2(C)CCC3(C)C(CCC4C5(C)CCC(OC(C)=O)C(C)(C)C5CCC43C)C12	468.766	8.5956	2	2	0	209.609	-6.455	1.291	100	-2.543	No	Yes	Yes	-0.085	0	0.709	-1.906	No	Yes	No	No	No	No	No	0.064	No	No	0.537	No	Yes	2.33	2.255	No	No	0.334	-2.437
OCC1OCC(O)C(O)C1O	164.157	-2.5398	1	5	4	63.849	0.028	0.462	62.491	-3.384	No	No	No	-0.411	0.874	-0.693	-4.329	No	No	No	No	No	No	No	0.615	No	No	1.98	No	No	1.198	3.063	No	No	0.273	3.474
Cc1cc(O)c2c(c1)Cc1cccc(O)c1C2=O	240.258	2.54142	0	3	2	104.327	-3.205	1.167	95.753	-3.107	Yes	No	No	0.285	0.171	0.232	-1.908	No	No	Yes	No	No	No	No	-0.03	No	Yes	0.188	No	No	2.145	2.08	No	No	0.875	0.286
CC1CCC2C(C)C3CCC4C(CC5C4CC=C4CC(O)CCC45C)C3CN2C1	397.647	5.5125	0	2	1	178.057	-3.742	1.222	91.075	-3.138	Yes	Yes	No	0.241	0.192	0.755	-2.401	No	Yes	No	No	No	No	No	-0.067	No	No	-0.033	No	Yes	2.733	0.835	No	No	0.302	-0.35
CC(=O)OCC12C(OC(C)=O)C(OC(C)=O)C3C(OC(C)=O)C14OC3(C)COC(=O)c1cccnc1CCC(C)C(=O)OC(C(OC(C)=O)C2OC(=O)c1ccccc1)C4(C)O	867.854	2.1565	8	19	1	355.471	-2.914	0.895	100	-2.735	Yes	Yes	No	0.32	0.224	-2.098	-3.334	No	Yes	No	No	No	No	Yes	-0.043	No	No	0.635	No	No	2.573	1.952	Yes	No	0.285	1.441
COc1c2n(C)ccc3c-2n(c(=O)c1=O)c1ccccc31	280.283	1.7026	1	5	0	118.853	-2.806	1.233	99.517	-2.91	No	No	No	0.117	0.241	0.323	-2.878	No	Yes	Yes	No	No	No	No	0.514	No	No	0.146	No	No	2.594	1.216	Yes	No	0.667	0.771
CC1(C)NC(C(=O)O)Cc2cc(O)c(O)cc21	237.255	0.9318	1	4	4	98.709	-2.083	0.951	45.364	-2.735	No	No	No	-0.043	0.474	-0.752	-3.397	No	No	No	No	No	No	No	0.574	No	No	0.709	No	No	1.853	2.829	No	No	0.274	1.972
CC1=CCC(C(C)C)C=C1	136.238	3.1648	1	0	0	63.639	-3.899	1.403	95.63	-1.457	No	No	No	0.408	0.431	0.748	-2.029	No	No	No	No	No	No	No	0.2	No	No	0.628	No	No	1.676	2.328	No	No	0.57	1.061
COC(=O)c1ccccc1NC(=O)C(C)CC(N)=O	264.281	0.9232	5	4	2	110.474	-2.091	0.191	71.429	-3.228	Yes	No	No	-0.203	0.393	-0.372	-3.024	No	No	No	No	No	No	No	0.349	No	No	0.479	No	No	1.74	1.73	No	No	0.537	1.768
CC1=CCC2(C)CCC3(C)C(=CC(=O)C4C5(C)CCC(O)C(C)(C)C5CCC43C)C2C1C	438.696	7.1239	0	2	1	195.870	-5.993	1.549	98.106	-2.82	No	Yes	Yes	0.138	0	-0.097	-1.876	No	Yes	No	No	No	No	No	0.057	No	No	0.289	No	No	2.615	1.806	Yes	No	0.387	-0.804
C=C1C(=O)OC2C3=C(C)C(OO)CC3C(C)(O)C(OC(C)=O)C(OC(=O)C(C)C)C12	424.446	1.5429	4	9	2	174.098	-4.186	0.713	91.059	-2.994	Yes	Yes	No	0.15	0.283	-0.95	-2.933	No	Yes	No	No	No	No	No	1.26	No	Yes	0.023	No	No	2.7	2.919	No	No	0.286	3.894
CC(C)(OC1OC(CO)C(O)C(O)C1O)C1CCC(O)(COC2(CO)OC(CO)C(O)C2O)C2CC(=O)C(C)(O)C2C1	610.65	-4.113	9	15	10	242.762	-2.428	-0.398	0	-2.735	Yes	No	No	-0.057	0.473	-2.147	-6.193	No	No	No	No	No	No	No	1.164	No	No	-0.417	No	Yes	2.973	4.728	No	No	0.285	11.815
CC1CCC2(OC1)OC1CC3C4CC=C5CC(OC6OC(CO)C(OC7OC(C)C(OC8OC(C)C(O)C(O)C8O)C(O)C7O)C(O)C6OC6OC(C)C(O)C(O)C6O)CCC5(C)C4CCC3(C)C1C2C	1015.197	0.0935	9	20	10	415.316	-2.804	-0.22	11.544	-2.735	Yes	No	No	-0.215	0.395	-1.742	-4.677	No	No	No	No	No	No	No	0.349	No	No	-0.206	No	Yes	2.509	7.396	No	No	0.285	10.191
CC1CCC2C(C)C3C(CC4C5CC=C6CC(OC7OC(CO)C(O)C(OC8OC(CO)C(O)C(O)C8O)C7OC7OC(C)C(O)C(O)C7O)CCC6(C)C5CCC43C)N2C1	868.071	0.1552	8	16	9	358.644	-2.619	-0.209	28.51	-2.735	Yes	No	No	-0.185	0.421	-1.452	-4.615	No	No	No	No	No	No	No	-0.787	No	No	-1.027	No	Yes	2.741	6.46	Yes	No	0.285	9.597
CC(C)C1=CC2(O)CCC3C(C)(C)CCCC3(O)C(O)C2=CC1=O	334.456	2.5211	1	4	3	143.821	-3.456	0.953	94.96	-3.645	No	No	No	-0.149	0.316	-0.79	-3.586	No	No	No	No	No	No	No	0.792	No	No	0.343	No	No	2.078	1.586	No	No	0.367	1.645
CC(C)=CCc1cc(C2CC(=O)c3c(O)cc(O)cc3O2)c(CC=C(C)C)c(O)c1O	424.493	5.2329	5	6	4	181.300	-4.388	1.146	84.051	-2.736	Yes	No	No	0.042	0.111	-1.203	-2.727	No	No	No	No	No	No	No	0.295	No	No	0.457	No	No	2.389	2.191	No	No	0.297	-0.414
CC1OC(OC2C(OC(=O)C34CCC(C)(C)CC3C3=CCC5C6(C)CCC(OC7OC(COC8OCC(O)C(O)C8OC8OCC(O)C(O)C8O)C(O)C(O)C7O)C(C)(C)C6CCC5(C)C3(C)CC4)OC(CO)C(O)C2O)C(O)C(O)C1OC1OCC(O)C(OC2OCC(O)C(O)C2O)C1O	1455.595	-4.9787	16	33	18	584.478	-2.892	-0.575	0	-2.735	Yes	Yes	No	0.008	0.381	-2.826	-6.827	No	No	No	No	No	No	No	-0.115	Yes	No	0.438	No	Yes	2.586	9.837	No	No	0.285	14.938
