SMILES	MOL_WEIGHT	LOGP	#ROTATABLE_BONDS	#ACCEPTORS	#DONORS	SURFACE_AREA	Water solubility	Caco2 permeability	Intestinal absorption (human)	Skin Permeability	P-glycoprotein substrate	P-glycoprotein I inhibitor	P-glycoprotein II inhibitor	VDss (human)	Fraction unbound (human)	BBB permeability	CNS permeability	CYP2D6 substrate	CYP3A4 substrate	CYP1A2 inhibitior	CYP2C19 inhibitior	CYP2C9 inhibitior	CYP2D6 inhibitior	CYP3A4 inhibitior	Total Clearance	Renal OCT2 substrate	AMES toxicity	Max. tolerated dose (human)	hERG I inhibitor	hERG II inhibitor	Oral Rat Acute Toxicity (LD50)	Oral Rat Chronic Toxicity (LOAEL)	Hepatotoxicity	Skin Sensitisation	<i>T.Pyriformis</i> toxicity	Minnow toxicity
COC(=O)N1CCc2c(OC)c(OC)c(OC)c3c2C1Cc1cc(OC)c(OC)cc1-3	429.469	3.6183	5	7	0	181.094	-4.481	1.541	99.291	-2.739	No	Yes	Yes	-0.679	0.053	-0.596	-3.036	No	Yes	No	Yes	Yes	No	Yes	0.565	No	No	0.389	No	No	2.787	1.823	No	No	0.286	0.772
C=C1C(O)C23CC1(O)CC(OC(C)=O)C2C1(C)CC(OC(C)=O)C(OC(C)=O)C(C)(C)C1C1OC13	492.565	1.6731	3	9	2	204.671	-4.459	0.876	74.214	-2.956	Yes	Yes	No	0.244	0.3	-0.773	-3.337	No	Yes	No	No	No	No	No	0.345	No	No	-0.143	No	No	4.263	2.075	No	No	0.286	4.698
C=C(C)C(C)/C=C/C(C)C1CCC2C1(C)CCC1C23C=CC2(CC(O)CCC12C)OO3	426.641	6.3937	4	3	1	188.445	-6.198	1.16	95.447	-3.501	No	Yes	Yes	0.603	0	0.228	-2.893	No	Yes	No	No	No	No	No	0.64	No	No	-0.245	No	No	1.906	1.85	Yes	No	0.409	-0.626
COc1cc(/C=C/C(=O)OC2C(O)C(CO)OC2(CO)OC2OC(CO)C(O)C(O)C2O)ccc1O	518.468	-3.4171	9	14	8	204.652	-2.266	-0.54	38.691	-2.735	Yes	No	No	-0.118	0.452	-1.808	-5.291	No	No	No	No	No	No	No	1.005	No	No	0.284	No	Yes	2.985	5.428	No	No	0.285	9.592
C/C=C(/C)C(=O)OC1C2(O)CC3=C4CC(=O)OC(c5ccoc5)C4(C)CCC3C(C)(C2=O)C(C(O)C(=O)OC)C1(C)C	584.662	3.7586	5	10	2	244.617	-4.828	0.489	93.627	-3.115	Yes	Yes	No	0.406	0.02	-0.609	-2.946	No	Yes	No	No	No	No	Yes	0.172	No	No	-1.273	No	No	4.006	2.884	No	No	0.285	1.038
CC1(CO)C2CC=C(CO)C1C2	168.236	0.9435	2	2	2	72.911	-1.708	1.306	79.008	-2.471	No	No	No	0.224	0.511	-0.162	-2.451	No	No	No	No	No	No	No	0.212	No	No	0.474	No	No	2.206	2.625	No	Yes	0.054	2.073
CC1=CC2c3cc(C4COc5cc(O)c(C)c(O)c5C4=O)c(O)cc3OC(C)(C)C2CC1	436.504	5.08162	1	6	3	186.662	-4.455	1.365	89.98	-2.741	Yes	Yes	No	0.423	0.057	-0.945	-2.668	No	No	No	Yes	Yes	No	No	-0.095	No	No	0.357	No	No	2.619	1.823	No	No	0.293	0.324
COc1ccc(-c2cc(=O)c3cc(OC)c(OC)c(OC)c3o2)cc1OC	372.373	3.503	6	7	0	155.529	-4.373	1.417	99.617	-2.738	No	Yes	Yes	-0.199	0.134	-0.994	-3.153	No	Yes	Yes	Yes	Yes	No	Yes	0.851	No	No	0.929	No	Yes	2.508	1.521	No	No	0.308	0.204
C/C=C(\C)C(=O)OC1c2cc(OC)c(OC)c(O)c2-c2c(cc3c(c2OC)OCO3)C(OC(C)=O)C(C)C1(C)O	558.58	4.3691	6	11	2	231.698	-4.848	0.435	100	-2.735	Yes	Yes	No	0.025	0	-0.711	-3.409	No	No	No	No	No	No	Yes	0.11	No	No	0.103	No	No	2.785	2.94	No	No	0.285	2.214
CC(=O)OC1C(=O)C2=C(C(O)CC3C2(C)CCC(O)C3(C)C)C2(C)C(=O)CC(C(C)CCC(=O)O)C12C	518.647	3.4679	5	7	3	218.387	-3.836	0.049	62.035	-2.736	Yes	No	Yes	-0.06	0.19	-1.075	-2.874	No	Yes	No	No	No	No	No	0.301	No	No	0.458	No	No	3.816	2.011	No	No	0.285	3.217
CCC(C)(O)C(=O)NC1CCCN1C(=O)C1C(c2ccccc2)C2(c3ccc(OC)c(OC)c3)Oc3cc(OC)cc(OC)c3C1(O)C2O	676.763	3.1967	10	10	4	285.045	-3.443	0.551	73.567	-2.735	Yes	Yes	Yes	-0.086	0.029	-1.26	-3.762	No	Yes	No	No	No	No	Yes	0.078	No	No	0.286	No	Yes	3.166	3.86	No	No	0.285	5.874
CC(C)CC(=O)OC1OC=C(COC2OC(CO)C(O)C(O)C2O)C2CC(OC(=O)/C=C/c3ccc(O)cc3)C(O)(CO)C12	624.636	-0.6773	11	14	7	253.244	-2.887	-0.44	24.43	-2.735	Yes	No	No	0.35	0.311	-1.746	-4.403	No	No	No	No	No	No	No	0.839	No	No	-0.676	No	Yes	3.318	5.567	No	No	0.285	4.539
Oc1ccc(CC2NCCc3cc(O)c(O)cc32)cc1	271.316	2.2329	2	4	4	116.875	-2.788	0.914	90.782	-2.743	Yes	No	No	1.125	0.277	-0.753	-2.294	Yes	No	Yes	No	No	Yes	No	1.117	No	No	0.142	No	Yes	2.045	1.811	Yes	No	0.388	0.873
CC(CC(C)C1CC(=O)C2(C)C3=C(C(=O)CC12C)C1(C)CCC(O)C(C)(C)C1CC3O)C(=O)O	474.638	4.1723	4	5	3	202.747	-3.387	0.641	62.732	-2.735	Yes	No	Yes	-0.811	0.218	-0.706	-2.958	No	No	No	No	No	No	No	0.285	No	No	0.795	No	No	2.803	1.9	No	No	0.284	1.636
CC1(C)CC(O)C23CCC(O)C(C)(CCC12)C3	238.371	2.7247	0	2	2	104.419	-2.709	1.169	95.515	-2.845	Yes	No	No	0.212	0.273	0.035	-1.918	No	No	No	No	No	No	No	0.809	No	No	0.009	No	No	2.059	1.933	No	Yes	0.394	1.331
C/C=C(/C)C(=O)OC1c2cc3c(c4c2C2(CO4)C(=CC(=O)C(OC)=C2OC)C(OC(=O)/C(C)=C/C)C(C)(O)C1C)OCO3	596.629	3.8882	6	11	1	249.212	-5.169	1.182	100	-2.735	Yes	Yes	Yes	0.49	0.003	-1.412	-2.877	No	Yes	No	No	No	No	Yes	0.325	No	No	-0.133	No	No	2.884	1.824	No	No	0.285	3.084
COc1cc(C2Oc3c(c(OC)cc4ccc(=O)oc34)OC2CO)cc(OC)c1O	416.382	2.3978	5	9	2	170.477	-4.097	0.78	87.067	-2.736	Yes	Yes	No	0.096	0.137	-0.527	-3.086	No	No	No	No	No	No	Yes	0.654	No	No	0.633	No	Yes	2.61	2.213	No	No	0.286	1.479
CC(=O)OC1CC2C(C3OC3C3(O)CC4OC4C(OC(C)=O)C23C)C2CC(O)C(C(C)C3CC(C)=C(COC4OC(CO)C(O)C(O)C4O)C(=O)O3)C12C	766.834	-0.7367	8	16	6	312.551	-3.046	-0.354	52.966	-2.735	Yes	No	No	0.427	0.366	-2.073	-4.865	No	No	No	No	No	No	No	0.31	No	No	-2.509	No	Yes	3.465	3.079	No	No	0.285	6.142
COc1cc(C2Oc3c(OC)cc(/C=C/C=O)cc3C2CO)ccc1OC1OC(CO)C(O)C(O)C1O	518.515	0.3042	9	11	5	212.597	-3.445	-0.423	47.389	-2.735	Yes	No	No	-0.601	0.139	-1.595	-4.348	No	No	No	No	No	No	No	0.143	No	Yes	0.276	No	No	2.654	3.876	No	No	0.285	3.164
COc1cc(/C=C/C(=O)OCC2OC(COC(=O)/C=C/c3ccc(O)c(OC)c3)(OC3OC(COC(C)=O)C(O)C(O)C3OC(C)=O)C(OC(=O)/C=C/c3ccc(O)c(OC)c3)C2O)ccc1O	954.884	1.6815	19	22	6	387.506	-2.902	0.362	45.826	-2.735	Yes	Yes	No	0.908	0.191	-2.83	-4.927	No	Yes	No	No	No	No	No	-0.126	No	No	0.122	No	Yes	2.508	4.948	No	No	0.285	2.422
C=C1C2CC(OC(C)=O)C3C4(C)C(OC(C)=O)CC(O)C(C)(C)C4CC(OC(C)=O)C3(C2)C1OC(C)=O	520.619	3.1126	4	9	1	217.774	-5.099	0.923	95.982	-3.123	Yes	Yes	No	0.144	0.255	-1.017	-2.918	No	Yes	No	No	No	No	No	0.457	No	No	-0.043	No	No	2.886	1.954	No	No	0.286	3.745
C/C=C1\C(OC2OC(CO)C(O)C(O)C2O)OC=C(C(=O)OC)C1CC(=O)OCCc1ccc(OC)c(OC)c1	568.572	-0.0282	11	13	4	230.999	-3.333	-0.461	36.739	-2.735	Yes	Yes	No	-0.321	0.303	-2.039	-4.149	No	No	No	No	No	No	No	1.229	No	No	-0.308	No	Yes	3.973	5.437	No	No	0.285	3.982
CC(=O)OC1CC2OCC2(OC(C)=O)C2C(OC(=O)c3ccccc3)C3(C(C)(C)O)CC(O)C(C)=C3C(O)C(OC(=O)c3ccccc3)C12C	692.758	3.3091	7	12	3	289.861	-3.455	0.856	100	-2.735	Yes	Yes	Yes	0.566	0.063	-1.434	-3.359	No	Yes	No	No	No	No	No	0.177	No	No	0.444	No	No	3.055	3.713	No	No	0.285	-2.729
Cc1cc2c(cc1C)N(CC(O)C(O)C(O)CO)C1NC(=O)NC(=O)C1=N2	378.385	-1.56356	5	8	6	154.689	-1.629	-0.686	47.562	-2.739	No	No	No	-0.581	0.701	-1.644	-4.248	No	No	No	No	No	No	No	0.335	No	Yes	0.663	No	No	3.128	3.996	Yes	No	0.285	3.414
COc1cc2c(c(O)c1OC)-c1c(cc3c(c1OC)OCO3)C(OC(=O)c1ccccc1)C(C)C(C)C2	506.551	5.5401	5	8	1	215.185	-5.309	0.836	100	-2.735	No	Yes	Yes	-0.982	0.094	-0.504	-2.788	No	Yes	No	Yes	Yes	No	Yes	0.372	No	No	0.087	No	Yes	2.518	0.957	No	No	0.285	-3.424
CCCC(=O)C1=C(O)C(C)(C)C(O)=C(Cc2c(O)c(C)c(OC)c(C(=O)CCC)c2O)C1=O	460.523	4.54242	9	8	4	192.755	-3.447	0.375	66.001	-2.736	Yes	Yes	No	0.634	0.242	-1.567	-3.637	No	No	No	No	No	No	No	0.709	No	No	0.654	No	Yes	4.126	2.533	No	No	0.285	0.554
COc1cc2c(cc1O)C1Cc3ccc(OC)c(OC)c3C[N+]1(C)CC2	356.442	3.2181	3	4	1	153.866	-2.764	1.034	93.269	-2.751	Yes	Yes	Yes	0.924	0.347	0.298	-1.627	No	Yes	Yes	No	No	Yes	No	1.219	Yes	No	-0.191	No	Yes	3.319	1.779	No	No	0.286	0.597
CC1(C)CCC2(C)CCC3(C)C4=C(CCC3(C)C2C1)C1(C)CCC(O)C(C)(C)C1CC4=O	440.712	7.492	0	2	1	196.560	-6.954	1.343	96.299	-3.048	No	Yes	Yes	0.299	0	0.006	-2.152	No	Yes	No	No	No	No	No	-0.099	No	No	-0.186	No	No	2.307	1.919	No	No	0.49	-1.213
COC(=O)C1C(OC=O)C2(O)c3c(OC)cc(OC)cc3OC2(c2ccc3c(c2)OCO3)C1c1ccccc1	534.517	3.0362	7	10	1	223.455	-2.897	1.252	96.855	-2.735	No	Yes	Yes	-0.708	0.321	-0.708	-4.122	No	Yes	No	No	No	No	Yes	0.357	No	No	0.356	No	Yes	2.576	0.872	No	No	0.285	-3.502
COc1cccc2c1c(OC)c1c3c(cc4c(c32)OCO4)C(=O)N1	323.304	3.3046	2	5	1	136.408	-4.109	1.075	96.943	-2.757	Yes	No	Yes	-0.212	0.09	-0.151	-2.216	No	Yes	Yes	Yes	Yes	No	No	0.061	No	Yes	-0.102	No	Yes	2.684	0.672	No	No	0.309	1.176
Oc1ccc2c(c1)OC1c3ccc(O)c(O)c3COC1C2O	302.282	1.8693	0	6	4	125.341	-3.198	0.289	85.533	-2.76	Yes	No	No	0.482	0.237	-0.886	-3.125	No	No	No	No	No	No	No	0.099	No	No	0.191	No	No	2.103	2.406	No	No	0.498	1.832
C=C(C)C(O)CC/C(C)=C/COc1c2ccoc2cc2oc(=O)ccc12	354.402	4.5815	7	5	1	150.733	-4.504	0.703	96.333	-3.087	Yes	Yes	Yes	0.591	0.172	-0.457	-2.831	No	No	Yes	Yes	Yes	No	Yes	1.006	No	Yes	-0.093	No	Yes	2.512	1.905	Yes	No	0.68	-0.153
O=c1cc(CCc2ccccc2)oc2c1C(O)C(O)C(O)C2O	318.325	0.2272	3	6	4	131.816	-2.287	-0.249	57.553	-2.736	Yes	No	No	-0.295	0.503	-1.276	-3.223	No	No	No	No	No	No	No	0.199	No	No	0.435	No	No	2.744	3.615	No	No	0.288	2.005
C=C1CCC2C(C3C(=C)CCC13)C2(C)C	202.341	4.191	0	0	0	93.452	-5.67	1.409	97.267	-1.79	No	No	No	0.77	0.167	0.824	-1.819	No	Yes	No	No	No	No	No	-0.049	No	No	-0.006	No	No	1.541	1.396	No	No	1.419	0.237
C=C1C2CCC3C(C2)(C(=O)OC2CC(O)C(C)(C)C4C(O)OC(=O)C243)C1O	378.421	0.5138	0	7	3	156.887	-4.378	0.871	80.615	-3.386	Yes	No	No	0.176	0.312	-0.614	-3.121	No	No	No	No	No	No	No	0.478	No	Yes	-0.677	No	No	2.4	2.585	No	No	0.288	3.111
COc1cc(/C=C/C(=O)OCC2OC(OC3(CO)OC(CO)C(O)C3OC(=O)/C=C/c3cc(OC)c(O)c(OC)c3)C(O)C(OC3OC(CO)C(O)C(O)C3O)C2O)ccc1O	886.806	-3.6058	17	23	11	352.140	-2.889	-0.405	6.809	-2.735	Yes	Yes	No	-0.164	0.333	-2.551	-6.211	No	No	No	No	No	No	No	0.607	No	No	-0.09	No	No	2.457	7.289	No	No	0.285	14.032
COc1ccc(-c2coc3cc(O)cc(O)c3c2=O)cc1O	300.266	2.5854	2	6	3	123.998	-3.484	0.505	79.769	-2.736	Yes	No	No	-0.06	0.07	-1.145	-2.409	No	No	Yes	Yes	No	No	No	0.264	No	No	0.738	No	Yes	2.457	1.657	No	No	0.377	-0.094
OC/C=C/C#CC#CCCCOC1OC(CO)C(O)C(O)C1O	326.345	-1.8616	6	7	5	134.715	-0.872	-0.141	22.881	-3.141	No	No	No	-0.529	0.623	-0.848	-4.145	No	No	No	No	No	No	No	1.728	No	No	1.316	No	No	1.827	3.624	No	No	0.285	2.601
C=CC(C)(C)c1c(O)cc(O)c2c(=O)c(O)c(-c3cc(O)c4c(c3)C=CC(C)(C)O4)oc12	436.46	4.9302	3	7	4	183.691	-3.257	1.699	81.945	-2.735	Yes	Yes	Yes	0.42	0.138	-1.453	-3.199	No	No	No	No	Yes	No	No	0.457	No	Yes	0.883	No	Yes	2.089	2.432	No	No	0.289	0.655
CC1CC2OC(=O)C(C)C2C(O)C2(C)C(=O)C=CC12	264.321	1.3262	0	4	1	112.372	-2.648	0.147	98.496	-3.765	No	No	No	0.212	0.501	-0.179	-2.855	No	No	No	No	No	No	No	0.047	No	No	0.444	No	No	2.064	2.329	No	No	0.44	1.843
CC(=O)OC1CC2C(OC(=O)c3ccccc3)C3C4(OC(C)=O)COC4CC(OC(C)=O)C3(C)C(OC(C)=O)C(OC(C)=O)C(=C1C)C2(C)C	698.762	4.0419	7	13	0	290.796	-3.992	0.158	100	-2.735	No	Yes	Yes	0.613	0.039	-2.009	-2.706	No	Yes	No	No	No	No	No	0.255	No	No	0.443	No	No	3.461	1.493	No	No	0.285	3.223
COc1cc2c(cc1OC)C(O)=NCC2	207.229	1.5645	2	3	1	88.167	-2.099	1.226	94.07	-3.076	No	No	No	0.112	0.428	0.351	-2.377	No	No	No	No	No	No	No	0.544	No	No	0.56	No	No	2.152	1.651	Yes	No	0.564	2.067
CC1(C)CCC2(C(=O)OC3OC(COC4OC(COC5OC(CO)C(O)C(O)C5O)C(O)C(O)C4O)C(O)C(OC4OC(CO)C(O)C(O)C4O)C3O)C(O)CC3(C)C(=CCC4C5(C)CCC(O)C(C)(C(=O)O)C5CCC43C)C2C1	1151.256	-3.9998	13	25	16	462.278	-2.892	-0.407	0	-2.735	Yes	No	No	-0.055	0.379	-2.393	-5.992	No	No	No	No	No	No	No	0.125	No	No	0.43	No	No	2.522	9.22	No	No	0.285	17.471
COc1cc2c(cc1O)CCN1Cc3c(ccc(OC)c3OC)C(C)C21	355.434	3.6345	3	5	1	153.656	-3.312	1.068	93.847	-2.927	Yes	Yes	Yes	1.366	0.238	0.235	-2.046	No	Yes	Yes	No	No	Yes	No	0.996	No	No	-0.508	No	Yes	3.19	0.753	No	No	0.416	0.55
CC1CC2CC(=O)C3(O)CCCN4CCCC2(O)C43C1	279.38	1.0959	0	4	2	119.700	-2.911	1.223	75.175	-3.122	No	No	No	0.549	0.694	-0.125	-3.395	No	No	No	No	No	No	No	0.666	No	No	0.205	No	No	1.829	2.22	No	No	0.249	2.511
C=C(C)C1Cc2cc3c(cc2O1)OCC1c2cc(O)c(OC)cc2OC31	352.386	3.8901	2	5	1	151.314	-5.065	1.036	96.916	-3.181	Yes	Yes	No	0.508	0.051	0.251	-1.949	No	Yes	Yes	Yes	Yes	No	Yes	0.264	No	Yes	0.023	No	Yes	2.603	2.184	No	No	0.516	-1.086
CC(=O)OC1CC2C(COC(=O)CC(C)C)=COC(OC(=O)CC(C)C)C2C12CO2	424.49	2.742	8	8	0	176.748	-4.423	1.022	100	-2.797	No	Yes	No	-0.004	0.206	-1.105	-2.785	No	Yes	No	No	No	No	No	0.714	Yes	Yes	0.387	No	No	3.203	1.698	No	No	0.293	-0.086
CC1OC=c2cc3n(c(=O)c2=C1O)CCc1c-3[nH]c2ccccc12	320.348	1.3756	0	4	2	136.677	-3.343	0.117	99.663	-2.851	Yes	No	No	0.497	0.242	-0.046	-2.319	No	No	Yes	No	No	No	No	0.403	No	No	-0.345	No	Yes	2.635	0.552	Yes	No	0.344	-0.515
CC1(CO)CCC2(C(=O)OC3OC(CO)C(O)C(O)C3O)CCC3(C)C(=CCC4C5(C)CCC(O)C(C)(C(=O)O)C5CCC43C)C2C1	664.833	2.5292	5	10	7	276.897	-3.061	-0.228	25.464	-2.735	Yes	No	No	-0.018	0.194	-1.457	-2.663	No	No	No	No	No	No	No	0.091	No	No	-0.367	No	No	2.602	4.541	No	No	0.285	6.476
COc1ccc(C(=O)O)cc1O	168.148	1.099	2	3	2	69.025	-2.617	0.118	84.393	-2.722	Yes	No	No	-0.801	0.578	-0.359	-2.943	No	No	No	No	No	No	No	0.675	No	No	1.174	No	No	2.084	2.235	No	No	-0.157	2.305
COc1ccc2c(c1)N(OC)C(=O)C21CC2NC(CO)(C(C)O)C3CC1OCC23	404.463	0.3497	4	7	3	169.237	-2	1.317	87.057	-3.118	Yes	No	No	0.497	0.449	-0.957	-3.328	No	Yes	No	No	No	No	No	1.162	No	No	-0.594	No	No	2.706	2.62	Yes	No	0.286	2.093
C=C1C(=O)C23CC1CC(OC(C)=O)C2C1(C)CC(OC(C)=O)C(OC(C)=O)C(C)(C)C1C(OC(C)=O)C3O	534.602	2.2916	4	10	1	221.936	-4.837	0.559	72.911	-2.66	Yes	Yes	No	0.191	0.257	-0.694	-2.935	No	Yes	No	No	No	No	No	0.373	No	No	-0.125	No	No	2.584	1.964	No	No	0.285	4.758
C/C=C1\C(OC2OC(CO)C(O)C(O)C2O)OC=C(C(=O)O)C1CC(=O)OCCc1ccc(O)cc1	510.492	-0.4282	9	11	6	206.152	-3.16	-0.445	9.3	-2.735	Yes	No	No	-0.075	0.364	-1.801	-4.116	No	No	No	No	No	No	No	1.404	No	No	0.47	No	No	2.856	5.229	No	No	0.285	4.849
CC(C)=CCc1c(-c2ccc(O)c(C3C=C(C)CC(c4ccc(O)cc4O)C3C(=O)c3cc(O)cc(O)c3)c2O)oc2cc(O)cc(O)c2c1=O	692.717	7.33	7	11	8	291.125	-2.892	0.152	73.152	-2.735	Yes	Yes	Yes	-0.893	0.385	-2.165	-3.499	No	No	No	No	No	No	No	-1.502	No	No	0.429	No	Yes	2.476	3.706	No	No	0.285	1.577
COC(=O)C12OCC34C(CC5C(C)=C(OC6OC(CO)C(O)C(O)C6O)C(=O)CC5(C)C3C(O)C1O)OC(=O)C(OC(=O)c1ccccc1)C24	704.678	-1.8769	6	16	6	285.018	-2.718	-0.195	27.867	-2.735	Yes	Yes	No	-0.032	0.315	-1.802	-4.534	No	No	No	No	No	No	No	0.436	No	No	-0.842	No	Yes	3.014	5.603	No	No	0.285	6.277
C/C(=C\C(=O)c1cc(O)cc2c1CC(c1ccccc1)O2)c1ccccc1	356.421	5.3546	4	3	1	158.109	-5.347	1.337	96.301	-2.745	Yes	Yes	Yes	-0.244	0.06	-0.148	-0.908	No	Yes	Yes	Yes	Yes	No	Yes	0.317	No	No	0.342	No	Yes	2.592	2.219	Yes	No	0.362	-1.075
CCC12CC3CN(CCc4c([nH]c5ccccc45)C(C(=O)OC)(c4cc5c(cc4OC)N(C)C4C(O)(C(=O)OC)C(OC(C)=O)C6(CC)C=CCN7CCC54C76)C3O1)C2	808.973	4.0073	7	12	2	344.453	-3.05	0.351	79.624	-2.735	Yes	Yes	Yes	1.691	0.294	-1.187	-2.867	No	Yes	No	No	No	No	No	0.701	No	No	-0.104	No	Yes	2.396	2.038	No	No	0.285	1.863
Cc1cncc2c1CCC2C	147.221	2.43972	0	1	0	67.470	-2.504	1.347	95.605	-1.866	No	No	No	0.413	0.32	0.357	-2.041	No	No	Yes	No	No	No	No	0.232	No	No	0.87	No	No	1.753	2.087	No	Yes	0.556	1.095
Oc1c(Cl)cc2cc1-c1cc(cc(Cl)c1O)C(Cl)=C(Cl)c1c(Cl)cc(c(O)c1Cl)-c1cc(Cl)c(O)c(Cl)c1CC2	698.04	11.1654	0	4	4	267.970	-3.205	0.485	83.4	-2.735	Yes	Yes	Yes	-1.492	0.172	-1.978	-0.298	No	Yes	Yes	Yes	Yes	No	No	0.077	No	Yes	0.273	No	Yes	2.64	2.003	No	No	0.285	-4.101
CN1c2ccccc2C(=O)N2CCc3c([nH]c4ccccc34)C21	303.365	3.3148	0	2	1	133.874	-4.609	1.565	94.819	-2.86	Yes	Yes	Yes	0.277	0.072	0.442	-1.243	No	Yes	Yes	Yes	Yes	No	Yes	0.297	No	No	-0.075	No	Yes	2.274	1.206	No	No	0.601	1.011
COc1cc(O)c(C(=O)c2ccc(OC)c(O)c2)c(OC)c1	304.298	2.3546	5	6	2	127.039	-3.549	1.011	96.346	-2.737	Yes	No	No	0.044	0.168	-0.244	-3.224	No	No	Yes	Yes	No	No	No	0.775	No	Yes	1.197	No	No	2.142	2.107	No	No	0.307	0.745
CC(C)=CC(=O)NC1CCC2(C)C(CCC3C2CCC2(C)C3CCC2C(C)N(C)C)C1	428.705	6.0464	4	2	1	191.351	-5.313	1.239	92.673	-2.994	Yes	Yes	Yes	0.336	0.043	0.109	-1.857	No	Yes	No	No	No	No	No	0.115	No	No	-0.849	No	Yes	3.431	0.323	No	No	0.468	0.789
CC(=O)OCC12C(OC(=O)c3ccccc3)CC3C(OC(C)=O)C1(OC3(C)C)C(C)(O)CC(OC(C)=O)C2OC(=O)c1cccnc1	653.681	2.9677	8	13	1	271.367	-3.699	0.727	91.01	-2.735	No	Yes	Yes	0.084	0.096	-1.919	-3.258	No	Yes	No	No	No	No	No	0.441	No	No	0.892	No	No	3.251	1.783	Yes	No	0.285	1.778
O=C(OC1OC(CO)C2OC(=O)C3(O)CC(O)C4(O)Oc5c(O)c(O)cc(c5C34)C(=O)OC1C2O)c1cc(O)c(O)c(O)c1	624.46	-2.7392	3	18	10	243.569	-2.892	0.455	34.443	-2.735	Yes	No	No	0.062	0.367	-2.326	-5.619	No	No	No	No	No	No	No	-0.208	No	No	0.426	No	Yes	2.492	7.222	No	No	0.285	9.442
CC1(C)CCC2(C(=O)O)CCC3(C)C(=CCC4C5(C)CCC(OC6OCC(O)C(O)C6OC6OCC(O)C(O)C6O)C(C)(C)C5CCC43C)C2C1	720.941	4.1602	5	10	6	302.623	-3.185	0.048	36.601	-2.735	Yes	No	No	-0.192	0.202	-1.149	-2.732	No	No	No	No	No	No	No	-0.101	No	No	-1.296	No	No	3.414	4.613	No	No	0.285	3.158
CC(C)C1CCC2C1(C)CCC1(C)C3CCC4(C)C(C=O)=CCCC4C3(C)CCC21C	424.713	8.233	2	1	0	191.765	-6.153	1.333	100	-2.717	No	Yes	Yes	0.012	0	0.813	-1.396	No	Yes	No	No	No	No	No	0.196	No	No	0.197	No	Yes	2.054	1.081	No	No	0.296	-2.751
CC(C)CNC(=O)/C=C/C=C/CCCC/C=C/c1ccc2c(c1)OCO2	355.478	4.8735	10	3	1	156.134	-5.755	1.389	93.054	-2.735	Yes	Yes	Yes	0.142	0	-0.163	-0.972	No	Yes	No	Yes	No	No	No	0.351	No	No	-0.26	No	Yes	2.969	2.311	Yes	No	1.615	-0.116
C=C1C2CCC3C45C(=O)OC(O)(C(O)C4C(C)(C)CCC5O)C3(C1O)C2O	380.437	-0.306	0	7	5	157.201	-3.17	0.752	40.708	-2.737	Yes	No	No	0.315	0.437	-0.951	-4.553	No	No	No	No	No	No	No	0.591	No	No	-0.854	No	No	3.114	3.653	No	No	0.285	3.203
CC(=O)OC(C)(C)/C=C/C(=O)C(C)(O)C1C(O)CC2(C)C3CC=C4C(CC(O)C(O)C4(C)C)C3(C)C(=O)CC12C	560.728	3.2911	5	8	4	237.425	-4.108	0.526	74.578	-3.02	Yes	Yes	Yes	-0.004	0.095	-1.214	-3.291	No	Yes	No	No	No	No	No	0.221	No	No	-0.844	No	No	4.206	1.705	Yes	No	0.286	2.205
CC1CCC2(NC1)OC1CC3C4CCC5CC(O)CCC5(C)C4CCC3(C)C1C2C	415.662	5.3668	0	3	2	183.650	-5.132	1.25	94.744	-2.986	Yes	Yes	Yes	0.518	0.015	0.16	-1.399	No	Yes	No	No	No	No	No	0.096	No	No	-0.61	No	No	3.256	1.335	Yes	No	0.349	-0.045
C/C(=C\OC1OC(CO)C(O)C(OC2OC(C)C(O)C(O)C2O)C1OC1OC(C)C(O)C(O)C1O)CC/C=C(\C)CCCC(C)COC1OC(CO)C(O)C(O)C1OC1OC(C)C(O)C(O)C1O	989.068	-4.3885	20	24	14	394.278	-2.861	-0.931	0	-2.735	Yes	No	No	-0.144	0.382	-2.929	-6.402	No	No	No	No	No	No	No	1.657	No	No	0.387	No	Yes	2.482	8.875	No	No	0.285	11.544
COc1c(C)c(O)c2c(c1C=O)OC(c1ccccc1)CC2=O	312.321	3.22822	3	5	1	133.017	-4.308	1.381	95.75	-3.145	No	Yes	No	0.073	0.084	-0.225	-2.163	No	No	Yes	Yes	No	No	No	0.022	No	Yes	0.446	No	No	2.494	1.773	No	No	0.689	-0.585
C=CC(=C)CCC=C(C)C	136.238	3.475	4	0	0	63.955	-4.481	1.405	95.393	-1.058	No	No	No	0.368	0.386	0.786	-1.912	No	No	No	No	No	No	No	0.438	No	No	0.67	No	No	1.683	2.415	No	No	0.925	0.646
CCCCCCCCC/C=C/CC/C=C/C(O)C(CO)NC(=O)C(O)CCCCCCCCCCCCCCC	565.924	8.6999	30	4	4	247.862	-3.809	0.886	89.571	-2.731	Yes	Yes	Yes	-1.445	0.19	-1.527	-3.382	No	Yes	No	No	No	No	No	2.409	No	No	-0.839	No	Yes	4.842	3.97	Yes	No	0.285	-0.264
CC(=O)OC1CCC2(C)C3C4OC4C4(C)C(=CC(=O)C5(C)CCC(C)(C)CC54)C3(C)CCC2C1(C)C	496.732	6.9059	1	4	0	217.878	-5.145	1.54	100	-2.694	No	Yes	Yes	-0.048	0	-0.377	-0.937	No	Yes	No	No	No	No	No	-0.278	No	No	0.766	No	No	2.209	1.291	No	No	0.291	-1.481
CCCC/C=C/CO	114.188	1.7251	4	1	1	51.034	-1.7	1.479	93.409	-1.806	No	No	No	0.088	0.557	0.493	-2.182	No	No	No	No	No	No	No	0.407	No	No	0.87	No	No	1.682	1.844	No	Yes	-0.4	1.607
O=C1NCCc2cc3c(cc21)OCO3	191.186	0.7012	0	3	1	80.818	-1.852	1.209	82.844	-2.714	No	No	No	-0.132	0.384	-0.194	-2.043	No	Yes	No	No	No	No	No	0.316	Yes	Yes	0.075	No	No	2.333	2.408	No	No	0.577	1.933
CC1(C)c2cc(O)c(O)cc2CCN1CC1(O)OCC(O)C(O)C1O	355.387	-1.0075	2	8	6	145.073	-2.196	0.133	30.001	-2.735	Yes	No	No	0.44	0.619	-1.519	-5.443	No	No	No	No	No	No	No	0.927	No	No	-0.162	No	No	2.817	4.527	Yes	No	0.285	3.229
CC1OC(OC2C(COC3OC(CO)C(O)C(O)C3O)OC(OC3CCC4(C)C(CCC5(C)C4C=CC46OCC7(CCC(C)(C)CC74)C(O)CC56C)C3(C)C)C(O)C2O)C(O)C(O)C1O	927.135	0.6287	8	17	10	381.887	-2.676	-0.456	16.681	-2.735	Yes	No	No	-0.247	0.399	-1.581	-4.827	No	No	No	No	No	No	No	0.02	No	No	-1.2	No	Yes	2.618	6.424	No	No	0.285	6.628
COc1ccc(CC2c3cc(O)c(OC)cc3CCN2C)cc1O	329.396	2.8867	4	5	2	141.613	-2.962	1.017	92.883	-2.776	Yes	No	No	1.527	0.319	0.1	-2.348	No	Yes	Yes	No	No	Yes	No	1.011	No	No	-0.3	No	Yes	3.09	1.939	No	No	0.311	0.276
COC1C(O)C(C)OC(OC2CCC3(C)C(CCC4C3C3OC3C3(C)C(C5=CC(=O)OC5)CCC43O)C2)C1O	548.673	2.0974	4	9	3	229.704	-5.009	0.691	77.482	-2.899	Yes	Yes	No	-0.22	0.244	-0.983	-3.278	No	Yes	No	No	No	No	No	0.505	No	Yes	-1.33	No	No	3.938	1.83	No	No	0.285	2.213
COC1=CC(=O)C2(CCC34NCCC32CC(=O)C(OC)=C4OC)C1O	349.383	0.4362	3	7	2	145.549	-3.248	0.634	67.258	-3.206	Yes	No	No	0.571	0.673	-0.372	-3.099	No	No	No	No	No	No	No	0.916	No	Yes	-0.325	No	No	2.507	2.11	Yes	No	0.288	3.075
C=Cc1c(OC)cc2c(c1OC)C=CC(C)(C)O2	246.306	3.531	3	3	0	107.671	-4.001	1.442	96.805	-2.391	No	No	No	0.311	0.245	0.185	-2.412	No	No	Yes	Yes	No	No	No	0.296	No	No	0.689	No	No	2.145	2.094	No	No	1.579	0.528
O=c1c(O)c(-c2ccc(O)cc2)oc2cc(OC3OC(CO)C(O)C(O)C3O)cc(O)c12	448.38	-0.2445	4	11	7	179.107	-3.082	-0.251	39.438	-2.735	Yes	No	No	0.374	0.123	-1.785	-4.321	No	No	No	No	No	No	No	0.627	No	Yes	1.087	No	Yes	2.743	4.2	No	No	0.285	3.421
CC(C)CCC(O)C(C)C1C(OC2OC(C)C(O)C(O)C2O)CC2C3CC=C4CC(O)CCC4(C)C3C(O)CC21C	580.803	3.1529	7	8	6	245.691	-4.176	0.669	63.548	-2.745	Yes	Yes	No	-0.19	0.175	-1.013	-4.082	No	No	No	No	No	No	No	0.668	No	No	-1.654	No	Yes	4.394	2.922	No	No	0.285	3.726
CC1(C)C(=O)C=CC2(C)C1CC(O)C1(C)C3=CC(=O)C(c4ccoc4)C3(C)CCC21	408.538	4.8471	1	4	1	177.969	-4.683	0.968	98.364	-3.727	Yes	Yes	No	0.459	0	0.267	-2.737	No	Yes	No	No	No	No	Yes	0.241	No	No	-0.241	No	No	2.848	1.599	No	No	0.451	-0.545
COC1=CC(=O)c2cc(-c3ccccc3)c3cc(O)c(OC)cc3c2C1=O	360.365	4.1303	3	5	1	155.009	-4.592	1.16	98.225	-2.739	No	Yes	Yes	-0.459	0.11	-0.406	-2.054	No	Yes	Yes	Yes	Yes	No	Yes	0.166	No	No	0.183	No	Yes	2.571	1.036	Yes	No	0.312	-1.289
CC1CCC2(OC1)OC1CC3C4CCC5CC(OC6OC(CO)C(OC7OC(C)C(O)C(O)C7O)C(O)C6OC6OC(CO)C(O)C(O)C6O)CCC5(C)C4CCC3(C)C1C2C	887.07	0.294	8	17	9	363.801	-2.66	-0.355	24.095	-2.735	Yes	Yes	No	-0.303	0.391	-1.697	-4.334	No	No	No	No	No	No	No	0.456	No	No	-1.224	No	Yes	2.595	7.163	No	No	0.285	8.559
Nc1oc2ccccc2c1C(=O)Cc1ccccc1OC1OC(CO)C(O)C(O)C1O	429.425	0.6191	6	9	5	176.784	-2.818	-0.594	48.346	-2.735	Yes	Yes	Yes	-0.614	0.139	-1.218	-3.772	No	No	No	No	No	No	No	0.262	No	No	0.369	No	Yes	3.389	4.217	No	No	0.285	1.759
CC1=C(/C=C/C(C)=C/C=C/C(C)=C/C=C/C=C(C)/C=C/C=C(C)/C=C/C(=O)C2(C)CC(O)CC2(C)C)C(C)(C)CC(O)C1	584.885	9.8063	11	3	2	261.814	-7.058	1.382	90.512	-2.748	Yes	Yes	Yes	-0.309	0	-0.276	-1.294	No	Yes	No	No	No	No	No	0.868	No	No	-0.612	No	No	2.452	2.412	Yes	No	0.369	-2.605
Cc1oc(CO)cc(=O)c1CO	170.164	-0.06718	2	4	2	69.081	-1.848	0.604	85.651	-3.514	No	No	No	-0.113	0.744	0.008	-2.994	No	No	No	No	No	No	No	0.741	No	No	1.061	No	No	1.899	1.684	No	No	-0.678	2.947
C=C1C2=C(C=CC34CC(CCC13)C(C)(O)C4)C(C)(C)C(OC1OC(CO)C(O)C(O)C1O)C2	462.583	1.5814	3	7	5	194.963	-3.34	0.489	50.211	-2.838	Yes	Yes	No	-0.563	0.37	-0.864	-3.607	No	No	No	No	No	No	No	0.655	No	No	-0.482	No	No	2.831	3.032	No	No	0.285	1.754
COC(=O)C1C2CC3c4[nH]c5cc(OC)ccc5c4CC[N+]3([O-])CC2CC(OC(=O)c2cc(OC)c(OC)c(OC)c2)C1OC	624.687	4.1837	8	10	1	261.132	-4.624	0.262	91.692	-2.737	Yes	Yes	Yes	0.371	0.037	-1.166	-3.306	No	Yes	No	No	Yes	No	Yes	0.706	No	No	-0.149	No	Yes	3.054	1.295	No	No	0.285	-1.973
CC(C)=CCCC1(C)CCC2(C)C3CCC4(C)C(C)=CCCC4C3(C)CCC2(C)C1	410.73	9.5083	3	0	0	187.920	-7.551	1.307	99.5	-2.733	No	No	Yes	0.497	0	0.905	-1.476	No	Yes	No	No	No	No	No	0.288	No	No	0.223	No	Yes	2.178	1.173	No	No	0.442	-3.008
CC1OC(OC2CCC3(C)C4C(O)CC5(C)C(C6=CC(=O)OC6)CCC5(O)C4CCC3(O)C2)C(O)C(O)C1O	552.661	0.5418	3	10	6	228.501	-3.62	-0.263	50.3	-2.748	Yes	No	No	0.115	0.405	-1.251	-4.391	No	No	No	No	No	No	No	0.596	No	No	-1.633	No	No	3.499	3.213	No	No	0.285	3.049
CC1C(=O)C23CC1CCC2C12COC(=O)C1C(C)(C)C(O)CC2OC3=O	362.422	1.4835	0	6	1	152.150	-3.912	0.138	99.435	-3.511	No	Yes	No	0.146	0.253	-0.352	-2.817	No	Yes	No	No	No	No	No	0.39	Yes	No	0.117	No	No	2.132	2.144	No	No	0.301	1.789
CC(C)=CCCC(C)(OC1OC(COC2OCC(O)C(O)C2O)C(O)C(O)C1O)C1CCC2(C)C1C(O)CC1C3(C)CCC(OC4OC(CO)C(O)C(O)C4OC4OC(CO)C(O)C(O)C4OC4OCC(O)C(O)C4O)C(C)(C)C3CCC12C	1211.396	-3.1002	17	26	16	489.642	-2.892	-0.58	0	-2.735	Yes	No	No	-0.057	0.379	-2.832	-5.575	No	No	No	No	No	No	No	0.518	Yes	No	0.422	No	Yes	2.488	8.679	No	No	0.285	17.248
CC1CCC23COC(C=C2C(=O)O)CC3C1(C)CCc1ccoc1	330.424	4.0645	4	3	1	142.427	-3.258	1.47	99.645	-2.734	No	No	No	-0.395	0.143	0.098	-2.048	No	Yes	No	No	No	No	No	1.03	No	No	0.827	No	No	2.421	1.549	Yes	No	0.299	0.073
C/C=C(/C)C(=O)OC1c2cc3c(c(OC)c2-c2c(cc4c(c2OC)OCO4)C(O)C(C)C1C)OCO3	498.528	4.6979	4	9	1	209.006	-5.166	0.418	100	-2.74	Yes	Yes	Yes	-0.117	0	-1.035	-2.972	No	Yes	No	Yes	Yes	No	Yes	0.213	No	No	-0.321	No	Yes	2.635	0.774	No	No	0.286	1.142
CCCCCCCCCCCCC(O)CCCCCCCCCCCC	368.69	8.9693	22	1	1	166.292	-6.299	1.31	87.213	-2.733	Yes	Yes	Yes	0.025	0.042	0.928	-0.711	No	Yes	No	No	No	No	No	2.194	No	No	-0.998	No	Yes	2.595	1.555	No	Yes	0.492	-2.62
