SMILES	MOL_WEIGHT	LOGP	#ROTATABLE_BONDS	#ACCEPTORS	#DONORS	SURFACE_AREA	Water solubility	Caco2 permeability	Intestinal absorption (human)	Skin Permeability	P-glycoprotein substrate	P-glycoprotein I inhibitor	P-glycoprotein II inhibitor	VDss (human)	Fraction unbound (human)	BBB permeability	CNS permeability	CYP2D6 substrate	CYP3A4 substrate	CYP1A2 inhibitior	CYP2C19 inhibitior	CYP2C9 inhibitior	CYP2D6 inhibitior	CYP3A4 inhibitior	Total Clearance	Renal OCT2 substrate	AMES toxicity	Max. tolerated dose (human)	hERG I inhibitor	hERG II inhibitor	Oral Rat Acute Toxicity (LD50)	Oral Rat Chronic Toxicity (LOAEL)	Hepatotoxicity	Skin Sensitisation	<i>T.Pyriformis</i> toxicity	Minnow toxicity
CC1CCC2(OC1)OC1CC3C4CC(=O)C5CC(O)CCC5(C)C4CCC3(C)C1C2C	430.629	4.9728	0	4	1	187.376	-5.27	1.427	97.221	-3.22	No	Yes	Yes	0.252	0	0.189	-1.29	No	Yes	No	No	No	No	No	0.286	Yes	No	-0.171	No	No	2.547	1.095	No	No	0.311	0.631
C=C(C)O	58.08	1.078	0	1	1	25.574	0.145	1.474	98.43	-2.869	Yes	No	No	-0.112	0.744	-0.035	-2.657	No	No	No	No	No	No	No	0.25	No	No	1.35	No	No	2.168	1.914	No	No	-1.69	2.657
CC1OC(Oc2c(-c3ccc(O)c(O)c3)oc3cc(O)cc(O)c3c2=O)C(O)C(O)C1OC(=O)CC(=O)O	534.426	0.5143	6	13	7	211.638	-2.916	-1.11	25.816	-2.735	Yes	No	No	0.407	0.168	-2.167	-4.665	No	No	No	No	No	No	No	-0.75	No	No	0.516	No	No	2.518	3.801	No	No	0.285	3.386
CC1OC(OC2C(OC3CCC4(C)C(CCC5(C)C4CC=C4C6C(C)C(C)C(OC7OC(CO)C(O)C(O)C7O)CC6(C(=O)O)CCC45C)C3(C)C)OC(CO)C(O)C2O)C(O)C(O)C1O	943.134	0.5605	9	17	11	386.735	-2.859	-0.403	0	-2.735	Yes	No	No	-0.482	0.383	-2.035	-4.761	No	No	No	No	No	No	No	0.188	No	No	-0.162	No	No	2.509	4.906	No	No	0.285	4.529
Cc1cccc(O)c1C	122.167	2.00904	0	1	1	54.956	-1.471	1.476	93.847	-1.791	No	No	No	0.263	0.46	0.325	-1.895	No	No	No	No	No	No	No	0.242	No	No	0.85	No	No	2.02	2.057	No	Yes	0.206	1.403
C/C(=C\CCC(C)C1CCC2(C)C3CCC4C(C)(CCC(O)C4(C)C)C3=CCC12C)C(=O)O	456.711	7.3997	5	2	2	201.670	-3.897	1.255	98.657	-2.736	No	No	No	-0.932	0	-0.203	-1.431	No	Yes	No	No	No	No	No	0.382	No	No	-0.081	No	No	2.426	2.332	Yes	No	0.292	-1.692
CC(=O)OC1=C(C)C(O)CC(O)C(CO)=CC(OC(C)=O)C2CC(OC(C)=O)C(C)=C(C1OC(C)=O)C2(C)C	552.617	2.0254	5	11	3	227.995	-4.2	0.17	77.465	-2.819	Yes	Yes	No	-0.327	0.357	-1.879	-3.69	No	No	No	No	No	No	No	0.905	No	No	0.993	No	No	3.509	2.806	No	No	0.285	6.618
CCCCCCCCCCCCCCC(O)C1CCC(C(O)CCC(O)CCCCCCCC2=CC(C)OC2=O)O1	580.891	8.0905	26	6	3	251.217	-4.102	0.659	74.743	-2.662	Yes	Yes	Yes	-0.692	0.172	-1.673	-2.875	No	Yes	No	No	No	No	No	1.792	No	No	-1.5	No	No	5.177	1.572	Yes	No	0.289	-0.821
CC1(C)CC2C3=CC(O)C4C5(C)CCC(=O)C(C)(C)C5CCC4(C)C3(C)CCC2(C(=O)O)CC1=O	484.677	5.5916	1	4	2	209.677	-3.308	0.816	88.699	-2.735	Yes	No	Yes	-1.07	0.003	0.275	-1.43	No	Yes	No	No	No	No	No	-0.117	No	No	1.28	No	No	2.899	1.539	No	No	0.285	-0.051
CC1=C(CCC2=CC(=O)OC2O)C2(C)CCCC(C)(C)C2CC1=O	332.44	3.6901	3	4	1	143.507	-4.731	0.985	97.234	-3.861	Yes	Yes	No	0.053	0.15	-0.103	-1.975	No	No	No	No	No	No	No	0.997	Yes	No	-0.532	No	No	2.576	1.914	No	No	1.045	-0.338
CC1CCC2(OC1)OC1CC3C4CC=C5CC(O)CC(OC6OC(C)C(O)C(OC7OCC(O)C(O)C7O)C6OC6OC(C)C(O)C(O)C6O)C5(C)C4CCC3(C)C1C2C	855.028	0.8516	6	16	8	351.952	-2.78	-0.055	39.041	-2.735	Yes	No	No	0.196	0.376	-1.657	-3.656	No	No	No	No	No	No	No	0.362	No	No	-1.881	No	Yes	2.837	5.393	No	No	0.285	9.668
CC(O)C1CCC(CCCCCCCCCC(CC(=O)O)OC2OC(CO)C(O)C(O)C2O)N1	491.622	0.6585	16	9	7	201.825	-2.721	-0.724	12.152	-2.735	Yes	No	No	-0.769	0.62	-1.796	-4.592	No	No	No	No	No	No	No	1.111	No	No	0.678	No	No	2.195	4.124	Yes	No	0.285	2.899
COc1cc2c(cc1O)CC[n+]1cc3c4c(ccc3cc1-2)OCO4	322.34	2.7933	1	4	1	138.183	-3.425	1.22	95.991	-2.778	Yes	No	Yes	1.012	0.262	0.077	-2.095	No	Yes	Yes	No	No	Yes	No	1.238	Yes	No	-0.737	No	Yes	3.081	1.238	Yes	No	0.334	1.222
COc1cc(O)c(CC=C(C)C)cc1C1COc2cc(O)cc(O)c2C1=O	370.401	3.6796	4	6	3	156.849	-4.124	0.884	84.509	-2.737	Yes	Yes	No	0.085	0.086	-1.093	-2.947	No	No	Yes	Yes	Yes	No	No	0.323	No	No	0.258	No	No	2.383	1.742	No	No	0.337	0.728
COc1cc(O)c2c(=O)cc(-c3cccc(OC)c3OC)oc2c1	328.32	3.1914	4	6	1	137.366	-4.106	1.33	96.833	-2.746	No	Yes	Yes	-0.109	0.071	-0.478	-2.43	No	Yes	Yes	Yes	Yes	No	No	0.553	No	No	0.631	No	Yes	2.725	1.418	No	No	0.373	0.259
CC1OC(OC(=O)C23CCC(C)(C)CC2C2=CCC4C5(C)CCC(OC6OC(C(=O)O)C(O)C(OC7OC(CO)C(O)C(O)C7O)C6OC6OCC(O)C(O)C6O)C(C)(C=O)C5CCC4(C)C2(C)CC3)C(OC2OC(C)C(OC3OCC(O)C(O)C3O)C(OC3OC(CO)C(O)C(O)C3O)C2O)C(O)C1O	1527.614	-5.958	18	35	19	610.325	-2.892	-0.424	0	-2.735	Yes	No	No	0.011	0.381	-3.234	-7.025	No	No	No	No	No	No	No	-0.109	No	No	0.438	No	No	2.515	10.891	No	No	0.285	23.209
CC1C(=O)C23CCC4C(C)(C)C(O)CCC4(C)C2CCC1C3	304.474	4.2051	0	2	1	134.606	-4.183	1.123	98.475	-2.629	No	Yes	No	-0.052	0.01	-0.04	-1.763	No	Yes	No	No	No	No	No	0.551	No	No	-0.199	No	No	2.446	1.722	Yes	No	0.586	0.657
CC1CCC2C(C)C(=O)OC3OC4(C)CCC1C32OO4	282.336	2.3949	0	5	0	118.370	-3.718	1.293	98.058	-3.039	No	Yes	No	0.57	0.411	0.773	-2.887	No	Yes	Yes	No	No	No	No	0.988	No	Yes	0.227	No	No	2.451	0.988	No	No	0.312	1.046
CC(C)C(C)CCC(C)C1CCC2C3=CC=C4CC(O)CCC4(C)C3CCC21C	398.675	7.5548	5	1	1	179.984	-7.166	1.285	95.896	-2.758	No	Yes	Yes	0.35	0	0.807	-1.43	No	Yes	No	No	No	No	No	0.567	No	No	-0.198	No	Yes	2.35	1.125	No	No	0.679	-2.028
O=C1CCc2ccc(O)c(c2)Oc2ccc(cc2)CCCO1	298.338	3.6065	0	4	1	128.855	-4.107	1.306	94.753	-3.021	No	No	No	0.133	0.087	0.129	-1.752	No	Yes	Yes	Yes	Yes	No	No	0.148	No	Yes	-0.273	No	Yes	2.553	1.861	No	No	0.927	0.47
O=C1c2ccc(O)cc2OCC1(O)Cc1ccc(O)c(O)c1	302.282	1.3523	2	6	4	125.394	-3.081	-0.272	74.721	-2.736	Yes	No	No	0.34	0.165	-0.954	-3.257	No	No	Yes	No	No	No	No	0.042	No	No	0.376	No	No	2.013	2.78	No	No	0.385	1.63
CC1=CC23OC(=O)C(C)C2CCC(C)C3CC1	234.339	3.3205	0	2	0	103.416	-3.558	1.184	97.491	-2.611	No	No	No	0.422	0.385	0.56	-2.672	No	No	No	No	No	No	No	1.025	No	No	0.525	No	No	1.841	1.774	No	Yes	0.736	1.157
O=C(OC1Cc2c(O)cc(O)c(C3c4c(O)cc(O)cc4OC(c4ccc(O)c(O)c4)C3OC(=O)c3cc(O)c(O)c(O)c3)c2OC1c1ccc(O)c(O)c1)c1cc(O)c(O)c(O)c1	882.736	4.958	7	20	14	357.521	-2.892	-0.805	50.744	-2.735	Yes	No	Yes	-0.012	0.387	-3.974	-5.574	No	No	No	No	No	No	No	-1.366	No	No	0.438	No	Yes	2.482	8.959	No	No	0.285	8.69
C=C1C(OC(C)=O)C(OC(=O)c2ccccc2)C(OC(C)=O)C(C)(C)C2OC(O)(C(C)C2=O)C2(OC(C)=O)CC(C)(O)C(OC(C)=O)C2C1OC(C)=O	746.759	1.9002	7	16	2	305.551	-3.154	0.678	94.43	-2.735	Yes	Yes	No	0.622	0.219	-2.319	-2.963	No	Yes	No	No	No	Yes	No	0.291	No	No	0.964	No	No	3.582	4.016	No	No	0.285	7.329
CC(C)=CCCC(C)(OC1OC(COC2OC(CO)C(O)C2O)C(O)C(O)C1O)C1CCC2(C)C1C(O)CC1C3(C)CCC(OC4OC(CO)C(O)C(O)C4O)C(C)(C)C3CCC12C	917.14	0.6123	13	17	11	377.214	-2.874	-0.311	0	-2.735	Yes	Yes	No	-0.173	0.35	-2.043	-4.079	No	No	No	No	No	No	No	0.525	No	No	-0.755	No	Yes	2.503	5.85	No	No	0.285	9.24
CCC(/C=C/C(C)C1CCC2C3C(OO)C=C4CC(O)CCC4(C)C3CCC12C)C(C)C	444.7	7.2689	6	3	2	196.186	-5.511	1.437	95.497	-2.623	Yes	Yes	Yes	-0.642	0	-0.436	-1.41	No	Yes	No	No	No	No	No	0.707	No	Yes	-0.551	No	No	2.387	2.267	Yes	No	0.304	-1.215
CCC(=O)CC/C=C/CC/C=C/C=C/C(=O)NCC(C)C	291.435	3.9667	11	2	1	128.747	-4.459	1.566	93.755	-2.586	No	Yes	No	-0.161	0.111	-0.228	-1.634	No	Yes	No	No	No	No	No	1.973	Yes	No	-0.149	No	No	1.729	2.263	No	Yes	1.914	-0.307
COc1cc2oc3cc(O)c(OC)c(CC=C(C)C)c3c(=O)c2c(O)c1CC=C(C)C	424.493	5.392	6	6	2	180.577	-4.843	1.025	96.442	-2.735	Yes	Yes	Yes	-0.378	0.075	0.014	-1.919	No	Yes	Yes	Yes	Yes	No	Yes	0.567	No	No	0.246	No	Yes	1.869	1.589	No	No	0.296	-2.695
CC(=O)OC1C(=O)C2=C(C(=O)CC3C(C)(C)C(=O)CCC23C)C2(C)C(=O)CC(C(C)CCC(=O)O)C12C	514.615	3.8843	5	7	1	217.122	-3.546	0.77	72.721	-2.736	No	No	Yes	-0.396	0.114	-0.901	-2.323	No	Yes	No	No	No	No	No	0.178	No	No	0.923	No	No	3.224	2.345	No	No	0.285	2.434
COc1c2ccoc2cc2oc(CO)cc(=O)c12	246.218	2.0401	2	5	1	101.193	-2.905	0.92	97.201	-2.731	Yes	No	No	-0.004	0.319	-0.412	-2.907	No	No	Yes	No	No	No	No	0.703	No	Yes	-0.168	No	No	2.276	1.084	No	No	0.503	1.541
CC1=CC(=O)C2(O1)c1c(cc(/C=C/c3ccc(O)c(O)c3)oc1=O)OC2c1ccc(O)c(O)c1	462.41	3.4647	3	9	4	191.606	-4.099	0.349	81.211	-2.735	Yes	No	Yes	0.112	0.031	-1.64	-3.623	No	No	No	No	Yes	No	No	0.136	No	No	0.62	No	Yes	2.35	3.408	No	No	0.285	-0.515
CC1(C)CCC(O)C23COC(O)(C(O)C12)C12CC(CC(O)C31)C(C)(O)C2=O	382.453	-0.4296	0	7	5	157.890	-3.277	0.736	45.566	-2.739	Yes	No	No	0.987	0.41	-0.871	-3.44	No	No	No	No	No	No	No	0.507	No	No	-0.588	No	No	3.052	3.386	No	No	0.285	3.853
Oc1ccc2c(c1)OCC1(O)Cc3cc(O)c(O)cc3C21	286.283	1.6149	0	5	4	120.227	-3.211	0.842	94.643	-2.737	Yes	No	No	0.288	0.076	-0.776	-2.415	No	No	Yes	No	No	No	No	0.176	No	No	0.311	No	Yes	1.857	2.772	No	No	0.363	1.241
CC(C)(O)/C=C/CC(C)(OC1OC(COC2OCC(O)C(O)C2O)C(O)C(O)C1O)C1CCC2(C)C1C(O)CC1C3(C)CC(O)C(O)C(C)(C)C3CCC12C	786.997	0.7297	9	14	10	325.009	-2.903	-0.067	32.122	-2.735	Yes	Yes	No	0.388	0.284	-1.578	-3.739	No	No	No	No	No	No	No	0.384	No	No	-0.876	No	Yes	2.544	5.638	No	No	0.285	9.013
C=C1C2CC(O)C3C(C2)(C(=O)OC2OC(O)C4C(C)(CO)CCC(O)C243)C1O	396.436	-0.722	1	8	5	162.314	-3.492	0.735	40.964	-2.737	Yes	No	No	0.683	0.458	-0.854	-3.089	No	No	No	No	No	No	No	0.663	No	Yes	-0.481	No	No	2.969	3.453	No	No	0.285	4.692
C/C(=C\CC/C(C)=C/COc1ccc(CCNC(=O)/C=C/S(C)(=O)=O)cc1)CO	421.559	2.9475	12	5	2	173.446	-4.786	1.189	67.941	-2.973	Yes	Yes	Yes	-0.304	0.051	-0.81	-3.092	No	Yes	No	Yes	No	No	Yes	0.954	No	No	0.316	No	Yes	2.33	1.429	Yes	No	1.028	-0.314
CC(C)C1CCC(C)(O)C2CCC(C(=O)O)C12	240.343	2.5304	2	2	2	103.222	-2.327	1.26	98.372	-2.734	No	No	No	-1.035	0.334	-0.278	-2.864	No	Yes	No	No	No	No	No	0.99	No	No	0.766	No	No	1.689	2.272	No	No	0.277	1.086
C=C(C)C1CC=C(C)CC1	136.238	3.3089	1	0	0	63.639	-3.568	1.403	95.898	-1.721	Yes	No	No	0.396	0.484	0.725	-2.37	No	No	No	No	No	No	No	0.213	No	No	0.77	No	No	1.88	2.368	No	Yes	0.579	1.203
CC(=O)OC(C1OC2CC3(C)C(=C2C(C)C1O)CC(O)C1C2(C)CCC(=O)C(C)(C)C2CCC13C)C(C)(C)O	546.745	4.3525	3	7	3	233.267	-5.299	0.799	87.042	-2.922	Yes	Yes	Yes	-0.08	0.013	-0.771	-2.372	No	No	No	No	No	No	No	0.14	No	No	-1.692	No	No	4.036	1.955	No	No	0.286	0.474
CCCCC/C=C/C/C=C/CCCCCCCC(=O)OCC(CO)OC(=O)CCCCCCC/C=C/C/C=C/CCCCC	616.968	11.0607	32	5	1	271.193	-4.212	0.003	86.847	-2.735	Yes	No	Yes	-1.014	0.146	-0.901	-2.902	No	Yes	No	No	No	No	No	2.323	No	No	0.024	No	No	3.217	0.485	No	No	0.285	-5.794
COc1cc(O)c2c(c1)OC/C(=C\c1ccc(O)cc1)C2=O	298.294	2.7651	2	5	2	126.595	-3.401	1.082	91.479	-3.154	Yes	Yes	No	-0.612	0.189	-0.359	-2.73	No	No	Yes	Yes	No	No	No	0.143	No	Yes	0.891	No	No	1.848	1.471	No	No	0.786	0.891
CCCCCCCCCCCC(=O)OC1CCC2(C)C(CCC3(C)C2CC=C2C4CC(C)(C)CCC4(C)CCC23C)C1(C)C	609.036	12.6407	11	2	0	273.258	-5.754	1.289	96.277	-2.731	No	No	Yes	-0.326	0	0.849	-1.465	No	Yes	No	No	No	No	No	0.022	No	No	0.402	No	Yes	2.454	2.896	No	No	0.286	-6.741
CC1OC(OC2C(CO)OC(Oc3cc4c(OC5OC(CO)C(O)C(O)C5O)cc(O)cc4[o+]c3-c3cc(O)c(O)c(O)c3)C(O)C2O)C(O)C(O)C1OC(=O)/C=C/c1ccc(OC2OC(CO)C(O)C(O)C2O)cc1	1081.956	-4.1445	15	27	17	427.858	-2.892	-0.668	0	-2.735	Yes	No	Yes	-0.03	0.381	-3.905	-8.271	No	No	No	No	No	No	No	-0.579	No	No	0.438	No	Yes	2.482	8.873	No	No	0.285	11.081
C=C1CC23CCC4C(C)(CO)CCCC4(C)C2CCC1C3	288.475	4.9478	1	1	1	129.754	-5.115	1.47	98.378	-2.67	Yes	Yes	No	-0.062	0	0.756	-0.948	No	Yes	No	No	No	No	No	0.607	No	No	-1.197	No	Yes	2.7	1.802	No	Yes	0.572	-0.577
COC1=Cc2c(occ(-c3ccc4c(c3)OCO4)c2=O)C(CC=C(C)C)(CC=C(C)C)C1=O	448.515	5.5559	6	6	0	192.716	-6.247	0.752	96.534	-2.677	No	Yes	Yes	0.465	0.011	-0.67	-1.785	No	Yes	No	Yes	Yes	No	Yes	0.47	Yes	No	0.072	No	Yes	2.298	1.125	No	No	0.466	-3.101
C=C1CCC2C(C(=O)OC)=COC(OC3OC(COC4OC(C)C(O)C(O)C4O)C(O)C(O)C3O)C12	518.512	-2.3497	6	13	6	206.974	-1.65	-0.503	23.268	-2.735	Yes	No	No	0.378	0.477	-1.397	-5.571	No	No	No	No	No	No	No	1.292	No	No	-0.233	No	Yes	2.725	4.259	No	No	0.285	6.698
C=CC1(C)CCC2(O)C3(C)CCCC(C)(CO)C3CC3OC32C1	320.473	3.44	2	3	2	139.662	-3.879	1.329	94.734	-3.113	Yes	No	No	0.405	0.223	-0.087	-2.82	No	No	No	No	No	No	No	0.724	No	No	-0.583	No	No	2.182	1.723	No	No	0.588	0.89
COc1cc(C(=O)OC2CC(C)(CO)C=C3C4CCC5C6(C=O)CCC(OC7OC(C(=O)O)C(O)C(O)C7OC7OCC(O)C(O)C7OC7OC(C)C(O)C(O)C7O)C(C)(C)C6CCC5(C)C4(C)CCC32C)cc(OC)c1O	1107.25	2.1102	13	21	10	453.391	-2.891	-0.078	0	-2.735	Yes	No	No	-0.085	0.337	-2.382	-3.865	No	No	No	No	No	No	No	-0.49	No	No	0.044	No	No	2.486	7.429	No	No	0.285	7.456
CC(=O)OC1CC2(C)C(CCC3OC32C)C(C=O)(CCc2ccoc2)C1C	374.477	3.9428	5	5	0	160.327	-4.117	1.194	99.449	-3.352	No	No	No	0.206	0.143	-0.368	-2.871	No	Yes	No	No	No	No	Yes	0.766	No	No	-0.159	No	No	2.354	1.468	No	No	0.529	0.118
C=C1C2CCC3C(C2)(C(=O)C(OC(C)=O)C2C(C)(C)C4CC(=O)C23CO4)C1O	388.46	1.8346	1	6	1	164.190	-4.313	1.425	99.256	-3.942	Yes	Yes	No	0.232	0.232	-0.287	-2.874	No	Yes	No	No	No	No	No	0.483	Yes	Yes	-0.239	No	No	1.982	1.649	No	No	0.295	1.917
CC1=CC(=O)C(O)C(C)(C)C1(O)/C=C\C(C)OC1OC(CO)C(O)C(O)C1O	402.44	-1.6052	5	9	6	163.071	-1.968	-0.354	26.952	-2.776	Yes	No	No	-0.049	0.516	-1.293	-5.117	No	No	No	No	No	No	No	1.468	No	No	0.211	No	No	2.765	3.553	No	No	0.285	5.02
CC(CCC/C(=C/CO)CO)CCCC(C)CCCC(C)(C)O	328.537	4.4514	14	3	3	143.366	-5.063	1.536	89.591	-2.815	Yes	Yes	No	-0.038	0.184	-0.366	-2.868	No	No	No	No	No	No	No	1.709	No	No	-0.422	No	No	2.502	2.529	No	Yes	1.643	1.152
CC1(C)CCC2(C(=O)OC3OC(CO)C(O)C(O)C3O)CCC3(C)C(=CCC4C5(C)CCC(OC6OC(C(=O)O)C(OC7OCC(O)(CO)C7O)C(O)C6O)C(C)(C)C5CCC43C)C2C1	927.091	0.8735	9	17	10	379.737	-2.877	-0.075	0	-2.735	Yes	No	No	-0.268	0.365	-1.682	-3.734	No	No	No	No	No	No	No	-0.154	No	No	-0.23	No	No	2.489	7.767	No	No	0.285	8.39
COc1cc(OC2OC(CO)C(O)C(O)C2O)c2c(c1OC)OC(c1ccccc1)CC2=O	462.451	0.589	6	10	4	189.397	-3.933	-0.053	60.221	-2.735	Yes	Yes	No	-0.698	0.134	-1.568	-4.226	No	No	No	No	No	No	No	0.923	No	Yes	0.28	No	Yes	3.65	4.43	No	No	0.285	3.807
C=C(C)C1=CCC(C)(O)CC1	152.237	2.4238	1	1	1	68.433	-1.995	1.489	93.871	-2.406	Yes	No	No	0.203	0.57	0.297	-2.797	No	No	No	No	No	No	No	0.215	No	No	0.887	No	No	1.912	1.938	No	Yes	-0.04	1.902
O=c1ccc2cc(O)c(OC3OC(CO)C(O)C(O)C3O)cc2o1	340.284	-1.3227	3	9	5	134.461	-2.79	0.091	40.016	-2.735	Yes	No	No	0.012	0.403	-1.32	-4.685	No	No	No	No	No	No	No	0.746	No	No	0.525	No	Yes	2.709	4.277	Yes	No	0.285	2.293
C/C=C(\C)C(=O)OC1C=C(C)CCC2(O)C(C(C)C)CCC12C	320.473	4.4079	3	3	1	140.352	-3.843	1.472	94.541	-3.003	No	No	No	0.246	0.161	-0.01	-2.354	No	No	No	No	No	No	No	1.258	No	No	-0.327	No	No	2.25	1.796	No	No	1.144	0.414
CC(=O)c1ccc2c(c1)C(=O)CC(C)(C)O2	218.252	2.633	1	3	0	94.417	-2.832	1.334	96.056	-2.618	No	No	No	-0.005	0.308	0.137	-2.35	No	No	Yes	No	No	No	No	0.461	No	Yes	0.651	No	No	1.901	2.038	No	No	0.908	1.646
CC(=O)OCC1OC(OC2C(C)OC(Oc3c(-c4ccc(O)cc4)oc4cc(O)cc(O)c4c3=O)C(O)C2O)C(O)C(O)C1O	636.559	-0.8219	7	16	8	253.317	-2.884	-1.035	46.457	-2.735	Yes	No	No	0.457	0.211	-2.016	-5.258	No	No	No	No	No	No	No	-0.136	No	No	0.455	No	Yes	2.425	4.751	No	No	0.285	3.239
CC1(C)C2CCC1(C)C(OC(=O)/C=C/c1ccc(O)cc1)C2	300.398	4.1634	3	3	1	131.544	-4.743	1.333	93.364	-3.139	No	Yes	No	0.365	0.106	0.131	-1.855	No	No	Yes	Yes	No	No	No	0.974	No	No	0.104	No	No	2.106	1.961	No	No	1.731	-0.043
CCC(CC(O)C(C)(O)C1CCC2(O)C3=CC(=O)C4CC(O)C(O)CC4(C)C3CCC12C)C(C)CO	508.696	2.3476	7	7	6	215.172	-3.533	0.653	56.828	-2.734	Yes	Yes	No	0.211	0.199	-1.067	-3.725	No	No	No	No	No	No	No	0.728	No	No	-0.457	No	Yes	3.798	2.408	No	No	0.285	4.049
COc1ccc(CCOC2OC(CO)C(OC(=O)/C=C/c3ccc(O)c(OC)c3)C(OC3OC(C)C(O)C(O)C3O)C2O)cc1O	652.646	-0.4099	12	15	7	264.237	-2.911	0.742	22.427	-2.735	Yes	No	No	0.378	0.229	-1.537	-4.679	No	No	No	No	No	No	No	0.731	No	No	-0.016	No	No	2.708	5.103	No	No	0.285	5.199
CCN1CC2(COC)CCC(O)C34C5CC6C(O)C5C(O)(C(O)C6OC)C(C(OC)C23)C14	453.576	-0.5272	5	8	4	189.375	-3.244	0.899	53.238	-2.801	Yes	No	No	0.76	0.434	-0.99	-3.85	No	No	No	No	No	No	No	0.176	No	No	-0.552	No	No	3.504	3.488	No	No	0.285	3.363
COC1(CC(C)=O)Oc2cc(/C=C\c3ccc(O)c(O)c3)oc(=O)c2/C1=C\c1ccc(O)c(O)c1	478.453	3.8874	6	9	4	198.977	-4.465	-0.02	81.833	-2.863	Yes	Yes	Yes	-1.256	0.044	-1.365	-2.877	No	Yes	No	No	No	No	No	0.185	No	No	0.583	No	Yes	2.164	1.859	Yes	No	0.301	0.684
OCC1OC(Oc2cc(O)c3c(c2)OC(c2ccc(O)c(O)c2)C(O)C3c2c(O)cc(O)c3c2OC(c2ccc(O)c(O)c2)C(O)C3)C(O)C(O)C1O	740.667	0.4681	6	17	13	298.744	-2.892	-0.623	24.367	-2.735	Yes	No	Yes	-0.025	0.377	-2.717	-5.362	No	No	No	No	No	No	No	-1.279	Yes	No	0.437	No	No	2.482	6.198	No	No	0.285	5.661
C=C(C)C1CC(O)C2(C)CCC=C(C)C2C1	220.356	3.696	1	1	1	99.252	-3.668	1.54	93.344	-2.103	No	No	No	0.375	0.37	0.597	-2.465	No	No	No	No	No	No	No	1.215	No	No	0.466	No	No	2.022	1.386	No	Yes	1.146	1.141
CC(C)=CCCC(C)(OC1OC(CO)C(O)C(O)C1O)C1CCC2(C)C1C(O)CC1C3(CO)CCC(O)C(C)(C)C3CCC12C	638.883	3.2972	8	9	7	269.580	-3.231	0.267	48.652	-2.735	Yes	Yes	No	0.052	0.107	-1.258	-2.783	No	No	No	No	No	No	No	0.548	No	No	-1.137	No	Yes	3.185	3.83	No	No	0.285	5.489
COC(=O)c1cc(O)c(OC2OC(CO)C(O)C(O)C2O)c(O)c1	346.288	-1.9369	4	10	6	135.613	-2.876	0.152	31.626	-2.735	Yes	No	No	0.114	0.461	-1.306	-5.129	No	No	No	No	No	No	No	0.742	No	No	0.654	No	No	2.717	4.878	No	No	0.285	5.041
CC(C)=CCc1c(O)cc(O)c2c(=O)c(-c3ccc(O)cc3)coc12	338.359	4.0855	3	5	3	143.654	-4.059	0.851	93.577	-2.735	Yes	No	Yes	-0.047	0.158	-1.036	-2.157	No	No	Yes	Yes	Yes	No	No	0.433	No	No	0.567	No	Yes	2.419	1.09	No	No	0.349	-0.198
COc1cc(OC)c2cnc3c4cc5c(cc4ccc3c2c1)OCO5	333.343	4.2871	2	5	0	143.239	-4.303	1.374	98.622	-2.735	No	No	Yes	-0.553	0.259	0.359	-1.969	No	Yes	Yes	Yes	Yes	No	No	0.412	No	No	0.542	No	Yes	2.603	0.381	Yes	No	0.286	-1.31
C/C=C/C=C/C/C=C/CCCCCCCCCc1cc(O)ccc1O	342.523	6.8397	13	2	2	153.155	-5.237	1.286	89.011	-2.778	Yes	No	Yes	0.42	0.109	-0.2	-0.937	No	Yes	Yes	Yes	No	No	No	1.633	No	No	0.2	No	Yes	1.98	2.92	No	Yes	0.837	-1.746
COc1cc(C2OCC3C(c4cc(OC)c(OC)c(OC)c4)OCC23)cc(OC)c1OC	446.496	3.8134	8	8	0	187.765	-5.311	1.529	100	-2.754	No	Yes	Yes	-0.222	0.003	-1.117	-3.09	No	Yes	No	No	Yes	No	Yes	0.462	No	No	0.856	No	No	2.654	1.762	No	No	0.287	-0.795
COC1(C)CC(C(C)C2CCC3C4CC=C5CC(O)CC(O)C5(C)C4CCC23C)OC(OC2OC(CO)C(O)C(O)C2O)C1(C)O	654.838	1.6208	6	11	7	272.437	-3.46	-0.262	40.673	-2.735	Yes	Yes	No	-0.565	0.322	-1.455	-3.928	No	No	No	No	No	No	No	0.623	No	No	-2.411	No	Yes	3.996	3.099	No	No	0.285	2.807
CC1CCC2(OC1)OC1CC3C4CC=C5CC(OC6OC(CO)C(OC7OC(C)C(O)C(O)C7O)C(O)C6O)CCC5(C)C4CCC3(C)C1C2C	722.913	2.3899	5	12	6	301.317	-2.867	-0.012	47.855	-2.735	Yes	Yes	No	-0.061	0.37	-1.079	-3.373	No	No	No	No	No	No	No	0.385	No	No	-2.535	No	Yes	3.516	5.183	No	No	0.285	3.752
CCC(C)C(=O)c1c(O)c(C/C=C(\C)CCC=C(C)C)c(O)c2c(-c3ccccc3)cc(=O)oc12	474.597	7.3352	9	5	2	205.981	-4.725	0.709	95.734	-2.735	Yes	Yes	Yes	-0.135	0.162	0.336	-1.835	No	Yes	No	Yes	Yes	No	Yes	0.572	No	No	0.509	No	Yes	2.988	1.316	Yes	No	0.29	-2.61
Cc1[nH]ccc2c3ccc(O)cc3nc1-2	198.225	2.68172	0	2	2	86.737	-3.105	1.243	91.196	-2.827	Yes	No	No	0.286	0.342	0.321	-1.878	No	No	Yes	No	No	No	No	0.635	No	Yes	-0.221	No	No	2.972	2.083	No	No	0.975	1.19
CC(C)=CCC/C(C)=C/Cc1c(O)ccc2cc(-c3cc(O)cc(O)c3CC=C(C)C)oc12	446.587	7.9605	8	4	3	195.753	-3.763	0.698	89.817	-2.735	Yes	Yes	Yes	-0.022	0.133	-1.077	-1.506	No	No	No	Yes	Yes	No	No	0.403	No	No	0.531	No	Yes	1.775	1.435	No	No	0.295	-2.343
C=C(CCC(C(=O)OC1OCC(O)C(O)C1O)C1CCC2(C)C3=C(CCC12C)C1(C)CCC(OC(C)=O)C(C)(C)C1CC3)C(C)C	644.89	6.2582	8	8	3	275.880	-4.861	0.622	73.24	-2.692	Yes	Yes	Yes	-0.855	0	-1.179	-2.159	No	Yes	No	No	No	No	No	0.249	No	No	-1.509	No	No	4.674	3.146	No	No	0.285	2.208
CC1(C)CCc2c(cc(O)c3c2OC(c2ccc(O)cc2)C(OC2OC(CO)C(O)C(O)C2O)C3=O)O1	518.515	0.7029	4	11	6	211.961	-2.91	-0.441	48.956	-2.735	Yes	No	No	0.835	0.28	-1.691	-3.985	No	No	No	No	No	No	No	0.194	No	No	0.024	No	Yes	3.001	4.528	No	No	0.285	4.484
CC(C)C(O)CC(O)C(C)(O)C1CCC2(O)C3=CC(=O)C4CC(O)C(O)CC4(C)C3C(O)CC12C	496.641	0.6807	5	8	7	207.236	-3.31	0.706	46.629	-2.735	Yes	No	No	0.341	0.303	-1.148	-4.151	No	No	No	No	No	No	No	0.69	No	No	-0.198	No	Yes	3.33	3.564	No	No	0.285	5.606
O=c1c(O)c(-c2ccc(O)cc2)oc2c(Cc3cccc(O)c3)c(O)cc(O)c12	392.363	3.5788	3	7	5	163.530	-2.953	0.189	88.726	-2.735	Yes	Yes	Yes	-1.139	0.239	-1.471	-3.078	No	No	Yes	Yes	Yes	No	No	0.293	No	No	0.396	No	Yes	2.342	2.535	No	No	0.285	1.287
C/C=C(\C)C(=O)OC1Cc2c(ccc3ccc(=O)oc23)OC1(C)C	328.364	3.3845	2	5	0	139.422	-4.178	1.003	98.218	-2.823	No	No	No	-0.056	0.163	0.038	-2.81	No	Yes	Yes	Yes	No	No	Yes	1.049	No	No	-0.137	No	No	2.388	1.305	Yes	No	0.927	-0.093
CC(=O)OC1COC(OC2CCC34CC35CCC3(C)C(C6(C)CCC(C(C)(C)O)O6)C(O)CC3(C)C5CC(OC3OC(CO)C(O)C(O)C3O)C4C2(C)C)C(OC(C)=O)C1O	869.055	1.8657	9	16	7	358.428	-2.992	-0.601	28.388	-2.735	Yes	Yes	No	0.118	0.35	-2.04	-4.076	No	No	No	No	No	No	No	-0.084	No	No	-3.43	No	Yes	4.433	2.614	No	No	0.285	4.243
C=C(C)C(O)Cc1c(O)c(C(=O)C(C)CC)c(O)c2c(-c3ccccc3)cc(=O)oc12	422.477	4.5795	7	6	3	179.641	-3.826	1.152	87.875	-2.735	Yes	Yes	Yes	0.25	0.14	-1.261	-2.453	No	No	No	Yes	Yes	No	No	0.928	No	No	0.78	No	Yes	3.14	2.179	Yes	No	0.291	-0.167
CNC1CCC23CC24CCC2(C)C(C(C)N(C)C)CCC2(C)C4CCC3C1(C)C	400.695	5.9636	3	2	1	180.508	-4.886	1.192	95.079	-2.823	Yes	Yes	Yes	0.847	0.094	0.881	-1.111	No	Yes	No	No	No	No	No	0.206	No	No	-0.838	No	Yes	3.553	0.814	Yes	No	0.394	0.505
C=C1C2CCC3C4(C)CC(OC5OC(CO)C(OS(=O)(=O)O)C(OS(=O)(=O)O)C5OC(=O)CC(C)C)CC(C(=O)O)C4CCC3(C2)C1O	726.816	1.667	11	13	5	279.553	-2.892	-0.758	0	-2.735	No	No	No	-0.13	0.394	-2.084	-2.898	No	Yes	No	No	No	No	No	0.222	No	No	0.444	No	No	2.482	4.506	No	No	0.285	7.489
C/C=C/C(=O)O	86.09	0.6471	1	1	1	36.100	-0.083	1.569	92.225	-2.757	No	No	No	-0.853	0.693	-0.264	-2.484	No	No	No	No	No	No	No	0.891	No	No	0.982	No	No	1.706	2.621	No	No	-0.657	2.276
CC(C)=CCCC(O)C1CCC2(C)C1CCC1C3(C=O)CCC(OC4OCC(O)C(O)C4OC4OC(CO)C(O)C(O)C4O)C(C)(C)C3CCC12C	738.956	2.6062	10	12	7	308.423	-2.951	0.041	40.181	-2.735	Yes	Yes	No	-0.092	0.207	-1.43	-3.381	No	No	No	No	No	No	No	0.568	No	No	-1.705	No	Yes	3.574	4.778	No	No	0.285	5.623
COC1CC(OC2C(O)CC(OC3C(O)CC(OC4C(C)OC(OC5CCC6(C)C(=CCC7(O)C6CC(OC(=O)/C=C/c6ccccc6)C6(C)C(C(C)=O)CCC76O)C5)CC4OC)OC3C)OC2C)OC(C)C1O	1043.254	4.8124	14	18	5	434.796	-3.239	0.424	60.938	-2.735	Yes	Yes	Yes	0.663	0.252	-2.509	-4.029	No	Yes	No	No	No	No	No	0.297	No	No	-1.235	No	Yes	4.565	1.418	Yes	No	0.285	6.89
COc1cc(CC2COC(c3ccc(O)c(OC)c3)C2COC2OC(CO)C(O)C(O)C2O)ccc1O	522.547	0.4779	9	11	6	213.919	-3.484	-0.511	49.323	-2.735	Yes	No	No	0.078	0.15	-1.576	-4.348	No	No	No	No	No	No	No	0.628	No	No	0.199	No	No	2.984	4.25	No	No	0.285	4.237
CC(=O)OC12COC1CC(O)C1(C)C(=O)C(O)C3=C(C)C(=O)CC(O)(C(OC(=O)c4ccccc4)C21)C3(C)C	542.581	1.29	3	10	3	225.482	-3.427	0.715	77.545	-2.735	Yes	Yes	No	0.859	0.196	-1.213	-3.118	No	No	No	No	No	No	No	0.525	No	No	0.06	No	No	4.365	3.209	Yes	No	0.285	2.101
CC1CCC2=C(CO)C(=O)CC3C(C21)C3(C)C	234.339	2.5664	1	2	1	103.097	-3.44	1.128	94.925	-2.812	No	Yes	No	0.193	0.244	0.375	-1.907	No	Yes	No	No	No	No	No	0.039	Yes	No	-0.267	No	No	1.807	1.782	No	Yes	1.024	1.146
CC(=O)OC1CC(C)=CC(O)CC(C)=CC2OC(=O)C(O)(CCl)C21	358.818	1.4769	2	6	2	145.629	-2.939	0.308	83.061	-3.068	Yes	No	No	0.068	0.452	-0.467	-2.946	No	No	No	No	No	No	No	0.37	No	No	-0.182	No	No	2.385	2.183	No	No	0.304	2.518
CC(=O)OC1C2C3(OC(C)=O)COC3CC(O)C2(C)C(O)C(OC(=O)c2ccccc2)C2=C(C)C(O)CC21C(C)(C)O	588.65	1.4444	5	11	4	243.958	-3.506	0.843	100	-2.735	Yes	Yes	No	0.498	0.18	-1.104	-3.365	No	No	No	No	No	No	No	0.517	No	No	-0.193	No	No	4.33	3.452	No	No	0.285	2.328
COc1ccc(/C=C/C(=O)c2c(OC)cc(OC)c(OC)c2O)cc1OC	374.389	3.3313	8	7	1	157.242	-4.873	1.313	95.098	-2.739	No	Yes	No	-0.589	0.13	-0.339	-3.142	No	No	No	Yes	Yes	No	Yes	0.337	No	No	1.238	No	No	1.62	1.794	No	No	0.285	-0.443
COc1c(OC2OC(CO)C(O)C(O)C2O)cc2c(c1OC)-c1ccc(OC)c(=O)cc1C(NC(C)=O)CC2	547.557	0.0417	7	11	5	224.214	-3.326	-0.009	47.434	-2.735	Yes	Yes	No	-0.418	0.201	-1.687	-4.912	No	No	No	No	No	No	No	0.657	No	No	0.648	No	Yes	3.112	3.34	No	No	0.285	5.216
CC(=O)CCC1C2CC(=O)CCC12C	194.274	2.3609	3	2	0	85.065	-2.256	1.176	97.827	-2.459	No	No	No	0.155	0.458	0.076	-2.556	No	No	No	No	No	No	No	1.095	No	No	0.438	No	No	1.904	1.929	No	Yes	0.386	1.54
CC1(C)C=Cc2c(ccc3c2OC2c4ccc(O)cc4OCC32)O1	322.36	4.1861	0	4	1	139.836	-4.826	1.342	94.412	-3.048	Yes	Yes	No	0.391	0.099	0.191	-1.56	No	Yes	Yes	Yes	Yes	No	Yes	0.066	No	No	-0.16	No	No	2.606	1.779	No	No	0.628	0.206
C/C(=C\C(=O)OC1Cc2cc3ccc(=O)oc3cc2OC1(C)C)CO	344.363	2.3569	3	6	1	144.216	-3.545	1.08	96.133	-3.184	No	No	No	-0.243	0.187	-0.59	-2.932	No	Yes	No	No	No	No	No	0.813	No	No	-0.039	No	No	2.438	1.135	Yes	No	0.666	0.677
COc1cc(C2Oc3c(O)cc(CCCO)cc3C2CO)ccc1OC1OC(CO)C(O)C(O)C1O	508.52	-0.286	9	11	7	207.235	-3.291	-0.464	37.091	-2.735	Yes	No	No	0.172	0.151	-1.528	-4.479	No	No	No	No	No	No	No	0.594	No	Yes	0.866	No	No	2.784	4.125	No	No	0.285	4.176
