SMILES	MOL_WEIGHT	LOGP	#ROTATABLE_BONDS	#ACCEPTORS	#DONORS	SURFACE_AREA	Water solubility	Caco2 permeability	Intestinal absorption (human)	Skin Permeability	P-glycoprotein substrate	P-glycoprotein I inhibitor	P-glycoprotein II inhibitor	VDss (human)	Fraction unbound (human)	BBB permeability	CNS permeability	CYP2D6 substrate	CYP3A4 substrate	CYP1A2 inhibitior	CYP2C19 inhibitior	CYP2C9 inhibitior	CYP2D6 inhibitior	CYP3A4 inhibitior	Total Clearance	Renal OCT2 substrate	AMES toxicity	Max. tolerated dose (human)	hERG I inhibitor	hERG II inhibitor	Oral Rat Acute Toxicity (LD50)	Oral Rat Chronic Toxicity (LOAEL)	Hepatotoxicity	Skin Sensitisation	<i>T.Pyriformis</i> toxicity	Minnow toxicity
COc1cc(/C=C/C(=O)OCC2(OC3OC(COC(C)=O)C(OC(=O)/C=C/c4ccc(O)cc4)C(OC4OC(COC(C)=O)C(OC5OC(CO)C(O)C(O)C5O)C(O)C4O)C3OC3OC(CO)C(O)C(O)C3O)OC(CO)C(O)C2OC(=O)c2ccccc2)ccc1O	1339.218	-4.9683	25	34	14	533.095	-2.892	-0.923	0.052	-2.735	Yes	Yes	Yes	0.009	0.38	-3.784	-7.946	No	No	No	No	No	No	No	0.087	No	No	0.438	No	Yes	2.482	9.702	No	No	0.285	21.872
CC(CC/C=C(\CO)C(=O)O)C1CCC2(C)C3CCC4C(C)(C)C(=O)CCC45CC35CCC12C	470.694	6.4142	6	3	2	205.515	-3.961	0.601	98.222	-2.735	Yes	No	Yes	-1.349	0.049	0.035	-1.765	No	Yes	No	No	No	No	No	0.277	No	No	-0.587	No	No	3.4	2.114	Yes	No	0.285	0.411
CC(C)=CCCC(C)(OC1OC(CO)C(O)C(O)C1O)C1CCC2(C)C1C(O)CC1C3(C)CCC(O)C(C)(C)C3C(OC3OC(CO)C(O)C(O)C3OC3OC(CO)C(O)C(O)C3O)CC12C	963.165	-1.056	13	19	13	393.167	-2.864	-0.446	0	-2.735	Yes	No	No	-0.292	0.369	-2.438	-4.912	No	No	No	No	No	No	No	0.596	No	No	-0.656	No	Yes	2.487	4.98	No	No	0.285	12.479
O=C(/C=C/c1ccc(O)cc1)OCC1OC(Oc2c(-c3ccc(O)cc3)oc3cc(OC4OC(CO)C(O)C(O)C4O)cc(O)c3c2=O)C(O)C(O)C1O	756.666	-0.8015	10	18	10	303.638	-2.895	-0.745	2.386	-2.735	Yes	No	Yes	-0.292	0.241	-2.505	-5.823	No	No	No	No	No	No	No	-0.503	No	No	0.448	No	Yes	2.474	5.985	No	No	0.285	4.288
COc1ccc(-c2cc(=O)c3c(O)c(OC)c(OC)cc3o2)cc1O	344.319	2.897	4	7	2	142.160	-4.017	1.193	79.127	-2.735	Yes	No	Yes	0.012	0.091	-0.569	-3.259	No	No	Yes	Yes	Yes	No	Yes	0.791	No	No	0.47	No	Yes	2.131	2.145	No	No	0.297	0.042
COc1cc(O)c2c(=O)c(-c3ccc(O)c(O)c3)coc2c1	300.266	2.5854	2	6	3	123.998	-3.71	1.131	88.198	-2.735	Yes	No	No	0.092	0.081	-1.139	-2.535	No	No	Yes	Yes	No	No	No	0.372	No	No	0.823	No	Yes	2.267	1.913	No	No	0.301	-0.361
COC1C=CC23c4cc5c(cc4C(O)OC2CN(C)C3C1)OCO5	331.368	1.3317	1	6	1	140.106	-2.254	1.194	94.71	-2.817	Yes	No	No	0.834	0.614	-0.154	-2.54	No	Yes	No	No	No	No	No	0.924	No	No	-0.184	No	No	2.695	1.852	Yes	No	0.286	2.175
CC1C(=O)CCC2C1(C)CCC1C2(C)CCC2(C)C3CC(C)(C(=O)O)CCC3(C)CCC12C	456.711	7.5217	1	2	1	201.411	-4.695	1.386	100	-2.734	No	No	Yes	-1.042	0	-0.355	-0.895	No	Yes	No	No	No	No	No	-0.038	No	No	0.92	No	No	2.654	2.103	No	No	0.292	-2.404
Cc1c(O)c2c(c(C)c1CCCl)C(=O)C(C)(C)C2	266.768	3.55534	2	2	1	112.969	-3.25	1.045	93.599	-2.672	Yes	No	No	0.484	0.186	0.323	-1.778	No	No	Yes	Yes	No	No	No	-0.01	No	No	0.057	No	No	1.859	1.919	No	Yes	0.998	0.153
CC(=O)OC1C(c2ccc(=O)oc2)C2(C)CCC3C(CCC4CC(O)CCC43C)C23OC13	442.552	3.7999	2	6	1	188.215	-4.776	1.133	98.27	-3.411	No	Yes	Yes	0.299	0.013	-0.47	-2.023	No	Yes	No	No	No	No	Yes	0.352	Yes	No	-0.628	No	No	2.391	1.303	No	No	0.368	-0.844
C/C(=C\CCC(C)C1CCC2(C)C3=CCC4C(C)(CCC(O)C4(C)C)C3=CCC12C)C(=O)O	454.695	7.3198	5	2	2	200.980	-3.991	1.24	97.584	-2.737	No	No	Yes	-0.726	0	-0.097	-1.42	No	Yes	No	No	No	No	No	0.377	No	No	-0.099	No	No	2.401	2.23	Yes	No	0.301	-1.426
C=C(C)C1CCC(C)=CC1=O	150.221	2.4879	1	1	0	67.800	-2.457	1.514	97.216	-2.156	Yes	No	No	0.196	0.527	0.585	-2.464	No	No	No	No	No	No	No	0.223	No	No	0.774	No	No	1.813	2.03	No	Yes	0.366	1.463
COc1ccc2c(c1OC)OC1c3ccc(O)cc3OCC21	300.31	3.0191	2	5	1	127.550	-4.096	1.295	95.001	-2.93	No	No	No	-0.131	0.12	-0.085	-2.157	No	No	Yes	Yes	Yes	No	Yes	0.154	No	Yes	0.025	No	Yes	2.286	1.303	No	No	0.682	-0.288
COc1ccc2[nH]cc(CCN(C)C)c2c1	218.3	2.2806	4	2	1	96.020	-2.159	1.457	93.417	-2.824	Yes	No	No	1.354	0.478	0.632	-1.96	Yes	No	Yes	No	No	No	No	1.072	No	No	0.104	No	No	2.858	1.81	No	No	0.373	0.959
O=C(CCc1ccc(O)c(O)c1)CC(O)CCc1ccc(O)c(O)c1	346.379	2.3945	8	6	5	145.176	-3.007	0.268	70.485	-2.735	Yes	No	No	0.37	0.183	-1.247	-3.366	No	No	No	No	No	No	No	0.232	No	No	0.373	No	Yes	2.118	3.229	No	No	0.335	0.983
O=C(Oc1c(O)ccc(C(=O)O)c1O)c1cc(O)c(O)c(O)c1	322.225	1.132	3	8	6	127.420	-2.912	-0.742	36.279	-2.735	Yes	No	No	0.246	0.214	-1.714	-4.672	No	No	No	No	No	No	No	0.618	No	No	0.836	No	No	2.451	3.552	No	No	0.285	2.881
C=C(C)C1CCCC2(C)CCC=C(C)C12	204.357	4.7252	1	0	0	94.458	-5.933	1.43	95.669	-1.453	No	No	No	0.687	0.188	0.77	-1.935	No	No	No	No	No	No	No	1.185	No	No	0.261	No	No	1.596	1.497	No	Yes	1.613	0.153
O=C(O)/C=C(/C(=O)OC1C2COC(=O)c3cc(O)c(O)c(O)c3-c3c(cc(O)c(O)c3O)C(=O)OC1C(O)C(OC(=O)c1cc(O)c(O)c(O)c1)O2)C1c2c(cc(O)c(O)c2O)C(=O)OC1C(=O)O	970.663	-0.2104	7	26	15	378.825	-2.892	-1.621	23.761	-2.735	Yes	No	No	-0.005	0.393	-4.833	-6.71	No	No	No	No	No	No	No	0.713	No	No	0.438	No	No	2.482	12.039	No	No	0.285	14.031
CC(=O)OC1CCC2(C)C3CCC4(C)C5C(C)CCC5(C(C)C)CCC4(C)C3=CCC2C1(C)C	468.766	8.5956	2	2	0	209.609	-6.389	1.324	100	-2.704	No	Yes	Yes	-0.033	0	0.702	-1.91	No	Yes	No	No	No	No	No	0.073	No	No	0.247	No	Yes	2.572	2.27	No	No	0.317	-4.508
Cc1ccc(C2(C)CCC(O)C2(C)C)cc1	218.34	3.43362	1	1	1	98.504	-3.701	1.4	94.287	-1.867	No	No	No	0.531	0.24	0.382	-1.953	No	No	Yes	Yes	No	No	No	1.213	No	No	0.264	No	No	2.135	1.564	No	Yes	1.89	0.765
Cc1c(O)cc(/C=C/c2ccccc2)cc1O	226.275	3.57662	2	2	2	100.482	-3.594	1.2	91.699	-3.061	Yes	No	No	-0.108	0.1	0.273	-1.206	No	No	Yes	Yes	Yes	No	Yes	0.186	No	Yes	0.192	No	No	2.061	2.236	No	No	1.217	0.56
CC(C)C1CCC2C1(C)CCC1(C)C3CCC4(C)C(CCC5OC54C)C3(C)CCC21C	426.729	8.2652	1	1	0	192.401	-6.264	1.314	100	-2.793	No	Yes	Yes	0.161	0	0.836	-1.571	No	Yes	No	No	No	No	No	0.069	No	No	0.487	No	Yes	2.054	1.124	No	No	0.311	-2.652
COC1CCC(=O)N1C1C=C(COC(=O)c2ccc[nH]2)CO1	306.318	1.0491	5	5	1	127.377	-3.542	0.791	80.922	-3.393	No	No	No	0.017	0.546	-0.564	-3.175	No	No	No	No	No	No	No	0.754	No	No	0.309	No	No	2.644	1.453	Yes	No	0.193	2.232
CC1=CC(O)NC1=O	113.116	-0.6191	0	2	2	47.009	0.189	1.13	85.626	-4.124	No	No	No	-0.267	0.794	-0.312	-3.378	No	No	No	No	No	No	No	0.573	No	No	1.634	No	No	1.789	2.532	No	No	-1.528	3.027
COc1c2occc2c(OCC(O)C(C)(C)Cl)c2ccc(=O)oc12	352.77	3.3049	5	6	1	142.070	-3.912	1.023	95.652	-2.81	No	No	No	-0.124	0.21	-0.776	-2.97	No	No	Yes	Yes	Yes	No	Yes	0.58	No	Yes	0.029	No	No	2.475	1.172	No	No	0.362	0.8
C=C1COC2Oc3ccc(CCC(=O)O)c(OC4OC(CO)C(O)C(O)C4O)c3C12	424.402	-0.729	6	9	5	171.420	-3.291	-0.296	26.466	-2.735	Yes	No	No	-0.516	0.324	-1.387	-4.152	No	No	No	No	No	No	No	0.76	No	No	0.489	No	No	3.131	3.906	No	No	0.285	4.721
CCCCCCCCCCCCCCCC(=O)OC1CCC2(C)C(=CCC3C2CCC2(C)C(C(C)CCC(C)C(C)C)CCC32)C1	639.106	13.6669	20	2	0	286.994	-4.962	1.193	93.716	-2.735	No	No	Yes	-0.537	0.009	1.021	-1.077	No	Yes	No	No	No	No	No	0.729	No	No	0.03	No	Yes	2.348	3.348	No	No	0.285	-7.808
COC(=O)C1OC(OC2CCC3(C)C(CCC4(C)C3CC=C3C5CC(C)(C)CC(OC6OC(CO)C(O)C(O)C6O)C5(C)CCC34C)C2(C)CO)C(OC2OCC(O)C(O)C2OC2OC(C)C(O)C(O)C2O)C(O)C1O	1089.276	-0.7437	11	22	12	444.053	-2.869	-0.381	0	-2.735	Yes	Yes	No	-0.164	0.383	-2.003	-5.126	No	No	No	No	No	No	No	0.117	No	No	0.207	No	Yes	2.5	5.846	No	No	0.285	6.45
COc1cc(CC(CO)C(CO)Cc2ccc(O)c(OC)c2)ccc1O	362.422	2.1172	9	6	4	152.812	-3.875	0.607	77.207	-2.737	Yes	No	No	0.243	0.102	-1.023	-3.366	No	No	No	No	Yes	No	No	0.339	No	No	0.059	No	Yes	2.53	1.819	Yes	No	0.328	0.721
CCOC1Cc2cccc(c2)Oc2c(O)cccc2CCc2ccc(cc2)Oc2cc1cc(O)c2O	484.548	6.8069	2	6	3	209.510	-3.546	0.75	94.535	-2.735	Yes	Yes	Yes	-2.109	0.12	-1.158	-2.697	No	Yes	No	Yes	Yes	No	No	-0.032	No	No	0.169	No	Yes	2.93	1.955	Yes	No	0.285	-2.07
COC(=O)C1=COC(OC2OC(CO)C(O)C(O)C2O)/C(=C\C(=O)O)C1CC(=O)OCCc1ccc(O)cc1	554.501	-1.2751	10	13	6	221.792	-2.98	-0.394	27.728	-2.735	Yes	No	No	0.356	0.319	-2.011	-4.111	No	No	No	No	No	No	No	1.247	No	No	0.75	No	No	2.588	5.385	No	No	0.285	5.687
C=C(CC(=O)c1cc(O)ccc1O)C1CCC(C)(C)OO1	292.331	3.116	4	5	2	123.292	-2.886	1.167	92.848	-3.447	Yes	No	No	0.386	0.359	-0.026	-2.931	No	No	No	Yes	No	No	No	1.114	No	No	-0.428	No	No	2.158	1.679	No	No	0.731	1.464
COc1c(OS(=O)(=O)O)cc2oc(-c3ccc(O)c(O)c3)c(OC)c(=O)c2c1O	426.355	1.7756	5	10	4	162.427	-3.046	-0.671	49.015	-2.735	Yes	No	No	0.36	0.178	-1.73	-4.336	No	No	No	No	No	No	No	0.748	No	Yes	0.661	No	No	2.362	2.742	No	No	0.285	1.032
COc1cc(-c2oc3cc(O)cc(OC4OC(CO)C(O)C(O)C4O)c3c(=O)c2O)ccc1O	478.406	-0.2359	5	12	7	190.586	-3.101	-0.528	44.638	-2.735	Yes	No	No	0.55	0.124	-1.7	-4.821	No	No	No	No	No	No	No	0.632	No	Yes	0.729	No	Yes	2.682	4.759	No	No	0.285	4.297
CCC(=O)OC1C(OC(C)=O)C2(CO)C(CC1(C)C)C1=CCC3C4(C)CCC(OC5OC(C(=O)O)C(O)C(O)C5OC5OC(CO)C(O)C(O)C5O)C(C)(C)C4CCC3(C)C1(C)C(O)C2O	943.09	0.2969	10	18	10	384.904	-2.845	-0.359	0	-2.735	Yes	No	No	-0.251	0.378	-2.233	-3.997	No	No	No	No	No	No	No	0.077	No	No	-0.861	No	No	2.52	5.687	No	No	0.285	9.025
CC(C)C1(NC(=O)C2C=C3c4cccc5[nH]cc(c45)CC3N(C)C2)OC2(O)C3CCCN3C(=O)C(Cc3ccccc3)N2C1=O	609.727	2.6269	5	6	3	261.546	-3.019	0.905	76.8	-2.735	Yes	Yes	Yes	1.53	0.233	-0.742	-2.705	No	Yes	No	Yes	Yes	No	Yes	0.636	No	No	-0.308	No	Yes	2.861	2.924	Yes	No	0.285	1.693
C/C(=C\CCC(C)C1CCC2(C)C3=CCC4C(C)(CCC(O)C4(C)C)C3=CCC12C)C(=O)O	454.695	7.3198	5	2	2	200.980	-3.991	1.24	97.584	-2.737	No	No	Yes	-0.726	0	-0.097	-1.42	No	Yes	No	No	No	No	No	0.377	No	No	-0.099	No	No	2.401	2.23	Yes	No	0.301	-1.426
CCOC(=O)CCCCCCCCCCCCCC(C)C	298.511	6.2768	15	2	0	132.583	-6.463	1.274	92.548	-2.613	No	No	No	0.114	0.018	0.778	-1.58	No	Yes	Yes	No	No	No	Yes	1.792	No	Yes	0.132	No	Yes	1.644	2.831	No	Yes	1.42	-2.437
O=C(OCC1OC(Oc2c(-c3ccc(O)c(O)c3)oc3cc(O)cc(O)c3c2=O)C(OC(=O)c2cc(O)c(O)c(O)c2)C(O)C1O)c1cc(O)c(O)c(O)c1	768.589	1.4241	8	20	12	304.472	-2.892	-0.881	30.079	-2.735	Yes	Yes	Yes	-0.043	0.385	-3.227	-6.101	No	No	No	No	No	No	No	0.55	No	No	0.438	No	Yes	2.482	8.379	No	No	0.285	1.766
CCCCCCCCCCCCCCc1cccc(O)c1C(=O)O	334.5	6.334	14	2	2	146.656	-3.253	1.355	94.265	-2.735	No	No	No	-1.17	0.119	-0.028	-2.434	No	No	No	No	No	No	No	1.46	No	No	0.202	No	No	2.654	2.927	No	No	0.285	-1.722
CC(C)=CCCC1(C)C=Cc2c(cc(O)c3c2OC(c2ccc(O)cc2O)CC3=O)O1	422.477	5.4206	4	6	3	180.613	-4.132	0.78	88.968	-2.77	Yes	Yes	Yes	0.668	0.092	-1.264	-2.696	No	No	No	Yes	Yes	No	Yes	0.243	No	No	-0.142	No	Yes	2.379	1.94	No	No	0.325	0.411
CC(C)COC(=O)C1CCC(=O)N1	185.223	0.4642	3	3	1	77.639	-1.066	1.194	86.835	-4.031	No	No	No	-0.113	0.665	-0.21	-2.978	No	No	No	No	No	No	No	0.596	No	No	0.913	No	No	1.965	2.483	No	No	0.041	2.222
CC1=CCCC2=CC(OC2=O)c2c(C)coc2C1	244.29	3.39492	0	3	0	106.124	-3.72	1.198	97.918	-2.674	No	No	No	0.234	0.356	0.385	-2.82	No	No	Yes	No	No	No	No	0.853	No	No	0.509	No	No	2.162	2.027	Yes	No	0.896	0.95
O=C(OC1OC2COC(=O)c3cc(O)c(O)c(O)c3-c3c(cc(O)c(O)c3O)C(=O)OC(C2OC(=O)c2cc(O)c(O)c(O)c2)C1OC(=O)c1cc(O)c(O)c(O)c1)c1cc(O)c(O)c(O)c1	938.665	1.6665	6	26	15	369.065	-2.892	-0.815	52.389	-2.735	Yes	Yes	Yes	0.004	0.386	-4.955	-7.145	No	No	No	Yes	No	No	No	0.578	Yes	No	0.438	No	Yes	2.546	15.066	No	No	0.285	7.618
COc1cc(/C=C/C(=O)OCC2OC(OC3C(Oc4c(-c5ccc(O)cc5)oc5cc(O)cc(O)c5c4=O)OC(CO)C(O)C3O)C(O)C(O)C2O)cc(OC)c1O	816.718	-0.4332	12	20	10	326.595	-2.893	-0.787	37.058	-2.735	Yes	No	Yes	-0.035	0.248	-2.617	-5.851	No	No	No	No	No	No	No	-0.681	No	No	0.391	No	Yes	2.473	6.157	No	No	0.285	6.161
COc1cc(C)cc2c1[nH]c1ccccc12	211.264	3.63812	1	1	1	93.847	-3.986	1.357	94.916	-2.707	No	No	No	0.367	0.098	0.451	-1.287	No	No	Yes	Yes	No	No	No	0.455	No	Yes	0.092	No	No	2.498	1.83	No	No	1.222	-0.507
CC1OC(Oc2cc(O)c3c(=O)c(OC4OC(CO)C(O)C(O)C4OC4OC(COC(=O)/C=C/c5ccc(O)cc5)C(O)C(O)C4O)c(-c4ccc(O)c(O)c4)oc3c2)C(O)C(O)C1O	918.807	-2.2441	12	23	13	365.432	-2.892	-0.42	0.627	-2.735	Yes	No	Yes	-0.047	0.363	-2.792	-7.235	No	No	No	No	No	No	No	-0.641	No	No	0.396	No	Yes	2.482	8.115	No	No	0.285	8.604
C=C(C)C1C=C2C(C)(O)CCCC2(C)CC1	220.356	3.8401	1	1	1	99.252	-3.843	1.567	93.871	-2.226	No	No	No	0.444	0.386	0.583	-2.76	No	No	No	No	No	No	No	1.142	No	No	0.544	No	No	1.922	1.163	No	Yes	1.107	1.11
COc1ccc2c(c1)N(C)C(=O)C21CC2NC1CC1C(C(C)=O)=COCC21O	384.432	0.894	2	6	2	162.847	-2.348	0.193	82.809	-3.468	Yes	No	No	0.377	0.424	-0.529	-2.77	No	Yes	No	No	No	No	No	0.917	No	No	-0.556	No	No	2.747	1.769	Yes	No	0.315	1.892
COC1=CC(=O)C(O)=C/C1=C1/C=C(c2ccccc2)c2cc3c(cc2O1)OCC(c1ccc(OC)cc1O)C3	522.553	5.7526	4	7	2	225.083	-5.236	0.316	100	-2.741	Yes	Yes	Yes	-0.779	0.048	-0.089	-2.735	No	Yes	No	Yes	Yes	No	Yes	0.225	No	No	-0.225	No	Yes	2.211	0.952	Yes	No	0.286	-3.451
CC1=C(/C=C/C(C)=C/C=C/C(C)=C/C=C/C=C(C)/C=C/C=C(C)/C=C/C(=O)C2(C)CC(O)CC2(C)C)C(C)(C)CC(O)C1	584.885	9.8063	11	3	2	261.814	-7.058	1.382	90.512	-2.748	Yes	Yes	Yes	-0.309	0	-0.276	-1.294	No	Yes	No	No	No	No	No	0.868	No	No	-0.612	No	No	2.452	2.412	Yes	No	0.369	-2.605
CCCCOCCOC1c2cc(C(C)C)c(OC(C)=O)cc2C2(C)CCCC(C)(C)C2C1Oc1cc2c(cc1C(C)C)C=CC1C(C)(C)CCCC21C	727.083	12.3891	12	5	0	321.529	-3.83	1.062	96.456	-2.735	No	Yes	Yes	-0.878	0.224	-0.962	-0.867	No	Yes	No	No	No	No	No	-0.485	No	No	0.556	No	Yes	2.005	0.966	No	No	0.285	-11.77
CCCC(=O)C1=C(O)C(C)(C)C(O)=C(Cc2c(O)c(C)c(O)c(C(=O)CCC)c2OC)C1=O	460.523	4.54242	9	8	4	192.755	-3.448	0.26	65.904	-2.737	Yes	Yes	No	0.831	0.219	-1.729	-3.628	No	No	No	No	No	No	No	0.723	No	No	0.714	No	Yes	4.257	2.353	No	No	0.285	0.073
CCC(/C=C/C(C)C1CCC2C3C(OO)C=C4CC(O)CCC4(C)C3CCC12C)C(C)C	444.7	7.2689	6	3	2	196.186	-5.511	1.437	95.497	-2.623	Yes	Yes	Yes	-0.642	0	-0.436	-1.41	No	Yes	No	No	No	No	No	0.707	No	Yes	-0.551	No	No	2.387	2.267	Yes	No	0.304	-1.215
COc1cc2oc(-c3ccc(O)c(O)c3)cc(=O)c2c(O)c1C	314.293	2.89382	2	6	3	130.363	-3.343	0.585	90.55	-2.737	Yes	No	No	0.339	0.114	-1.161	-2.392	No	No	Yes	No	Yes	No	Yes	0.632	No	No	0.835	No	No	2.4	1.784	No	No	0.356	0.272
CC(=O)OC1CC2(C)C(CCC3OC32C)C(C=O)(CCc2ccoc2)C1C	374.477	3.9428	5	5	0	160.327	-4.117	1.194	99.449	-3.352	No	No	No	0.206	0.143	-0.368	-2.871	No	Yes	No	No	No	No	Yes	0.766	No	No	-0.159	No	No	2.354	1.468	No	No	0.529	0.118
CC1(C)CCCC2(C)C1CCC13CC(CCC12)C1(CO1)C3=O	302.458	4.3672	0	2	0	133.919	-5.346	1.651	100	-3.185	No	Yes	No	0.391	0	0.668	-1.818	No	Yes	Yes	Yes	Yes	No	No	0.386	No	No	-0.326	No	Yes	1.928	2.178	Yes	Yes	0.619	-0.759
C/C=C(\C)C(=O)OC1CC(C)(C)CC2C3=CCC4C56CCC(O)(OC5)C(C)(C)C6CCC4(C)C3(C)CCC12C(=O)O	568.795	7.0595	3	5	2	245.872	-3.257	0.762	94.447	-2.735	No	No	Yes	-0.736	0	0.13	-1.992	No	Yes	No	No	No	No	No	-0.226	No	No	1.122	No	No	2.95	1.838	Yes	No	0.285	-2.151
C=C1CCC2(OC1)OC1CC3C4CCC5(OC6OC(CO)C(O)C(O)C6O)C(O)C(O)C(O)C(O)C5(C)C4CCC3(C)C1C2C	640.767	-0.4346	3	12	8	263.495	-2.889	0.313	26.89	-2.735	Yes	No	No	-0.094	0.356	-1.414	-3.37	No	No	No	No	No	No	No	0.625	No	No	-0.856	No	Yes	2.531	5.186	No	No	0.285	8.106
O=C1c2cc3ccoc3cc2OC2COc3cc4c(cc3C12O)OCO4	352.298	2.3854	0	7	1	146.182	-3.407	1.181	97.02	-2.809	Yes	No	Yes	-0.129	0.069	-0.545	-2.887	No	Yes	Yes	Yes	Yes	No	No	0.179	No	No	-0.396	No	No	2.119	1.802	No	No	0.335	1.134
COc1cc(C2Oc3cc(O)cc(OC)c3CC2OC2OC(CO)C(O)C(O)C2O)ccc1O	480.466	-0.0237	6	11	6	194.824	-3.367	-0.131	43.657	-2.735	Yes	No	No	0.257	0.211	-1.556	-4.376	No	No	No	No	No	No	No	0.249	No	Yes	0.649	No	No	2.765	3.97	No	No	0.285	4.771
COC(=O)CC1C2(C)C3=C(C)C(c4ccoc4)CC3OC2C(OC(C)=O)C2C(C)(C(=O)OC)C=CC(=O)C21C	540.609	3.9224	5	9	0	227.412	-5.038	0.859	100	-2.925	No	Yes	Yes	-0.088	0.069	-1.14	-2.827	No	Yes	No	No	No	No	Yes	0.431	No	No	0.005	No	No	2.873	2.121	No	No	0.287	1.896
C=C(C)C1CCC(C)(C2CCC3(C)C2CCC2C4(C)CCC(=O)C(C)(C)C4CCC23C)O1	440.712	7.7544	2	2	0	196.879	-6.734	1.317	99.502	-2.784	No	Yes	Yes	0.319	0	0.626	-2.235	No	Yes	No	No	No	No	No	0.226	No	No	-0.079	No	Yes	1.969	1.996	No	No	0.477	-1.616
CCCCCCCCCCCCCCCC(=O)OC1C(C)C2(O)C(C=C(CO)CC3(O)C(=O)C(C)=CC32)C2C(C)(CO)C12OC(C)=O	660.889	5.5055	18	9	4	280.728	-3.48	0.215	82.721	-2.728	Yes	Yes	Yes	-0.157	0.077	-1.648	-3.074	No	Yes	No	No	No	No	No	0.812	No	No	-1.093	No	No	4.749	2.95	No	No	0.285	1.285
CC(C)=CCc1c(OC2OC(CO)C(O)C(O)C2O)cc(O)c2c(=O)c(OC3OC(C)C(O)C(O)C3O)c(-c3ccc(O)cc3)oc12	662.641	-0.2351	8	15	9	267.242	-2.905	0.156	15.13	-2.735	Yes	No	No	-0.464	0.287	-2.018	-5.912	No	No	No	No	No	No	No	0.17	No	Yes	0.535	No	Yes	2.55	5.022	No	No	0.285	7.622
CC(C)(O)C1CCC(C(=O)OCC2OC(Oc3c(-c4ccc(O)c(O)c4)oc4cc(O)cc(O)c4c3=O)C(O)C(O)C2O)CC1	632.615	1.5893	7	14	8	255.820	-2.917	-1.053	57.084	-2.735	Yes	No	No	0.561	0.126	-2.173	-4.577	No	No	No	No	No	No	No	-0.462	No	No	0.622	No	Yes	2.844	4.427	No	No	0.285	0.963
COc1cc2c(cc1OC)C1C(C)c3ccc(OC)c(OC)c3CN1CC2	369.461	3.9375	4	5	0	160.340	-3.239	1.047	92.442	-2.731	Yes	Yes	Yes	0.848	0.27	0.326	-1.871	No	Yes	Yes	No	No	Yes	Yes	0.976	Yes	No	0.391	No	Yes	3.151	1.694	No	No	0.285	-0.365
CC(CCC(O)C(C)(O)CO)C1CCC2(C)C3=C(CCC12C)C1(C)CCC(=O)C(C)(C)C1CC3=O	488.709	5.0043	6	5	3	211.315	-4.922	0.694	80.53	-3.168	Yes	Yes	Yes	-0.819	0	-0.998	-2.158	No	Yes	No	No	No	No	No	0.401	No	No	-1.011	No	No	4.625	-0.462	No	No	0.302	1.579
CN1CCc2cc3c(c4c2C1Cc1ccc(O)cc1-4)OCO3	295.338	2.873	0	4	1	128.442	-3.95	1.467	94.249	-3.098	Yes	No	No	1.16	0.251	0.099	-1.41	No	Yes	Yes	No	No	Yes	No	1.006	No	Yes	-0.343	No	Yes	2.656	1.182	No	No	0.762	0.68
COc1cc2c(c(OC)c1C(=O)/C=C(\O)c1ccccc1)C=CC(C)(C)O2	366.413	4.6698	5	5	1	158.049	-5.314	1.098	93.899	-3.022	No	Yes	Yes	-0.078	0.017	-0.703	-1.985	No	Yes	Yes	Yes	Yes	No	Yes	0.318	No	No	0.367	No	No	2.784	1.93	No	No	0.548	-0.798
CC(=O)OC1CCC2(C)C(=CCC3C2CCC2(C)C(O)CCC32)C1	332.484	4.2418	1	3	1	145.394	-4.924	1.416	95.72	-3.371	No	Yes	No	0.419	0.133	0.271	-2.834	No	Yes	No	No	No	No	Yes	0.682	Yes	No	-0.281	No	No	2.079	1.622	No	No	0.941	-0.332
CC(=O)CC(=O)c1ccccc1	162.188	1.8484	3	2	0	71.214	-2.244	1.172	97.591	-2.272	No	No	No	-0.045	0.352	0.356	-2.02	No	No	Yes	No	No	No	No	0.269	No	No	1.322	No	No	1.683	2.691	Yes	Yes	0.571	1.181
Cc1cc(=O)c2c(O)c(C3OC(CO)C(O)C(O)C3O)c(O)cc2o1	354.311	-0.97248	2	9	6	140.507	-3.077	0.172	32.303	-2.735	Yes	No	No	0.098	0.401	-1.498	-5.048	No	No	No	No	No	No	No	0.723	No	No	1.169	No	No	2.449	4.965	Yes	No	0.285	2.787
C=C(C)c1ccccc1C	132.206	3.02812	1	0	0	62.202	-3.511	1.505	95.59	-1.013	No	No	No	0.476	0.296	0.471	-1.678	No	No	Yes	No	No	No	No	0.281	No	No	0.925	No	No	1.804	2.359	No	Yes	0.62	0.974
CC1=C(C(C)C)CC2(O)CC3(C)CC(=O)OC4(C(O)C(C)CCC34O)C12O	380.481	1.4424	1	6	4	159.777	-3.163	0.436	49.333	-2.974	Yes	No	No	-0.127	0.424	-1.062	-4.444	No	No	No	No	No	No	No	0.63	No	No	-0.232	No	No	2.726	3.014	No	No	0.285	2.319
CCCCCCCCCCCC(=O)OCC	228.376	4.4704	11	2	0	100.759	-5.45	1.6	93.29	-1.988	No	No	No	0.302	0.208	0.683	-1.996	No	No	No	No	No	No	No	1.776	No	No	0.333	No	No	1.694	2.729	No	Yes	2.175	-0.539
COc1cc(C2Oc3c(OC)cc(/C=C/c4cc(O)cc(O)c4)cc3C2c2cc(O)cc(O)c2)ccc1O	514.53	5.6678	6	8	5	218.409	-2.985	0.162	85.774	-2.735	Yes	Yes	Yes	-1.339	0.396	-1.546	-3.342	No	No	Yes	No	Yes	No	No	0.142	No	No	0.344	No	Yes	2.465	2.411	No	No	0.285	-1.464
O=C(O)C1=C/C(=C\C=[N+]2/c3cc(O)c(OC4OC(CO)C(O)C(O)C4OC4OC(C(=O)O)C(O)C(O)C4O)cc3CC2C(=O)[O-])CC(C(=O)O)N1	726.597	-5.7818	10	17	11	285.279	-2.892	-0.575	0	-2.735	No	No	No	-0.55	0.391	-2.113	-6.16	No	No	No	No	No	No	No	-0.079	No	No	0.423	No	No	2.482	5.884	No	No	0.285	10.901
C=C(C)CCC/C(C)=C1/CC=C(C)CC1	204.357	5.1795	4	0	0	94.774	-6.202	1.419	94.224	-1.234	No	No	No	0.64	0.224	0.781	-2.111	No	No	No	No	No	No	No	1.484	No	No	0.42	No	No	1.674	1.366	No	Yes	1.92	-0.013
CC(=O)C1C(OC(=O)CCC(C)COC2OC(CO)C(O)C(O)C2O)CC2C3CC=C4CC(OC5OC(CO)C(OC6OC(CO)C(O)C(OC7OCC(O)C(O)C7O)C6OC6OC(CO)C(O)C(OC7OC(CO)C(O)C(O)C7O)C6O)C(O)C5O)C(O)CC4(C)C3CCC21C	1405.447	-8.9993	23	35	20	556.937	-2.892	-0.698	0	-2.735	Yes	No	No	0.01	0.381	-3.273	-8.034	No	No	No	No	No	No	No	0.902	No	No	0.438	No	Yes	2.774	10.16	No	No	0.285	27.654
C/C=C/c1cc(OC)c2c(c1)C(C)C(c1ccc3c(c1)OCO3)O2	324.376	4.6942	3	4	0	141.161	-5.721	1.584	95.847	-2.462	Yes	Yes	No	0.396	0	0.428	-1.464	No	Yes	Yes	Yes	Yes	No	No	0.082	No	No	0.424	No	No	2.697	2.033	No	No	0.989	0.292
C=C(C)/C=C/C/C(C)=C/COc1c2ccoc2cc2oc(=O)ccc12	336.387	5.3867	6	4	0	145.250	-5.452	1.43	97.196	-2.419	No	Yes	Yes	0.831	0.06	0.008	-1.849	No	Yes	Yes	Yes	Yes	Yes	Yes	1.077	Yes	Yes	0.012	No	No	2.197	2.089	No	No	0.82	-0.893
CC1(C)CCC2(C(=O)O)C(O)CC3(C)C(=CCC4C5(C)CCC(OC6OCC(O)C(O)C6O)C(C)(CO)C5CCC43C)C2C1	620.824	3.6401	4	8	6	261.577	-3.5	-0.019	36.363	-2.735	Yes	No	No	-0.097	0.161	-1.001	-2.505	No	No	No	No	No	No	No	0.051	No	No	-0.45	No	No	3.176	3.03	No	No	0.285	3.514
CC(=O)OCC1OC(OC(=O)C2=CCCC3C2(C)CCC(C)C3(C)CCC2=CC(=O)OC2)C(OC(C)=O)C(OC(C)=O)C1OC(C)=O	662.729	3.655	10	13	0	274.144	-4.584	1.095	68.324	-2.734	No	Yes	Yes	0.389	0.08	-2.116	-3.108	No	Yes	No	No	No	Yes	No	0.485	No	No	0.612	No	Yes	2.981	1.283	No	No	0.285	0.581
COC1CC(OC2C(C)OC3(COC4C(C)OC(OC(C)C5(O)CCC6C7CC=C8CC(O)CCC8(C)C7CCC65C)CC4OCO3)CC2OC)OC(C)C1OC1CC(OC)C(OC2CC(OC)C(OC3OC(C)C(O)C(OC)C3OC(C)=O)C(C)O2)C(C)O1	1285.566	5.9023	17	24	3	531.522	-2.902	0.557	73.496	-2.735	Yes	Yes	Yes	0.672	0.288	-3.836	-3.402	No	Yes	No	No	No	No	No	0.215	No	No	0.271	No	Yes	3.585	1.245	No	No	0.285	7.681
CC1C(=O)CCC2C1(C)CCC1C2(C)C(=O)CC2(C)C3CC(C)(C)CCC3(C)CCC12C	440.712	7.636	0	2	0	196.616	-6.327	1.441	100	-2.39	No	Yes	Yes	0.083	0	-0.167	-1.983	No	Yes	No	No	No	No	No	-0.065	No	No	0.615	No	Yes	2.11	1.896	No	No	0.359	-2.179
O=C(OCC1OC(Oc2ccc(O)cc2COc2cccc(C(=O)O)c2O)C(O)C(O)C1O)c1ccccc1	542.493	1.4184	9	11	6	221.367	-3.005	-0.723	37.741	-2.735	Yes	No	No	-0.132	0.091	-1.613	-4.456	No	No	No	No	No	No	No	0.112	No	No	0.766	No	Yes	2.683	4.311	No	No	0.285	1.667
CC(=O)N(C)C(C)C1CCC2C3CC=C4CC(N(C)C)CCC4(C)C3CCC21C	400.651	5.3624	3	2	0	178.831	-5.454	1.24	94.041	-2.979	Yes	Yes	Yes	0.822	0.074	0.745	-1.966	No	Yes	No	No	No	No	No	0.255	Yes	No	-0.753	No	Yes	3.006	0.568	Yes	No	0.745	0.277
COc1ccc(OC2OC(CO)C(O)C(O)C2O)c(OC)c1C(=O)OCc1ccccc1OC1OC(CO)C(O)C(O)C1O	628.58	-2.5818	11	16	8	250.626	-2.613	-0.746	0	-2.735	Yes	No	No	-0.251	0.334	-2.474	-5.638	No	No	No	No	No	No	No	0.862	No	No	-0.181	No	Yes	2.494	6.651	No	No	0.285	7.748
CC1(C)c2cc(O)c(O)cc2CCN1CC1(O)OCC(O)C(O)C1O	355.387	-1.0075	2	8	6	145.073	-2.196	0.133	30.001	-2.735	Yes	No	No	0.44	0.619	-1.519	-5.443	No	No	No	No	No	No	No	0.927	No	No	-0.162	No	No	2.817	4.527	Yes	No	0.285	3.229
C=C(CCC(C)C1CCC2C3CC=C4CC(O)CCC4(CO)C3CCC12C)C(C)C	414.674	6.5272	6	2	2	184.779	-5.812	1.337	96.653	-2.786	Yes	Yes	Yes	-0.212	0	-0.449	-1.38	No	Yes	No	No	No	No	No	0.692	No	No	-1.002	No	No	3.51	2.375	Yes	No	0.48	-1.008
CC(C)CC(=O)OC1OC=C(COC2OC(CO)C(O)C(O)C2O)C2CC(O)C(CO)C12	462.492	-1.7621	8	11	6	185.712	-2.936	-0.324	29.788	-2.735	Yes	No	No	0.201	0.465	-1.459	-5.116	No	No	No	No	No	No	No	1.199	No	No	-0.175	No	Yes	3.411	3.821	No	No	0.285	6.439
Cc1ccc2c(c1CCC(=O)C(C)(C)O)C(=O)C(=O)C(C(C)C)=C2	328.408	3.07242	5	4	1	142.124	-3.723	1.036	94.927	-2.955	No	Yes	No	0.111	0.06	-0.163	-2.264	No	Yes	No	Yes	No	No	No	1.092	No	No	0.181	No	No	2.339	1.825	No	No	1.282	0.379
COc1cc(O)cc(OC)c1C(=O)C1C(C(=O)c2c(OC)cc(O)cc2OC)C(c2ccccc2)C1c1ccccc1	568.622	6.0114	10	8	2	243.612	-3.109	-0.236	84.44	-2.735	No	Yes	Yes	-1.647	0.417	-0.383	-3.229	No	Yes	No	No	Yes	No	No	0.614	No	No	0.303	No	Yes	2.517	1.788	No	No	0.285	-4.341
C=CCc1cc(-c2cc(/C=C/C=O)ccc2O)ccc1O	280.323	3.7054	5	3	2	123.049	-3.884	1.2	94.856	-2.741	Yes	No	No	0.392	0.051	-0.49	-2.195	No	Yes	Yes	Yes	Yes	No	Yes	0.243	No	No	0.338	No	Yes	2.236	1.533	No	No	0.483	-0.155
COC(=O)c1cc(OC)c(O)c(OC)c1	212.201	1.196	3	5	1	87.188	-2.505	1.287	82.631	-2.786	No	No	No	-0.199	0.422	-0.246	-2.942	No	No	No	No	No	No	No	0.794	No	No	1.482	No	No	2.041	1.425	No	No	0.122	1.249
CC1(C)CCC2(C(=O)O)CCC3(C(=O)O)C(=CCC4C5(C)CCC(O)C(C)(C)C5CCC43C)C2C1	486.693	6.2983	2	3	3	210.310	-3.125	0.687	69.076	-2.735	No	No	Yes	-0.824	0.003	-0.619	-1.175	No	Yes	No	No	No	No	No	-0.145	No	No	1.448	No	No	2.27	1.469	No	No	0.285	0.651
CC(=O)OCC1(C)CCCC2(C)C3CCC(C)(C(O)CO)C=C3CCC12	364.526	3.8519	4	4	2	157.559	-4.324	1.192	98.452	-3.402	No	Yes	Yes	-0.228	0.039	-0.09	-2.036	No	Yes	No	No	No	No	No	0.767	No	No	-0.148	No	No	2.601	1.75	No	No	0.624	-0.237
CC1CC(O)C2(O)C13CC(OC(=O)C3O)C(C)(O)C21COC1=O	328.317	-1.9112	0	8	4	131.552	-2.913	0.499	20.89	-2.768	Yes	No	No	0.767	0.608	-1.098	-3.819	No	No	No	No	No	No	No	0.974	No	No	0.936	No	No	2.16	3.415	No	No	0.285	4.291
O=C(OCC1=CC(O)C2CCOC(OC3OC(CO)C(O)C(O)C3O)C12)c1ccccc1	452.456	-1.0604	6	10	5	184.150	-3.551	0.004	46.063	-2.737	Yes	No	No	-0.273	0.35	-1.305	-4.707	No	No	No	No	No	No	No	1.426	No	No	-0.05	No	Yes	4.259	4.214	No	No	0.285	4.158
