,BD,ID,SMILES
0,NuBBE,NuBBE_1927,C(=C)(C)[C@@H]1C[C@@H]2C(C)=CCC[C@@]2(C)CC1
1,NuBBE,NuBBE_1545,C(=C)(C)[C@@H]1C[C@H]2C(C)=CCC[C@]2(C)CC1
2,NuBBE,NuBBE_1417,C(=C)(C)[C@@H]1[C@](C=C)(C)CCC(=C(C)C)C1
3,NuBBE,NuBBE_1404,C(=C)(C)[C@@H]1[C@](C=C)(C)CCC(C(C)C)=C1
4,NuBBE,NuBBE_1943,C(=C)(C)[C@H]1C/C=C(\C)/CC/C=C(\C)/CC/C=C(/C)\CC1
5,NuBBE,NuBBE_1940,C(=C)(C)[C@H]1C=C2[C@H](C)CC[C@@H]2[C@H](C)CC1
6,NuBBE,NuBBE_1919,C(=C)(C)[C@H]1CC=2[C@@H](C)CCC=2[C@@H](C)CC1
7,NuBBE,NuBBE_1914,C(=C)(C)[C@H]1CC=C(C)CC1
8,NuBBE,NuBBE_1922,C(=C)(C)[C@H]1C[C@H]2C(=C)CCC[C@]2(C)CC1
9,NuBBE,NuBBE_1539,C(=C)(C)[C@H]1[C@@](C=C)(C)CC[C@@H](C(=C)C)C1
10,NuBBE,NuBBE_2268,C(=C)(C)c1c2nc3c(nc2c2c(C)ccc(C)c2c1)cccc3
11,NuBBE,NuBBE_2124,C(=C)CCCC
12,NuBBE,NuBBE_2125,C(=C)CCCCC
13,NuBBE,NuBBE_2122,C(=C)CCCCCC
14,NuBBE,NuBBE_2114,C(=C)CCCCCCC
15,NuBBE,NuBBE_2118,C(=C)CCCCCCCC
16,NuBBE,NuBBE_2117,C(=C)CCCCCCCCC
17,NuBBE,NuBBE_2105,C(=C)CCCCCCCCCC
18,NuBBE,NuBBE_2112,C(=C)CCCCCCCCCCC
19,NuBBE,NuBBE_2111,C(=C)CCCCCCCCCCCC
20,NuBBE,NuBBE_2113,C(=C)CCCCCCCCCCCCC
21,NuBBE,NuBBE_733,C(=C)Cc1cc2OCOc2cc1
22,NuBBE,NuBBE_1977,C(=C)[C@@H]1SSC=CC1
23,NuBBE,NuBBE_1978,C(=C)[C@@H]1SSCC=C1
24,NuBBE,NuBBE_1917,C(=C)[C@]1(C)C=C2[C@H]([C@@]3(C)[C@H](C(C)(C)CCC3)CC2)CC1
25,NuBBE,NuBBE_1743,C(=C/C/C=C(/CCC=C(C)C)\C)(\C=C)/C
26,NuBBE,NuBBE_1921,C(=C/CC=C(C)C)(\C=C)/C
27,NuBBE,NuBBE_1598,C(=C/c1nc2c(cc1)cccc2)\CCC
28,NuBBE,NuBBE_1543,C(=CC/C=C(/C)\[C@H]1CC=C(C)CC1)(C)C
29,NuBBE,NuBBE_1544,C(=CCC/C(/C)=C\1/CC=C(C)CC/1)(C)C
30,NuBBE,NuBBE_1501,C(=CCCC(=C)[C@H]1CC=C(C)CC1)(C)C
31,NuBBE,NuBBE_1732,C(=CCC[C@]1(C)[C@@H]2C(C)=CC[C@H]1C2)(C)C
32,NuBBE,NuBBE_1086,C(=CC[C@H]1[C@H](c2cc3c([nH]cc3)cc2)OCC1=C)(C)C
33,NuBBE,NuBBE_1733,C(C)(C)=C1C/C=C(\C)/CC/C=C(/C)\CC1
34,NuBBE,NuBBE_1754,C(C)(C)=C1CC=2[C@@H](C)CCC=2[C@@H](C)CC1
35,NuBBE,NuBBE_2337,C(C)(C)=C1CC=2[C@@H](C)CCC=2[C@H](C)CC1
36,NuBBE,NuBBE_1740,C(C)(C)=C1CC=C(C)CC1
37,NuBBE,NuBBE_1946,C(C)(C)C1=C2[C@H]([C@H](C)CC1)CCC(C)=C2
38,NuBBE,NuBBE_1902,C(C)(C)C1=CC=C(C)CC1
39,NuBBE,NuBBE_1750,C(C)(C)C1=CCC(C)=CC1
40,NuBBE,NuBBE_1340,C(C)(C)C=1c2c([C@@H](C)CC=1)ccc(C)c2
41,NuBBE,NuBBE_2335,C(C)(C)[C@@H]1C=2[C@H]([C@H](C)CC1)CCC(=C)C=2
42,NuBBE,NuBBE_1403,C(C)(C)[C@@H]1[C@@H]2[C@H](C(=C)CC1)CCC(C)=C2
43,NuBBE,NuBBE_1944,C(C)(C)[C@@H]1[C@H]2[C@@H](C(=C)CC1)CCC(C)=C2
44,NuBBE,NuBBE_1935,C(C)(C)[C@@H]1[C@H]2[C@H]3C(C)=CC[C@@H]2[C@]3(C)CC1
45,NuBBE,NuBBE_1338,C(C)(C)[C@@H]1c2c(C(C)=CC1)ccc(C)c2
46,NuBBE,NuBBE_1429,C(C)(C)[C@H]1/C=C\C(=C)CC/C=C(/C)\CC1
47,NuBBE,NuBBE_1751,C(C)(C)[C@H]1C=CC(C)=CC1
48,NuBBE,NuBBE_1538,C(C)(C)[C@H]1[C@@H]2[C@H]3C(=C)CC[C@@]23[C@H](C)CC1
49,NuBBE,NuBBE_940,C(C)(C)[C@H]1[C@@H]2[C@H]3C(C)=CC[C@@H]2[C@@]3(C)CC1
50,NuBBE,NuBBE_1083,C(C)(C)[C@H]1[C@@H]2[C@H]3C(C)=CC[C@@]23[C@H](C)CC1
51,NuBBE,NuBBE_1923,C(C)(C)[C@H]1[C@H]2C(=C(C)CC1)CCC(C)=C2
52,NuBBE,NuBBE_1496,C(C)(C)[C@H]1[C@H]2C([C@@H](C)CC1)=CCC(C)=C2
53,NuBBE,NuBBE_1934,C(C)(C)[C@H]1[C@H]2[C@@H](C(C)=CC1)CCC(C)=C2
54,NuBBE,NuBBE_1537,C(C)(C)[C@H]1[C@H]2[C@@](C)([C@@H]3[C@@H]2C(=C)CC3)CC1
55,NuBBE,NuBBE_1339,C(C)(C)[C@H]1c2c(C(=C)CC1)ccc(C)c2
56,NuBBE,NuBBE_1606,C(C)(C)[C@H]1c2c([C@@H](C)CC1)ccc(C)c2
57,NuBBE,NuBBE_1742,C(C)(C)[C@]12OO[C@](C)(C=C1)CC2
58,NuBBE,NuBBE_1739,C(C)(C)[C@]12O[C@H]1[C@H]1[C@](C)(O1)CC2
59,NuBBE,NuBBE_1737,C(C)(C)[C@]12[C@H](C(=C)CC1)C2
60,NuBBE,NuBBE_1738,C(C)(C)[C@]12[C@H](C(C)=CC1)C2
61,NuBBE,NuBBE_1341,C(C)(C)c1c2c(c(C)cc1)ccc(C)c2
62,NuBBE,NuBBE_2294,C(C)(C)c1cc-2c(C)ccc-2c(C)cc1
63,NuBBE,NuBBE_1749,C(C)(C)c1ccc(C)cc1
64,NuBBE,NuBBE_2135,C(C)C1=CCCC1
65,NuBBE,NuBBE_2137,C(C)C1=CCCCC1
66,NuBBE,NuBBE_2127,C(C)C1CCCCC1
67,NuBBE,NuBBE_2365,C(C)[C@@H]1[C@@H]2N(C)CC[C@H]1C(=C)c1[nH]c3c(c21)cccc3
68,NuBBE,NuBBE_1669,C(C)[C@@H]1[C@H]2N3CC[C@H]1C[C@@H]1Nc4c(cccc4)[C@]21CC3
69,NuBBE,NuBBE_1961,C(C)[C@H]1[C@@H]2N(C)CC[C@H]1C(=C)c1[nH]c3c(c21)cccc3
70,NuBBE,NuBBE_2499,C(C)c1c(C)ccc2[C@]3(C)[C@@H](C(C)(C)CCC3)CCc12
71,NuBBE,NuBBE_2498,C(C)c1c(C)ccc2[C@]3(C)[C@H](C(C)(C)C=CC3)CCc12
72,NuBBE,NuBBE_1480,C(C=C)(=C)CC/C=C(/CCC=C(C)C)\C
73,NuBBE,NuBBE_1747,C(C=C)(=C)CCC=C(C)C
74,NuBBE,NuBBE_2139,C(CC)CC1=CCCCC1
75,NuBBE,NuBBE_2129,C(CC)CC1CCCCC1
76,NuBBE,NuBBE_2138,C(CC1=CCCCC1)C
77,NuBBE,NuBBE_2128,C(CC1CCCCC1)C
78,NuBBE,NuBBE_2120,C(CCC)CC
79,NuBBE,NuBBE_2116,C(CCC)CCC
80,NuBBE,NuBBE_2140,C(CCC)CCC1=CCCCC1
81,NuBBE,NuBBE_2136,C(CCC)CCC1CCCC1
82,NuBBE,NuBBE_2133,C(CCC)CCC1CCCCC1
83,NuBBE,NuBBE_2141,C(CCC1=CCCCC1)CC
84,NuBBE,NuBBE_2132,C(CCC1CCCC1)CC
85,NuBBE,NuBBE_2121,C(CCCC)CCC
86,NuBBE,NuBBE_2123,C(CCCC)CCCC
87,NuBBE,NuBBE_2130,C(CCCC)CCCC1CCCC1
88,NuBBE,NuBBE_2115,C(CCCCC)CCCC
89,NuBBE,NuBBE_2119,C(CCCCC)CCCCC
90,NuBBE,NuBBE_2131,C(CCCCC1CCCCC1)CCCC
91,NuBBE,NuBBE_2104,C(CCCCCC)CCCCC
92,NuBBE,NuBBE_2108,C(CCCCCC)CCCCCC
93,NuBBE,NuBBE_2109,C(CCCCCCC)CCCCCC
94,NuBBE,NuBBE_2110,C(CCCCCCC)CCCCCCC
95,NuBBE,NuBBE_2106,C(CCCCCCCC)CCCCCCC
96,NuBBE,NuBBE_1987,C(CCCCCCCC)CCCCCCCC
97,NuBBE,NuBBE_2107,C(CCCCCCCCC)CCCCCCCC
98,NuBBE,NuBBE_1985,C(CCCCCCCCCC)CCCCCCCCC
99,NuBBE,NuBBE_1597,C(CCc1nc2c(cc1)cccc2)CC
