,BD,ID,SMILES
1200,NuBBE,NuBBE_1861,O[C@@H](CCCCc1ccc(O)cc1)CCc1ccc(O)cc1
1201,NuBBE,NuBBE_453,O[C@@H](CO)CCCCCCCCCC[C@H]1N[C@@H](C)[C@@H](O)CC1
1202,NuBBE,NuBBE_210,O[C@@H]([C@H](O)[C@H](O)CO)[C@H](O)CO
1203,NuBBE,NuBBE_2352,O[C@@H]1C(C)(C)[C@@H]2[C@@](C)(c3c(c(C(C)C)c(O)cc3)CC2)CC1
1204,NuBBE,NuBBE_2496,O[C@@H]1C(C)(C)[C@@H]2[C@@](C)(c3c(c(CC)c(C)cc3)CC2)CC1
1205,NuBBE,NuBBE_88,O[C@@H]1C(C)(C)[C@H]2[C@@](C)([C@@H]3C(=CC2)C[C@@](C=C)(C)CC3)CC1
1206,NuBBE,NuBBE_2160,O[C@@H]1CC=2[C@](C)([C@H]3[C@H]([C@H]4[C@](C)([C@@H]([C@@H](/C=C/C(C)C)C)CC4)CC3)CC=2)CC1
1207,NuBBE,NuBBE_2168,O[C@@H]1[C@@H](C)[C@H](C)[C@@](O)(c2cc3OCOc3cc2)c2c3OCOc3ccc12
1208,NuBBE,NuBBE_287,O[C@@H]1[C@@H](c2cc(O)c(O)cc2)Oc2c(c(O)cc(O)c2)C1
1209,NuBBE,NuBBE_925,O[C@@H]1[C@@]2(C)C(C)(C)[C@@H](C1)CC2
1210,NuBBE,NuBBE_2189,O[C@@H]1[C@@]2(O)[C@@H]([C@@]3(C)[C@@H](C(C)(C)CCC3)C1)CC[C@@](C=C)(C)C2
1211,NuBBE,NuBBE_189,O[C@@H]1[C@H](O)C[C@]2(C)[C@H](C1(C)C)CC[C@@]13[C@H]2CC[C@H]([C@@](O)(C)C1)C3
1212,NuBBE,NuBBE_2241,O[C@@H]1[C@]2(C)C(=C(O)C(=C)[C@]34C(C)(C)CCC[C@]23O4)C[C@](C=C)(C)C1
1213,NuBBE,NuBBE_2244,O[C@@H]1[C@]2(C)[C@@H](C[C@](C=C)(C)C1)CC[C@]13C(C)(C)C(=C)CC[C@]21O3
1214,NuBBE,NuBBE_1627,O[C@@](C=C)(CC/C=C(\CCC=C(C)C)/C)C
1215,NuBBE,NuBBE_221,O[C@@](CO)(C)c1c2c(c(C)cc1)cc(O)c(C)c2
1216,NuBBE,NuBBE_2336,O[C@@]1(C)[C@@H]2[C@H]([C@@H](C(C)C)CC1)C=C(C)CC2
1217,NuBBE,NuBBE_1929,O[C@@]1(C)[C@H]2[C@@H]([C@H](C(C)C)CC1)C=C(C)CC2
1218,NuBBE,NuBBE_1931,O[C@@]1(C)[C@H]2[C@@H]([C@H](C)CC2)[C@H]2C(C)(C)[C@H]2CC1
1219,NuBBE,NuBBE_551,O[C@@]1(C)[C@H]2[C@@](C)(CC[C@@H](C(=C)C)C2)CCC1
1220,NuBBE,NuBBE_2334,O[C@@]1(C)[C@H]2[C@@](C)(CC[C@@H](C(=C)C)C2)CCC1
1221,NuBBE,NuBBE_1939,O[C@@]12[C@H](C)CC[C@@H](C(C)C)[C@@H]1C=C(C)CC2
1222,NuBBE,NuBBE_655,O[C@H](C)C1CCC(O)CC1
1223,NuBBE,NuBBE_1775,O[C@H](CC(C)C)CCCC
1224,NuBBE,NuBBE_176,O[C@H](CCCCCCCCCCCC[C@@H]1N[C@H](C)[C@@H](O)CC1)C
1225,NuBBE,NuBBE_171,O[C@H](CCCCCCCCCCCC[C@@H]1N[C@H](C)[C@H](O)CC1)C
1226,NuBBE,NuBBE_308,O[C@H](CCCCCCCCCC[C@@H]1N[C@@H](C)[C@H](O)CC1)C
1227,NuBBE,NuBBE_452,O[C@H](CCCCCCCCCC[C@@H]1N[C@H](C)[C@H](O)CC1)C
1228,NuBBE,NuBBE_456,O[C@H](CCCCCCCCCC[C@H]1N[C@H](C)[C@H](O)CC1)C
1229,NuBBE,NuBBE_1858,O[C@H](CCCCc1ccc(O)cc1)CCc1ccc(O)cc1
1230,NuBBE,NuBBE_1807,O[C@H](CO)C[C@H](CO)C[C@H](O)CCCCCCCCC#C
1231,NuBBE,NuBBE_1806,O[C@H](CO)C[C@H](CO)C[C@H](O)CCCCCCCCC=C
1232,NuBBE,NuBBE_309,O[C@H](CO)c1ccccc1
1233,NuBBE,NuBBE_241,O[C@H]1[C@@H](c2cc(O)c(O)c(O)c2)Oc2c(c(O)cc(O)c2)C1
1234,NuBBE,NuBBE_866,O[C@H]1[C@@H](c2cc(O)c(O)cc2)Oc2c(c(O)cc(O)c2)C1
1235,NuBBE,NuBBE_2287,O[C@H]1[C@@H]2C(=C)C[C@@]3(C([C@]4(C)[C@@H](C(C)(C)CCC4)CC3)=C1)C2
1236,NuBBE,NuBBE_2230,O[C@H]1[C@@H]2[C@]3(C)[C@@H](C(C)(C)CCC3)CC[C@]32CC(=C)[C@H](C1)C3
1237,NuBBE,NuBBE_1986,O[C@H]1[C@@]2(C)C(C)(C)[C@@H](C1)CC2
1238,NuBBE,NuBBE_2232,O[C@H]1[C@@]2(O)[C@@]3(C)[C@H](C(C)(C)CCC3)CC[C@]32CC(=C)[C@@H](C1)C3
1239,NuBBE,NuBBE_1427,O[C@H]1[C@H](C(C)C)CC[C@@]2(C)[C@H](O)CCC(=C)[C@H]12
1240,NuBBE,NuBBE_1660,O[C@H]1[C@H](O)[C@@H]2[C@@](O)(C)c3c(occ3)C[C@H]2[C@@]2(C)[C@@H]1C(C)(C)CCC2
1241,NuBBE,NuBBE_1769,O[C@H]1[C@H]2OCc3c(O)c(O)ccc3[C@H]2Oc2c1ccc(O)c2
1242,NuBBE,NuBBE_1768,O[C@H]1[C@H]2OCc3c([C@H]2Oc2c1ccc(O)c2)cc(O)c(O)c3
1243,NuBBE,NuBBE_1012,O[C@H]1[C@H]2O[C@H]2[C@@H](O)c2c1c(O)ccc2
1244,NuBBE,NuBBE_297,O[C@H]1c2c(O)cccc2O[C@H](C)C1
1245,NuBBE,NuBBE_1380,O[C@](C=C)(CCC=C(C)C)C
1246,NuBBE,NuBBE_1741,O[C@]1(C(C)C)CC=C(C)CC1
1247,NuBBE,NuBBE_1932,O[C@]1(C)[C@@H]2[C@H]([C@@H](C)CC2)[C@@H]2C(C)(C)[C@@H]2CC1
1248,NuBBE,NuBBE_1937,O[C@]1(C)[C@@H]2[C@H]([C@H](C(C)C)CC1)C=C(C)CC2
1249,NuBBE,NuBBE_2333,O[C@]1(C)[C@@H]2[C@H]([C@H](C)CC2)[C@@H]2C(C)(C)[C@@H]2CC1
1250,NuBBE,NuBBE_1941,O[C@]1(C)[C@@H]2[C@H]3[C@H](C(C)C)CC[C@@H](C)[C@@]23CC1
1251,NuBBE,NuBBE_1396,O[C@]1(C)[C@H]2[C@H]3C(C)(C)[C@H]3CCC(=C)[C@@H]2CC1
1252,NuBBE,NuBBE_589,O[C@]1([C@@H](C)[C@H](C)Cc2c1c1OCOc1cc2)c1cc2OCOc2cc1
1253,NuBBE,NuBBE_1948,O[C@]12[C@@H](C)CC[C@H](C(C)C)[C@H]1C=C(C)CC2
1254,NuBBE,NuBBE_2291,O[C@]12[C@@H](C)CC[C@H]3C(C)(C)[C@H]3[C@H]1[C@H](C)CC2
1255,NuBBE,NuBBE_2231,O[C@]12[C@@]3(C)[C@H](C(C)(C)CCC3)CC[C@]31CC(=C)[C@H](C3)CC2
1256,NuBBE,NuBBE_2362,Oc1c(C(C)C)cc2c([C@@]3(C)[C@H](C(C)(C)CCC3)CC2)c1
1257,NuBBE,NuBBE_2028,Oc1c(C(C)C)ccc(C)c1
1258,NuBBE,NuBBE_2082,Oc1c(C)c(O)c(C)cc1CCCc1c(O)cc2OCOc2c1
1259,NuBBE,NuBBE_1685,Oc1c(C)c(O)cc(CCCCCCC/C=C\C/C=C\CC=C)c1
1260,NuBBE,NuBBE_1684,Oc1c(C)c(O)cc(CCCCCCC/C=C\C/C=C\CCC)c1
1261,NuBBE,NuBBE_1683,Oc1c(C)c(O)cc(CCCCCCC/C=C\CCCCCC)c1
1262,NuBBE,NuBBE_1680,Oc1c(C)c(O)cc(CCCCCCCCCCCCCCC)c1
1263,NuBBE,NuBBE_2034,Oc1c(C)c2O[C@H](c3c(O)cc4OCOc4c3)CCc2c(C)c1
1264,NuBBE,NuBBE_2033,Oc1c(C)c2O[C@H](c3c(O)cc4OCOc4c3)CCc2cc1C
1265,NuBBE,NuBBE_10,Oc1c(C)cc2[C@H](C(C)C)CC[C@@H](C)c2c1
1266,NuBBE,NuBBE_2029,Oc1c(C)ccc(C(C)C)c1
1267,NuBBE,NuBBE_34,Oc1c(CC=C(C)C)c(C)cc2O[C@](/C=C/C=C(C)C)(C)CCc12
1268,NuBBE,NuBBE_1844,Oc1c(CCCc2cc3OCOc3cc2)ccc(O)c1
1269,NuBBE,NuBBE_2385,Oc1c(O)c2[C@@H]3[C@H](C(C)(C)CCC3)CCc2cc1C(C)C
1270,NuBBE,NuBBE_2504,Oc1c(O)c2c([C@H]3OC[C@]42[C@H](C(C)(C)CCC4)C3)cc1C(C)C
1271,NuBBE,NuBBE_2373,Oc1c(O)c2c(cc1C(C)C)CC[C@H]1C(C)(C)CCC=C1C2
1272,NuBBE,NuBBE_2376,Oc1c(O)c2c(cc1C(C)C)CC[C@H]1C(C)(C)CCC[C@@H]1C2
1273,NuBBE,NuBBE_1855,Oc1c(O)ccc(/C=C/c2cc(O)cc(O)c2)c1
1274,NuBBE,NuBBE_70,Oc1c(O)ccc([C@@](C=C)(CC/C=C(/CCC=C(C)C)\C)C)c1
1275,NuBBE,NuBBE_1011,Oc1c2c(O)cccc2ccc1
1276,NuBBE,NuBBE_33,Oc1c2c(c(CC=C(C)C)c(C)c1)O[C@](/C=C/C=C(C)C)(C)CC2
1277,NuBBE,NuBBE_1686,Oc1cc(CCCCCCC/C=C\C/C=C\CC=C)ccc1
1278,NuBBE,NuBBE_1682,Oc1cc(CCCCCCC/C=C\C/C=C\CCC)ccc1
1279,NuBBE,NuBBE_1677,Oc1cc(CCCCCCC/C=C\CCCCCC)ccc1
1280,NuBBE,NuBBE_1676,Oc1cc(CCCCCCCCCCCCCCC)ccc1
1281,NuBBE,NuBBE_668,Oc1cc(O)cc(C)c1
1282,NuBBE,NuBBE_1688,Oc1cc(O)cc(CCCCCCC/C=C/C/C=C\CCC)c1
1283,NuBBE,NuBBE_1687,Oc1cc(O)cc(CCCCCCC/C=C\C/C=C\CC=C)c1
1284,NuBBE,NuBBE_1681,Oc1cc(O)cc(CCCCCCC/C=C\CCCCCC)c1
1285,NuBBE,NuBBE_1678,Oc1cc(O)cc(CCCCCCCCCCCCCCC)c1
1286,NuBBE,NuBBE_2510,Oc1cc2OC[C@@H]3[C@H](Oc4c3cc3OCOc3c4)c2cc1
1287,NuBBE,NuBBE_2508,Oc1cc2OC[C@H]3[C@@H](Oc4c3cc3OCOc3c4)c2cc1
1288,NuBBE,NuBBE_1647,Oc1cc2[C@@H]([C@@H](C)[C@H](C)Cc2cc1)c1ccc(O)cc1
1289,NuBBE,NuBBE_1860,Oc1ccc(CC[C@@H]2O[C@H](c3ccc(O)cc3)CCC2)cc1
1290,NuBBE,NuBBE_1857,Oc1ccc(CC[C@H]2O[C@@H](c3ccc(O)cc3)CCC2)cc1
1291,NuBBE,NuBBE_323,S(=O)(=O)(/C=C/COC(=O)/C=C/c1ccccc1)C
1292,NuBBE,NuBBE_340,S(=O)(=O)(C)c1cc2N(CC[C@H]3N(C)CCCC3)c3c(Sc2cc1)cccc3
1293,NuBBE,NuBBE_1506,S(C)[C@@H]1C(=O)N[C@](SC)(Cc2ccc(OCC=C(C)C)cc2)C(=O)N1
1294,NuBBE,NuBBE_1401,S(C)[C@@H]1N(C)C(=O)[C@@](SC)(Cc2ccc(OCC=C(C)C)cc2)N(C)C1=O
1295,NuBBE,NuBBE_906,S(C)[C@@]1(CO)N(C)C(=O)[C@@H]2N(C1=O)c1c(O)cccc1C2
1296,NuBBE,NuBBE_909,S(C)[C@@]1(CO)N(C)C(=O)[C@@]2(SC)N(C1=O)[C@@H]1[C@@H](O)C=CC=C1C2
1297,NuBBE,NuBBE_911,S(C)[C@H]1N(C)C(=O)/C(=C/c2ccc(OCC=C(C)C)cc2)/N(C)C1=O
1298,NuBBE,NuBBE_1510,S(C)[C@H]1N(C)C(=O)[C@@](SC)(Cc2ccc(OCC=C(C)C)cc2)N(C)C1=O
1299,NuBBE,NuBBE_1129,S(C)c1cc2N(CC[C@@H]3N(C)CCCC3)c3c([S@@H0](=O)c2cc1)cccc3
