,BD,ID,SMILES
400,NuBBE,NuBBE_1657,O(C)c1c(OC)ccc([C@@H]2[C@@H](C)[C@H](C)Cc3c2cc(OC)c(OC)c3)c1
401,NuBBE,NuBBE_1574,O(C)c1c(OC)ccc([C@@H]2[C@@H](C)[C@H](C)Cc3c2cc2OCOc2c3)c1
402,NuBBE,NuBBE_262,O(C)c1c(OC)ccc([C@@H]2[C@@H](C)[C@]3(CC=C)C(=O)[C@H]2C(=O)C(OC)=C3)c1
403,NuBBE,NuBBE_263,O(C)c1c(OC)ccc([C@@H]2[C@@H](C)[C@]3(CC=C)[C@@H](O)[C@H]2C(=O)C(OC)=C3)c1
404,NuBBE,NuBBE_2040,O(C)c1c(OC)ccc([C@@H]2[C@H](C)[C@@]3(CC=C)C(O2)=CC(=O)C(OC)=C3)c1
405,NuBBE,NuBBE_1668,O(C)c1c(OC)ccc([C@H](O)[C@H]([C@H](Cc2cc(OC)c(OC)cc2)C)C)c1
406,NuBBE,NuBBE_2467,O(C)c1c(OC)ccc([C@H]2OC[C@@H]3[C@@H](c4cc(OC)c(O)cc4)OC[C@H]23)c1
407,NuBBE,NuBBE_1327,O(C)c1c(OC)ccc([C@H]2Oc3c(C(=O)C2)ccc2OC(C)(C)C=Cc32)c1
408,NuBBE,NuBBE_68,O(C)c1c(OC)ccc([C@H]2Oc3c(c(O)cc(OC)c3)C(=O)C2)c1
409,NuBBE,NuBBE_1101,O(C)c1c(OC)ccc2C(=O)c3c(N(C)c12)occ3
410,NuBBE,NuBBE_1815,O(C)c1c(OC)ccc2[C@@H]3Oc4c(C(=O)[C@@H]3OCc12)ccc(OC)c4
411,NuBBE,NuBBE_599,O(C)c1c(OC)ccc2c(OC)c3c(occ3)nc12
412,NuBBE,NuBBE_942,O(C)c1c(OC)ccc2c1N(C)C(=O)C1=C2OC(C)(C)C=C1
413,NuBBE,NuBBE_212,O(C)c1c(O[C@H]2[C@H](O)[C@@H](O)[C@H](O)[C@@H](CO)O2)c(OC)cc(/C=C/CO)c1
414,NuBBE,NuBBE_2186,O(C)c1c([C@@H](Cc2cc3OCOc3cc2)C)cc(CC=C)c(O)c1
415,NuBBE,NuBBE_515,O(C)c1c([C@@H](O)CN)cc(OC)cc1
416,NuBBE,NuBBE_931,O(C)c1c([C@H](O)[C@@H](O)C(=C)C)c2OC(=O)C=Cc2cc1
417,NuBBE,NuBBE_930,O(C)c1c([C@H](O)[C@H](O)C(=C)C)c2OC(=O)C=Cc2cc1
418,NuBBE,NuBBE_2401,O(C)c1c([C@H]2COc3c(ccc(O)c3)C2)ccc(OC)c1
419,NuBBE,NuBBE_661,O(C)c1c([C@H]2[C@H](C(C)C)O2)c2OC(=O)C=Cc2cc1
420,NuBBE,NuBBE_2436,O(C)c1c2-c3c4OCOc4cc4c3[C@H](N(C)CC4)Cc2ccc1
421,NuBBE,NuBBE_2227,O(C)c1c2-c3c4c(cc5OCOc35)ccnc4C(=O)c2ccc1
422,NuBBE,NuBBE_2255,O(C)c1c2C(=O)C(OC)=C(c3ccccc3)Oc2cc(OC)c1
423,NuBBE,NuBBE_294,O(C)c1c2C(=O)C=C(C)Oc2ccc1
424,NuBBE,NuBBE_1305,O(C)c1c2C(=O)C=C(c3cc4OCOc4cc3)Oc2cc(OC)c1
425,NuBBE,NuBBE_296,O(C)c1c2C(=O)C[C@@H](C)Oc2ccc1
426,NuBBE,NuBBE_2432,O(C)c1c2C(=O)C[C@@H](c3ccccc3)Oc2cc(OC)c1
427,NuBBE,NuBBE_672,O(C)c1c2C(=O)O[C@@H](C)Cc2ccc1
428,NuBBE,NuBBE_267,O(C)c1c2C(=O)[C@@]3([C@H](C)CC(=O)C=C3OC)Oc2cc(OC)c1
429,NuBBE,NuBBE_2434,O(C)c1c2C(=O)[C@H](O)[C@@H](c3ccccc3)Oc2cc(OC)c1
430,NuBBE,NuBBE_2486,O(C)c1c2C(=O)[C@H]3OCc4c(O)c(O)ccc4[C@H]3Oc2cc(O)c1
431,NuBBE,NuBBE_2485,O(C)c1c2C(=O)[C@H]3OCc4c([C@H]3Oc2cc(O)c1)cc(O)c(O)c4
432,NuBBE,NuBBE_1481,O(C)c1c2C(=O)c3c(N(C)c2c2c(OC(C)(C)C=C2)c1)cccc3
433,NuBBE,NuBBE_1720,O(C)c1c2C(=O)c3c(Oc2c2c(OC(C)(C)C=C2)c1)cc(O)c(O)c3
434,NuBBE,NuBBE_1955,O(C)c1c2N(C)C(=O)C(C[C@@H](O)C(=C)C)=C(OC)c2ccc1
435,NuBBE,NuBBE_1437,O(C)c1c2N(C)C(=O)C=C(OC)c2ccc1
436,NuBBE,NuBBE_1957,O(C)c1c2N(C)C=3O[C@@H](C(=C)C)CC=3C(=O)c2ccc1
437,NuBBE,NuBBE_1079,O(C)c1c2N(C)c3c(O)cccc3C(=O)c2c(O)c2c1OC(C)(C)C=C2
438,NuBBE,NuBBE_1080,O(C)c1c2N(C)c3c(O)cccc3C(=O)c2c(O)c2c1O[C@H](C(O)(C)C)C2
439,NuBBE,NuBBE_1477,O(C)c1c2N(C)c3c(O)cccc3C(=O)c2cc2c1OC(C)(C)C=C2
440,NuBBE,NuBBE_1956,O(C)c1c2NC(=O)C(C[C@H](O)C(=C)C)=C(OC)c2ccc1
441,NuBBE,NuBBE_1345,O(C)c1c2NC(=O)C3=C(OC(C)(C)C=C3)c2ccc1
442,NuBBE,NuBBE_941,O(C)c1c2NC(=O)C=3[C@H](O)[C@@H](O)C(C)(C)OC=3c2ccc1
443,NuBBE,NuBBE_2438,O(C)c1c2OC(=O)C=Cc2cc2c1OC(C)(C)C=C2
444,NuBBE,NuBBE_1285,O(C)c1c2OC(=O)C=Cc2cc2c1O[C@H](C(O)(C)C)C2
445,NuBBE,NuBBE_1322,O(C)c1c2OC(C)(C)C=Cc2c2O[C@H](c3ccccc3)CC(=O)c2c1
446,NuBBE,NuBBE_2341,O(C)c1c2OCOc2cc([C@@H]2[C@@H](C)C=3C(O2)=CC(=O)[C@@](OC)(CC=C)C=3)c1
447,NuBBE,NuBBE_2340,O(C)c1c2OCOc2cc([C@@H]2[C@H](C)[C@@]3(CC=C)C(O2)=CC(=O)C(OC)=C3)c1
448,NuBBE,NuBBE_2481,O(C)c1c2OCOc2cc([C@H]2[C@@H](C)C=3C(O2)=CC(=O)[C@@](OC)(CC=C)C=3)c1
449,NuBBE,NuBBE_2483,O(C)c1c2OCOc2cc([C@H]2[C@@H](C)[C@]3(CC=C)C(O2)=CC(=O)C(OC)=C3)c1
450,NuBBE,NuBBE_2098,O(C)c1c2OCOc2cc([C@H]2[C@@H](C)[C@]3(CC=C)[C@](O)(C(=O)C=CC3)O2)c1
451,NuBBE,NuBBE_1959,O(C)c1c2OCOc2cc([C@H]2[C@H](C)[C@H]3[C@H](O)C(=O)C[C@]2(CC=C)[C@@H]3O)c1
452,NuBBE,NuBBE_2009,O(C)c1c2O[C@H](C)[C@@H](c3cc4OCOc4cc3)Oc2cc(CC=C)c1
453,NuBBE,NuBBE_1672,O(C)c1c2O[C@H]([C@H](C)c2cc(/C=C/C)c1)c1cc2OCOc2cc1
454,NuBBE,NuBBE_1911,O(C)c1c2Oc3c(C(=O)c2cc2OCOc12)cccc3
455,NuBBE,NuBBE_907,O(C)c1c2c(OC(=O)C=C2)cc(OC)c1
456,NuBBE,NuBBE_1193,O(C)c1c2c(OC(=O)C=C2)cc2OC(C)(C)C=Cc12
457,NuBBE,NuBBE_1776,O(C)c1c2c(O[C@H](c3cc(O)c(O)cc3)CC2)cc(OC)c1
458,NuBBE,NuBBE_1435,O(C)c1c2c(c(CC=C(C)C)c(OC)cc2)nc2occc12
459,NuBBE,NuBBE_2214,O(C)c1c2c(c(O)cc1)C(=O)O[C@H](C)C2
460,NuBBE,NuBBE_601,O(C)c1c2c(c(OC)c3OCOc3c2)nc2occc12
461,NuBBE,NuBBE_965,O(C)c1c2c(c(OC)cc(OC)c2)nc2occc12
462,NuBBE,NuBBE_937,O(C)c1c2c(c(OC)ccc2)nc2occc12
463,NuBBE,NuBBE_935,O(C)c1c2c(nc3O[C@H](C(O)(C)C)[C@@H](O)c13)cccc2
464,NuBBE,NuBBE_1065,O(C)c1c2c(nc3occc13)cc(OC)c(O)c2
465,NuBBE,NuBBE_598,O(C)c1c2c(nc3occc13)cc(OC)c(OC)c2
466,NuBBE,NuBBE_600,O(C)c1c2c(nc3occc13)cc1OCOc1c2
467,NuBBE,NuBBE_1118,O(C)c1c2c(oc(C(O)(C)C)c2)nc2c1cccc2
468,NuBBE,NuBBE_663,O(C)c1c2c(occ2)cc2OC(=O)C=Cc12
469,NuBBE,NuBBE_1439,O(C)c1c2c(occ2)nc2[C@](OC)(CC=C(C)C)[C@H](O)CCc12
470,NuBBE,NuBBE_964,O(C)c1c2c(occ2)nc2c1ccc(OC)c2
471,NuBBE,NuBBE_1436,O(C)c1c2c(occ2)nc2c1ccc1OCOc21
472,NuBBE,NuBBE_1433,O(C)c1c2c(occ2)nc2c1ccc1c2OC(C)(C)C=C1
473,NuBBE,NuBBE_936,O(C)c1c2c(occ2)nc2c1cccc2
474,NuBBE,NuBBE_259,O(C)c1c2oc(-c3cc4OCOc4cc3)cc2cc(CCCO)c1
475,NuBBE,NuBBE_410,O(C)c1c2oc(-c3cc4OCOc4cc3)cc2cc(CCCO)c1
476,NuBBE,NuBBE_1280,O(C)c1c2occc2c(OC)c2c1OC(=O)C=C2
477,NuBBE,NuBBE_1615,O(C)c1c2occc2c2OC(=O)C(OC)=Cc2c1
478,NuBBE,NuBBE_1617,O(C)c1c2occc2c2OC(=O)C=Cc2c1
479,NuBBE,NuBBE_1069,O(C)c1c2occc2cc2c1OC(=O)C=C2
480,NuBBE,NuBBE_1372,O(C)c1cc(C)c2C(OC)=CC(=O)Oc2c1
481,NuBBE,NuBBE_1559,O(C)c1cc(O)c(C=2C(=O)c3c(O)cc(O)cc3OC=2)cc1
482,NuBBE,NuBBE_1073,O(C)c1cc(O)c(CCCc2cc3OCOc3cc2)cc1
483,NuBBE,NuBBE_1556,O(C)c1cc(O)c(C[C@@H](O)Cc2cc3OCOc3cc2)cc1
484,NuBBE,NuBBE_2413,O(C)c1cc(O)c([C@@H]2COc3c(ccc(O)c3)C2)cc1
485,NuBBE,NuBBE_2275,O(C)c1cc(O)c2C(=O)C(O)=C(c3ccc(O)cc3)Oc2c1
486,NuBBE,NuBBE_2430,O(C)c1cc(O)c2C(=O)C(O)=C(c3ccccc3)Oc2c1
487,NuBBE,NuBBE_1225,O(C)c1cc(O)c2C(=O)C(OC)=C(c3ccc(OC)cc3)Oc2c1
488,NuBBE,NuBBE_293,O(C)c1cc(O)c2C(=O)C[C@@H](c3ccc(O)cc3)Oc2c1
489,NuBBE,NuBBE_2431,O(C)c1cc(O)c2C(=O)C[C@@H](c3ccccc3)Oc2c1
490,NuBBE,NuBBE_405,O(C)c1cc(O)c2C(=O)OC(C)=Cc2c1
491,NuBBE,NuBBE_1963,O(C)c1cc(O)c2C(=O)c3c(C)cc(OC)cc3Oc2c1
492,NuBBE,NuBBE_1094,O(C)c1cc(O)c2C(=O)c3c(N(C)c2c1)cccc3
493,NuBBE,NuBBE_2087,O(C)c1cc(O)c2C(=O)c3c(O)cc(C)cc3C(=O)c2c1
494,NuBBE,NuBBE_1400,O(C)c1cc2C(=O)C=C3N(c2cc1)C[C@@H](CC/C=C\CC)CC3
495,NuBBE,NuBBE_1713,O(C)c1cc2C(=O)c3c(O)cccc3Oc2cc1
496,NuBBE,NuBBE_1240,O(C)c1cc2N(C)C(c3ccccc3)=CC(=O)c2cc1
497,NuBBE,NuBBE_177,O(C)c1cc2OC(c3ccc(OC)cc3)=CC(=O)c2cc1
498,NuBBE,NuBBE_1046,O(C)c1cc2OC(c3ccccc3)=CC(=O)c2cc1
499,NuBBE,NuBBE_2402,O(C)c1cc2OCc3c4c(oc3-c2cc1)cc1OCOc1c4
