,Name,ID Database,SMILES
400,Chlorzoxazone,Chlorzoxazone,Clc1ccc2c(c1)[nH]c(=O)o2
401,Cholecalciferol,Cholecalciferol,CC(CCCC(C1CCC2C1(C)CCCC2=CC=C1CC(O)CCC1=C)C)C
402,Cholesterol,Cholesterol,CC(CCCC(C1CCC2C1(C)CCC1C2CC=C2C1(C)CCC(C2)O)C)C
403,Choline,Choline,C[N+](C)(C)CCO
404,Chromium gluconate,Chromium gluconate,OCC(C(C(C(C(=O)O)O)O)O)O
405,Chromium nicotinate,Chromium nicotinate,OC(=O)c1cccnc1
406,Cianidanol,Cianidanol,Oc1cc2OC(c3ccc(c(c3)O)O)C(Cc2c(c1)O)O
407,Ciclesonide,Ciclesonide,O=C(C(C)C)OCC(=O)C12OC(OC1CC1C2(C)CC(O)C2C1CCC1=CC(=O)C=CC21C)C1CCCCC1
408,Ciclopirox,Ciclopirox,Cc1cc(C2CCCCC2)n(c(=O)c1)O
409,Ciclosporin,Ciclosporin,CC=CCC(C(C1C(=O)NC(CC)C(=O)N(C)CC(=O)N(C)C(CC(C)C)C(=O)NC(C(C)C)C(=O)N(C)C(CC(C)C)C(=O)NC(C(=O)NC(C(=O)N(C(C(=O)N(C(C(=O)N(C(C(=O)N1C)C(C)C)C)CC(C)C)C)CC(C)C)C)C)C)O)C
410,Cidofovir,Cidofovir,OCC(Cn1ccc(nc1=O)N)OCP(=O)(O)O
411,Cilastatin,Cilastatin,OC(=O)C(CSCCCCC=C(C(=O)O)NC(=O)C1CC1(C)C)N
412,Cilazapril,Cilazapril,CCOC(=O)C(NC1CCCN2N(C1=O)C(CCC2)C(=O)O)CCc1ccccc1
413,Cilostazol,Cilostazol,O=C1CCc2c(N1)ccc(c2)OCCCCc1nnnn1C1CCCCC1
414,Cimetidine,Cimetidine,N#CN=C(NCCSCc1nc[nH]c1C)NC
415,Cinacalcet,Cinacalcet,CC(c1cccc2c1cccc2)NCCCc1cccc(c1)C(F)(F)F
416,Cinchocaine,Cinchocaine,CCCCOc1nc2ccccc2c(c1)C(=O)NCCN(CC)CC
417,Cinnamaldehyde,Cinnamaldehyde,O=CC=Cc1ccccc1
418,Cinnamyl alcohol,Cinnamyl alcohol,OCC=Cc1ccccc1
419,Cinnarizine,Cinnarizine,c1ccc(cc1)C=CCN1CCN(CC1)C(c1ccccc1)c1ccccc1
420,Cinoxacin,Cinoxacin,CCn1nc(C(=O)O)c(=O)c2c1cc1OCOc1c2
421,Ciprofibrate,Ciprofibrate,OC(=O)C(Oc1ccc(cc1)C1CC1(Cl)Cl)(C)C
422,Ciprofloxacin,Ciprofloxacin,Fc1cc2c(cc1N1CCNCC1)n(cc(c2=O)C(=O)O)C1CC1
423,Cisapride,Cisapride,COC1CN(CCCOc2ccc(cc2)F)CCC1NC(=O)c1cc(Cl)c(cc1OC)N
424,Citalopram,Citalopram,N#Cc1ccc2c(c1)COC2(CCCN(C)C)c1ccc(cc1)F
425,Citicoline,Citicoline,C[N+](C)(C)CCOP([O-])(=O)OP(O)(=O)OC[C@H]1O[C@H]([C@H](O)[C@@H]1O)N1C=CC(N)=NC1=O
426,Citric acid,Citric acid,OC(=O)C(CC(=O)O)(CC(=O)O)O
427,Cladribine,Cladribine,OCC1OC(CC1O)n1cnc2c1nc(Cl)nc2N
428,Clarithromycin,Clarithromycin,CCC1OC(=O)C(C)C(OC2CC(C)(OC)C(C(O2)C)O)C(C)C(OC2OC(C)CC(C2O)N(C)C)C(CC(C(=O)C(C(C1(C)O)O)C)C)(C)OC
429,Clavulanic acid,Clavulanic acid,OC(=O)C1N2C(OC1=CCO)CC2=O
430,Clemastine,Clemastine,Clc1ccc(cc1)C(c1ccccc1)(OCCC1CCCN1C)C
431,Clenbuterol,Clenbuterol,OC(c1cc(Cl)c(c(c1)Cl)N)CNC(C)(C)C
432,Clevidipine,Clevidipine,CCCC(=O)OCOC(=O)C1=C(C)NC(=C(C1c1cccc(c1Cl)Cl)C(=O)OC)C
433,Clidinium,Clidinium,C[N@@+]12CC[C@@H](CC1)C(C2)OC(=O)C(O)(C1=CC=CC=C1)C1=CC=CC=C1
434,Clindamycin,Clindamycin,CCCC1CN(C(C1)C(=O)NC(C1OC(SC)C(C(C1O)O)O)C(Cl)C)C
435,Clioquinol,Clioquinol,Ic1cc(Cl)c2c(c1O)nccc2
436,Clobazam,Clobazam,Clc1ccc2c(c1)N(C(=O)CC(=O)N2C)c1ccccc1
437,Clobetasol,Clobetasol,ClCC(=O)C1(O)C(C)CC2C1(C)CC(O)C1(C2CCC2=CC(=O)C=CC12C)F
438,Clobetasol propionate,Clobetasol propionate,CCC(=O)OC1(C(C)CC2C1(C)CC(O)C1(C2CCC2=CC(=O)C=CC12C)F)C(=O)CCl
439,Clobetasone,Clobetasone,ClCC(=O)C1(O)C(C)CC2C1(C)CC(=O)C1(C2CCC2=CC(=O)C=CC12C)F
440,Clocortolone,Clocortolone,OCC(=O)C1C(C)CC2C1(C)CC(O)C1(C2CC(C2=CC(=O)C=CC12C)F)Cl
441,Clodronic acid,Clodronic acid,ClC(P(=O)(O)O)(P(=O)(O)O)Cl
442,Clofarabine,Clofarabine,OCC1OC(C(C1O)F)n1cnc2c1nc(Cl)nc2N
443,Clofazimine,Clofazimine,Clc1ccc(cc1)Nc1cc2nc3ccccc3n(c2cc1=NC(C)C)c1ccc(cc1)Cl
444,Clofedanol,Clofedanol,CN(CCC(c1ccccc1Cl)(c1ccccc1)O)C
445,Clofibrate,Clofibrate,CCOC(=O)C(Oc1ccc(cc1)Cl)(C)C
446,Clomifene,Clomifene,CCN(CCOc1ccc(cc1)C(=C(c1ccccc1)Cl)c1ccccc1)CC
447,Clomipramine,Clomipramine,CN(CCCN1c2ccccc2CCc2c1cc(Cl)cc2)C
448,Clonazepam,Clonazepam,[O-][N+](=O)C1=CC2=C(NC(=O)CN=C2C2=CC=CC=C2Cl)C=C1
449,Clonidine,Clonidine,Clc1cccc(c1NC1=NCCN1)Cl
450,Clopidogrel,Clopidogrel,COC(=O)C(c1ccccc1Cl)N1CCc2c(C1)ccs2
451,Clorazepic acid,Clorazepic acid,OC(=O)C1N=C(c2ccccc2)c2c(NC1=O)ccc(c2)Cl
452,Clothiapine,Clothiapine,CN1CCN(CC1)C1=Nc2ccccc2Sc2c1cc(Cl)cc2
453,Clotiazepam,Clotiazepam,CCc1sc2c(c1)C(=NCC(=O)N2C)c1ccccc1Cl
454,Clotrimazole,Clotrimazole,Clc1ccccc1C(n1cncc1)(c1ccccc1)c1ccccc1
455,Cloxacillin,Cloxacillin,OC(=O)C1N2C(=O)C(C2SC1(C)C)NC(=O)c1c(C)onc1c1ccccc1Cl
456,Clozapine,Clozapine,CN1CCN(CC1)C1=Nc2cc(Cl)ccc2Nc2c1cccc2
457,Cobicistat,Cobicistat,O=C(NC(Cc1ccccc1)CCC(Cc1ccccc1)NC(=O)C(NC(=O)N(Cc1csc(n1)C(C)C)C)CCN1CCOCC1)OCc1cncs1
458,Cobimetinib,Cobimetinib,Ic1ccc(c(c1)F)Nc1c(ccc(c1F)F)C(=O)N1CC(C1)(O)C1CCCCN1
459,Cocaine,Cocaine,COC(=O)C1C(CC2N(C1CC2)C)OC(=O)c1ccccc1
460,Cocarboxylase,Cocarboxylase,CC1=C(CCO[P@](O)(=O)O[P@](O)([O-])=O)SC=[N+]1CC1=CN=C(C)N=C1N
461,Codeine,Codeine,COc1ccc2c3c1OC1C43CCN(C(C2)C4C=CC1O)C
462,Coenzyme M,Coenzyme M,SCCS(=O)(=O)O
463,Colchicine,Colchicine,COc1c(OC)cc2c(c1OC)c1ccc(c(=O)cc1C(CC2)NC(=O)C)OC
464,Colistimethate,Colistimethate,CCC(CCCCC(=O)NC(C(=O)NC(C(=O)NC(C(=O)NC1CCNC(=O)C(NC(=O)C(CCNCS(=O)(=O)O)NC(=O)C(NC(=O)C(NC(=O)C(NC(=O)C(NC1=O)CCNCS(=O)(=O)O)CC(C)C)CC(C)C)CCNCS(=O)(=O)O)C(O)C)CCNCS(=O)(=O)O)C(O)C)CCNCS(=O)(=O)O)C
465,Colistin,Colistin,NCCC(C(=NC1CCN=C(O)C(N=C(O)C(CCN)N=C(O)C(N=C(C(N=C(C(N=C(C(N=C1O)CCN)O)CC(C)C)O)CC(C)C)O)CCN)C(O)C)O)N=C(C(C(O)C)N=C(C(N=C(CCCC(CC)C)O)CCN)O)O
466,Corticorelin ovine triflutate,Corticorelin ovine triflutate,NCCCCC(C(=O)NC(C(=O)NC(C(=O)NC(C(=O)NC(C(=O)NC(C(=O)NC(C(=O)NC(C(=O)NC(C(=O)NC(C(=O)NC(C(=O)NC(C(=O)NC(C(=O)NC(C(=O)NC(C(=O)NC(C(=O)NC(C(=O)NC(C(=O)NC(C(=O)N)C)C(CC)C)CC(=O)O)CC(C)C)CC(C)C)CCCCN)CCCNC(=N)N)CC(=O)N)CO)Cc1[nH]cnc1)C)CCC(=O)N)CCC(=O)N)C)CC(C)C)CCC(=O)N)CC(=O)O)C)NC(=O)C(C(O)C)NC(=O)C(NC(=O)C(NC(=O)C(NC(=O)C(C(C)C)NC(=O)C(NC(=O)C(NC(=O)C(NC(=O)C(NC(=O)C(NC(=O)C(NC(=O)C(C(O)C)NC(=O)C(NC(=O)C(NC(=O)C(NC(=O)C(NC(=O)C(C(CC)C)NC(=O)C1CCCN1C(=O)C1CCCN1C(=O)C(NC(=O)C(NC(=O)C(CO)N)CCC(=O)N)CCC(=O)O)CO)CC(C)C)CC(=O)O)CC(C)C)Cc1ccccc1)Cc1[nH]cnc1)CC(C)C)CC(C)C)CCCNC(=N)N)CCC(=O)O)CC(C)C)CCC(=O)O)CCSC
467,Cortisone acetate,Cortisone acetate,CC(=O)OCC(=O)C1(O)CCC2C1(C)CC(=O)C1C2CCC2=CC(=O)CCC12C
468,Creatine,Creatine,OC(=O)CN(C(=N)N)C
469,Crizotinib,Crizotinib,Nc1ncc(cc1OC(c1c(Cl)ccc(c1Cl)F)C)c1cnn(c1)C1CCNCC1
470,Cromoglicic acid,Cromoglicic acid,OC(COc1cccc2c1c(=O)cc(o2)C(=O)O)COc1cccc2c1c(=O)cc(o2)C(=O)O
471,Crotamiton,Crotamiton,CC=CC(=O)N(c1ccccc1C)CC
472,Curcumin,Curcumin,COc1cc(C=CC(=O)CC(=O)C=Cc2ccc(c(c2)OC)O)ccc1O
473,Cyclacillin,Cyclacillin,OC(=O)C1N2C(=O)C(C2SC1(C)C)NC(=O)C1(N)CCCCC1
474,Cyclandelate,Cyclandelate,CC1CC(OC(=O)C(c2ccccc2)O)CC(C1)(C)C
475,Cyclizine,Cyclizine,CN1CCN(CC1)C(c1ccccc1)c1ccccc1
476,Cyclobenzaprine,Cyclobenzaprine,CN(CCC=C1c2ccccc2C=Cc2c1cccc2)C
477,Cycloguanil,Cycloguanil,Clc1ccc(cc1)N1C(=NC(=NC1(C)C)N)N
478,Cyclopenthiazide,Cyclopenthiazide,Clc1cc2NC(CC3CCCC3)NS(=O)(=O)c2cc1S(=O)(=O)N
479,Cyclopentolate,Cyclopentolate,CN(CCOC(=O)C(C1(O)CCCC1)c1ccccc1)C
480,Cyclophosphamide,Cyclophosphamide,ClCCN(P1(=O)NCCCO1)CCCl
481,Cycloserine,Cycloserine,NC1CONC1=O
482,Cyclothiazide,Cyclothiazide,Clc1cc2NC(NS(=O)(=O)c2cc1S(=O)(=O)N)C1CC2CC1C=C2
483,Cycrimine,Cycrimine,OC(c1ccccc1)(C1CCCC1)CCN1CCCCC1
484,Cyproheptadine,Cyproheptadine,CN1CCC(=C2c3ccccc3C=Cc3c2cccc3)CC1
485,Cyproterone acetate,Cyproterone acetate,CC(=O)OC1(CCC2C1(C)CCC1C2C=C(C2=CC(=O)C3C(C12C)C3)Cl)C(=O)C
486,Cysteamine,Cysteamine,NCCS
487,Cystine,Cystine,NC(C(=O)O)CSSCC(C(=O)O)N
488,Cytarabine,Cytarabine,OCC1OC(C(C1O)O)n1ccc(nc1=O)N
489,D-Methionine,D-Methionine,CSCCC(C(=O)O)N
490,D-Serine,D-Serine,OCC(C(=O)O)N
491,D-alpha-Tocopherol acetate,D-alpha-Tocopherol acetate,CC(CCCC1(C)CCc2c(O1)c(C)c(c(c2C)OC(=O)C)C)CCCC(CCCC(C)C)C
492,D-glucose,D-glucose,OCC(C(C(C(C=O)O)O)O)O
493,DL-Methylephedrine,DL-Methylephedrine,OC(C(N(C)C)C)c1ccccc1
494,DL-alpha-Tocopherol,DL-alpha-Tocopherol,CC(CCCC1(C)CCc2c(O1)c(C)c(c(c2C)O)C)CCCC(CCCC(C)C)C
495,Dabigatran etexilate,Dabigatran etexilate,CCCCCCOC(=O)N=C(c1ccc(cc1)NCc1nc2c(n1C)ccc(c2)C(=O)N(c1ccccn1)CCC(=O)OCC)N
496,Dabrafenib,Dabrafenib,Nc1nccc(n1)c1sc(nc1c1cccc(c1F)NS(=O)(=O)c1c(F)cccc1F)C(C)(C)C
497,Dacarbazine,Dacarbazine,CN(N=Nc1[nH]cnc1C(=O)N)C
498,Daclatasvir,Daclatasvir,COC(=O)NC(C(=O)N1CCCC1c1ncc([nH]1)c1ccc(cc1)c1ccc(cc1)c1cnc([nH]1)C1CCCN1C(=O)C(C(C)C)NC(=O)OC)C(C)C
499,Dacomitinib,Dacomitinib,COc1cc2ncnc(c2cc1NC(=O)C=CCN1CCCCC1)Nc1ccc(c(c1)Cl)F
