,Name,ID Database,SMILES
100,Amisulpride,Amisulpride,CCN1CCCC1CNC(=O)c1cc(c(cc1OC)N)S(=O)(=O)CC
101,Amitriptyline,Amitriptyline,CN(CCC=C1c2ccccc2CCc2c1cccc2)C
102,Amlexanox,Amlexanox,CC(c1ccc2c(c1)c(=O)c1c(o2)nc(c(c1)C(=O)O)N)C
103,Amlodipine,Amlodipine,NCCOCC1=C(C(=O)OCC)C(C(=C(N1)C)C(=O)OC)c1ccccc1Cl
104,Ammonium lactate,Ammonium lactate,OC(=O)C(O)C
105,Amobarbital,Amobarbital,CCC1(CCC(C)C)C(=O)NC(=O)NC1=O
106,Amodiaquine,Amodiaquine,CCN(Cc1cc(ccc1O)Nc1ccnc2c1ccc(c2)Cl)CC
107,Amorolfine,Amorolfine,CCC(c1ccc(cc1)CC(CN1CC(C)OC(C1)C)C)(C)C
108,Amoxapine,Amoxapine,Clc1ccc2c(c1)C(=Nc1c(O2)cccc1)N1CCNCC1
109,Amoxicillin,Amoxicillin,O=C(C(c1ccc(cc1)O)N)NC1C(=O)N2C1SC(C2C(=O)O)(C)C
110,Amphetamine,Amphetamine,CC(Cc1ccccc1)N
111,Amphotericin B,Amphotericin B,OC1CCC(O)C(O)CC(O)CC2(O)CC(O)C(C(O2)CC(C=CC=CC=CC=CC=CC=CC=CC(C(C(C(OC(=O)CC(C1)O)C)C)O)C)OC1OC(C)C(C(C1O)N)O)C(=O)O
112,Ampicillin,Ampicillin,NC(c1ccccc1)C(=O)NC1C(=O)N2C1SC(C2C(=O)O)(C)C
113,Amprenavir,Amprenavir,CC(CN(S(=O)(=O)c1ccc(cc1)N)CC(C(Cc1ccccc1)NC(=O)OC1CCOC1)O)C
114,Amrinone,Amrinone,O=c1[nH]cc(cc1N)c1ccncc1
115,Amsacrine,Amsacrine,COc1cc(ccc1Nc1c2ccccc2nc2c1cccc2)NS(=O)(=O)C
116,Amyl Nitrite,Amyl Nitrite,CCCCCON=O
117,Amylmetacresol,Amylmetacresol,CCCCCc1ccc(cc1O)C
118,Amylocaine,Amylocaine,CCC(OC(=O)c1ccccc1)(CN(C)C)C
119,Anagrelide,Anagrelide,O=C1NC2=Nc3c(CN2C1)c(Cl)c(cc3)Cl
120,Anastrozole,Anastrozole,N#CC(c1cc(cc(c1)C(C#N)(C)C)Cn1ncnc1)(C)C
121,Anethole trithione,Anethole trithione,COc1ccc(cc1)c1ssc(=S)c1
122,Angiotensin II,Angiotensin II,CCC(C(C(=O)NC(C(=O)N1CCCC1C(=O)NC(C(=O)O)Cc1ccccc1)Cc1[nH]cnc1)NC(=O)C(NC(=O)C(C(C)C)NC(=O)C(NC(=O)C(CC(=O)O)N)CCCN=C(N)N)Cc1ccc(cc1)O)C
123,Anidulafungin,Anidulafungin,CCCCCOc1ccc(cc1)c1ccc(cc1)c1ccc(cc1)C(=O)NC1CC(O)C(O)NC(=O)C2C(O)C(CN2C(=O)C(NC(=O)C(NC(=O)C2N(C(=O)C(NC1=O)C(O)C)CC(C2)O)C(C(c1ccc(cc1)O)O)O)C(O)C)C
124,Anileridine,Anileridine,CCOC(=O)C1(CCN(CC1)CCc1ccc(cc1)N)c1ccccc1
125,Anisindione,Anisindione,COc1ccc(cc1)C1C(=O)c2c(C1=O)cccc2
126,Antazoline,Antazoline,c1ccc(cc1)CN(c1ccccc1)CC1=NCCN1
127,Anthralin,Anthralin,Oc1cccc2c1C(=O)c1c(C2)cccc1O
128,Antipyrine,Antipyrine,O=c1cc(n(n1c1ccccc1)C)C
129,Antrafenine,Antrafenine,O=C(c1ccccc1Nc1ccnc2c1ccc(c2)C(F)(F)F)OCCN1CCN(CC1)c1cccc(c1)C(F)(F)F
130,Apalutamide,Apalutamide,CNC(=O)c1ccc(cc1F)N1C(=S)N(C(=O)C21CCC2)c1cnc(c(c1)C(F)(F)F)C#N
131,Apixaban,Apixaban,COc1ccc(cc1)n1nc(c2c1C(=O)N(CC2)c1ccc(cc1)N1CCCCC1=O)C(=O)N
132,Apomorphine,Apomorphine,CN1CCc2c3C1Cc1ccc(c(c1c3ccc2)O)O
133,Apraclonidine,Apraclonidine,Nc1cc(Cl)c(c(c1)Cl)NC1=NCCN1
134,Apremilast,Apremilast,CCOc1cc(ccc1OC)C(N1C(=O)c2c(C1=O)c(ccc2)N=C(O)C)CS(=O)(=O)C
135,Aprepitant,Aprepitant,Fc1ccc(cc1)C1C(OCCN1Cc1n[nH]c(=O)[nH]1)OC(c1cc(cc(c1)C(F)(F)F)C(F)(F)F)C
136,Apronalide,Apronalide,C=CCC(C(=O)NC(=O)N)C(C)C
137,Arbutamine,Arbutamine,Oc1ccc(cc1)CCCCNCC(c1ccc(c(c1)O)O)O
138,Arbutin,Arbutin,OCC1OC(Oc2ccc(cc2)O)C(C(C1O)O)O
139,Arformoterol,Arformoterol,O=CNc1cc(ccc1O)C(CNC(Cc1ccc(cc1)OC)C)O
140,Argatroban,Argatroban,NC(=N)NCCCC(C(=O)N1CCC(CC1C(=O)O)C)NS(=O)(=O)c1cccc2c1NCC(C2)C
141,Aripiprazole,Aripiprazole,O=C1CCc2c(N1)cc(cc2)OCCCCN1CCN(CC1)c1cccc(c1Cl)Cl
142,Aripiprazole lauroxil,Aripiprazole lauroxil,CCCCCCCCCCCC(=O)OCN1C(=O)CCc2c1cc(OCCCCN1CCN(CC1)c1cccc(c1Cl)Cl)cc2
143,Armodafinil,Armodafinil,NC(=O)CS(=O)C(c1ccccc1)c1ccccc1
144,Artemether,Artemether,COC1OC2OC3(C)CCC4C2(C(C1C)CCC4C)OO3
145,Artemotil,Artemotil,CCOC1OC2OC3(C)CCC4C2(C(C1C)CCC4C)OO3
146,Artesunate,Artesunate,OC(=O)CCC(=O)OC1OC2OC3(C)CCC4C2(C(C1C)CCC4C)OO3
147,Articaine,Articaine,CCCNC(C(=Nc1c(C)csc1C(=O)OC)O)C
148,Arzoxifene,Arzoxifene,COc1ccc(cc1)c1sc2c(c1Oc1ccc(cc1)OCCN1CCCCC1)ccc(c2)O
149,Ascorbic acid,Ascorbic acid,OCC(C1OC(=O)C(=C1O)O)O
150,Asenapine,Asenapine,Clc1ccc2c(c1)C1CN(CC1c1c(O2)cccc1)C
151,Asparagine,Asparagine,NC(=O)CC(C(=O)O)N
152,Aspartic acid,Aspartic acid,OC(=O)CC(C(=O)O)N
153,Astemizole,Astemizole,COc1ccc(cc1)CCN1CCC(CC1)Nc1nc2c(n1Cc1ccc(cc1)F)cccc2
154,Asunaprevir,Asunaprevir,C=CC1CC1(NC(=O)C1CC(CN1C(=O)C(C(C)(C)C)NC(=O)OC(C)(C)C)Oc1ncc(c2c1cc(Cl)cc2)OC)C(=O)NS(=O)(=O)C1CC1
155,Ataluren,Ataluren,Fc1ccccc1c1onc(n1)c1cccc(c1)C(=O)O
156,Atazanavir,Atazanavir,COC(=O)NC(C(C)(C)C)C(=O)NN(Cc1ccc(cc1)c1ccccn1)CC(C(Cc1ccccc1)NC(=O)C(C(C)(C)C)NC(=O)OC)O
157,Atenolol,Atenolol,OC(COc1ccc(cc1)CC(=O)N)CNC(C)C
158,Atomoxetine,Atomoxetine,CNCCC(c1ccccc1)Oc1ccccc1C
159,Atorvastatin,Atorvastatin,OC(CC(CC(=O)O)O)CCn1c(C(C)C)c(c(c1c1ccc(cc1)F)c1ccccc1)C(=O)Nc1ccccc1
160,Atosiban,Atosiban,NCCCC(C(=O)NCC(=O)N)NC(=O)C1CCCN1C(=O)C1CSSCCC(=O)NC(Cc2ccc(cc2)OCC)C(=O)NC(C(=O)NC(C(=O)NC(C(=O)N1)CC(=O)N)C(O)C)C(CC)C
161,Atovaquone,Atovaquone,Clc1ccc(cc1)C1CCC(CC1)C1=C(O)C(=O)c2c(C1=O)cccc2
162,Atropine,Atropine,OCC(c1ccccc1)C(=O)OC1CC2CCC(C1)N2C
163,Aurothioglucose,Aurothioglucose,OCC1OC(S)C(C(C1O)O)O
164,Avanafil,Avanafil,OCC1CCCN1c1ncc(c(n1)NCc1ccc(c(c1)Cl)OC)C(=O)NCc1ncccn1
165,Avatrombopag,Avatrombopag,OC(=O)C1CCN(CC1)c1ncc(cc1Cl)C(=O)Nc1sc(c(n1)c1scc(c1)Cl)N1CCN(CC1)C1CCCCC1
166,Avibactam,Avibactam,NC(=O)C1CCC2CN1C(=O)N2OS(=O)(=O)O
167,Avobenzone,Avobenzone,COc1ccc(cc1)C(=O)CC(=O)c1ccc(cc1)C(C)(C)C
168,Axitinib,Axitinib,CNC(=O)c1ccccc1Sc1ccc2c(c1)[nH]nc2C=Cc1ccccn1
169,Azacitidine,Azacitidine,OCC1OC(C(C1O)O)n1cnc(nc1=O)N
170,Azatadine,Azatadine,CN1CCC(=C2c3ccccc3CCc3c2nccc3)CC1
171,Azelaic acid,Azelaic acid,OC(=O)CCCCCCCC(=O)O
172,Azelastine,Azelastine,CN1CCCC(CC1)n1nc(Cc2ccc(cc2)Cl)c2c(c1=O)cccc2
173,Azilsartan medoxomil,Azilsartan medoxomil,CCOc1nc2c(n1Cc1ccc(cc1)c1ccccc1c1noc(=O)[nH]1)c(ccc2)C(=O)OCc1oc(=O)oc1C
174,Azithromycin,Azithromycin,CCC1OC(=O)C(C)C(OC2OC(C)C(C(C2)(C)OC)O)C(C)C(OC2OC(C)CC(C2O)N(C)C)C(CC(CN(C(C(C1(C)O)O)C)C)C)(C)O
175,Azlocillin,Azlocillin,O=C(C(c1ccccc1)NC(=O)N1CCNC1=O)NC1C(=O)N2C1SC(C2C(=O)O)(C)C
176,Aztreonam,Aztreonam,CC1C(NC(=O)C(=NOC(C(=O)O)(C)C)c2csc(n2)N)C(=O)N1S(=O)(=O)O
177,Bacampicillin,Bacampicillin,CCOC(=O)OC(OC(=O)C1N2C(=O)C(C2SC1(C)C)NC(=O)C(c1ccccc1)N)C
178,Bacitracin,Bacitracin,NCCCC1NC(=O)C(CCCCNC(=O)C(CC(=O)N)NC(=O)C(NC(=O)C(NC(=O)C(NC(=O)C(NC1=O)C(CC)C)Cc1ccccc1)Cc1nc[nH]c1)CC(=O)O)NC(=O)C(C(CC)C)NC(=O)C(NC(=O)C(NC(=O)C1CSC(=N1)C(C(CC)C)N)CC(C)C)CCC(=O)O
179,Baclofen,Baclofen,NCC(c1ccc(cc1)Cl)CC(=O)O
180,Baloxavir marboxil,Baloxavir marboxil,COC(=O)OCOc1c(=O)ccn2c1C(=O)N1CCOCC1N2C1c2ccccc2SCc2c1ccc(c2F)F
181,Balsalazide,Balsalazide,OC(=O)CCNC(=O)c1ccc(cc1)N=Nc1ccc(c(c1)C(=O)O)O
182,Baricitinib,Baricitinib,N#CCC1(CN(C1)S(=O)(=O)CC)n1ncc(c1)c1ncnc2c1cc[nH]2
183,Bazedoxifene,Bazedoxifene,Oc1ccc2c(c1)c(C)c(n2Cc1ccc(cc1)OCCN1CCCCCC1)c1ccc(cc1)O
184,Beclomethasone dipropionate,Beclomethasone dipropionate,CCC(=O)OC1(C(C)CC2C1(C)CC(O)C1(C2CCC2=CC(=O)C=CC12C)Cl)C(=O)COC(=O)CC
185,Bedaquiline,Bedaquiline,COc1nc2ccc(cc2cc1C(C(c1cccc2c1cccc2)(CCN(C)C)O)c1ccccc1)Br
186,Belinostat,Belinostat,ONC(=O)C=Cc1cccc(c1)S(=O)(=O)Nc1ccccc1
187,Bemotrizinol,Bemotrizinol,CCCCC(COc1ccc(c(c1)O)c1nc(nc(n1)c1ccc(cc1)OC)c1ccc(cc1O)OCC(CCCC)CC)CC
188,Benazepril,Benazepril,CCOC(=O)C(NC1CCc2c(N(C1=O)CC(=O)O)cccc2)CCc1ccccc1
189,Bendamustine,Bendamustine,ClCCN(c1ccc2c(c1)nc(n2C)CCCC(=O)O)CCCl
190,Bendazac,Bendazac,OC(=O)COc1nn(c2c1cccc2)Cc1ccccc1
191,Bendroflumethiazide,Bendroflumethiazide,O=S1(=O)NC(Cc2ccccc2)Nc2c1cc(c(c2)C(F)(F)F)S(=O)(=O)N
192,Benfotiamine,Benfotiamine,O=CN(C(=C(SC(=O)c1ccccc1)CCOP(=O)(O)O)C)Cc1cnc([nH]c1=N)C
193,Benorilate,Benorilate,CC(=O)Nc1ccc(cc1)OC(=O)c1ccccc1OC(=O)C
194,Benoxaprofen,Benoxaprofen,OC(=O)C(c1ccc2c(c1)nc(o2)c1ccc(cc1)Cl)C
195,Benperidol,Benperidol,Fc1ccc(cc1)C(=O)CCCN1CCC(CC1)n1c(O)nc2c1cccc2
196,Benserazide,Benserazide,OCC(C(=O)NNCc1ccc(c(c1O)O)O)N
197,Benzatropine,Benzatropine,CN1C2CCC1CC(C2)OC(c1ccccc1)c1ccccc1
198,Benziodarone,Benziodarone,CCc1oc2c(c1C(=O)c1cc(I)c(c(c1)I)O)cccc2
199,Benzocaine,Benzocaine,CCOC(=O)c1ccc(cc1)N
