,Name,ID Database,SMILES
900,Glycerol phenylbutyrate,Glycerol phenylbutyrate,O=C(OC(COC(=O)CCCc1ccccc1)COC(=O)CCCc1ccccc1)CCCc1ccccc1
901,Glycine,Glycine,NCC(=O)O
902,Glycol salicylate,Glycol salicylate,OCCOC(=O)c1ccccc1O
903,Glycolic acid,Glycolic acid,OCC(=O)O
904,Glycyrrhizic acid,Glycyrrhizic acid,OC1C(OC2OC(C(=O)O)C(C(C2O)O)O)C(OC(C1O)C(=O)O)OC1CCC2(C(C1(C)C)CCC1(C2C(=O)C=C2C1(C)CCC1(C2CC(C)(CC1)C(=O)O)C)C)C
905,Glymidine,Glymidine,COCCOc1cnc(nc1)NS(=O)(=O)c1ccccc1
906,Gonadorelin,Gonadorelin,OCC(C(=O)NC(C(=O)NCC(=O)NC(C(=O)NC(C(=O)N1CCCC1C(=O)NCC(=O)N)CCCN=C(N)N)CC(C)C)Cc1ccc(cc1)O)NC(=O)C(Cc1c[nH]c2c1cccc2)NC(=O)C(NC(=O)C1CCC(=O)N1)Cc1[nH]cnc1
907,Goserelin,Goserelin,OCC(C(=O)NC(C(=O)NC(C(=O)NC(C(=O)NC(C(=O)N1CCCC1C(=O)NNC(=O)N)CCCN=C(N)N)CC(C)C)COC(C)(C)C)Cc1ccc(cc1)O)NC(=O)C(Cc1c[nH]c2c1cccc2)NC(=O)C(NC(=O)C1CCC(=O)N1)Cc1[nH]cnc1
908,Gramicidin D,Gramicidin D,OCCNC(=O)C(Cc1c[nH]c2c1cccc2)NC(=O)C(NC(=O)C(Cc1c[nH]c2c1cccc2)NC(=O)C(NC(=O)C(Cc1c[nH]c2c1cccc2)NC(=O)C(NC(=O)C(Cc1c[nH]c2c1cccc2)NC(=O)C(C(C)C)NC(=O)C(C(C)C)NC(=O)C(C(C)C)NC(=O)C(NC(=O)C(NC(=O)CNC(=O)C(C(C)C)NC=O)CC(C)C)C)CC(C)C)CC(C)C)CC(C)C
909,Granisetron,Granisetron,CN1C2CCCC1CC(C2)NC(=O)c1nn(c2c1cccc2)C
910,Grazoprevir,Grazoprevir,C=CC1CC1(N=C(C1CC2CN1C(=O)C(N=C(O)OC1CC1CCCCCc1c(O2)nc2cc(OC)ccc2n1)C(C)(C)C)O)C(=NS(=O)(=O)C1CC1)O
911,Grepafloxacin,Grepafloxacin,CC1NCCN(C1)c1cc2c(c(c1F)C)c(=O)c(cn2C1CC1)C(=O)O
912,Griseofulvin,Griseofulvin,COC1=CC(=O)CC(C21Oc1c(C2=O)c(OC)cc(c1Cl)OC)C
913,Guaiacol,Guaiacol,COc1ccccc1O
914,Guaifenesin,Guaifenesin,OCC(COc1ccccc1OC)O
915,Guanabenz,Guanabenz,NC(=NN=Cc1c(Cl)cccc1Cl)N
916,Guanadrel,Guanadrel,NC(=NCC1COC2(O1)CCCCC2)N
917,Guanethidine,Guanethidine,NC(=NCCN1CCCCCCC1)N
918,Guanfacine,Guanfacine,O=C(Cc1c(Cl)cccc1Cl)NC(=N)N
919,Guanidine,Guanidine,NC(=N)N
920,Guanoxan,Guanoxan,NC(=N)NCC1COc2c(O1)cccc2
921,Halazepam,Halazepam,Clc1ccc2c(c1)C(=NCC(=O)N2CC(F)(F)F)c1ccccc1
922,Halcinonide,Halcinonide,ClCC(=O)C12OC(OC1CC1C2(C)CC(O)C2(C1CCC1=CC(=O)CCC21C)F)(C)C
923,Halofantrine,Halofantrine,CCCCN(CCC(c1cc2c(Cl)cc(cc2c2c1ccc(c2)C(F)(F)F)Cl)O)CCCC
924,Haloperidol,Haloperidol,Fc1ccc(cc1)C(=O)CCCN1CCC(CC1)(O)c1ccc(cc1)Cl
925,Haloprogin,Haloprogin,Clc1cc(Cl)c(cc1OCC#CI)Cl
926,Halothane,Halothane,ClC(C(F)(F)F)Br
927,Hesperidin,Hesperidin,COc1ccc(cc1O)C1CC(=O)c2c(O1)cc(cc2O)OC1OC(COC2OC(C)C(C(C2O)O)O)C(C(C1O)O)O
928,Hetacillin,Hetacillin,OC(=O)C1N2C(=O)C(C2SC1(C)C)N1C(=O)C(NC1(C)C)c1ccccc1
929,Hexachlorophene,Hexachlorophene,Clc1cc(Cl)c(c(c1O)Cc1c(O)c(Cl)cc(c1Cl)Cl)Cl
930,Hexaminolevulinate,Hexaminolevulinate,CCCCCCOC(=O)CCC(=O)CN
931,Hexetidine,Hexetidine,CCCCC(CN1CN(CC(CCCC)CC)CC(C1)(C)N)CC
932,Hexobendine,Hexobendine,COc1cc(cc(c1OC)OC)C(=O)OCCCN(CCN(CCCOC(=O)c1cc(OC)c(c(c1)OC)OC)C)C
933,Hexylcaine,Hexylcaine,CC(OC(=O)c1ccccc1)CNC1CCCCC1
934,Hexylresorcinol,Hexylresorcinol,CCCCCCc1ccc(cc1O)O
935,Histamine,Histamine,NCCc1c[nH]cn1
936,Histidine,Histidine,NC(C(=O)O)Cc1cnc[nH]1
937,Histrelin,Histrelin,OCC(C(=NC(C(=NC(C(=NC(C(=NC(C(=O)N1CCCC1C(=NCC)O)CCCNC(=N)N)O)CC(C)C)O)Cc1ncn(c1)Cc1ccccc1)O)Cc1ccc(cc1)O)O)N=C(C(Cc1c[nH]c2c1cccc2)N=C(C(Cc1cnc[nH]1)N=C(C1CCC(=N1)O)O)O)O
938,Homatropine,Homatropine,OC(c1ccccc1)C(=O)OC1CC2CCC(C1)N2C
939,Huperzine A,Huperzine A,CC=C1C2C=C(CC1(N)c1c(C2)[nH]c(=O)cc1)C
940,Hyaluronic acid,Hyaluronic acid,OCC1OC(OC2C(OC(C(C2O)O)OC2C(NC(=O)C)C(O)OC(C2O)CO)C(=O)O)C(C(C1O)OC1OC(C(=O)O)C(C(C1O)O)O)NC(=O)C
941,Hydralazine,Hydralazine,NNc1nncc2c1cccc2
942,Hydrochlorothiazide,Hydrochlorothiazide,Clc1cc2NCNS(=O)(=O)c2cc1S(=O)(=O)N
943,Hydrocodone,Hydrocodone,COc1ccc2c3c1OC1C43CCN(C(C2)C4CCC1=O)C
944,Hydrocortamate,Hydrocortamate,CCN(CC(=O)OCC(=O)C1(O)CCC2C1(C)CC(O)C1C2CCC2=CC(=O)CCC12C)CC
945,Hydrocortisone,Hydrocortisone,OCC(=O)C1(O)CCC2C1(C)CC(O)C1C2CCC2=CC(=O)CCC12C
946,Hydrocortisone acetate,Hydrocortisone acetate,CC(=O)OCC(=O)C1(O)CCC2C1(C)CC(O)C1C2CCC2=CC(=O)CCC12C
947,Hydrocortisone butyrate,Hydrocortisone butyrate,CCCC(=O)OC1(CCC2C1(C)CC(O)C1C2CCC2=CC(=O)CCC12C)C(=O)CO
948,Hydrocortisone cypionate,Hydrocortisone cypionate,O=C(OCC(=O)C1(O)CCC2C1(C)CC(O)C1C2CCC2=CC(=O)CCC12C)CCC1CCCC1
949,Hydrocortisone phosphate,Hydrocortisone phosphate,O=C1CCC2(C(=C1)CCC1C2C(O)CC2(C1CCC2(O)C(=O)COP(=O)(O)O)C)C
950,Hydrocortisone probutate,Hydrocortisone probutate,CCCC(=O)OC1(CCC2C1(C)CC(O)C1C2CCC2=CC(=O)CCC12C)C(=O)COC(=O)CC
951,Hydrocortisone succinate,Hydrocortisone succinate,OC(=O)CCC(=O)OCC(=O)C1(O)CCC2C1(C)CC(O)C1C2CCC2=CC(=O)CCC12C
952,Hydrocortisone valerate,Hydrocortisone valerate,CCCCC(=O)OC1(CCC2C1(C)CC(O)C1C2CCC2=CC(=O)CCC12C)C(=O)CO
953,Hydroflumethiazide,Hydroflumethiazide,FC(c1cc2NCNS(=O)(=O)c2cc1S(=O)(=O)N)(F)F
954,Hydromorphone,Hydromorphone,O=C1CCC2C34C1Oc1c4c(CC2N(CC3)C)ccc1O
955,Hydroquinone,Hydroquinone,Oc1ccc(cc1)O
956,Hydrotalcite,Hydrotalcite,OC(=O)O
957,Hydroxyamphetamine,Hydroxyamphetamine,CC(Cc1ccc(cc1)O)N
958,Hydroxychloroquine,Hydroxychloroquine,OCCN(CCCC(Nc1ccnc2c1ccc(c2)Cl)C)CC
959,Hydroxycitronellal,Hydroxycitronellal,O=CCC(CCCC(O)(C)C)C
960,Hydroxyethyl cellulose,Hydroxyethyl cellulose,CC(COC1C(OC2OC(COCC(O)C)C(C(C2OCC(O)C)OCC(O)C)OCC(O)C)C(COCC(O)C)OC(C1OCC(O)C)OCC(O)C)O
961,Hydroxyprogesterone caproate,Hydroxyprogesterone caproate,CCCCCC(=O)OC1(CCC2C1(C)CCC1C2CCC2=CC(=O)CCC12C)C(=O)C
962,Hydroxystilbamidine,Hydroxystilbamidine,NC(=N)c1ccc(cc1)C=Cc1ccc(cc1O)C(=N)N
963,Hydroxyurea,Hydroxyurea,NC(=O)NO
964,Hydroxyzine,Hydroxyzine,OCCOCCN1CCN(CC1)C(c1ccc(cc1)Cl)c1ccccc1
965,Hyoscyamine,Hyoscyamine,OCC(c1ccccc1)C(=O)OC1CC2CCC(C1)N2C
966,Ibandronate,Ibandronate,CCCCCN(CCC(P(=O)(O)O)(P(=O)(O)O)O)C
967,Ibrutinib,Ibrutinib,C=CC(=O)N1CCCC(C1)n1nc(c2c1ncnc2N)c1ccc(cc1)Oc1ccccc1
968,Ibuprofen,Ibuprofen,CC(Cc1ccc(cc1)C(C(=O)O)C)C
969,Ibutilide,Ibutilide,CCCCCCCN(CCCC(c1ccc(cc1)NS(=O)(=O)C)O)CC
970,Icatibant,Icatibant,OCC(C(=O)N1Cc2ccccc2CC1C(=O)N1C2CCCCC2CC1C(=O)NC(C(=O)O)CCCN=C(N)N)NC(=O)C(Cc1cccs1)NC(=O)CNC(=O)C1CC(CN1C(=O)C1CCCN1C(=O)C(NC(=O)C(CCCN=C(N)N)N)CCCN=C(N)N)O
971,Icosapent,Icosapent,CCC=CCC=CCC=CCC=CCC=CCCCC(=O)O
972,Icosapent ethyl,Icosapent ethyl,CCC=CCC=CCC=CCC=CCC=CCCCC(=O)OCC
973,Idarubicin,Idarubicin,OC1C(N)CC(OC1C)OC1CC(O)(Cc2c1c(O)c1c(c2O)C(=O)c2c(C1=O)cccc2)C(=O)C
974,Idebenone,Idebenone,OCCCCCCCCCCCCC1=C(C)C(=O)C(=C(C1=O)OC)OC
975,Idelalisib,Idelalisib,CCC(c1nc2cccc(c2c(=O)n1c1ccccc1)F)Nc1ncnc2c1nc[nH]2
976,Idoxuridine,Idoxuridine,OCC1OC(CC1O)n1cc(I)c(=O)[nH]c1=O
977,Ifenprodil,Ifenprodil,Oc1ccc(cc1)C(C(N1CCC(CC1)Cc1ccccc1)C)O
978,Ifosfamide,Ifosfamide,ClCCNP1(=O)OCCCN1CCCl
979,Iloperidone,Iloperidone,COc1cc(ccc1OCCCN1CCC(CC1)c1noc2c1ccc(c2)F)C(=O)C
980,Iloprost,Iloprost,CC#CCC(C(C=CC1C(O)CC2C1CC(=CCCCC(=O)O)C2)O)C
981,Imatinib,Imatinib,CN1CCN(CC1)Cc1ccc(cc1)C(=O)Nc1ccc(c(c1)Nc1nccc(n1)c1cccnc1)C
982,Imidurea,Imidurea,OCN1C(=O)NC(=O)C1NC(=O)NCNC(=O)NC1C(=O)NC(=O)N1CO
983,Imipenem,Imipenem,CC(C1C2CC(=C(N2C1=O)C(=O)O)SCCN=CN)O
984,Imipramine,Imipramine,CN(CCCN1c2ccccc2CCc2c1cccc2)C
985,Imiquimod,Imiquimod,CC(Cn1cnc2c1c1ccccc1nc2N)C
986,Indacaterol,Indacaterol,CCc1cc2CC(Cc2cc1CC)NCC(c1ccc(c2c1ccc(=O)[nH]2)O)O
987,Indapamide,Indapamide,CC1Cc2c(N1NC(=O)c1ccc(c(c1)S(=O)(=O)N)Cl)cccc2
988,Indecainide,Indecainide,CC(NCCCC1(C(=O)N)c2ccccc2c2c1cccc2)C
989,Indigotindisulfonic Acid,Indigotindisulfonic Acid,O=C1C(=C2Nc3c(C2=O)cc(cc3)S(=O)(=O)O)Nc2c1cc(cc2)S(=O)(=O)O
990,Indinavir,Indinavir,OC(CN1CCN(CC1C(=O)NC(C)(C)C)Cc1cccnc1)CC(C(=O)NC1C(O)Cc2c1cccc2)Cc1ccccc1
991,Indium In-111 oxyquinoline,Indium In-111 oxyquinoline,Oc1cccc2c1nccc2
992,Indium In-111 pentetate,Indium In-111 pentetate,OC(=O)CN(CCN(CC(=O)O)CC(=O)O)CCN(CC(=O)O)CC(=O)O
993,Indium In-111 pentetreotide,Indium In-111 pentetreotide,NCCCCC1N=C(O)C(N=C(O)C(Cc2ccccc2)N=C(O)C(CSSCC(N=C(C(N=C1O)C(O)C)O)C(=NC(C(O)C)CO)O)N=C(C(Cc1ccccc1)N=C(CN(CC(=O)O)CCN(CC(=O)O)CCC(C(=O)O)C(=O)O)O)O)Cc1c[nH]c2c1cccc2
994,Indometacin,Indometacin,COc1ccc2c(c1)c(CC(=O)O)c(n2C(=O)c1ccc(cc1)Cl)C
995,Ingenol mebutate,Ingenol mebutate,CC=C(C(=O)OC1C(=CC23C1(O)C(O)C(=CC(C3=O)C1C(CC2C)C1(C)C)CO)C)C
996,Inosine pranobex,Inosine pranobex,OCC1OC(C(C1O)O)n1cnc2c1nc[nH]c2=O
997,Inositol,Inositol,OC1C(O)C(O)C(C(C1O)O)O
998,Inositol nicotinate,Inositol nicotinate,O=C(c1cccnc1)OC1C(OC(=O)c2cccnc2)C(OC(=O)c2cccnc2)C(C(C1OC(=O)c1cccnc1)OC(=O)c1cccnc1)OC(=O)c1cccnc1
999,Inulin,Inulin,OCC1OC(C(C1O)O)(OCC1(OCC2(OCC3(OCC4(OCC5(OCC6(OCC7(OCC8(OCC9(OCC%10(OCC%11(OCC%12(OCC%13(OCC%14(OCC%15(OCC%16(OCC%17(OCC%18(OC%19OC(CO)C(C(C%19O)O)O)OC(C(C%18O)O)CO)OC(C(C%17O)O)CO)OC(C(C%16O)O)CO)OC(C(C%15O)O)CO)OC(C(C%14O)O)CO)OC(C(C%13O)O)CO)OC(C(C%12O)O)CO)OC(C(C%11O)O)CO)OC(C(C%10O)O)CO)OC(C(C9O)O)CO)OC(C(C8O)O)CO)OC(C(C7O)O)CO)OC(C(C6O)O)CO)OC(C(C5O)O)CO)OC(C(C4O)O)CO)OC(C(C3O)O)CO)OC(C(C2O)O)CO)OC(C(C1O)O)CO)COC1(COC2(COC3(COC4(COC5(COC6(COC7(COC8(COC9(COC%10(COC%11(COC%12(COC%13(COC%14(COC%15(COC%16(COC%17(COC%18(CO)OC(C(C%18O)O)CO)OC(C(C%17O)O)CO)OC(C(C%16O)O)CO)OC(C(C%15O)O)CO)OC(C(C%14O)O)CO)OC(C(C%13O)O)CO)OC(C(C%12O)O)CO)OC(C(C%11O)O)CO)OC(C(C%10O)O)CO)OC(C(C9O)O)CO)OC(C(C8O)O)CO)OC(C(C7O)O)CO)OC(C(C6O)O)CO)OC(C(C5O)O)CO)OC(C(C4O)O)CO)OC(C(C3O)O)CO)OC(C(C2O)O)CO)OC(C(C1O)O)CO
