,Name,ID Database,SMILES
500,Dactinomycin,Dactinomycin,O=C1NC(C(C)C)C(=O)N2CCCC2C(=O)N(C)CC(=O)N(C(C(=O)OC(C1NC(=O)c1c2nc3c(ccc(c3oc2c(c(=O)c1N)C)C)C(=O)NC1C(C)OC(=O)C(C(C)C)N(C)C(=O)CN(C(=O)C2N(C(=O)C(NC1=O)C(C)C)CCC2)C)C)C(C)C)C
501,Dalfampridine,Dalfampridine,Nc1ccncc1
502,Dalfopristin,Dalfopristin,CCN(CCS(=O)(=O)C1CCN2C1C(=O)OC(C(C)C)C(C)C=CC(=NCC=CC(=CC(CC(=O)Cc1nc(C2=O)co1)O)C)O)CC
503,Danazol,Danazol,C#CC1(O)CCC2C1(C)CCC1C2CCC2=Cc3c(CC12C)cno3
504,Dantron,Dantron,Oc1cccc2c1C(=O)c1c(C2=O)cccc1O
505,Dapagliflozin,Dapagliflozin,CCOc1ccc(cc1)Cc1cc(ccc1Cl)C1OC(CO)C(C(C1O)O)O
506,Dapiprazole,Dapiprazole,Cc1ccccc1N1CCN(CC1)CCc1nnc2n1CCCC2
507,Dapsone,Dapsone,Nc1ccc(cc1)S(=O)(=O)c1ccc(cc1)N
508,Daptomycin,Daptomycin,NCCCC1NC(=O)CNC(=O)C(NC(=O)C(NC(=O)C(NC(=O)C(Cc2c[nH]c3c2cccc3)NC(=O)CCCCCCCCC)CC(=O)N)CC(=O)O)C(C)OC(=O)C(NC(=O)C(NC(=O)C(NC(=O)CNC(=O)C(NC(=O)C(NC(=O)C(NC1=O)CC(=O)O)C)CC(=O)O)CO)C(CC(=O)O)C)CC(=O)c1ccccc1N
509,Darifenacin,Darifenacin,NC(=O)C(c1ccccc1)(c1ccccc1)C1CCN(C1)CCc1ccc2c(c1)CCO2
510,Darunavir,Darunavir,CC(CN(S(=O)(=O)c1ccc(cc1)N)CC(C(Cc1ccccc1)NC(=O)OC1COC2C1CCO2)O)C
511,Dasabuvir,Dasabuvir,COc1c(cc(cc1C(C)(C)C)n1ccc(=O)[nH]c1=O)c1ccc2c(c1)ccc(c2)NS(=O)(=O)C
512,Dasatinib,Dasatinib,OCCN1CCN(CC1)c1cc(nc(n1)C)Nc1ncc(s1)C(=O)Nc1c(C)cccc1Cl
513,Daunorubicin,Daunorubicin,COc1cccc2c1C(=O)c1c(C2=O)c(O)c2c(c1O)C(OC1CC(N)C(C(O1)C)O)CC(C2)(O)C(=O)C
514,Debrisoquine,Debrisoquine,NC(=N)N1CCc2c(C1)cccc2
515,Decitabine,Decitabine,OCC1OC(CC1O)n1cnc(nc1=O)N
516,Deferasirox,Deferasirox,OC(=O)c1ccc(cc1)n1nc(nc1c1ccccc1O)c1ccccc1O
517,Deferiprone,Deferiprone,Cn1ccc(=O)c(c1C)O
518,Deferoxamine,Deferoxamine,NCCCCCN(C(=O)CCC(=O)NCCCCCN(C(=O)CCC(=O)NCCCCCN(C(=O)C)O)O)O
519,Deflazacort,Deflazacort,CC(=O)OCC(=O)C12N=C(OC1CC1C2(C)CC(O)C2C1CCC1=CC(=O)C=CC21C)C
520,Degarelix,Degarelix,OCC(C(=O)NC(C(=O)NC(C(=O)NC(C(=O)NC(C(=O)N1CCCC1C(=O)NC(C(=O)N)C)CCCCNC(C)C)CC(C)C)Cc1ccc(cc1)NC(=O)N)Cc1ccc(cc1)NC(=O)C1CC(=O)NC(=O)N1)NC(=O)C(NC(=O)C(NC(=O)C(Cc1ccc2c(c1)cccc2)NC(=O)C)Cc1ccc(cc1)Cl)Cc1cccnc1
521,Dehydrocholic acid,Dehydrocholic acid,OC(=O)CCC(C1CCC2C1(C)C(=O)CC1C2C(=O)CC2C1(C)CCC(=O)C2)C
522,Delafloxacin,Delafloxacin,OC1CN(C1)c1c(F)cc2c(c1Cl)n(cc(c2=O)C(=O)O)c1nc(N)c(cc1F)F
523,Delavirdine,Delavirdine,CC(Nc1cccnc1N1CCN(CC1)C(=O)c1cc2c([nH]1)ccc(c2)NS(=O)(=O)C)C
524,Demeclocycline,Demeclocycline,CN(C1C(=C(C(=O)N)C(=O)C2(C1CC1C(=C2O)C(=O)c2c(C1O)c(Cl)ccc2O)O)O)C
525,Deoxycholic Acid,Deoxycholic Acid,OC1CCC2(C(C1)CCC1C2CC(O)C2(C1CCC2C(CCC(=O)O)C)C)C
526,Deserpidine,Deserpidine,COC(=O)C1C(OC)C(CC2C1CC1N(C2)CCc2c1[nH]c1c2cccc1)OC(=O)c1cc(OC)c(c(c1)OC)OC
527,Desflurane,Desflurane,FC(OC(C(F)(F)F)F)F
528,Desipramine,Desipramine,CNCCCN1c2ccccc2CCc2c1cccc2
529,Deslanoside,Deslanoside,OCC1OC(OC2C(O)CC(OC2C)OC2C(O)CC(OC2C)OC2C(O)CC(OC2C)OC2CCC3(C(C2)CCC2C3CC(O)C3(C2(O)CCC3C2=CC(=O)OC2)C)C)C(C(C1O)O)O
530,Desloratadine,Desloratadine,Clc1ccc2c(c1)CCc1c(C2=C2CCNCC2)nccc1
531,Desmopressin,Desmopressin,NC(=O)CC1NC(=O)C(CCC(=O)N)NC(=O)C(Cc2ccccc2)NC(=O)C(NC(=O)CCSSCC(NC1=O)C(=O)N1CCCC1C(=O)NC(C(=O)NCC(=O)N)CCCNC(=N)N)Cc1ccc(cc1)O
532,Desogestrel,Desogestrel,CCC12CC(=C)C3C(C1CCC2(O)C#C)CCC1=CCCCC31
533,Desonide,Desonide,OCC(=O)C12OC(OC1CC1C2(C)CC(O)C2C1CCC1=CC(=O)C=CC21C)(C)C
534,Desoximetasone,Desoximetasone,OCC(=O)C1C(C)CC2C1(C)CC(O)C1(C2CCC2=CC(=O)C=CC12C)F
535,Desoxycorticosterone acetate,Desoxycorticosterone acetate,CC(=O)OCC(=O)C1CCC2C1(C)CCC1C2CCC2=CC(=O)CCC12C
536,Desvenlafaxine,Desvenlafaxine,CN(CC(C1(O)CCCCC1)c1ccc(cc1)O)C
537,Deutetrabenazine,Deutetrabenazine,CC(CC1CN2CCc3c(C2CC1=O)cc(c(c3)OC([2H])([2H])[2H])OC([2H])([2H])[2H])C
538,Dexamethasone,Dexamethasone,OCC(=O)C1(O)C(C)CC2C1(C)CC(O)C1(C2CCC2=CC(=O)C=CC12C)F
539,Dexamethasone acetate,Dexamethasone acetate,CC(=O)OCC(=O)C1(O)C(C)CC2C1(C)CC(O)C1(C2CCC2=CC(=O)C=CC12C)F
540,Dexamethasone metasulfobenzoate,Dexamethasone metasulfobenzoate,O=C1C=CC2(C(=C1)CCC1C2(F)C(O)CC2(C1CC(C2(O)C(=O)COC(=O)c1cccc(c1)S(=O)(=O)O)C)C)C
541,Dexbrompheniramine,Dexbrompheniramine,CN(CCC(c1ccccn1)c1ccc(cc1)Br)C
542,Dexchlorpheniramine maleate,Dexchlorpheniramine maleate,CN(CCC(c1ccccn1)c1ccc(cc1)Cl)C
543,Dexfenfluramine,Dexfenfluramine,CCNC(Cc1cccc(c1)C(F)(F)F)C
544,Dexibuprofen,Dexibuprofen,CC(Cc1ccc(cc1)C(C(=O)O)C)C
545,Dexketoprofen,Dexketoprofen,OC(=O)C(c1cccc(c1)C(=O)c1ccccc1)C
546,Dexlansoprazole,Dexlansoprazole,O=S(c1nc2c([nH]1)cccc2)Cc1nccc(c1C)OCC(F)(F)F
547,Dexmedetomidine,Dexmedetomidine,Cc1cccc(c1C)C(c1c[nH]cn1)C
548,Dexmethylphenidate,Dexmethylphenidate,COC(=O)C(c1ccccc1)C1CCCCN1
549,Dexpanthenol,Dexpanthenol,OCCCNC(=O)C(C(CO)(C)C)O
550,Dexrazoxane,Dexrazoxane,O=C1NC(=O)CN(C1)CC(N1CC(=O)NC(=O)C1)C
551,Dextroamphetamine,Dextroamphetamine,CC(Cc1ccccc1)N
552,Dextromethorphan,Dextromethorphan,COc1ccc2c(c1)C13CCCCC3C(C2)N(CC1)C
553,Dextropropoxyphene,Dextropropoxyphene,CCC(=O)OC(c1ccccc1)(C(CN(C)C)C)Cc1ccccc1
554,Dextrothyroxine,Dextrothyroxine,OC(=O)C(Cc1cc(I)c(c(c1)I)Oc1cc(I)c(c(c1)I)O)N
555,Dezocine,Dezocine,Oc1ccc2c(c1)C1(C)CCCCCC(C2)C1N
556,Diacerein,Diacerein,CC(=O)Oc1cc(cc2c1C(=O)c1c(C2=O)cccc1OC(=O)C)C(=O)O
557,Diacetyl benzoyl lathyrol,Diacetyl benzoyl lathyrol,CC(=O)OC1C(=C)CCC2C(C2(C)C)C=C(C(=O)C2(C1C(OC(=O)c1ccccc1)C(C2)C)OC(=O)C)C
558,Diaminopropanol tetraacetic acid,Diaminopropanol tetraacetic acid,OC(CN(CC(=O)O)CC(=O)O)CN(CC(=O)O)CC(=O)O
559,Diamorphine,Diamorphine,CC(=O)OC1C=CC2C34C1Oc1c4c(CC2N(CC3)C)ccc1OC(=O)C
560,Diatrizoate,Diatrizoate,CC(=O)Nc1c(I)c(NC(=O)C)c(c(c1I)C(=O)O)I
561,Diazepam,Diazepam,Clc1ccc2c(c1)C(=NCC(=O)N2C)c1ccccc1
562,Diazolidinylurea,Diazolidinylurea,OCNC(=O)N(C1C(=O)N(C(=O)N1CO)CO)CO
563,Diazoxide,Diazoxide,Clc1ccc2c(c1)S(=O)(=O)N=C(N2)C
564,Dibekacin,Dibekacin,NCC1CCC(C(O1)OC1C(N)CC(C(C1O)OC1OC(CO)C(C(C1O)N)O)N)N
565,Dibenzepin,Dibenzepin,CN(CCn1c2ccccc2n(c2c(c1=O)cccc2)C)C
566,Dichloralphenazone,Dichloralphenazone,O=c1cc(n(n1c1ccccc1)C)C
567,Dichloroacetic acid,Dichloroacetic acid,ClC(C(=O)O)Cl
568,Dichlorobenzyl alcohol,Dichlorobenzyl alcohol,OCc1ccc(cc1Cl)Cl
569,Diclofenac,Diclofenac,OC(=O)Cc1ccccc1Nc1c(Cl)cccc1Cl
570,Diclofenamide,Diclofenamide,Clc1cc(cc(c1Cl)S(=O)(=O)N)S(=O)(=O)N
571,Dicloxacillin,Dicloxacillin,OC(=O)C1N2C(=O)C(C2SC1(C)C)NC(=O)c1c(C)onc1c1c(Cl)cccc1Cl
572,Dicoumarol,Dicoumarol,O=c1oc2ccccc2c(c1Cc1c(=O)oc2c(c1O)cccc2)O
573,Dicyclomine,Dicyclomine,CCN(CCOC(=O)C1(CCCCC1)C1CCCCC1)CC
574,Didanosine,Didanosine,OCC1CCC(O1)n1cnc2c1[nH]cnc2=O
575,Dienestrol,Dienestrol,CC=C(C(=CC)c1ccc(cc1)O)c1ccc(cc1)O
576,Dienogest,Dienogest,N#CCC1(O)CCC2C1(C)CCC1=C3CCC(=O)C=C3CCC21
577,Diethylamino hydroxybenzoyl hexyl benzoate,Diethylamino hydroxybenzoyl hexyl benzoate,CCCCCCOC(=O)c1ccccc1C(=O)c1ccc(cc1O)N(CC)CC
578,Diethylcarbamazine,Diethylcarbamazine,CCN(C(=O)N1CCN(CC1)C)CC
579,Diethylpropion,Diethylpropion,CCN(C(C(=O)c1ccccc1)C)CC
580,Diethylstilbestrol,Diethylstilbestrol,CCC(=C(c1ccc(cc1)O)CC)c1ccc(cc1)O
581,Diethyltoluamide,Diethyltoluamide,CCN(C(=O)c1cccc(c1)C)CC
582,Difenoxin,Difenoxin,N#CC(c1ccccc1)(c1ccccc1)CCN1CCC(CC1)(C(=O)O)c1ccccc1
583,Diflorasone,Diflorasone,OCC(=O)C1(O)C(C)CC2C1(C)CC(O)C1(C2CC(C2=CC(=O)C=CC12C)F)F
584,Diflunisal,Diflunisal,Fc1ccc(c(c1)F)c1ccc(c(c1)C(=O)O)O
585,Difluocortolone,Difluocortolone,OCC(=O)C1C(C)CC2C1(C)CC(O)C1(C2CC(C2=CC(=O)C=CC12C)F)F
586,Difluprednate,Difluprednate,CCCC(=O)OC1(CCC2C1(C)CC(O)C1(C2CC(C2=CC(=O)C=CC12C)F)F)C(=O)COC(=O)C
587,Digitoxin,Digitoxin,O=C1OCC(=C1)C1CCC2(C1(C)CCC1C2CCC2C1(C)CCC(C2)OC1CC(O)C(C(O1)C)OC1CC(O)C(C(O1)C)OC1CC(O)C(C(O1)C)O)O
588,Digoxin,Digoxin,O=C1OCC(=C1)C1CCC2(C1(C)C(O)CC1C2CCC2C1(C)CCC(C2)OC1CC(O)C(C(O1)C)OC1CC(O)C(C(O1)C)OC1CC(O)C(C(O1)C)O)O
589,Dihydralazine,Dihydralazine,NN=c1[nH][nH]c(=NN)c2c1cccc2
590,Dihydro-alpha-ergocryptine,Dihydro-alpha-ergocryptine,CC(CC1C(=O)N2CCCC2C2(N1C(=O)C(O2)(NC(=O)C1CN(C)C2C(C1)c1cccc3c1c(C2)c[nH]3)C(C)C)O)C
591,Dihydrocodeine,Dihydrocodeine,COc1ccc2c3c1OC1C43CCN(C(C2)C4CCC1O)C
592,Dihydroergocornine,Dihydroergocornine,O=C(C1CN(C)C2C(C1)c1cccc3c1c(C2)c[nH]3)NC1(OC2(N(C1=O)C(C(C)C)C(=O)N1C2CCC1)O)C(C)C
593,Dihydroergocristine,Dihydroergocristine,CN1CC(CC2C1Cc1c[nH]c3c1c2ccc3)C(=NC1(OC2(N(C1=O)C(Cc1ccccc1)C(=O)N1C2CCC1)O)C(C)C)O
594,Dihydroergotamine,Dihydroergotamine,CN1CC(CC2C1Cc1c[nH]c3c1c2ccc3)C(=O)NC1(C)OC2(N(C1=O)C(Cc1ccccc1)C(=O)N1C2CCC1)O
595,Dihydrotachysterol,Dihydrotachysterol,OC1CCC(C(=CC=C2CCCC3(C2CCC3C(C=CC(C(C)C)C)C)C)C1)C
596,Diiodohydroxyquinoline,Diiodohydroxyquinoline,Ic1cc(I)c2c(c1O)nccc2
597,Diloxanide furoate,Diloxanide furoate,O=C(N(c1ccc(cc1)OC(=O)c1ccco1)C)C(Cl)Cl
598,Diltiazem,Diltiazem,COc1ccc(cc1)C1Sc2ccccc2N(C(=O)C1OC(=O)C)CCN(C)C
599,Dimazole,Dimazole,CCN(CCOc1ccc2c(c1)sc(n2)N(C)C)CC
