Molecule,Canonical SMILES,Formula,MW,#Heavy atoms,#Aromatic heavy atoms,Fraction Csp3,#Rotatable bonds,#H-bond acceptors,#H-bond donors,MR,TPSA,iLOGP,XLOGP3,WLOGP,MLOGP,Silicos-IT Log P,Consensus Log P,ESOL Log S,ESOL Solubility (mg/ml),ESOL Solubility (mol/l),ESOL Class,Ali Log S,Ali Solubility (mg/ml),Ali Solubility (mol/l),Ali Class,Silicos-IT LogSw,Silicos-IT Solubility (mg/ml),Silicos-IT Solubility (mol/l),Silicos-IT class,GI absorption,BBB permeant,Pgp substrate,CYP1A2 inhibitor,CYP2C19 inhibitor,CYP2C9 inhibitor,CYP2D6 inhibitor,CYP3A4 inhibitor,log Kp (cm/s),Lipinski #violations,Ghose #violations,Veber #violations,Egan #violations,Muegge #violations,Bioavailability Score,PAINS #alerts,Brenk #alerts,Leadlikeness #violations,Synthetic Accessibility
Molecule 1,CC(=C)[C@H]1CC[C@]2([C@@H]1[C@@H]1CC[C@@H]3[C@@]([C@]1(C)CC2)(C)CC[C@H]1[C@]3(C)CC[C@H](C1(C)C)O)C,C30H50O,426.72,31,0,0.93,1,1,1,135.14,20.23,4.63,9.87,8.02,6.92,6.82,7.25,-8.64,9.83e-07,2.30e-09,Poorly soluble,-10.22,2.58e-08,6.05e-11,Insoluble,-6.74,7.69e-05,1.80e-07,Poorly soluble,Low,No,No,No,No,No,No,No,-1.90,1,3,0,1,2,0.55,0,1,2,5.49
Molecule 2,CC(=C)[C@H]1CC[C@]2([C@@H]1[C@@H]1CC[C@@H]3[C@@]([C@]1(C)CC2)(C)CC[C@H]1[C@]3(C)CCC(=O)C1(C)C)C,C30H48O,424.70,31,0,0.90,1,1,0,134.18,17.07,4.49,9.56,8.23,6.82,7.41,7.30,-8.43,1.58e-06,3.72e-09,Poorly soluble,-9.83,6.28e-08,1.48e-10,Poorly soluble,-7.44,1.54e-05,3.63e-08,Poorly soluble,Low,No,No,No,No,No,No,No,-2.10,1,3,0,1,2,0.55,0,1,2,5.38
Molecule 3,O[C@H]1CC[C@]2([C@H](C1(C)C)CC[C@@]1([C@@H]2CC=C2[C@@]1(C)CC[C@@]1([C@@H]2CC(C)(C)CC1)C)C)C,C30H50O,426.72,31,0,0.93,0,1,1,134.88,20.23,4.83,9.15,8.17,6.92,6.92,7.20,-8.25,2.40e-06,5.62e-09,Poorly soluble,-9.47,1.44e-07,3.38e-10,Poorly soluble,-7.16,2.93e-05,6.85e-08,Poorly soluble,Low,No,No,No,No,No,No,No,-2.41,1,3,0,1,2,0.55,0,1,2,6.04
Molecule 4,O[C@H]1CC[C@]2([C@H](C1(C)C)CC[C@@]1([C@@H]2CC[C@@]2(C1=CC[C@]1([C@H]2CC(C)(C)CC1)C)C)C)C,C30H50O,426.72,31,0,0.93,0,1,1,134.88,20.23,4.75,9.30,8.17,6.92,6.92,7.21,-8.34,1.93e-06,4.52e-09,Poorly soluble,-9.63,1.01e-07,2.36e-10,Poorly soluble,-7.16,2.93e-05,6.85e-08,Poorly soluble,Low,No,No,No,No,No,No,No,-2.30,1,3,0,1,2,0.55,0,1,2,6.04
Molecule 5,O=C1CC[C@]2([C@H](C1(C)C)CC[C@@]1([C@@H]2CC[C@@]2(C1=CC[C@]1([C@H]2CC(C)(C)CC1)C)C)C)C,C30H48O,424.70,31,0,0.90,0,1,0,133.92,17.07,4.59,8.99,8.38,6.82,7.51,7.26,-8.14,3.10e-06,7.30e-09,Poorly soluble,-9.24,2.45e-07,5.77e-10,Poorly soluble,-7.86,5.86e-06,1.38e-08,Poorly soluble,Low,No,No,No,No,No,No,No,-2.51,1,3,0,1,2,0.55,0,1,2,5.90
Molecule 6,C[C@@H]1C[C@@H](O)C([C@@H]2[C@@H]1[C@@H]1CC=C3[C@@]([C@@]1(CC2)C)(C)CC[C@@]1([C@@H]3[C@@H](C)[C@H](C)CC1)C)(C)C,C30H50O,426.72,31,0,0.93,0,1,1,135.40,20.23,4.73,9.05,7.88,6.92,6.13,6.94,-8.19,2.77e-06,6.50e-09,Poorly soluble,-9.37,1.83e-07,4.29e-10,Poorly soluble,-6.26,2.32e-04,5.43e-07,Poorly soluble,Low,No,No,No,No,No,No,No,-2.48,1,3,0,1,2,0.55,0,1,2,6.22
Molecule 7,C[C@@H]1C[C@H](O)C([C@@H]2[C@@H]1[C@@H]1CC=C3[C@@]([C@@]1(CC2)C)(C)CC[C@@]1([C@@H]3[C@@H](C)[C@H](C)CC1)C)(C)C,C30H50O,426.72,31,0,0.93,0,1,1,135.40,20.23,4.80,9.05,7.88,6.92,6.13,6.96,-8.19,2.77e-06,6.50e-09,Poorly soluble,-9.37,1.83e-07,4.29e-10,Poorly soluble,-6.26,2.32e-04,5.43e-07,Poorly soluble,Low,No,No,No,No,No,No,No,-2.48,1,3,0,1,2,0.55,0,1,2,6.22
Molecule 8,O=C1CC[C@@H]2[C@@]([C@H]1C)(C)CC[C@H]1[C@]2(C)CC[C@]2([C@]1(C)CC[C@]1([C@@H]2CC(C)(C)CC1)C)C,C30H50O,426.72,31,0,0.97,0,1,0,134.39,17.07,4.41,9.80,8.46,6.92,7.52,7.42,-8.66,9.34e-07,2.19e-09,Poorly soluble,-10.08,3.56e-08,8.33e-11,Insoluble,-7.88,5.66e-06,1.33e-08,Poorly soluble,Low,No,No,No,No,No,No,No,-1.94,1,3,0,1,2,0.55,0,0,2,5.17
Molecule 9,CC([C@@H]1CC[C@]2([C@@H]1[C@@H]1CC[C@@H]3[C@@]([C@@]1(C)CC2)(C)CC[C@H]1[C@]3(C)C(=O)C=CC1(C)C)C)C,C30H48O,424.70,31,0,0.90,1,1,0,134.18,17.07,4.39,9.81,8.09,6.82,6.99,7.22,-8.59,1.10e-06,2.59e-09,Poorly soluble,-10.09,3.46e-08,8.14e-11,Insoluble,-6.96,4.65e-05,1.09e-07,Poorly soluble,Low,No,No,No,No,No,No,No,-1.93,1,3,0,1,2,0.55,0,0,2,6.22
Molecule 10,O=c1c(coc2c1c(O)c1c(c2)OC(C=C1)(C)C)c1cc2C=CC(Oc2cc1O)(C)C,C25H22O6,418.44,31,16,0.24,1,6,2,120.21,89.13,3.99,4.87,5.02,2.09,4.83,4.16,-5.82,6.36e-04,1.52e-06,Moderately soluble,-6.48,1.40e-04,3.34e-07,Poorly soluble,-6.62,1.02e-04,2.43e-07,Poorly soluble,High,No,No,No,Yes,Yes,No,No,-5.39,0,0,0,0,0,0.55,0,0,2,4.19
Molecule 11,CC(=O)[C@@H]1CC[C@]2([C@H]1[C@H]1CC[C@H]3[C@@]([C@]1(C)CC2)(C)CC[C@@H]1[C@]3(C)CC[C@@H](C1(C)C)O)C,C29H48O2,428.69,31,0,0.97,1,2,1,131.01,37.30,4.29,7.86,7.04,5.80,6.12,6.22,-7.38,1.77e-05,4.13e-08,Poorly soluble,-8.49,1.38e-06,3.23e-09,Poorly soluble,-6.24,2.44e-04,5.70e-07,Poorly soluble,Low,No,No,No,No,No,No,No,-3.33,1,3,0,1,1,0.55,0,0,2,5.19
Molecule 12,COc1c(O)cc2c(c1CC=C(C)C)c(=O)c1c(o2)cc(c(c1O)CCC(O)(C)C)O,C24H28O7,428.47,31,14,0.38,6,7,4,121.66,120.36,4.18,4.90,4.28,1.46,4.94,3.95,-5.52,1.29e-03,3.01e-06,Moderately soluble,-7.16,2.94e-05,6.86e-08,Poorly soluble,-5.91,5.24e-04,1.22e-06,Moderately soluble,High,No,No,No,No,No,No,No,-5.43,0,0,0,0,0,0.55,0,2,2,3.97
Molecule 13,C[C@H]1C[C@@H]2[C@H](C1)[C@H](OC(=O)/C=C\c1ccccc1)[C@]([C@H](C(C2)(C)C)C(=O)C)(C)C(C)C,C28H40O3,424.62,31,6,0.64,6,3,0,129.41,43.37,4.01,7.42,6.46,5.08,6.20,5.83,-6.89,5.41e-05,1.28e-07,Poorly soluble,-8.16,2.93e-06,6.89e-09,Poorly soluble,-6.38,1.75e-04,4.13e-07,Poorly soluble,High,No,No,No,No,Yes,No,Yes,-3.62,1,2,0,1,1,0.55,0,1,2,5.20
Molecule 14,CC(=CCCc1cc(/C=C/C(=O)c2cc3C[C@@H](Oc3cc2O)C(O)(C)C)ccc1O)C,C26H30O5,422.51,31,12,0.35,7,5,3,123.79,86.99,4.29,5.76,4.86,2.76,5.66,4.67,-5.91,5.16e-04,1.22e-06,Moderately soluble,-7.36,1.87e-05,4.41e-08,Poorly soluble,-5.69,8.67e-04,2.05e-06,Moderately soluble,High,No,No,No,No,Yes,No,Yes,-4.79,0,0,0,0,1,0.55,0,2,2,4.36
Molecule 15,COc1c(CC=C(C)C)cc(cc1CC=C(C)C)[C@H]1CC(=O)c2c(O1)cc(cc2O)O,C26H30O5,422.51,31,12,0.35,6,5,2,123.48,75.99,3.99,6.70,5.51,3.03,6.10,5.07,-6.57,1.13e-04,2.69e-07,Poorly soluble,-8.10,3.36e-06,7.95e-09,Poorly soluble,-6.56,1.16e-04,2.75e-07,Poorly soluble,High,No,No,No,No,Yes,No,Yes,-4.12,0,0,0,0,1,0.55,0,1,2,4.29
Molecule 16,CC(=CCc1c(O)c(C[C@H](C(=C)C)O)c2c(c1O)c(=O)c(co2)c1ccc(cc1)C)C,C26H28O5,420.50,31,16,0.27,6,5,3,125.53,90.90,4.30,6.19,5.17,2.58,6.42,4.93,-6.33,1.95e-04,4.65e-07,Poorly soluble,-7.88,5.50e-06,1.31e-08,Poorly soluble,-7.25,2.36e-05,5.62e-08,Poorly soluble,High,No,No,No,No,Yes,No,Yes,-4.47,0,0,0,0,1,0.55,0,1,2,4.53
Molecule 17,C/C(=C\Cc1c(O)cc2c(c1O)C(=O)[C@H]([C@@H](O2)c1ccc(cc1)O)O)/CCC=C(C)C,C25H28O6,424.49,31,12,0.32,6,6,4,120.01,107.22,3.73,5.62,4.39,2.01,4.53,4.06,-5.90,5.31e-04,1.25e-06,Moderately soluble,-7.63,9.84e-06,2.32e-08,Poorly soluble,-5.07,3.62e-03,8.53e-06,Moderately soluble,High,No,No,No,No,Yes,No,Yes,-4.90,0,0,0,0,1,0.55,0,1,2,4.54
Molecule 18,CC(=CCC[C@@H]1C(=CC(=O)c2c1cc1c(CCC=C(C)C)c(C)cc(c1c2O)O)O)C,C27H32O4,420.54,31,10,0.37,6,4,3,128.81,77.76,3.98,7.38,6.93,3.48,6.55,5.66,-6.94,4.83e-05,1.15e-07,Poorly soluble,-8.84,6.05e-07,1.44e-09,Poorly soluble,-6.50,1.31e-04,3.13e-07,Poorly soluble,Low,No,No,No,Yes,Yes,No,Yes,-3.63,0,1,0,1,1,0.56,0,1,2,4.46
Molecule 19,CC(=CCC[C@H]1C(=CC(=O)c2c1cc1c(CCC=C(C)C)c(C)cc(c1c2O)O)O)C,C27H32O4,420.54,31,10,0.37,6,4,3,128.81,77.76,3.64,7.38,6.93,3.48,6.55,5.60,-6.94,4.83e-05,1.15e-07,Poorly soluble,-8.84,6.05e-07,1.44e-09,Poorly soluble,-6.50,1.31e-04,3.13e-07,Poorly soluble,Low,No,No,No,Yes,Yes,No,Yes,-3.63,0,1,0,1,1,0.56,0,1,2,4.46
Molecule 20,OC[C@@H]1C[C@@H]2C[C@@]32[C@@]2(C1)C[C@]12C[C@@H]2C[C@@]42C(=CC=C2C4=CC(=O)C(=C2C)O)[C@@]1(CC3)C,C28H32O3,416.55,31,0,0.68,1,3,2,119.54,57.53,3.72,4.25,5.19,4.35,4.88,4.48,-5.03,3.85e-03,9.24e-06,Moderately soluble,-5.17,2.82e-03,6.77e-06,Moderately soluble,-5.10,3.32e-03,7.96e-06,Moderately soluble,High,Yes,No,No,No,No,No,No,-5.82,1,0,0,0,1,0.55,0,0,2,7.25
Molecule 21,CC(=C)[C@H]1C[C@H]2[C@@]3([C@H]1C[C@H]1C[C@]4(C)[C@H]5CC[C@@H]6C([C@H]5[C@H](C[C@]54[C@@H]([C@@]1(C3)C)C5)O6)(C)C)C2,C30H44O,420.67,31,0,0.93,1,1,0,128.72,9.23,4.70,8.51,7.26,6.92,6.34,6.75,-7.74,7.59e-06,1.81e-08,Poorly soluble,-8.58,1.12e-06,2.66e-09,Poorly soluble,-6.13,3.08e-04,7.33e-07,Poorly soluble,Low,No,No,No,No,No,No,No,-2.82,1,2,0,1,3,0.55,0,1,2,6.95
Molecule 22,COc1cc(OC)c2c(c1c1c(C)cc(c3c1cccc3OC)OC)C[C@@H](N=C2C)C,C26H29NO4,419.51,31,16,0.35,5,5,0,129.57,49.28,4.36,5.17,5.22,2.99,6.95,4.94,-5.75,7.46e-04,1.78e-06,Moderately soluble,-5.95,4.70e-04,1.12e-06,Moderately soluble,-8.80,6.65e-07,1.58e-09,Poorly soluble,High,Yes,Yes,No,No,Yes,No,Yes,-5.19,0,0,0,0,1,0.55,0,0,2,4.38
Molecule 23,COc1cc(OC)c2c(c1c1ccc(c3c1cc(C)cc3OC)OC)cc(nc2C)C,C26H27NO4,417.50,31,20,0.27,5,5,0,125.55,49.81,4.40,6.03,6.01,2.88,6.76,5.22,-6.37,1.76e-04,4.22e-07,Poorly soluble,-6.85,5.84e-05,1.40e-07,Poorly soluble,-9.47,1.41e-07,3.37e-10,Poorly soluble,High,No,Yes,No,Yes,Yes,No,No,-4.57,0,1,0,1,1,0.55,0,0,2,3.09
Molecule 24,COc1cc(OC)c2c(c1c1ccc(c3c1cc(C)cc3OC)OC)C[C@@H](N[C@H]2C)C,C26H31NO4,421.53,31,16,0.38,5,5,1,129.27,48.95,4.43,5.28,4.74,3.06,5.88,4.68,-5.83,6.21e-04,1.47e-06,Moderately soluble,-6.06,3.69e-04,8.75e-07,Poorly soluble,-8.59,1.09e-06,2.59e-09,Poorly soluble,High,Yes,Yes,No,No,No,No,Yes,-5.12,0,0,0,0,1,0.55,0,0,2,4.22
Molecule 25,COc1cc(OC)c2c(c1c1ccc(c3c1cc(C)cc3OC)OC)C[C@@H](N=C2C)C,C26H29NO4,419.51,31,16,0.35,5,5,0,129.57,49.28,4.38,5.17,5.22,2.99,6.95,4.94,-5.75,7.46e-04,1.78e-06,Moderately soluble,-5.95,4.70e-04,1.12e-06,Moderately soluble,-8.80,6.65e-07,1.58e-09,Poorly soluble,High,Yes,Yes,No,No,Yes,No,Yes,-5.19,0,0,0,0,1,0.55,0,0,2,4.39
Molecule 26,COc1cc(OC)c2c(c1c1ccc(c3c1cc(C)cc3OC)OC)C[C@H](N=C2C)C,C26H29NO4,419.51,31,16,0.35,5,5,0,129.57,49.28,4.37,5.17,5.22,2.99,6.95,4.94,-5.75,7.46e-04,1.78e-06,Moderately soluble,-5.95,4.70e-04,1.12e-06,Moderately soluble,-8.80,6.65e-07,1.58e-09,Poorly soluble,High,Yes,Yes,No,No,Yes,No,Yes,-5.19,0,0,0,0,1,0.55,0,0,2,4.39
Molecule 27,COc1cc(O)c2c(c1c1c(C)cc(c3c1cccc3OC)OC)C[C@@H](N([C@@H]2C)C)C,C26H31NO4,421.53,31,16,0.38,4,5,1,129.71,51.16,3.93,5.43,4.78,3.06,5.29,4.50,-5.99,4.29e-04,1.02e-06,Moderately soluble,-6.26,2.32e-04,5.49e-07,Poorly soluble,-7.55,1.17e-05,2.79e-08,Poorly soluble,High,Yes,Yes,No,No,No,No,No,-5.02,0,0,0,0,1,0.55,1,0,2,4.23
Molecule 28,COc1cc(OC)c2c(c1c1ccc(c3c1cccc3OC)OC)C[C@@H](N([C@@H]2C)C)C,C26H31NO4,421.53,31,16,0.38,5,5,0,129.21,40.16,4.42,5.39,4.77,3.06,5.31,4.59,-5.90,5.29e-04,1.26e-06,Moderately soluble,-5.99,4.34e-04,1.03e-06,Moderately soluble,-7.87,5.67e-06,1.35e-08,Poorly soluble,High,Yes,Yes,No,No,No,No,Yes,-5.04,0,0,0,0,1,0.55,0,0,2,4.22
Molecule 29,COC1=CC2=C([C@@H]([C@H]1c1c(C)cc3c(c1O)c(OC)ccc3)OC)[C@H](N([C@H](C2)C)C)C,C26H33NO4,423.54,31,10,0.46,4,5,1,128.69,51.16,4.21,3.77,4.53,2.60,4.10,3.84,-4.82,6.47e-03,1.53e-05,Moderately soluble,-4.54,1.23e-02,2.90e-05,Moderately soluble,-5.96,4.60e-04,1.09e-06,Moderately soluble,High,Yes,Yes,No,No,No,Yes,Yes,-6.21,0,0,0,0,0,0.55,0,0,2,5.58
Molecule 30,COC1=CC2=C([C@@H]([C@H]1c1c(C)cc3c(c1O)c(OC)ccc3)OC)[C@H](N([C@H](C2)C)C)C,C26H33NO4,423.54,31,10,0.46,4,5,1,128.69,51.16,4.21,3.77,4.53,2.60,4.10,3.84,-4.82,6.47e-03,1.53e-05,Moderately soluble,-4.54,1.23e-02,2.90e-05,Moderately soluble,-5.96,4.60e-04,1.09e-06,Moderately soluble,High,Yes,Yes,No,No,No,Yes,Yes,-6.21,0,0,0,0,0,0.55,0,0,2,5.58
Molecule 31,COc1cc(O)c(c2c1[C@@H](C)N(C)[C@@H](C2)C)c1c(C)cc(c2c1cccc2OC)OC,C26H31NO4,421.53,31,16,0.38,4,5,1,129.71,51.16,4.36,5.43,4.78,3.06,5.29,4.58,-5.99,4.29e-04,1.02e-06,Moderately soluble,-6.26,2.32e-04,5.49e-07,Poorly soluble,-7.55,1.17e-05,2.79e-08,Poorly soluble,High,Yes,Yes,No,No,No,No,No,-5.02,0,0,0,0,1,0.55,0,0,2,4.22
Molecule 32,CC(=O)O[C@H]1C[C@@H](C)[C@]([C@H]2[C@H]1[C@H](COC(=O)C)[C@]1(CC2)CO1)(C)CCC1=CC(=O)OC1,C24H34O7,434.52,31,0,0.79,8,7,0,113.27,91.43,3.32,2.77,3.20,2.77,4.03,3.22,-3.75,7.71e-02,1.77e-04,Soluble,-4.35,1.96e-02,4.51e-05,Moderately soluble,-4.01,4.20e-02,9.66e-05,Moderately soluble,High,No,No,No,No,No,No,Yes,-6.98,0,0,0,0,0,0.55,0,2,2,5.96
Molecule 33,COc1cc2oc(cc(=O)c2c(c1c1coc(c(c1=O)OC)C)OC)c1ccccc1,C24H20O7,420.41,31,22,0.17,5,7,0,116.33,88.11,3.47,3.52,4.41,0.68,5.65,3.54,-4.86,5.81e-03,1.38e-05,Moderately soluble,-5.05,3.71e-03,8.83e-06,Moderately soluble,-8.86,5.83e-07,1.39e-09,Poorly soluble,High,No,No,No,No,Yes,No,Yes,-6.37,0,0,0,0,0,0.55,0,0,2,4.07
Molecule 34,COc1cc2oc(cc(=O)c2c(c1c1cc(=O)c(c(o1)C)OC)OC)c1ccccc1,C24H20O7,420.41,31,22,0.17,5,7,0,116.33,88.11,3.76,3.52,4.41,0.68,5.65,3.60,-4.86,5.81e-03,1.38e-05,Moderately soluble,-5.05,3.71e-03,8.83e-06,Moderately soluble,-8.86,5.83e-07,1.39e-09,Poorly soluble,High,No,No,No,No,Yes,No,Yes,-6.37,0,0,0,0,0,0.55,0,0,2,4.05
Molecule 35,Oc1cc(O)c2c(c1)O[C@H]([C@@H](C2=O)O[C@H]1OC[C@@H]([C@H]([C@H]1O)O)O)c1cccc(c1O)O,C20H20O11,436.37,31,12,0.35,3,11,7,101.17,186.37,1.48,-0.04,-0.67,-2.14,-0.98,-0.47,-2.61,1.07e+00,2.46e-03,Soluble,-3.42,1.65e-01,3.77e-04,Soluble,-0.72,8.24e+01,1.89e-01,Soluble,Low,No,No,No,No,No,No,No,-8.99,2,1,1,1,3,0.17,1,1,1,5.08
Molecule 36,Oc1cc(O)c2c(c1)oc(c(c2=O)O[C@H]1OC[C@H]([C@@H]([C@@H]1O)O)O)c1ccc(c(c1)O)O,C20H18O11,434.35,31,16,0.25,3,11,7,104.19,190.28,1.75,0.43,0.10,-2.06,-0.10,0.02,-2.99,4.47e-01,1.03e-03,Soluble,-3.99,4.41e-02,1.02e-04,Soluble,-1.94,4.96e+00,1.14e-02,Soluble,Low,No,No,No,No,No,No,No,-8.64,2,0,1,1,3,0.17,1,1,1,5.05
Molecule 37,O=C[C@@](C(C)C)(CC[C@@H]([C@H]1CC[C@H]2[C@@]1(C)CC[C@@H]1[C@@H]2CC=C2[C@@]1(C)CC[C@@H](C2)O)C)O,C28H46O3,430.66,31,0,0.89,6,3,2,129.82,57.53,4.10,6.34,5.93,4.62,5.58,5.31,-6.11,3.36e-04,7.79e-07,Poorly soluble,-7.34,1.98e-05,4.59e-08,Poorly soluble,-4.75,7.57e-03,1.76e-05,Moderately soluble,High,No,No,No,No,No,No,No,-4.43,1,2,0,1,1,0.55,0,2,2,5.99
Molecule 38,COc1ccc(c(c1O)O)[C@H]1COc2c(C1)ccc1c2C=C[C@](O1)(C)CCC=C(C)C,C26H30O5,422.51,31,12,0.38,5,5,2,123.30,68.15,4.51,5.81,5.63,3.37,5.44,4.95,-6.08,3.54e-04,8.39e-07,Poorly soluble,-7.01,4.12e-05,9.74e-08,Poorly soluble,-6.29,2.19e-04,5.18e-07,Poorly soluble,High,No,Yes,No,No,Yes,No,Yes,-4.75,0,1,0,0,1,0.55,1,2,2,4.95
Molecule 39,Oc1cc(O)c2c(c1)CC(=C(C2=O)O[C@@H]1CC[C@H]([C@@H]([C@H]1O)O)O)c1ccc(c(c1)O)O,C22H22O9,430.40,31,12,0.32,3,9,7,108.49,167.91,1.88,1.42,0.92,-0.92,0.67,0.79,-3.49,1.39e-01,3.22e-04,Soluble,-4.55,1.21e-02,2.81e-05,Moderately soluble,-2.24,2.49e+00,5.78e-03,Soluble,Low,No,Yes,No,No,No,No,No,-7.92,1,0,1,1,2,0.55,1,1,1,5.14
Molecule 40,OCc1cc(O)c2c(c1)[C@](C)(c1c(C2=O)c(O)ccc1)[C@@]1(O)C[C@@H](O)[C@@H]([C@@H](O1)CO)O,C22H24O9,432.42,31,12,0.41,3,9,7,106.69,167.91,2.38,0.63,-0.52,-0.97,1.08,0.52,-3.01,4.26e-01,9.85e-04,Soluble,-3.73,8.03e-02,1.86e-04,Soluble,-2.83,6.35e-01,1.47e-03,Soluble,Low,No,Yes,No,No,No,No,No,-8.49,1,1,1,1,2,0.55,0,0,1,5.06
Molecule 41,CC(=CCc1c2O[C@H](c3ccc(cc3)O)[C@H](C(=O)c2c(c2c1OC(C)(C)C=C2)O)O)C,C25H26O6,422.47,31,12,0.32,3,6,3,118.55,96.22,3.24,5.04,4.03,2.01,4.30,3.73,-5.72,8.00e-04,1.89e-06,Moderately soluble,-6.80,6.67e-05,1.58e-07,Poorly soluble,-5.22,2.52e-03,5.97e-06,Moderately soluble,High,No,No,No,No,Yes,No,Yes,-5.30,0,0,0,0,1,0.55,0,1,2,4.85
Molecule 42,CC(=CCc1c2O[C@H](c3ccc(cc3)O)[C@H](C(=O)c2c(c2c1OC(C)(C)C=C2)O)O)C,C25H26O6,422.47,31,12,0.32,3,6,3,118.55,96.22,3.24,5.04,4.03,2.01,4.30,3.73,-5.72,8.00e-04,1.89e-06,Moderately soluble,-6.80,6.67e-05,1.58e-07,Poorly soluble,-5.22,2.52e-03,5.97e-06,Moderately soluble,High,No,No,No,No,Yes,No,Yes,-5.30,0,0,0,0,1,0.55,0,1,2,4.85
Molecule 43,CC(=CCc1c2O[C@H](Cc2c(c2c1occ(c2=O)c1ccc(cc1)O)O)C(O)(C)C)C,C25H26O6,422.47,31,16,0.32,4,6,3,120.65,100.13,3.85,4.95,4.45,1.90,5.18,4.07,-5.70,8.51e-04,2.01e-06,Moderately soluble,-6.79,6.84e-05,1.62e-07,Poorly soluble,-6.46,1.47e-04,3.48e-07,Poorly soluble,High,No,No,No,No,Yes,No,No,-5.36,0,0,0,0,0,0.55,0,1,2,4.55
Molecule 44,OC[C@@H]1O[C@@H]([C@H]([C@@H]([C@H]1O)O)O)c1cc(ccc1O)c1cc(=O)c2c(o1)cc(cc2O)O,C21H20O10,432.38,31,16,0.29,3,10,7,106.61,181.05,1.26,0.21,-0.23,-2.02,0.33,-0.09,-2.84,6.29e-01,1.46e-03,Soluble,-3.57,1.16e-01,2.68e-04,Soluble,-2.38,1.81e+00,4.20e-03,Soluble,Low,No,No,No,No,No,No,No,-8.79,1,0,1,1,2,0.55,0,0,1,5.04
Molecule 45,OC[C@@H]1O[C@H](Oc2cc(O)c3c(c2)oc(cc3=O)c2ccc(cc2)O)[C@H]([C@@H]([C@H]1O)O)O,C21H20O10,432.38,31,16,0.29,4,10,6,106.11,170.05,1.06,1.81,0.05,-1.61,0.35,0.33,-3.78,7.19e-02,1.66e-04,Soluble,-5.00,4.32e-03,9.99e-06,Moderately soluble,-2.69,8.77e-01,2.03e-03,Soluble,Low,No,Yes,No,No,No,No,No,-7.65,1,0,1,1,2,0.55,0,0,1,5.12
Molecule 46,OC[C@@H]1O[C@@H](O)[C@H]([C@@H]([C@H]1O)O)c1c(O)cc(c2c1oc(cc2=O)c1ccc(cc1)O)O,C21H20O10,432.38,31,16,0.29,3,10,7,106.61,181.05,1.59,0.52,0.09,-1.61,0.33,0.19,-3.03,4.01e-01,9.28e-04,Soluble,-3.89,5.53e-02,1.28e-04,Soluble,-2.38,1.81e+00,4.20e-03,Soluble,Low,No,No,No,No,No,No,No,-8.57,1,0,1,1,2,0.55,0,0,1,5.19
Molecule 47,OC[C@H]1O[C@H]([C@@H]([C@H]([C@@H]1O)O)O)c1c(O)cc(c2c1oc(cc2=O)c1ccc(cc1)O)O,C21H20O10,432.38,31,16,0.29,3,10,7,106.61,181.05,1.63,0.21,-0.23,-2.02,0.33,-0.02,-2.84,6.29e-01,1.46e-03,Soluble,-3.57,1.16e-01,2.68e-04,Soluble,-2.38,1.81e+00,4.20e-03,Soluble,Low,No,No,No,No,No,No,No,-8.79,1,0,1,1,2,0.55,0,0,1,5.12
Molecule 48,OC[C@H]1O[C@H]([C@@H]([C@H]([C@@H]1O)O)O)c1c(O)cc2c(c1O)c(=O)cc(o2)c1ccc(cc1)O,C21H20O10,432.38,31,16,0.29,3,10,7,106.61,181.05,1.97,0.21,-0.23,-2.02,0.33,0.05,-2.84,6.29e-01,1.46e-03,Soluble,-3.57,1.16e-01,2.68e-04,Soluble,-2.38,1.81e+00,4.20e-03,Soluble,Low,No,No,No,No,No,No,No,-8.79,1,0,1,1,2,0.55,0,0,1,4.99
Molecule 49,OC[C@H]1O[C@H]([C@H]([C@H]1O)O)OC1=C(Cc2c(C1=O)c(O)cc(c2)O)c1ccc(c(c1)O)O,C21H20O10,432.38,31,12,0.29,4,10,7,104.77,177.14,1.02,1.20,0.11,-1.50,0.19,0.21,-3.30,2.17e-01,5.02e-04,Soluble,-4.52,1.32e-02,3.05e-05,Moderately soluble,-1.82,6.48e+00,1.50e-02,Soluble,Low,No,Yes,No,No,No,No,No,-8.09,1,0,1,1,2,0.55,1,1,1,5.16
Molecule 50,OC1=C2C(=CC=C3[C@]2(C)CC[C@@H](C3(C)C)OC(=O)c2ccccc2)C=C([C@@H]1O)C(C)C,C27H32O4,420.54,31,6,0.44,4,4,2,123.03,66.76,4.04,4.61,5.67,4.14,4.51,4.60,-5.23,2.47e-03,5.88e-06,Moderately soluble,-5.74,7.71e-04,1.83e-06,Moderately soluble,-5.45,1.50e-03,3.56e-06,Moderately soluble,High,No,Yes,No,Yes,Yes,No,Yes,-5.59,0,1,0,0,0,0.55,0,0,2,5.28
Molecule 51,OC1=C2C(=CC=C3[C@]2(C)CC[C@H](C3(C)C)OC(=O)c2ccccc2)C=C(C1=O)C(C)C,C27H30O4,418.52,31,6,0.41,4,4,1,122.07,63.60,3.88,5.60,5.88,4.06,5.10,4.91,-5.84,6.02e-04,1.44e-06,Moderately soluble,-6.70,8.39e-05,2.00e-07,Poorly soluble,-6.14,3.00e-04,7.16e-07,Poorly soluble,High,No,No,No,Yes,Yes,No,Yes,-4.88,0,1,0,1,1,0.55,0,0,2,4.93
Molecule 52,OC1=C2C(=CC=C3[C@]2(C)CC[C@@H](C3(C)C)OC(=O)c2ccccc2)C=C(C1=O)C(C)C,C27H30O4,418.52,31,6,0.41,4,4,1,122.07,63.60,3.70,5.60,5.88,4.06,5.10,4.87,-5.84,6.02e-04,1.44e-06,Moderately soluble,-6.70,8.39e-05,2.00e-07,Poorly soluble,-6.14,3.00e-04,7.16e-07,Poorly soluble,High,No,No,No,Yes,Yes,No,Yes,-4.88,0,1,0,1,1,0.55,0,0,2,4.93
Molecule 53,O=C1C(=O)C(=CC2=CC=C3[C@]([C@H]12)(C)CC[C@@H](C3(C)C)OC(=O)c1ccccc1)C(C)C,C27H30O4,418.52,31,6,0.44,4,4,0,121.17,60.44,3.38,5.26,5.26,4.06,5.30,4.65,-5.63,9.86e-04,2.36e-06,Moderately soluble,-6.28,2.20e-04,5.26e-07,Poorly soluble,-6.41,1.64e-04,3.91e-07,Poorly soluble,High,Yes,No,No,Yes,Yes,No,Yes,-5.12,0,0,0,0,1,0.55,1,1,2,5.21
Molecule 54,Cc1cc(O)c2c(c1c1c(O)cc(c(c1O)C(=O)C)O)C(=O)c1c(C2=O)c(O)ccc1,C23H16O8,420.37,31,18,0.09,2,8,5,110.46,152.36,2.10,3.87,3.17,0.05,3.65,2.57,-5.18,2.76e-03,6.58e-06,Moderately soluble,-6.77,7.19e-05,1.71e-07,Poorly soluble,-5.51,1.29e-03,3.07e-06,Moderately soluble,Low,No,No,Yes,No,Yes,No,Yes,-6.12,0,0,1,1,1,0.55,1,0,2,3.48
Molecule 55,C/C(=C\CC[C@@]1(C)C=Cc2c(O1)c(C)cc(c2)O)/CC/C=C(\C(=O)O)/CCC=C(C)C,C27H36O4,424.57,31,6,0.44,10,4,2,130.01,66.76,4.52,7.21,7.02,4.41,6.72,5.98,-6.50,1.35e-04,3.18e-07,Poorly soluble,-8.43,1.56e-06,3.67e-09,Poorly soluble,-5.82,6.40e-04,1.51e-06,Moderately soluble,Low,No,Yes,No,Yes,Yes,No,Yes,-3.77,1,2,0,1,1,0.56,0,2,3,4.90
Molecule 56,COc1cc2c(cc1OC)OC[C@H]1[C@]2(O)C(=O)c2c(O1)c1c(cc2)O[C@@H]2[C@H]1C2(C)C,C23H22O7,410.42,30,12,0.43,2,7,1,105.30,83.45,3.19,2.89,2.70,1.21,3.60,2.72,-4.37,1.75e-02,4.27e-05,Moderately soluble,-4.30,2.04e-02,4.98e-05,Moderately soluble,-5.60,1.02e-03,2.49e-06,Moderately soluble,High,No,No,No,No,Yes,Yes,Yes,-6.75,0,0,0,0,0,0.55,0,0,1,4.75
Molecule 57,CC[C@]1(C)OC[C@@H]2[C@@H]1[C@H]1[C@H](O)C[C@]3([C@]4([C@@H]1C(=O)C2)O[C@H]4C(=O)O[C@H]3c1cocc1)C,C23H28O7,416.46,30,5,0.74,2,7,1,104.26,98.50,2.59,1.26,2.10,0.89,2.86,1.94,-3.21,2.58e-01,6.21e-04,Soluble,-2.93,4.92e-01,1.18e-03,Soluble,-4.01,4.06e-02,9.75e-05,Moderately soluble,High,No,Yes,No,No,No,Yes,No,-7.95,0,0,0,0,0,0.55,0,1,1,6.06
Molecule 58,COc1cc(C)c(c2c1c(OC)cc(c2)C)c1c(O)cc(c2c1C[C@@H](C)N[C@@H]2C)O,C25H29NO4,407.50,30,16,0.36,3,5,3,125.30,70.95,3.68,5.00,4.44,2.86,5.32,4.26,-5.71,7.89e-04,1.94e-06,Moderately soluble,-6.23,2.40e-04,5.89e-07,Poorly soluble,-7.58,1.07e-05,2.62e-08,Poorly soluble,High,Yes,Yes,No,Yes,No,No,Yes,-5.24,0,0,0,0,0,0.55,1,0,2,4.06
Molecule 59,COc1c2[C@@H](C)N[C@H](Cc2cc(c1c1c(C)cc(c2c1cccc2OC)OC)O)C,C25H29NO4,407.50,30,16,0.36,4,5,2,124.80,59.95,4.03,4.96,4.44,2.86,5.33,4.32,-5.62,9.73e-04,2.39e-06,Moderately soluble,-5.96,4.50e-04,1.10e-06,Moderately soluble,-7.90,5.18e-06,1.27e-08,Poorly soluble,High,Yes,Yes,No,Yes,No,No,Yes,-5.26,0,0,0,0,0,0.55,0,0,2,4.06
Molecule 60,COc1c2C(=N[C@H](Cc2cc(c1c1c(C)cc(c2c1cccc2OC)OC)O)C)C,C25H27NO4,405.49,30,16,0.32,4,5,1,125.10,60.28,4.03,4.84,4.92,2.78,6.40,4.59,-5.53,1.19e-03,2.92e-06,Moderately soluble,-5.84,5.87e-04,1.45e-06,Moderately soluble,-8.11,3.15e-06,7.76e-09,Poorly soluble,High,Yes,Yes,No,Yes,Yes,No,Yes,-5.34,0,0,0,0,0,0.55,0,0,2,4.25
Molecule 61,COc1cc2cc(C)nc(c2c(c1c1c(C)cc2c(c1O)c(OC)ccc2)OC)C,C25H25NO4,403.47,30,20,0.24,4,5,1,121.08,60.81,3.75,5.70,5.71,2.67,6.21,4.81,-6.16,2.78e-04,6.89e-07,Poorly soluble,-6.74,7.29e-05,1.81e-07,Poorly soluble,-8.78,6.67e-07,1.65e-09,Poorly soluble,High,No,Yes,No,Yes,Yes,No,No,-4.71,0,1,0,0,1,0.55,0,0,2,3.17
Molecule 62,COc1cc(OC)c2c(c1c1c(C)cc3c(c1O)c(OC)ccc3)C[C@H](N=C2C)C,C25H27NO4,405.49,30,16,0.32,4,5,1,125.10,60.28,4.09,4.84,4.92,2.78,6.40,4.61,-5.53,1.19e-03,2.92e-06,Moderately soluble,-5.84,5.87e-04,1.45e-06,Moderately soluble,-8.11,3.15e-06,7.76e-09,Poorly soluble,High,Yes,Yes,No,Yes,Yes,No,Yes,-5.34,0,0,0,0,0,0.55,0,0,2,4.37
Molecule 63,COC1=CC2=C([C@@H]([C@H]1c1c(C)cc3c(c1O)c(OC)ccc3)OC)C(=N[C@H](C2)C)C,C25H29NO4,407.50,30,10,0.40,4,5,1,124.08,60.28,3.73,3.36,4.67,2.32,5.21,3.86,-4.47,1.39e-02,3.42e-05,Moderately soluble,-4.30,2.02e-02,4.97e-05,Moderately soluble,-6.52,1.24e-04,3.03e-07,Poorly soluble,High,Yes,Yes,No,No,No,Yes,Yes,-6.40,0,0,0,0,0,0.55,0,0,1,5.40
Molecule 64,COc1cc(C)cc2c1c(O)cc(c2c1c(O)cc(c2c1C[C@@H](C)N([C@@H]2C)C)O)C,C25H29NO4,407.50,30,16,0.36,2,5,3,125.73,73.16,3.77,5.14,4.48,2.86,4.72,4.20,-5.87,5.53e-04,1.36e-06,Moderately soluble,-6.42,1.54e-04,3.79e-07,Poorly soluble,-6.55,1.15e-04,2.82e-07,Poorly soluble,High,Yes,Yes,No,Yes,No,No,No,-5.14,0,0,0,0,1,0.55,1,0,2,4.07
Molecule 65,COc1cc(O)c(c2c1[C@H](C)N[C@H](C2)C)c1c(C)cc(c2c1cccc2OC)OC,C25H29NO4,407.50,30,16,0.36,4,5,2,124.80,59.95,4.38,4.96,4.44,2.86,5.33,4.39,-5.62,9.73e-04,2.39e-06,Moderately soluble,-5.96,4.50e-04,1.10e-06,Moderately soluble,-7.90,5.18e-06,1.27e-08,Poorly soluble,High,Yes,Yes,No,Yes,No,No,Yes,-5.26,0,0,0,0,0,0.55,0,0,2,4.09
Molecule 66,COc1cc(O)c(c2c1[C@H](C)N[C@H](C2)C)c1c(C)cc(c2c1cccc2OC)OC,C25H29NO4,407.50,30,16,0.36,4,5,2,124.80,59.95,4.38,4.96,4.44,2.86,5.33,4.39,-5.62,9.73e-04,2.39e-06,Moderately soluble,-5.96,4.50e-04,1.10e-06,Moderately soluble,-7.90,5.18e-06,1.27e-08,Poorly soluble,High,Yes,Yes,No,Yes,No,No,Yes,-5.26,0,0,0,0,0,0.55,0,0,2,4.09
Molecule 67,COc1cc(OC)c2c(c1)[C@@H]([C@@H](N=C2C)C)c1c(C)cc2c(c1O)c(OC)ccc2,C25H27NO4,405.49,30,16,0.32,4,5,1,124.15,60.28,4.12,4.67,4.84,2.78,5.99,4.48,-5.43,1.52e-03,3.74e-06,Moderately soluble,-5.66,8.81e-04,2.17e-06,Moderately soluble,-7.88,5.36e-06,1.32e-08,Poorly soluble,High,Yes,Yes,No,Yes,Yes,No,Yes,-5.46,0,0,0,0,0,0.55,0,0,2,4.57
Molecule 68,COc1cc2oc(cc(=O)c2c(c1c1coc(c(c1=O)OC)C)O)c1ccccc1,C23H18O7,406.38,30,22,0.13,4,7,1,111.87,99.11,3.69,3.74,4.11,0.47,5.10,3.42,-4.99,4.12e-03,1.01e-05,Moderately soluble,-5.51,1.25e-03,3.07e-06,Moderately soluble,-8.17,2.76e-06,6.79e-09,Poorly soluble,High,No,No,No,No,Yes,No,Yes,-6.12,0,0,0,0,0,0.55,0,0,2,3.94
Molecule 69,COc1cc2oc(cc(=O)c2c(c1c1coc(c(c1=O)O)C)OC)c1ccccc1,C23H18O7,406.38,30,22,0.13,4,7,1,111.87,99.11,3.39,3.19,4.11,0.47,5.10,3.25,-4.65,9.14e-03,2.25e-05,Moderately soluble,-4.94,4.64e-03,1.14e-05,Moderately soluble,-8.17,2.76e-06,6.79e-09,Poorly soluble,High,No,No,No,No,Yes,No,Yes,-6.51,0,0,0,0,0,0.55,0,0,1,3.95
Molecule 70,COc1cc(OC)c(cc1c1coc2c(c1=O)c(O)c1c(c2)OC(C=C1)(C)C)OC,C23H22O7,410.42,30,16,0.26,4,7,1,113.54,87.36,4.20,4.21,4.27,1.22,4.56,3.69,-5.17,2.79e-03,6.80e-06,Moderately soluble,-5.75,7.22e-04,1.76e-06,Moderately soluble,-6.71,7.91e-05,1.93e-07,Poorly soluble,High,No,No,No,Yes,Yes,No,Yes,-5.81,0,0,0,0,0,0.55,0,0,2,4.13
Molecule 71,CC(=CCc1cc(cc2c1OC(C)(C)CC2)[C@@H]1CC(=O)c2c(O1)cc(cc2O)O)C,C25H28O5,408.49,30,12,0.40,3,5,2,117.07,75.99,3.89,5.65,5.09,2.90,5.60,4.63,-6.03,3.81e-04,9.33e-07,Poorly soluble,-7.01,3.99e-05,9.77e-08,Poorly soluble,-6.51,1.26e-04,3.08e-07,Poorly soluble,High,No,Yes,No,Yes,Yes,No,Yes,-4.78,0,0,0,0,1,0.55,0,1,2,4.19
Molecule 72,CC(=CCc1c2O[C@@H](CC(=O)c2c(c2c1OC(C)(C)C=C2)O)c1ccc(cc1)O)C,C25H26O5,406.47,30,12,0.32,3,5,2,117.39,75.99,3.22,5.60,5.06,2.82,5.20,4.38,-5.99,4.20e-04,1.03e-06,Moderately soluble,-6.96,4.48e-05,1.10e-07,Poorly soluble,-6.04,3.67e-04,9.04e-07,Poorly soluble,High,No,No,No,Yes,Yes,No,Yes,-4.80,0,0,0,0,1,0.55,0,1,2,4.53
Molecule 73,CC(=CCc1c2O[C@H](c3ccccc3)[C@H](C(=O)c2c(c2c1OC(C)(C)C=C2)O)O)C,C25H26O5,406.47,30,12,0.32,3,5,2,116.53,75.99,3.76,5.40,4.33,2.55,4.78,4.16,-5.86,5.61e-04,1.38e-06,Moderately soluble,-6.75,7.22e-05,1.78e-07,Poorly soluble,-5.81,6.24e-04,1.53e-06,Moderately soluble,High,No,No,No,Yes,Yes,No,Yes,-4.95,0,0,0,0,1,0.55,0,1,2,4.81
Molecule 74,OCc1cc(O)c2c(c1)[C@H](c1c(C2=O)c(O)ccc1)[C@@]1(O)C[C@@H](O)[C@@H]([C@@H](O1)CO)O,C21H22O9,418.39,30,12,0.38,3,9,7,102.00,167.91,1.35,0.08,-0.69,-1.19,0.57,0.02,-2.58,1.09e+00,2.62e-03,Soluble,-3.16,2.89e-01,6.91e-04,Soluble,-2.24,2.41e+00,5.75e-03,Soluble,Low,No,No,No,No,No,No,No,-8.80,1,1,1,1,2,0.55,0,0,1,4.95
Molecule 75,CC[C@@H](C(C)C)CC[C@@H]([C@H]1CC[C@H]2[C@@]1(C)CC[C@@H]1[C@@H]2CC=C2[C@@]1(C)CC[C@@H](C2)O)C,C29H50O,414.71,30,0,0.93,6,1,1,133.23,20.23,5.01,9.34,8.02,6.73,7.04,7.23,-7.90,5.23e-06,1.26e-08,Poorly soluble,-9.67,8.90e-08,2.15e-10,Poorly soluble,-6.19,2.69e-04,6.49e-07,Poorly soluble,Low,No,No,No,No,No,No,No,-2.20,1,3,0,1,2,0.55,0,1,2,6.30
Molecule 76,CC[C@@H](C(C)C)/C=C/[C@@H]([C@H]1CC[C@H]2[C@@]1(C)CC[C@@H]1[C@@H]2CC=C2[C@@]1(C)CC[C@@H](C2)O)C,C29H48O,412.69,30,0,0.86,5,1,1,132.75,20.23,4.94,8.56,7.80,6.62,6.86,6.96,-7.46,1.43e-05,3.46e-08,Poorly soluble,-8.86,5.71e-07,1.38e-09,Poorly soluble,-5.47,1.40e-03,3.39e-06,Moderately soluble,Low,No,No,No,No,Yes,No,No,-2.74,1,3,0,1,2,0.55,0,1,2,6.21
Molecule 77,CC[C@H](C(C)C)/C=C/[C@H]([C@H]1CC[C@H]2[C@]1(C)CC[C@H]1[C@H]2CC=C2[C@]1(C)CC[C@@H](C2)O)C,C29H48O,412.69,30,0,0.86,5,1,1,132.75,20.23,4.93,8.56,7.80,6.62,6.86,6.96,-7.46,1.43e-05,3.46e-08,Poorly soluble,-8.86,5.71e-07,1.38e-09,Poorly soluble,-5.47,1.40e-03,3.39e-06,Moderately soluble,Low,No,No,No,No,Yes,No,No,-2.74,1,3,0,1,2,0.55,0,1,2,6.21
Molecule 78,CC(=O)O[C@H]1[C@@H]2[C@@H](O)[C@@]3([C@@]([C@H]1OCc1ccccc1)(C)CCC[C@]3(C)O)OC2(C)C,C24H34O6,418.52,30,6,0.71,5,6,2,112.42,85.22,3.68,2.20,2.83,1.94,3.25,2.78,-3.64,9.61e-02,2.30e-04,Soluble,-3.62,9.95e-02,2.38e-04,Soluble,-4.74,7.55e-03,1.80e-05,Moderately soluble,High,No,Yes,No,No,No,Yes,No,-7.29,0,0,0,0,0,0.55,0,0,1,5.93
Molecule 79,COc1c(O)cc2c(c1CC=C(C)C)c(=O)c1c(o2)cc2c(c1)cc(o2)C(O)(C)C,C24H24O6,408.44,30,17,0.29,4,6,2,117.62,93.04,3.99,4.65,5.03,1.85,5.50,4.20,-5.46,1.43e-03,3.49e-06,Moderately soluble,-6.33,1.91e-04,4.67e-07,Poorly soluble,-7.16,2.82e-05,6.90e-08,Poorly soluble,High,No,No,No,Yes,Yes,No,No,-5.49,0,0,0,0,0,0.55,0,2,2,3.93
Molecule 80,COc1c(O)cc(c2c1oc1c(c2=O)c(O)cc2c1C(C)(C)[C@H](O2)C)CC=C(C)C,C24H26O6,410.46,30,14,0.38,3,6,2,117.90,89.13,3.94,6.01,4.93,2.26,5.45,4.52,-6.32,1.97e-04,4.80e-07,Poorly soluble,-7.66,8.99e-06,2.19e-08,Poorly soluble,-6.66,9.02e-05,2.20e-07,Poorly soluble,High,No,No,No,Yes,Yes,No,No,-4.54,0,0,0,0,1,0.55,0,2,2,4.53
Molecule 81,COc1c(O)cc2c(c1CC=C(C)C)c(=O)c1c(o2)cc2c(c1O)C=CC(O2)(C)C,C24H24O6,408.44,30,14,0.29,3,6,2,118.37,89.13,4.10,5.62,4.95,2.19,5.17,4.41,-6.06,3.56e-04,8.70e-07,Poorly soluble,-7.25,2.27e-05,5.56e-08,Poorly soluble,-6.31,1.98e-04,4.85e-07,Poorly soluble,High,No,No,No,Yes,Yes,No,No,-4.80,0,0,0,0,1,0.55,0,2,2,4.26
Molecule 82,Oc1cc2O[C@@H](c3ccc(c(c3)O)O)[C@H](C(=O)c2c(c1)O)[C@H]1OC[C@@H]([C@H]([C@H]1O)O)O,C20H20O10,420.37,30,12,0.35,2,10,7,100.08,177.14,0.82,-0.62,-0.40,-1.78,-0.52,-0.50,-2.22,2.53e+00,6.03e-03,Soluble,-2.63,9.91e-01,2.36e-03,Soluble,-1.00,4.21e+01,1.00e-01,Soluble,Low,No,No,No,No,No,No,No,-9.30,1,1,1,1,2,0.55,1,1,1,4.75
Molecule 83,Oc1cc2O[C@H](c3ccc(c(c3)O)O)[C@H](C(=O)c2c(c1)O)[C@H]1OC[C@@H]([C@H]([C@H]1O)O)O,C20H20O10,420.37,30,12,0.35,2,10,7,100.08,177.14,0.58,-0.62,-0.40,-1.78,-0.52,-0.55,-2.22,2.53e+00,6.03e-03,Soluble,-2.63,9.91e-01,2.36e-03,Soluble,-1.00,4.21e+01,1.00e-01,Soluble,Low,No,No,No,No,No,No,No,-9.30,1,1,1,1,2,0.55,1,1,1,4.75
Molecule 84,Oc1cc2O[C@H](c3ccc(c(c3)O)O)[C@@H](C(=O)c2c(c1)O)[C@@H]1OC[C@H]([C@@H]([C@@H]1O)O)O,C20H20O10,420.37,30,12,0.35,2,10,7,100.08,177.14,1.23,-0.62,-0.40,-1.78,-0.52,-0.42,-2.22,2.53e+00,6.03e-03,Soluble,-2.63,9.91e-01,2.36e-03,Soluble,-1.00,4.21e+01,1.00e-01,Soluble,Low,No,No,No,No,No,No,No,-9.30,1,1,1,1,2,0.55,1,1,1,4.75
Molecule 85,CC[C@H](C(=O)C)CC[C@@H]([C@H]1CC[C@H]2[C@@]1(C)CC[C@@H]1[C@@H]2CC=C2[C@@]1(C)CC[C@@H](C2)O)C,C28H46O2,414.66,30,0,0.89,6,2,1,128.62,37.30,4.60,7.07,6.96,5.50,6.35,6.10,-6.47,1.41e-04,3.40e-07,Poorly soluble,-7.67,8.84e-06,2.13e-08,Poorly soluble,-5.70,8.25e-04,1.99e-06,Moderately soluble,Low,No,No,No,No,No,No,No,-3.81,1,2,0,1,1,0.55,0,1,2,5.94
Molecule 86,COc1c2C(=O)C[C@H](Oc2c(c2c1C=CC(O2)(C)C)CC=C(C)C)c1ccccc1,C26H28O4,404.50,30,12,0.35,4,4,0,119.83,44.76,4.16,5.73,5.66,3.59,6.22,5.07,-5.99,4.14e-04,1.02e-06,Moderately soluble,-6.44,1.48e-04,3.65e-07,Poorly soluble,-7.32,1.92e-05,4.75e-08,Poorly soluble,High,Yes,Yes,No,Yes,Yes,Yes,Yes,-4.70,0,1,0,0,1,0.55,0,1,2,4.60
Molecule 87,COc1c(OC)ccc2c1[C@@H](CC(=O)C)N(C)c1c2ccc2c1cc1OCOc1c2,C24H23NO5,405.44,30,16,0.29,4,5,0,118.24,57.23,3.56,3.94,4.02,2.44,4.53,3.70,-4.97,4.38e-03,1.08e-05,Moderately soluble,-4.84,5.84e-03,1.44e-05,Moderately soluble,-7.02,3.86e-05,9.53e-08,Poorly soluble,High,Yes,Yes,Yes,Yes,Yes,Yes,Yes,-5.98,0,0,0,0,0,0.55,0,0,2,3.93
Molecule 88,COc1cc2c(cc1OC)OC[C@H]1[C@]2(O)C(=O)c2c(O1)c1C=CC(Oc1cc2)(C)C,C23H22O7,410.42,30,12,0.35,2,7,1,108.03,83.45,3.69,2.98,2.89,1.13,3.60,2.86,-4.43,1.54e-02,3.75e-05,Moderately soluble,-4.40,1.65e-02,4.02e-05,Moderately soluble,-5.60,1.02e-03,2.49e-06,Moderately soluble,High,No,Yes,No,Yes,Yes,Yes,Yes,-6.69,0,0,0,0,0,0.55,0,0,1,4.71
Molecule 89,COc1cc2c(cc1OC)OC[C@@H]1[C@]2(O)C(=O)c2c(O1)c1C=CC(Oc1cc2)(C)C,C23H22O7,410.42,30,12,0.35,2,7,1,108.03,83.45,3.54,2.98,2.89,1.13,3.60,2.83,-4.43,1.54e-02,3.75e-05,Moderately soluble,-4.40,1.65e-02,4.02e-05,Moderately soluble,-5.60,1.02e-03,2.49e-06,Moderately soluble,High,No,Yes,No,Yes,Yes,Yes,Yes,-6.69,0,0,0,0,0,0.55,0,0,1,4.71
Molecule 90,COc1ccc2c(c1CC=C(C)C)O[C@H]1[C@](C2=O)(O)c2cc3OCOc3cc2OC1,C23H22O7,410.42,30,12,0.35,3,7,1,107.20,83.45,3.62,3.83,3.05,1.54,4.22,3.25,-4.90,5.22e-03,1.27e-05,Moderately soluble,-5.28,2.16e-03,5.27e-06,Moderately soluble,-5.63,9.58e-04,2.33e-06,Moderately soluble,High,No,No,No,Yes,Yes,Yes,Yes,-6.08,0,0,0,0,0,0.55,0,1,2,4.58
Molecule 91,COc1cc2OC[C@H]3[C@H](c2cc1OC)C(=O)c1c(O3)c2C[C@@H](Oc2cc1O)C(=C)C,C23H22O7,410.42,30,12,0.35,3,7,1,108.18,83.45,3.86,4.30,3.41,1.40,3.92,3.38,-5.19,2.64e-03,6.43e-06,Moderately soluble,-5.77,7.04e-04,1.71e-06,Moderately soluble,-5.41,1.59e-03,3.86e-06,Moderately soluble,High,No,No,No,Yes,Yes,Yes,Yes,-5.75,0,0,0,0,0,0.55,0,1,2,4.58
Molecule 92,COc1cc2OC[C@H]3[C@H](c2cc1OC)C(=O)c1c(O3)c2C=CC(Oc2cc1O)(C)C,C23H22O7,410.42,30,12,0.35,2,7,1,109.01,83.45,3.90,3.91,3.60,1.40,3.63,3.29,-5.01,3.99e-03,9.73e-06,Moderately soluble,-5.36,1.79e-03,4.35e-06,Moderately soluble,-5.38,1.70e-03,4.13e-06,Moderately soluble,High,No,No,Yes,Yes,Yes,Yes,Yes,-6.03,0,0,0,0,0,0.55,0,0,2,4.72
Molecule 93,O[C@@H]1[C@H](Oc2c(C1=O)c1OC(C)(C)C=Cc1c1c2C=CC(O1)(C)C)c1ccccc1,C25H24O5,404.46,30,12,0.32,1,5,1,114.91,64.99,3.74,4.20,4.19,2.55,4.43,3.82,-5.22,2.42e-03,5.98e-06,Moderately soluble,-5.27,2.15e-03,5.32e-06,Moderately soluble,-5.99,4.17e-04,1.03e-06,Moderately soluble,High,Yes,Yes,No,Yes,Yes,No,Yes,-5.79,0,0,0,0,0,0.55,0,0,2,4.68
Molecule 94,CC(=C)[C@@H]1CC[C@]2([C@@H]1[C@H]1CC[C@H]3[C@@]([C@@H]1CC2)(C)CC=C1[C@]3(C)CC[C@@H](C1(C)C)O)C,C29H46O,410.67,30,0,0.86,1,1,1,130.12,20.23,4.53,8.70,7.55,6.62,6.29,6.74,-7.80,6.49e-06,1.58e-08,Poorly soluble,-9.00,4.07e-07,9.91e-10,Poorly soluble,-6.13,3.02e-04,7.36e-07,Poorly soluble,Low,No,No,No,No,Yes,No,No,-2.63,1,3,0,1,2,0.55,0,1,2,6.13
Molecule 95,COc1cc2c(cc1OC)CC[C@H]1[C@]2(O)C(=O)c2c(O1)c1C[C@@H](Oc1cc2)C(=C)C,C24H24O6,408.44,30,12,0.38,3,6,1,110.48,74.22,3.25,4.01,3.25,1.88,4.54,3.39,-5.00,4.12e-03,1.01e-05,Moderately soluble,-5.27,2.19e-03,5.36e-06,Moderately soluble,-6.17,2.75e-04,6.73e-07,Poorly soluble,High,Yes,No,No,Yes,Yes,Yes,Yes,-5.94,0,0,0,0,0,0.55,0,1,2,4.70
Molecule 96,OCC(=C)[C@@H]1Oc2c(C1)c1O[C@H]3CCc4c([C@@H]3C(=O)c1cc2)cc(c(c4)OC)OC,C24H24O6,408.44,30,12,0.38,4,6,1,110.60,74.22,3.61,3.50,3.23,1.88,4.43,3.33,-4.61,1.00e-02,2.46e-05,Moderately soluble,-4.74,7.40e-03,1.81e-05,Moderately soluble,-5.97,4.37e-04,1.07e-06,Moderately soluble,High,Yes,No,No,Yes,Yes,Yes,Yes,-6.31,0,0,0,0,0,0.55,0,1,1,4.67
Molecule 97,COc1cc2c(cc1OC)OC[C@@H]1[C@H]2C(=O)c2c(O1)c1C=C[C@@H](Oc1cc2)C(=C)C,C24H22O6,406.43,30,12,0.29,3,6,0,111.28,63.22,3.90,4.59,4.07,2.07,4.23,3.77,-5.35,1.82e-03,4.47e-06,Moderately soluble,-5.64,9.27e-04,2.28e-06,Moderately soluble,-5.80,6.41e-04,1.58e-06,Moderately soluble,High,Yes,No,No,Yes,Yes,Yes,Yes,-5.52,0,0,0,0,0,0.55,0,1,2,4.92
Molecule 98,C=C1CC[C@]2([C@@H](C1)[C@]1(C)CC[C@@]3(C(=CC=C4C3=CC(=O)C(=C4C)O)[C@]1(CC2)C)C)C,C28H36O2,404.58,30,0,0.61,0,2,1,124.50,37.30,4.04,6.32,7.16,5.15,6.21,5.78,-6.33,1.89e-04,4.68e-07,Poorly soluble,-6.89,5.18e-05,1.28e-07,Poorly soluble,-6.49,1.32e-04,3.27e-07,Poorly soluble,Low,No,No,No,No,Yes,No,Yes,-4.28,1,1,0,1,1,0.55,0,1,2,6.13
Molecule 99,COc1cc2c(cc1OC)OC[C@H]1[C@]2(O)C(=O)c2c(O1)c1C[C@@H](Oc1cc2)C(=O)C,C22H20O8,412.39,30,12,0.36,3,8,1,103.07,100.52,3.01,1.85,1.71,0.13,3.21,1.98,-3.66,9.02e-02,2.19e-04,Soluble,-3.58,1.08e-01,2.62e-04,Soluble,-5.13,3.04e-03,7.36e-06,Moderately soluble,High,No,No,No,No,Yes,Yes,Yes,-7.50,0,0,0,0,0,0.55,0,0,1,4.55
Molecule 100,COc1cc2c(c3ccc4c(c3)OCO4)c3C(=O)OCc3c(c2c(c1OC)OC)O,C22H18O8,410.37,30,16,0.23,4,8,1,106.27,92.68,3.47,3.59,3.49,1.77,4.22,3.31,-4.78,6.86e-03,1.67e-05,Moderately soluble,-5.22,2.46e-03,5.99e-06,Moderately soluble,-6.25,2.33e-04,5.69e-07,Poorly soluble,High,No,No,No,Yes,Yes,Yes,Yes,-6.25,0,0,0,0,0,0.55,0,0,2,3.42
