Molecule,Canonical SMILES,Formula,MW,#Heavy atoms,#Aromatic heavy atoms,Fraction Csp3,#Rotatable bonds,#H-bond acceptors,#H-bond donors,MR,TPSA,iLOGP,XLOGP3,WLOGP,MLOGP,Silicos-IT Log P,Consensus Log P,ESOL Log S,ESOL Solubility (mg/ml),ESOL Solubility (mol/l),ESOL Class,Ali Log S,Ali Solubility (mg/ml),Ali Solubility (mol/l),Ali Class,Silicos-IT LogSw,Silicos-IT Solubility (mg/ml),Silicos-IT Solubility (mol/l),Silicos-IT class,GI absorption,BBB permeant,Pgp substrate,CYP1A2 inhibitor,CYP2C19 inhibitor,CYP2C9 inhibitor,CYP2D6 inhibitor,CYP3A4 inhibitor,log Kp (cm/s),Lipinski #violations,Ghose #violations,Veber #violations,Egan #violations,Muegge #violations,Bioavailability Score,PAINS #alerts,Brenk #alerts,Leadlikeness #violations,Synthetic Accessibility
Molecule 1,COc1cc2c(c3ccc4c(c3)OCO4)c3C(=O)OCc3c(c2c(c1OC)O)OC,C22H18O8,410.37,30,16,0.23,4,8,1,106.27,92.68,3.19,3.59,3.49,1.77,4.22,3.25,-4.78,6.86e-03,1.67e-05,Moderately soluble,-5.22,2.46e-03,5.99e-06,Moderately soluble,-6.25,2.33e-04,5.69e-07,Poorly soluble,High,No,Yes,No,Yes,Yes,Yes,Yes,-6.25,0,0,0,0,0,0.55,0,0,2,3.44
Molecule 2,CC[C@H](C(C)C)CC[C@@H]([C@@H]1CC[C@@H]2[C@@]1(C)C[C@H]1C3[C@]1(C2)CC=C1[C@]3(C)CCCC1)C,C30H50,410.72,30,0,0.93,6,0,0,134.50,0.00,5.39,10.76,9.05,8.91,8.17,8.46,-8.77,6.99e-07,1.70e-09,Poorly soluble,-10.72,7.88e-09,1.92e-11,Insoluble,-7.26,2.27e-05,5.53e-08,Poorly soluble,Low,No,No,No,No,No,No,No,-1.17,1,3,0,1,2,0.55,0,1,2,7.11
Molecule 3,CC(CC(=O)c1c(O)c2c(cc(=O)oc2c(c1O)CC=C(C)C)c1ccccc1)C,C25H26O5,406.47,30,16,0.28,6,5,2,120.30,87.74,3.55,5.80,5.61,3.18,6.20,4.87,-6.01,3.95e-04,9.71e-07,Poorly soluble,-7.41,1.57e-05,3.87e-08,Poorly soluble,-7.34,1.86e-05,4.57e-08,Poorly soluble,High,No,No,No,Yes,Yes,No,Yes,-4.66,0,1,0,0,1,0.55,0,2,2,3.99
Molecule 4,CC(=CCc1cc2C(=O)[C@@H](COc2c(c1O)CC=C(C)C)c1ccc(cc1O)O)C,C25H28O5,408.49,30,12,0.32,5,5,3,119.01,86.99,3.41,5.86,5.18,2.82,5.55,4.56,-6.03,3.81e-04,9.32e-07,Poorly soluble,-7.46,1.42e-05,3.48e-08,Poorly soluble,-5.87,5.50e-04,1.35e-06,Moderately soluble,High,No,No,No,No,Yes,No,Yes,-4.63,0,0,0,0,1,0.55,0,1,2,4.28
Molecule 5,CC(=CCc1c(cc(c(c1O)O)C=C(C)C)[C@@H]1CC(=O)c2c(O1)cc(cc2O)O)C,C24H26O6,410.46,30,12,0.29,4,6,4,117.02,107.22,3.12,5.59,4.71,2.07,4.67,4.03,-5.94,4.73e-04,1.15e-06,Moderately soluble,-7.60,1.02e-05,2.49e-08,Poorly soluble,-4.89,5.29e-03,1.29e-05,Moderately soluble,High,No,No,Yes,No,Yes,No,Yes,-4.83,0,0,0,0,1,0.55,1,2,2,4.39
Molecule 6,COc1c(CC=C(C)C)c2oc3c(O)ccc(c3c(=O)c2c(c1CC=C(C)C)O)O,C24H26O6,410.46,30,14,0.29,5,6,3,119.99,100.13,4.06,6.27,5.09,2.19,5.52,4.63,-6.35,1.83e-04,4.46e-07,Poorly soluble,-8.16,2.84e-06,6.91e-09,Poorly soluble,-6.14,2.97e-04,7.23e-07,Poorly soluble,High,No,No,No,No,Yes,No,No,-4.35,0,0,0,0,1,0.55,0,3,2,3.95
Molecule 7,CO[C@@H]1C(=Cc2c([C@H]1CC=C(C)C)c(=O)c1c(o2)cc(c(c1O)CC=C(C)C)O)O,C24H28O6,412.48,30,10,0.38,5,6,3,119.02,100.13,4.15,4.96,4.97,1.50,4.61,4.04,-5.44,1.50e-03,3.64e-06,Moderately soluble,-6.80,6.52e-05,1.58e-07,Poorly soluble,-4.86,5.65e-03,1.37e-05,Moderately soluble,High,No,No,No,No,Yes,No,Yes,-5.29,0,0,0,0,0,0.55,0,1,2,5.00
Molecule 8,COc1c(O)cc2c(c1CC=C(C)C)c(=O)c1c(o2)cc(c(c1O)CC=C(C)C)O,C24H26O6,410.46,30,14,0.29,5,6,3,119.99,100.13,4.14,6.27,5.09,2.19,5.52,4.64,-6.35,1.83e-04,4.46e-07,Poorly soluble,-8.16,2.84e-06,6.91e-09,Poorly soluble,-6.14,2.97e-04,7.23e-07,Poorly soluble,High,No,No,No,No,Yes,No,No,-4.35,0,0,0,0,1,0.55,0,2,2,3.91
Molecule 9,COc1c(OC)cc2c(c1OC)c1ccc(c(=O)cc1[C@@H](CC2)NC(=O)C)OC,C22H25NO6,399.44,29,13,0.36,6,6,1,109.36,83.09,3.13,1.03,2.55,1.02,3.90,2.33,-2.90,5.02e-01,1.26e-03,Soluble,-2.36,1.72e+00,4.32e-03,Soluble,-6.66,8.76e-05,2.19e-07,Poorly soluble,High,No,Yes,No,No,No,Yes,Yes,-8.01,0,0,0,0,0,0.55,0,0,1,3.87
Molecule 10,C[C@H]1C[C@@H]2[C@H](C1)[C@H](OC(=O)/C=C\c1ccccc1)[C@]([C@H](C(C2)(C)C)O)(C)C(C)C,C26H38O3,398.58,29,6,0.65,5,3,1,120.76,46.53,4.01,6.93,5.62,4.76,5.22,5.31,-6.50,1.26e-04,3.16e-07,Poorly soluble,-7.72,7.60e-06,1.91e-08,Poorly soluble,-5.50,1.27e-03,3.18e-06,Moderately soluble,High,Yes,No,No,No,Yes,Yes,No,-3.81,1,1,0,0,1,0.55,0,1,2,5.11
Molecule 11,CC(=CCc1cc(cc(c1O)C=C(C)C)[C@@H]1CC(=O)c2c(O1)cc(cc2O)O)C,C24H26O5,394.46,29,12,0.29,4,5,3,115.00,86.99,3.85,6.08,5.01,2.61,5.14,4.54,-6.16,2.74e-04,6.95e-07,Poorly soluble,-7.69,8.11e-06,2.05e-08,Poorly soluble,-5.48,1.31e-03,3.32e-06,Moderately soluble,High,No,No,No,No,Yes,No,Yes,-4.39,0,0,0,0,1,0.55,0,1,2,4.19
Molecule 12,C=CC(c1c(O)c(CCC=C(C)C)c(c2c1oc1c(O)cccc1c2=O)O)(C)C,C24H26O5,394.46,29,14,0.29,5,5,3,118.19,90.90,4.16,6.62,5.43,2.73,5.84,4.96,-6.48,1.30e-04,3.28e-07,Poorly soluble,-8.33,1.85e-06,4.68e-09,Poorly soluble,-6.43,1.46e-04,3.70e-07,Poorly soluble,High,No,No,No,No,Yes,No,No,-4.01,0,0,0,0,1,0.55,0,2,2,3.87
Molecule 13,COC/C=C/c1ccc2c(c1)[C@H](COC(=O)C)[C@@H](O2)c1ccc(c(c1)OC)OC,C23H26O6,398.45,29,12,0.35,9,6,0,109.75,63.22,4.01,3.38,3.71,2.21,4.67,3.60,-4.15,2.81e-02,7.05e-05,Moderately soluble,-4.39,1.64e-02,4.11e-05,Moderately soluble,-6.03,3.74e-04,9.40e-07,Poorly soluble,High,Yes,No,No,Yes,Yes,Yes,Yes,-6.33,0,0,0,0,0,0.55,0,0,2,4.35
Molecule 14,COC/C=C/c1ccc2c(c1)[C@H](COC(=O)C)[C@@H](O2)c1ccc(c(c1)OC)OC,C23H26O6,398.45,29,12,0.35,9,6,0,109.75,63.22,4.01,3.38,3.71,2.21,4.67,3.60,-4.15,2.81e-02,7.05e-05,Moderately soluble,-4.39,1.64e-02,4.11e-05,Moderately soluble,-6.03,3.74e-04,9.40e-07,Poorly soluble,High,Yes,No,No,Yes,Yes,Yes,Yes,-6.33,0,0,0,0,0,0.55,0,0,2,4.35
Molecule 15,C/C(=C\Cc1c(O)cc2c(c1O)c(=O)c1c(o2)c(O)ccc1O)/CCC=C(C)C,C23H24O6,396.43,29,14,0.26,5,6,4,115.36,111.13,3.60,5.88,5.00,1.98,4.83,4.26,-6.03,3.70e-04,9.34e-07,Poorly soluble,-7.99,4.09e-06,1.03e-08,Poorly soluble,-5.47,1.35e-03,3.40e-06,Moderately soluble,High,No,No,Yes,No,Yes,No,No,-4.54,0,0,0,0,1,0.55,0,3,2,3.72
Molecule 16,CC(=CCc1c(O)c(CC=C(C)C)c(c2c1oc1c(O)ccc(c1c2=O)O)O)C,C23H24O6,396.43,29,14,0.26,4,6,4,115.52,111.13,3.80,5.95,4.79,1.98,4.96,4.30,-6.14,2.87e-04,7.25e-07,Poorly soluble,-8.06,3.46e-06,8.72e-09,Poorly soluble,-5.45,1.40e-03,3.54e-06,Moderately soluble,High,No,No,Yes,No,Yes,No,No,-4.49,0,0,0,0,1,0.55,0,3,2,3.89
Molecule 17,CC(=CC(=O)OC[C@@]1(C)CCC[C@]2(C1=CC=C1C2=C(O)C(=O)C(=C1)C(C)C)C)C,C25H32O4,396.52,29,0,0.52,5,4,1,116.11,63.60,4.04,5.51,5.54,3.54,5.16,4.76,-5.44,1.44e-03,3.63e-06,Moderately soluble,-6.60,9.86e-05,2.49e-07,Poorly soluble,-4.76,6.89e-03,1.74e-05,Moderately soluble,High,No,No,No,Yes,Yes,No,Yes,-4.81,0,0,0,0,1,0.55,0,1,2,5.26
Molecule 18,C/C(=C\COc1cc(O)c2c(c1)Cc1c(C2=O)c(O)cc(c1)C)/CCC=C(C)C,C25H28O4,392.49,29,12,0.32,6,4,2,117.15,66.76,4.74,6.89,5.61,3.38,6.28,5.38,-6.52,1.17e-04,2.99e-07,Poorly soluble,-8.10,3.10e-06,7.89e-09,Poorly soluble,-6.82,6.00e-05,1.53e-07,Poorly soluble,High,No,No,No,Yes,No,No,No,-3.80,0,1,0,0,1,0.55,0,1,2,3.72
Molecule 19,C=C[C@H]1COC(=O)[C@H](C=O)C[C@H]([C@H]([C@@H](C1)OC(=O)C(=C)CO)C(=C)C(=O)OC)O,C20H26O9,410.42,29,0,0.50,9,9,2,101.10,136.43,2.08,0.76,0.11,0.08,1.58,0.92,-2.27,2.21e+00,5.38e-03,Soluble,-3.20,2.56e-01,6.24e-04,Soluble,-1.08,3.40e+01,8.28e-02,Soluble,High,No,No,No,No,No,No,No,-8.26,0,0,0,1,0,0.55,0,5,2,5.23
Molecule 20,CC[C@H](C(=O)O[C@H]1CC(=CCC(=C[C@@H]2[C@H]1C(=C)C(=O)CO2)COC(=O)C)C=O)C,C22H28O7,404.45,29,0,0.55,8,7,0,106.27,95.97,2.93,1.93,2.49,1.28,3.40,2.41,-3.04,3.73e-01,9.21e-04,Soluble,-3.57,1.09e-01,2.70e-04,Soluble,-3.31,2.00e-01,4.94e-04,Soluble,High,No,No,No,No,No,No,No,-7.40,0,0,0,0,0,0.55,0,4,2,5.61
Molecule 21,CC(=CCc1cc(/C=C/C(=O)c2cc(CC=C(C)C)c(cc2O)O)ccc1O)C,C25H28O4,392.49,29,12,0.24,7,4,3,119.76,77.76,3.81,7.03,5.61,3.70,6.07,5.24,-6.55,1.12e-04,2.84e-07,Poorly soluble,-8.48,1.30e-06,3.32e-09,Poorly soluble,-5.70,7.92e-04,2.02e-06,Moderately soluble,High,No,No,Yes,No,Yes,No,Yes,-3.70,0,1,0,0,1,0.55,0,2,2,3.58
Molecule 22,C/C(=C\CC/C=C(/CC[C@@H](C(O)(C)C)O)\C)/CC/C=C(/CC[C@H](C(O)(C)C)O)\C,C25H46O4,410.63,29,0,0.76,14,4,4,125.59,80.92,4.68,5.14,5.21,3.46,5.93,4.88,-4.70,8.19e-03,1.99e-05,Moderately soluble,-6.58,1.07e-04,2.60e-07,Poorly soluble,-3.91,5.10e-02,1.24e-04,Soluble,High,No,Yes,Yes,No,No,Yes,No,-5.16,0,1,1,0,1,0.55,0,1,3,5.16
Molecule 23,COc1cc2c(c3ccc4c(c3)OCO4)c3C(=O)OCc3cc2c(c1OC)OC,C22H18O7,394.37,29,16,0.23,4,7,0,104.25,72.45,3.48,3.95,3.78,2.02,4.70,3.59,-4.92,4.76e-03,1.21e-05,Moderately soluble,-5.17,2.66e-03,6.74e-06,Moderately soluble,-6.83,5.79e-05,1.47e-07,Poorly soluble,High,Yes,Yes,Yes,Yes,Yes,Yes,Yes,-5.90,0,0,0,0,0,0.55,0,0,2,3.31
Molecule 24,COc1cc2c(cc1OC)CC[C@H]1[C@H]2C(=O)c2c(O1)c1C[C@@H](Oc1cc2)C(=C)C,C24H24O5,392.44,29,12,0.38,3,5,0,109.44,53.99,3.92,4.75,4.26,2.69,5.04,4.13,-5.37,1.66e-03,4.23e-06,Moderately soluble,-5.61,9.54e-04,2.43e-06,Moderately soluble,-6.54,1.13e-04,2.87e-07,Poorly soluble,High,Yes,No,No,Yes,Yes,Yes,Yes,-5.32,0,0,0,0,0,0.55,0,1,2,4.61
Molecule 25,O=C1C=C[C@]2([C@H]([C@H](O1)C)CC(=O)C[C@]13[C@H]2CC[C@@](C3=O)([C@@H](O1)c1ccoc1)C)C,C23H26O6,398.45,29,5,0.61,1,6,0,103.56,82.81,2.50,2.16,3.24,1.52,3.44,2.57,-3.73,7.37e-02,1.85e-04,Soluble,-3.53,1.17e-01,2.94e-04,Soluble,-4.86,5.56e-03,1.40e-05,Moderately soluble,High,No,Yes,No,No,No,No,No,-7.20,0,0,0,0,0,0.55,0,0,1,6.45
Molecule 26,COc1cc2c(cc1OC)OC[C@H]1[C@H]2C(=O)c2c(O1)c1C=CC(Oc1cc2)(C)C,C23H22O6,394.42,29,12,0.35,2,6,0,106.98,63.22,3.92,3.72,3.90,1.93,4.11,3.52,-4.80,6.21e-03,1.57e-05,Moderately soluble,-4.74,7.19e-03,1.82e-05,Moderately soluble,-5.97,4.20e-04,1.06e-06,Moderately soluble,High,Yes,No,No,Yes,Yes,Yes,Yes,-6.06,0,0,0,0,0,0.55,0,0,2,4.67
Molecule 27,COc1cc2c(cc1OC)OC[C@@H]1[C@H]2C(=O)c2c(O1)c1C=CC(Oc1cc2)(C)C,C23H22O6,394.42,29,12,0.35,2,6,0,106.98,63.22,3.86,3.72,3.90,1.93,4.11,3.50,-4.80,6.21e-03,1.57e-05,Moderately soluble,-4.74,7.19e-03,1.82e-05,Moderately soluble,-5.97,4.20e-04,1.06e-06,Moderately soluble,High,Yes,No,No,Yes,Yes,Yes,Yes,-6.06,0,0,0,0,0,0.55,0,0,2,4.67
Molecule 28,CC(=CCc1c(O)ccc2c1OC[C@H]1[C@H]2Oc2c1cc1c(c2)OC(C=C1)(C)C)C,C25H26O4,390.47,29,12,0.36,2,4,1,114.52,47.92,4.35,5.49,5.26,3.73,5.34,4.83,-5.89,4.99e-04,1.28e-06,Moderately soluble,-6.25,2.17e-04,5.57e-07,Poorly soluble,-6.25,2.21e-04,5.66e-07,Poorly soluble,High,Yes,Yes,No,Yes,Yes,Yes,Yes,-4.78,0,0,0,0,1,0.55,0,1,2,4.80
Molecule 29,COC(=O)[C@@H]1C[C@@]23CCCN4[C@@H]3[C@]3([C@@]1(CC2)N(C(=O)OC)c1c3cccc1)CC4,C23H28N2O4,396.48,29,6,0.65,4,5,0,114.71,59.08,3.58,2.72,2.33,3.13,2.32,2.82,-3.90,4.98e-02,1.26e-04,Soluble,-3.61,9.63e-02,2.43e-04,Soluble,-4.25,2.26e-02,5.69e-05,Moderately soluble,High,Yes,No,No,Yes,No,Yes,Yes,-6.79,0,0,0,0,0,0.55,0,1,1,5.44
Molecule 30,COC(=O)[C@@]12CO[C@@]34[C@]2(CCN2[C@H]3C[C@H]1/C(=C/C)/C2)Cc1cc(O)ccc1N4C,C23H28N2O4,396.48,29,6,0.61,2,5,1,115.53,62.24,3.05,1.82,1.55,2.59,2.33,2.27,-3.47,1.36e-01,3.42e-04,Soluble,-2.75,7.10e-01,1.79e-03,Soluble,-3.86,5.49e-02,1.38e-04,Soluble,High,Yes,No,No,No,No,Yes,No,-7.43,0,0,0,0,0,0.55,0,1,1,5.69
Molecule 31,O=C1c2ccc3c(c2O[C@H]2[C@]1(O)c1cc4OCOc4cc1OC2)CCC(O3)(C)C,C22H20O7,396.39,29,12,0.41,0,7,1,100.79,83.45,3.27,2.91,2.63,1.40,3.75,2.79,-4.44,1.45e-02,3.65e-05,Moderately soluble,-4.32,1.88e-02,4.75e-05,Moderately soluble,-5.58,1.04e-03,2.62e-06,Moderately soluble,High,No,No,Yes,Yes,Yes,Yes,Yes,-6.65,0,0,0,0,0,0.55,0,0,1,4.41
Molecule 32,O[C@@H]1CC[C@]2([C@@H](C1)CC[C@@]1([C@@H]2CC=C2[C@]1(C)CC[C@@]13[C@@H]2[C@H](C)[C@H](C)C[C@H]3C1)C)C,C28H44O,396.65,29,0,0.93,0,1,1,123.67,20.23,4.19,7.67,7.00,6.54,5.62,6.20,-7.13,2.93e-05,7.39e-08,Poorly soluble,-7.94,4.60e-06,1.16e-08,Poorly soluble,-5.63,9.23e-04,2.33e-06,Moderately soluble,Low,No,No,No,No,Yes,No,No,-3.27,1,2,0,1,2,0.55,0,1,2,6.37
Molecule 33,O[C@@H]1C[C@]2(C)[C@@H](OC(=O)[C@H]3[C@@]2([C@H]2[C@H]1[C@H]1[C@@H](CO[C@@]1(C)O)CC2=O)O3)c1ccoc1,C21H24O8,404.41,29,5,0.71,1,8,2,95.81,118.73,1.73,-0.22,0.64,0.07,1.47,0.74,-2.27,2.17e+00,5.37e-03,Soluble,-1.82,6.17e+00,1.53e-02,Very soluble,-2.65,8.95e-01,2.21e-03,Soluble,High,No,Yes,No,No,No,No,No,-8.92,0,0,0,0,0,0.55,0,1,1,5.92
Molecule 34,COc1c(OC)ccc2c1[C@H](CC(=O)C)N(C)c1c2ccc2c1cc(O)c(c2)O,C23H23NO5,393.43,29,16,0.26,4,5,2,116.22,79.23,2.83,3.42,3.70,1.82,3.71,3.10,-4.58,1.04e-02,2.64e-05,Moderately soluble,-4.76,6.77e-03,1.72e-05,Moderately soluble,-6.13,2.92e-04,7.43e-07,Poorly soluble,High,No,Yes,No,Yes,Yes,Yes,Yes,-6.27,0,0,0,0,0,0.55,1,1,1,3.76
Molecule 35,COc1c2[C@@H](C)N[C@@H](Cc2ccc1c1c(OC)cc(c2c1cccc2O)OC)C,C24H27NO4,393.48,29,16,0.33,4,5,2,119.84,59.95,3.96,4.59,4.13,2.65,4.80,4.03,-5.32,1.90e-03,4.84e-06,Moderately soluble,-5.57,1.05e-03,2.67e-06,Moderately soluble,-7.52,1.19e-05,3.01e-08,Poorly soluble,High,Yes,Yes,No,Yes,No,No,Yes,-5.44,0,0,0,0,0,0.55,0,0,2,4.00
Molecule 36,COc1cc(C)c(c2c1c(O)ccc2)c1c(O)cc(c2c1C[C@H](C)N([C@@H]2C)C)O,C24H27NO4,393.48,29,16,0.33,2,5,3,120.77,73.16,3.02,4.77,4.17,2.65,4.19,3.76,-5.56,1.08e-03,2.75e-06,Moderately soluble,-6.04,3.61e-04,9.18e-07,Poorly soluble,-6.17,2.63e-04,6.68e-07,Poorly soluble,High,Yes,Yes,No,Yes,No,No,No,-5.31,0,0,0,0,0,0.55,1,0,2,3.95
Molecule 37,COc1c2C=N[C@H](Cc2cc(c1c1c(C)cc2c(c1O)c(OC)cc(c2)C)O)C,C24H25NO4,391.46,29,16,0.29,3,5,2,120.79,71.28,3.88,4.57,4.53,2.58,5.88,4.29,-5.36,1.72e-03,4.40e-06,Moderately soluble,-5.79,6.34e-04,1.62e-06,Moderately soluble,-7.20,2.47e-05,6.31e-08,Poorly soluble,High,Yes,Yes,No,Yes,Yes,No,Yes,-5.44,0,0,0,0,0,0.55,0,0,2,4.21
Molecule 38,COc1c2C(=N[C@@H](Cc2cc(c1c1ccc(c2c1cc(C)cc2OC)O)O)C)C,C24H25NO4,391.46,29,16,0.29,3,5,2,120.63,71.28,3.86,4.51,4.62,2.58,5.85,4.28,-5.32,1.88e-03,4.80e-06,Moderately soluble,-5.73,7.32e-04,1.87e-06,Moderately soluble,-7.42,1.49e-05,3.81e-08,Poorly soluble,High,Yes,Yes,No,Yes,Yes,No,Yes,-5.49,0,0,0,0,0,0.55,0,0,2,4.11
Molecule 39,COc1cc(C)cc2c1c(O)cc(c2c1c(O)cc(c2c1C[C@@H](C)N[C@@H]2C)O)C,C24H27NO4,393.48,29,16,0.33,2,5,4,120.83,81.95,3.45,4.67,4.14,2.65,4.77,3.94,-5.50,1.25e-03,3.18e-06,Moderately soluble,-6.12,3.00e-04,7.62e-07,Poorly soluble,-6.89,5.07e-05,1.29e-07,Poorly soluble,High,No,Yes,No,Yes,No,No,No,-5.38,0,0,0,0,0,0.55,1,0,2,3.94
Molecule 40,COc1cc(O)c(c2c1C(=N[C@H](C2)C)C)c1ccc(c2c1cc(C)cc2O)OC,C24H25NO4,391.46,29,16,0.29,3,5,2,120.63,71.28,3.92,4.51,4.62,2.58,5.85,4.30,-5.32,1.88e-03,4.80e-06,Moderately soluble,-5.73,7.32e-04,1.87e-06,Moderately soluble,-7.42,1.49e-05,3.81e-08,Poorly soluble,High,Yes,Yes,No,Yes,Yes,No,Yes,-5.49,0,0,0,0,0,0.55,0,0,2,4.14
Molecule 41,COc1cc2oc(cc(=O)c2c(c1[C@H]1C[C@H](O)[C@@H]([C@H](O1)C)O)O)c1ccccc1,C22H22O7,398.41,29,16,0.32,3,7,3,106.73,109.36,3.24,2.36,2.42,0.27,2.85,2.23,-4.01,3.92e-02,9.84e-05,Moderately soluble,-4.30,2.01e-02,5.05e-05,Moderately soluble,-5.05,3.57e-03,8.95e-06,Moderately soluble,High,No,Yes,No,No,No,No,Yes,-7.05,0,0,0,0,0,0.55,0,0,1,4.80
Molecule 42,COc1c(C)occ(c1=O)c1c(O)cc2c(c1O)c(=O)cc(o2)c1ccccc1,C22H16O7,392.36,29,22,0.09,3,7,2,107.40,110.11,3.33,3.42,3.81,0.25,4.56,3.07,-4.79,6.35e-03,1.62e-05,Moderately soluble,-5.41,1.52e-03,3.87e-06,Moderately soluble,-7.48,1.31e-05,3.33e-08,Poorly soluble,High,No,No,No,No,Yes,No,Yes,-6.27,0,0,0,0,0,0.55,0,0,1,3.79
Molecule 43,COc1cc2oc(cc(=O)c2c(c1c1coc(c(c1=O)O)C)O)c1ccccc1,C22H16O7,392.36,29,22,0.09,3,7,2,107.40,110.11,3.44,3.42,3.81,0.25,4.56,3.10,-4.79,6.35e-03,1.62e-05,Moderately soluble,-5.41,1.52e-03,3.87e-06,Moderately soluble,-7.48,1.31e-05,3.33e-08,Poorly soluble,High,No,No,No,No,Yes,No,Yes,-6.27,0,0,0,0,0,0.55,0,0,1,3.82
Molecule 44,COc1cc2oc(cc(=O)c2c(c1c1coc(c(c1=O)O)C)O)c1ccccc1,C22H16O7,392.36,29,22,0.09,3,7,2,107.40,110.11,3.44,3.42,3.81,0.25,4.56,3.10,-4.79,6.35e-03,1.62e-05,Moderately soluble,-5.41,1.52e-03,3.87e-06,Moderately soluble,-7.48,1.31e-05,3.33e-08,Poorly soluble,High,No,No,No,No,Yes,No,Yes,-6.27,0,0,0,0,0,0.55,0,0,1,3.82
Molecule 45,COc1cc(O)c(cc1c1coc2c(c1=O)c(O)c1c(c2)OC(C=C1)(C)C)OC,C22H20O7,396.39,29,16,0.23,3,7,2,109.07,98.36,3.94,3.89,3.96,1.00,4.01,3.36,-4.96,4.36e-03,1.10e-05,Moderately soluble,-5.65,8.80e-04,2.22e-06,Moderately soluble,-6.03,3.74e-04,9.44e-07,Poorly soluble,High,No,No,No,No,Yes,No,Yes,-5.96,0,0,0,0,0,0.55,0,0,2,4.03
Molecule 46,CC[C@H](C/C=C/[C@@H]([C@@H]1CC[C@@H]2[C@@]1(C)CC[C@H]1[C@@H]2CC=C2[C@@]1(C)CC[C@H](C2)O)C)C,C28H46O,398.66,29,0,0.86,5,1,1,127.95,20.23,4.98,8.23,7.55,6.43,6.62,6.76,-7.17,2.72e-05,6.81e-08,Poorly soluble,-8.52,1.21e-06,3.05e-09,Poorly soluble,-5.45,1.41e-03,3.54e-06,Moderately soluble,Low,No,No,No,No,Yes,No,No,-2.89,1,2,0,1,2,0.55,0,1,2,6.09
Molecule 47,C/C=C\1/OC=C(C1=O)c1c(OC)cc2c(c1OC)c(=O)cc(o2)c1ccccc1,C23H18O6,390.39,29,16,0.13,4,6,0,108.92,74.97,3.47,3.75,4.32,1.07,5.12,3.55,-4.77,6.67e-03,1.71e-05,Moderately soluble,-5.02,3.75e-03,9.62e-06,Moderately soluble,-7.22,2.35e-05,6.03e-08,Poorly soluble,High,No,No,Yes,Yes,Yes,No,Yes,-6.02,0,0,0,0,0,0.56,0,1,2,3.87
Molecule 48,COc1cc(OC)c(cc1[C@H]1COc2c(C1=O)ccc1c2CCC(O1)(C)C)OC,C23H26O6,398.45,29,12,0.43,4,6,0,108.78,63.22,3.84,3.97,4.17,2.01,4.98,3.79,-4.85,5.58e-03,1.40e-05,Moderately soluble,-5.00,4.00e-03,1.00e-05,Moderately soluble,-6.78,6.57e-05,1.65e-07,Poorly soluble,High,Yes,Yes,No,Yes,Yes,Yes,Yes,-5.91,0,0,0,0,0,0.55,0,0,2,4.13
Molecule 49,CC(=CCc1c(O)c(O)cc2c1oc1cc3OC(C)(C)C=Cc3c(c1c2=O)O)C,C23H22O6,394.42,29,14,0.26,2,6,3,113.90,100.13,3.61,5.30,4.65,1.98,4.62,4.03,-5.85,5.58e-04,1.41e-06,Moderately soluble,-7.15,2.77e-05,7.02e-08,Poorly soluble,-5.62,9.37e-04,2.38e-06,Moderately soluble,High,No,No,No,No,Yes,No,No,-4.94,0,0,0,0,1,0.55,1,3,2,4.12
Molecule 50,CC/C(=C/Cc1c(OC)c(OC)cc2c1c(=O)c1c(o2)cc2c(c1O)cco2)/C,C23H22O6,394.42,29,17,0.26,5,6,1,113.30,82.04,4.14,5.86,5.31,1.91,5.57,4.56,-6.08,3.27e-04,8.30e-07,Poorly soluble,-7.35,1.74e-05,4.42e-08,Poorly soluble,-7.46,1.37e-05,3.48e-08,Poorly soluble,High,No,No,No,Yes,Yes,No,No,-4.55,0,0,0,0,1,0.55,0,2,2,3.77
Molecule 51,CC(=CCc1c2O[C@@H](CC(=O)c2c(c2c1OC(C)(C)C=C2)O)c1ccccc1)C,C25H26O4,390.47,29,12,0.32,3,4,1,115.37,55.76,4.06,5.95,5.36,3.38,5.67,4.88,-6.12,2.98e-04,7.63e-07,Poorly soluble,-6.90,4.96e-05,1.27e-07,Poorly soluble,-6.63,9.09e-05,2.33e-07,Poorly soluble,High,Yes,No,No,Yes,Yes,No,Yes,-4.46,0,0,0,0,1,0.55,0,1,2,4.49
Molecule 52,CC(=CCc1cc(cc2c1OC(C)(C)CC2)[C@@H]1CC(=O)c2c(O1)cc(cc2)O)C,C25H28O4,392.49,29,12,0.40,3,4,1,115.05,55.76,3.84,5.46,5.39,3.46,6.08,4.85,-5.82,5.92e-04,1.51e-06,Moderately soluble,-6.39,1.61e-04,4.09e-07,Poorly soluble,-7.10,3.12e-05,7.96e-08,Poorly soluble,High,Yes,Yes,No,Yes,Yes,No,Yes,-4.82,0,0,0,0,1,0.55,0,1,2,4.14
Molecule 53,CC(=CCc1c(O)ccc2c1OC[C@@H]1[C@H]2Oc2c1ccc(c2CC=C(C)C)O)C,C25H28O4,392.49,29,12,0.36,4,4,2,116.14,58.92,3.79,6.14,5.40,3.73,5.68,4.95,-6.18,2.57e-04,6.55e-07,Poorly soluble,-7.16,2.72e-05,6.92e-08,Poorly soluble,-6.07,3.31e-04,8.43e-07,Poorly soluble,High,Yes,Yes,No,Yes,Yes,No,Yes,-4.33,0,0,0,0,1,0.55,0,1,2,4.55
Molecule 54,CC(=CCc1cc2c(cc1O)O[C@@H]1[C@H]2COc2c1ccc(c2CC=C(C)C)O)C,C25H28O4,392.49,29,12,0.36,4,4,2,116.14,58.92,4.18,6.14,5.40,3.73,5.68,5.03,-6.18,2.57e-04,6.55e-07,Poorly soluble,-7.16,2.72e-05,6.92e-08,Poorly soluble,-6.07,3.31e-04,8.43e-07,Poorly soluble,High,Yes,No,No,Yes,Yes,No,Yes,-4.33,0,0,0,0,1,0.55,0,1,2,4.55
Molecule 55,OCOc1c2c3cc(OC)c(cc3C[C@H]3c2c(c(c1OCO)OC)CCN3)O,C20H23NO7,389.40,28,12,0.40,6,8,4,104.39,109.64,2.82,1.38,0.77,0.66,2.39,1.60,-3.04,3.51e-01,9.02e-04,Soluble,-3.29,2.02e-01,5.18e-04,Soluble,-4.59,1.00e-02,2.57e-05,Moderately soluble,High,No,Yes,No,No,No,No,Yes,-7.70,0,0,0,0,0,0.55,0,1,1,3.92
Molecule 56,COC(=O)[C@@]([C@H]1Oc2c(C1)c1c(c(c2)O)c(=O)c2c(n1C)cccc2)(CO)O,C20H19NO7,385.37,28,14,0.30,4,7,3,101.22,118.22,2.12,1.79,0.60,0.08,1.81,1.28,-3.46,1.33e-01,3.44e-04,Soluble,-3.89,4.95e-02,1.28e-04,Soluble,-3.65,8.71e-02,2.26e-04,Soluble,High,No,No,No,No,No,No,No,-7.38,0,0,0,0,0,0.55,0,1,1,3.82
Molecule 57,COc1c2[C@@H](C)N[C@@H](Cc2ccc1c1c(C)cc(c2c1cccc2O)OC)C,C24H27NO3,377.48,28,16,0.33,3,4,2,118.31,50.72,3.93,4.99,4.43,3.21,5.27,4.36,-5.55,1.07e-03,2.83e-06,Moderately soluble,-5.79,6.06e-04,1.61e-06,Moderately soluble,-7.79,6.08e-06,1.61e-08,Poorly soluble,High,Yes,Yes,No,Yes,No,Yes,Yes,-5.06,0,0,0,0,0,0.55,0,0,2,3.89
Molecule 58,COc1cccc2c1c(OC)cc(c2c1ccc2c(c1O)[C@@H](C)N[C@@H](C2)C)C,C24H27NO3,377.48,28,16,0.33,3,4,2,118.31,50.72,3.93,4.99,4.43,3.21,5.27,4.37,-5.55,1.07e-03,2.83e-06,Moderately soluble,-5.79,6.06e-04,1.61e-06,Moderately soluble,-7.79,6.08e-06,1.61e-08,Poorly soluble,High,Yes,Yes,No,Yes,No,Yes,Yes,-5.06,0,0,0,0,0,0.55,1,0,2,3.82
Molecule 59,COc1cccc2c1c(OC)cc(c2c1ccc2c(c1O)[C@@H](C)N[C@@H](C2)C)C,C24H27NO3,377.48,28,16,0.33,3,4,2,118.31,50.72,3.93,4.99,4.43,3.21,5.27,4.37,-5.55,1.07e-03,2.83e-06,Moderately soluble,-5.79,6.06e-04,1.61e-06,Moderately soluble,-7.79,6.08e-06,1.61e-08,Poorly soluble,High,Yes,Yes,No,Yes,No,Yes,Yes,-5.06,0,0,0,0,0,0.55,1,0,2,3.82
Molecule 60,OCOc1c(OCO)cc2c3c1c1cc(OC)c(cc1C[C@@H]3N(CC2)C)OC,C21H25NO6,387.43,28,12,0.43,6,7,2,107.26,80.62,3.00,2.20,1.41,1.40,2.82,2.17,-3.55,1.09e-01,2.82e-04,Soluble,-3.53,1.15e-01,2.97e-04,Soluble,-4.84,5.63e-03,1.45e-05,Moderately soluble,High,No,Yes,Yes,No,No,Yes,Yes,-7.10,0,0,0,0,0,0.55,0,1,1,3.93
Molecule 61,O=CN(c1c(ccc2c1cc1OCOc1c2)c1cc(OC)c(cc1OC)O)C,C21H19NO6,381.38,28,16,0.19,5,6,1,105.25,77.46,3.23,3.57,3.55,2.07,3.35,3.15,-4.55,1.08e-02,2.84e-05,Moderately soluble,-4.88,5.00e-03,1.31e-05,Moderately soluble,-5.63,8.88e-04,2.33e-06,Moderately soluble,High,Yes,No,Yes,Yes,Yes,Yes,Yes,-6.09,0,0,0,0,0,0.55,0,1,2,3.14
Molecule 62,COc1cccc2c1c(O)cc(c2c1c(O)cc(c2c1C[C@@H](C)N[C@@H]2C)O)C,C23H25NO4,379.45,28,16,0.30,2,5,4,115.87,81.95,3.59,4.31,3.83,2.44,4.24,3.68,-5.20,2.40e-03,6.33e-06,Moderately soluble,-5.74,6.83e-04,1.80e-06,Moderately soluble,-6.51,1.16e-04,3.06e-07,Poorly soluble,High,No,Yes,No,Yes,No,No,No,-5.55,0,0,0,0,0,0.55,1,0,2,3.82
Molecule 63,COc1cc(CO)cc2c1c(O)ccc2c1ccc2c(c1)[C@](C)(O)N[C@@H](C2)C,C23H25NO4,379.45,28,16,0.30,3,5,4,114.03,81.95,3.19,3.00,2.77,2.58,4.09,3.13,-4.31,1.87e-02,4.93e-05,Moderately soluble,-4.39,1.56e-02,4.12e-05,Moderately soluble,-6.75,6.73e-05,1.77e-07,Poorly soluble,High,No,Yes,No,No,No,Yes,No,-6.48,0,0,0,0,0,0.55,0,0,1,3.73
Molecule 64,OCc1cc(OC)c2c(c1c1ccc3c(c1O)[C@@H](C)N[C@@H](C3)C)cccc2O,C23H25NO4,379.45,28,16,0.30,3,5,4,115.01,81.95,3.40,3.41,3.16,2.17,4.11,3.25,-4.57,1.03e-02,2.72e-05,Moderately soluble,-4.81,5.87e-03,1.55e-05,Moderately soluble,-6.53,1.11e-04,2.94e-07,Poorly soluble,High,No,Yes,No,Yes,No,Yes,No,-6.19,0,0,0,0,0,0.55,1,0,1,3.79
Molecule 65,COc1cc(OC)c2c(c1c1ccc3c(c1O)[C@@H](C)N[C@@H](C3)C)cccc2O,C23H25NO4,379.45,28,16,0.30,3,5,3,115.37,70.95,3.74,4.27,3.83,2.44,4.26,3.71,-5.11,2.96e-03,7.81e-06,Moderately soluble,-5.47,1.28e-03,3.37e-06,Moderately soluble,-6.83,5.61e-05,1.48e-07,Poorly soluble,High,Yes,Yes,No,Yes,No,Yes,Yes,-5.58,0,0,0,0,0,0.55,1,0,2,3.85
Molecule 66,COc1cccc2c1c(OC)cc(c2c1ccc2c(c1O)[C@@H](C)N[C@@H](C2)C)O,C23H25NO4,379.45,28,16,0.30,3,5,3,115.37,70.95,3.67,4.27,3.83,2.44,4.26,3.69,-5.11,2.96e-03,7.81e-06,Moderately soluble,-5.47,1.28e-03,3.37e-06,Moderately soluble,-6.83,5.61e-05,1.48e-07,Poorly soluble,High,Yes,Yes,No,Yes,No,Yes,Yes,-5.58,0,0,0,0,0,0.55,1,0,2,3.78
Molecule 67,CC(=C[C@H](c1c[nH]c2c1ccc(c2)CC=C(C)C)c1ccc2c(c1)[nH]cc2)C,C26H28N2,368.51,28,18,0.23,5,0,2,122.08,31.58,3.77,7.48,7.26,4.83,7.74,6.22,-6.98,3.83e-05,1.04e-07,Poorly soluble,-7.98,3.89e-06,1.06e-08,Poorly soluble,-8.81,5.64e-07,1.53e-09,Poorly soluble,Low,No,Yes,Yes,Yes,Yes,No,Yes,-3.24,1,1,0,1,1,0.55,0,1,2,3.66
Molecule 68,Oc1cc2oc(cc(=O)c2c(c1c1coc(c(c1=O)O)C)O)c1ccccc1,C21H14O7,378.33,28,22,0.05,2,7,3,102.93,121.11,3.00,3.09,3.51,0.03,4.03,2.73,-4.58,9.91e-03,2.62e-05,Moderately soluble,-5.30,1.89e-03,5.00e-06,Moderately soluble,-6.79,6.19e-05,1.64e-07,Poorly soluble,High,No,No,Yes,No,Yes,Yes,Yes,-6.41,0,0,0,0,0,0.55,0,0,1,3.74
Molecule 69,CC(=CCc1ccc2c(c1)OC[C@@H]1[C@H]2Oc2c1ccc(c2CC=C(C)C)O)C,C25H28O3,376.49,28,12,0.36,4,3,1,114.11,38.69,4.03,6.49,5.69,4.31,6.16,5.34,-6.32,1.82e-04,4.83e-07,Poorly soluble,-7.10,3.00e-05,7.97e-08,Poorly soluble,-6.66,8.20e-05,2.18e-07,Poorly soluble,High,Yes,Yes,No,Yes,Yes,Yes,Yes,-3.99,1,1,0,0,1,0.55,0,1,2,4.47
Molecule 70,CC(=CC[C@H]1Cc2cc(ccc2O[C@H]1O)[C@@H]1CC(=O)c2c(O1)cc(cc2)O)C,C23H24O5,380.43,28,12,0.35,3,5,2,106.40,75.99,3.18,4.25,4.00,2.62,4.15,3.64,-5.00,3.85e-03,1.01e-05,Moderately soluble,-5.56,1.05e-03,2.77e-06,Moderately soluble,-5.31,1.86e-03,4.90e-06,Moderately soluble,High,Yes,Yes,No,No,Yes,Yes,Yes,-5.60,0,0,0,0,0,0.55,0,1,2,4.41
Molecule 71,C=CC(c1c2OC(C)(C)C=Cc2c(c2c1oc1c(O)cccc1c2=O)O)(C)C,C23H22O5,378.42,28,14,0.26,2,5,2,111.76,79.90,3.71,5.67,4.90,2.52,5.10,4.38,-6.00,3.82e-04,1.01e-06,Moderately soluble,-7.11,2.92e-05,7.71e-08,Poorly soluble,-6.21,2.33e-04,6.15e-07,Poorly soluble,High,No,No,No,Yes,Yes,No,No,-4.58,0,0,0,0,1,0.55,0,2,2,4.11
Molecule 72,OCC(=C)[C@@H](O[C@H]1C[C@@]23O[C@@]3(O)CCC(=C[C@@H]3[C@H]1C(=C)C(=O)O3)CO[C@H]2O)O,C19H24O9,396.39,28,0,0.63,4,9,4,92.83,138.21,2.04,-1.37,-0.75,-0.30,0.43,0.01,-1.17,2.68e+01,6.75e-02,Very soluble,-1.03,3.68e+01,9.29e-02,Very soluble,-0.33,1.87e+02,4.71e-01,Soluble,Low,No,Yes,No,No,No,No,No,-9.69,0,1,0,1,0,0.55,0,4,1,6.84
Molecule 73,COc1cc2oc(cc(=O)c2c(c1C1=COC(=C)C1=O)OC)c1ccccc1,C22H16O6,376.36,28,16,0.09,4,6,0,104.11,74.97,3.24,3.52,3.93,0.85,4.90,3.29,-4.55,1.06e-02,2.82e-05,Moderately soluble,-4.78,6.27e-03,1.67e-05,Moderately soluble,-7.20,2.37e-05,6.30e-08,Poorly soluble,High,Yes,No,Yes,Yes,Yes,No,Yes,-6.10,0,0,0,0,0,0.56,0,1,2,3.73
Molecule 74,C/C=C\1/OC=C(C1=O)c1c(OC)cc2c(c1O)c(=O)cc(o2)c1ccccc1,C22H16O6,376.36,28,16,0.09,3,6,1,104.45,85.97,3.53,3.98,4.02,0.85,4.58,3.39,-4.91,4.68e-03,1.24e-05,Moderately soluble,-5.49,1.23e-03,3.26e-06,Moderately soluble,-6.53,1.11e-04,2.96e-07,Poorly soluble,High,No,No,Yes,No,Yes,No,Yes,-5.77,0,0,0,0,0,0.56,0,1,2,3.74
Molecule 75,O=c1ccc2c(o1)cc1c(c2OCCC(C2=CC(C(=O)O2)(C)C)(C)C)cco1,C22H22O6,382.41,28,13,0.36,5,6,0,105.00,78.88,3.67,4.36,4.80,2.62,5.00,4.09,-4.97,4.09e-03,1.07e-05,Moderately soluble,-5.73,7.09e-04,1.85e-06,Moderately soluble,-7.06,3.31e-05,8.65e-08,Poorly soluble,High,No,No,Yes,Yes,Yes,No,Yes,-5.54,0,0,0,0,0,0.55,0,1,2,4.01
Molecule 76,COc1c2C=CC(Oc2cc2c1c(=O)c(co2)c1ccc(cc1O)OC)(C)C,C22H20O6,380.39,28,16,0.23,3,6,1,107.05,78.13,3.29,3.69,4.26,1.53,4.49,3.45,-4.75,6.80e-03,1.79e-05,Moderately soluble,-5.02,3.62e-03,9.53e-06,Moderately soluble,-6.61,9.29e-05,2.44e-07,Poorly soluble,High,No,No,No,Yes,Yes,No,Yes,-6.00,0,0,0,0,0,0.55,0,0,2,3.95
Molecule 77,COc1c2C=CC(Oc2cc2c1c(=O)c(co2)c1ccc(cc1O)OC)(C)C,C22H20O6,380.39,28,16,0.23,3,6,1,107.05,78.13,3.29,3.69,4.26,1.53,4.49,3.45,-4.75,6.80e-03,1.79e-05,Moderately soluble,-5.02,3.62e-03,9.53e-06,Moderately soluble,-6.61,9.29e-05,2.44e-07,Poorly soluble,High,No,No,No,Yes,Yes,No,Yes,-6.00,0,0,0,0,0,0.55,0,0,2,3.95
Molecule 78,OCC(=C)[C@@H](O[C@H]1C[C@@]23O[C@@]3(O)CCC(=C[C@@H]3[C@H]1C(=C)C(=O)O3)CO[C@H]2O)C,C20H26O8,394.42,28,0,0.65,4,8,3,96.48,117.98,2.04,-0.42,0.32,0.30,1.43,0.73,-1.76,6.91e+00,1.75e-02,Very soluble,-1.59,1.01e+01,2.55e-02,Very soluble,-1.29,2.02e+01,5.13e-02,Soluble,High,No,Yes,No,No,No,No,No,-9.00,0,0,0,0,0,0.55,0,3,1,6.88
Molecule 79,CC(CNC(=O)/C=C/C=C/CCCCCC/C=C/c1ccc2c(c1)OCO2)C,C24H33NO3,383.52,28,6,0.46,13,3,1,116.75,47.56,5.13,6.81,5.54,3.87,6.55,5.58,-5.81,5.96e-04,1.55e-06,Moderately soluble,-7.62,9.27e-06,2.42e-08,Poorly soluble,-6.01,3.73e-04,9.73e-07,Poorly soluble,High,Yes,No,No,No,Yes,Yes,Yes,-3.80,0,0,1,0,1,0.55,0,2,3,3.80
Molecule 80,CO/C(=C\C(=O)c1ccccc1)/c1c(OC)cc2c(c1OC)C=CC(O2)(C)C,C23H24O5,380.43,28,12,0.26,6,5,0,109.25,53.99,3.93,4.32,4.65,2.13,4.80,3.97,-4.84,5.48e-03,1.44e-05,Moderately soluble,-5.17,2.58e-03,6.79e-06,Moderately soluble,-6.14,2.76e-04,7.24e-07,Poorly soluble,High,Yes,No,No,Yes,Yes,Yes,Yes,-5.55,0,0,0,0,0,0.56,0,2,2,3.89
Molecule 81,CC(=CCOc1cc(O)c2c(c1)cc1c(c2O)C(=O)C[C@@](C1)(C)OC(=O)C)C,C22H24O6,384.42,28,10,0.36,5,6,2,106.84,93.06,3.90,4.37,4.05,1.96,4.36,3.73,-4.91,4.72e-03,1.23e-05,Moderately soluble,-6.04,3.50e-04,9.12e-07,Poorly soluble,-5.32,1.85e-03,4.81e-06,Moderately soluble,High,No,No,No,Yes,Yes,No,Yes,-5.54,0,0,0,0,0,0.55,0,1,2,3.83
Molecule 82,CC(=CCOc1cc(O)c2c(c1)cc1c(c2O)C(=O)C[C@@](C1)(C)OC(=O)C)C,C22H24O6,384.42,28,10,0.36,5,6,2,106.84,93.06,3.90,4.37,4.05,1.96,4.36,3.73,-4.91,4.72e-03,1.23e-05,Moderately soluble,-6.04,3.50e-04,9.12e-07,Poorly soluble,-5.32,1.85e-03,4.81e-06,Moderately soluble,High,No,No,No,Yes,Yes,No,Yes,-5.54,0,0,0,0,0,0.55,0,1,2,3.83
Molecule 83,CC(=O)O[C@H]1C2=C(C(=O)C(=C(C2=O)C(C)C)O)[C@@]2([C@H]([C@@H]1O)C(C)(C)CCC2)C,C22H30O6,390.47,28,0,0.68,3,6,2,104.48,100.90,3.15,3.36,3.04,1.43,3.22,2.84,-4.18,2.58e-02,6.61e-05,Moderately soluble,-5.16,2.72e-03,6.97e-06,Moderately soluble,-3.61,9.58e-02,2.45e-04,Soluble,High,No,Yes,No,No,Yes,No,Yes,-6.30,0,0,0,0,0,0.56,1,1,1,5.23
Molecule 84,CC(=CCc1cc(cc(c1O)C=C(C)C)[C@@H]1CC(=O)c2c(O1)cc(cc2)O)C,C24H26O4,378.46,28,12,0.29,4,4,2,112.97,66.76,3.75,5.75,5.30,3.17,5.61,4.72,-5.86,5.20e-04,1.37e-06,Moderately soluble,-6.92,4.55e-05,1.20e-07,Poorly soluble,-6.07,3.25e-04,8.59e-07,Poorly soluble,High,No,No,No,Yes,Yes,No,Yes,-4.53,0,0,0,0,1,0.55,0,1,2,4.14
Molecule 85,O=C[C@H](/C=C(/c1cc(cc(c1O)O)[C@H]1CC(=O)C2=C(O1)C[C@H](C=C2O)O)\O)C,C20H20O8,388.37,28,6,0.30,4,8,5,99.04,144.52,2.11,1.28,2.00,-1.12,1.43,1.14,-2.95,4.37e-01,1.12e-03,Soluble,-3.91,4.73e-02,1.22e-04,Soluble,-1.32,1.88e+01,4.83e-02,Soluble,Low,No,Yes,No,No,No,No,No,-7.76,0,0,1,1,0,0.56,1,3,1,5.10
Molecule 86,OCCC(=O)O[C@H]1[C@@H]2C(=C)C(=O)O[C@H]2[C@H]2[C@]([C@H]1O)(C=C)[C@H](CC)OC(=O)C2=C,C20H24O8,392.40,28,0,0.55,6,8,2,96.41,119.36,2.42,1.15,0.43,0.94,1.93,1.38,-2.60,9.83e-01,2.50e-03,Soluble,-3.25,2.20e-01,5.61e-04,Soluble,-2.08,3.26e+00,8.30e-03,Soluble,High,No,Yes,No,No,No,No,No,-7.88,0,0,0,0,0,0.55,0,3,1,5.09
Molecule 87,COc1cc(ccc1O)Oc1oc2c(C)c(OC)c(c(c2c(=O)c1OC)O)C,C20H20O8,388.37,28,16,0.25,5,8,2,102.45,107.59,3.66,3.98,3.64,0.79,3.72,3.16,-4.85,5.51e-03,1.42e-05,Moderately soluble,-5.94,4.45e-04,1.15e-06,Moderately soluble,-5.81,6.03e-04,1.55e-06,Moderately soluble,High,No,No,No,No,Yes,No,No,-5.84,0,0,0,0,0,0.55,0,0,2,3.90
Molecule 88,C=C[C@H]1COC(=O)[C@H](C=O)C[C@H]([C@H]([C@@H](C1)OC(=O)C(=C)CO)[C@@H](C(=O)O)C)O,C19H26O9,398.40,28,0,0.58,8,9,3,97.25,147.43,1.62,0.55,0.10,-0.06,1.02,0.64,-2.13,2.96e+00,7.44e-03,Soluble,-3.22,2.41e-01,6.05e-04,Soluble,-0.38,1.66e+02,4.18e-01,Soluble,Low,No,Yes,No,No,No,No,No,-8.34,0,0,1,1,0,0.56,0,5,2,5.29
Molecule 89,C=C[C@H]1COC(=O)[C@H](C=O)C[C@H]([C@H]([C@@H](C1)OC(=O)C(=C)CO)[C@@H](C(=O)O)C)O,C19H26O9,398.40,28,0,0.58,8,9,3,97.25,147.43,1.62,0.55,0.10,-0.06,1.02,0.64,-2.13,2.96e+00,7.44e-03,Soluble,-3.22,2.41e-01,6.05e-04,Soluble,-0.38,1.66e+02,4.18e-01,Soluble,Low,No,Yes,No,No,No,No,No,-8.34,0,0,1,1,0,0.56,0,5,2,5.29
Molecule 90,CCCC[C@@H](COC(=O)c1ccccc1C(=O)OC[C@H](CCCC)CC)CC,C24H38O4,390.56,28,6,0.67,16,4,0,116.30,52.60,3.88,7.45,6.43,5.24,6.98,6.00,-6.06,3.42e-04,8.76e-07,Poorly soluble,-8.39,1.60e-06,4.11e-09,Poorly soluble,-7.40,1.56e-05,3.99e-08,Poorly soluble,High,No,Yes,No,No,Yes,No,Yes,-3.39,1,1,1,1,2,0.55,0,1,3,4.12
Molecule 91,C/C=C\1/CN2CC[C@@]34[C@@]5([C@@H]1C[C@H]2[C@]3(OC5)[C@@H](C)c1c(C4)cc(cc1)O)C(=O)C,C24H29NO3,379.49,28,6,0.62,1,4,1,111.88,49.77,2.99,2.02,3.06,2.95,3.92,2.99,-3.56,1.05e-01,2.77e-04,Soluble,-2.69,7.70e-01,2.03e-03,Soluble,-4.84,5.42e-03,1.43e-05,Moderately soluble,High,Yes,No,No,No,No,Yes,No,-7.18,0,0,0,0,0,0.55,0,1,1,5.60
Molecule 92,COc1cc2c(=O)oc3c(c2c2c1c(O)ccc2)ccc1c3[C@@H](C)N[C@@H](C1)C,C23H21NO4,375.42,28,18,0.26,1,5,2,114.97,71.70,3.50,4.14,3.70,3.03,4.61,3.80,-5.19,2.45e-03,6.52e-06,Moderately soluble,-5.35,1.67e-03,4.44e-06,Moderately soluble,-7.65,8.37e-06,2.23e-08,Poorly soluble,High,Yes,Yes,No,Yes,Yes,No,No,-5.65,0,0,0,0,0,0.55,0,2,2,4.22
Molecule 93,COc1ccc2c3c1c(O)ccc3c1ccc3c(c1OC2=O)[C@@H](C)N[C@@H](C3)C,C23H21NO4,375.42,28,16,0.26,1,5,2,111.81,67.79,3.51,4.14,3.64,3.18,4.39,3.77,-5.13,2.77e-03,7.37e-06,Moderately soluble,-5.27,2.01e-03,5.36e-06,Moderately soluble,-7.18,2.47e-05,6.59e-08,Poorly soluble,High,Yes,Yes,No,Yes,Yes,Yes,Yes,-5.65,0,0,0,0,0,0.55,0,1,2,4.24
Molecule 94,COc1cc2c(c3ccc4c(c3)OCO4)c3C(=O)OCc3c(c2cc1OC)O,C21H16O7,380.35,28,16,0.19,3,7,1,99.78,83.45,2.84,3.62,3.48,1.81,4.16,3.18,-4.70,7.53e-03,1.98e-05,Moderately soluble,-5.06,3.31e-03,8.71e-06,Moderately soluble,-6.14,2.74e-04,7.21e-07,Poorly soluble,High,No,Yes,Yes,Yes,Yes,Yes,Yes,-6.05,0,0,0,0,0,0.55,0,0,2,3.24
Molecule 95,O=C1c2c(O)cc3c(c2OC[C@@H]1c1cc2OCOc2cc1O)C=CC(O3)(C)C,C21H18O7,382.36,28,12,0.29,1,7,2,99.73,94.45,3.24,3.65,3.26,1.37,3.29,2.96,-4.76,6.62e-03,1.73e-05,Moderately soluble,-5.32,1.82e-03,4.76e-06,Moderately soluble,-4.55,1.08e-02,2.83e-05,Moderately soluble,High,No,No,Yes,Yes,Yes,Yes,Yes,-6.04,0,0,0,0,0,0.55,0,0,2,4.24
Molecule 96,OC1=C2C(=C3C(=CC(C)(C)OC3)C1)OC[C@@H](C2=O)c1cc2OCOc2cc1O,C21H20O7,384.38,28,6,0.38,1,7,2,98.20,94.45,3.16,1.54,3.01,0.65,2.89,2.25,-3.29,1.99e-01,5.18e-04,Soluble,-3.13,2.83e-01,7.37e-04,Soluble,-3.86,5.36e-02,1.39e-04,Soluble,High,No,Yes,No,No,Yes,No,Yes,-7.55,0,0,0,0,0,0.56,0,0,1,4.64
Molecule 97,CC(C/C=C/C[C@H]1CC[C@@H]2[C@]1(C)CC[C@H]1[C@@]32CC[C@@]2([C@@H]1CC[C@@H](C2)O)OO3)C,C25H40O3,388.58,28,0,0.92,4,3,1,114.39,38.69,4.36,5.97,5.82,4.94,5.07,5.23,-5.75,6.97e-04,1.79e-06,Moderately soluble,-6.56,1.07e-04,2.76e-07,Poorly soluble,-4.35,1.74e-02,4.49e-05,Moderately soluble,High,Yes,No,No,No,No,No,No,-4.43,1,1,0,0,1,0.55,0,2,2,7.06
Molecule 98,C=CC[C@]12C[C@@]3(OCOC3=CC1=O)C[C@@H]([C@@H]2c1cc(OC)c2c(c1)OCO2)C,C22H24O6,384.42,28,6,0.50,4,6,0,101.31,63.22,3.60,3.12,3.71,2.15,4.25,3.37,-4.08,3.17e-02,8.25e-05,Moderately soluble,-4.12,2.94e-02,7.65e-05,Moderately soluble,-4.86,5.34e-03,1.39e-05,Moderately soluble,High,Yes,No,No,Yes,Yes,Yes,Yes,-6.43,0,0,0,0,0,0.56,0,1,1,5.70
Molecule 99,CC(=CC[C@@H]1Cc2cc3c(cc2C[C@@H]1O)OC[C@H]1[C@@H]3Oc2c1ccc(c2)O)C,C24H26O4,378.46,28,12,0.42,2,4,2,108.83,58.92,3.71,4.53,4.11,3.33,4.46,4.03,-5.23,2.25e-03,5.95e-06,Moderately soluble,-5.49,1.23e-03,3.24e-06,Moderately soluble,-5.46,1.30e-03,3.44e-06,Moderately soluble,High,Yes,Yes,No,No,Yes,Yes,No,-5.39,0,0,0,0,0,0.55,0,1,2,4.76
Molecule 100,COc1cc2C[C@H]3COC(=O)[C@@H]3[C@@H](c2cc1OC)c1ccc2c(c1)OCO2,C21H20O6,368.38,27,12,0.38,3,6,0,96.19,63.22,3.24,3.32,2.91,2.53,3.74,3.15,-4.35,1.66e-02,4.50e-05,Moderately soluble,-4.32,1.75e-02,4.74e-05,Moderately soluble,-5.47,1.25e-03,3.40e-06,Moderately soluble,High,Yes,No,No,Yes,Yes,Yes,Yes,-6.19,0,0,0,0,0,0.55,0,0,1,4.12
